Scanning method <java.io.ObjectInputStream: void registerObjectRead(java.lang.Object,int,boolean)>

All seen event types: NewArrayRecord, BinaryOperationRecord, StoreArrayRecord, SimpleAssignmentRecord, MethodReturnRecord, MethodCallRecord, ArrayLengthRecord, MethodStartRecord, LoadInstanceRecord, MethodEndRecord, IfRecord, StoreInstanceRecord, 
Ignored event types: IfRecord, 

JSON Encoded Analysis Data (for visualization):{"heapEdges":[{"step":0,"from":"1093539856","to":"1093499576","type":"load","field":"<java.io.ObjectInputStream: java.util.ArrayList objectsRead>"},{"step":1,"from":"1093499576","to":"1093499576.<java.util.ArrayList: int size>","type":"load","field":"<java.util.ArrayList: int size>"},{"step":2,"from":"1093539856","to":"1093499576","type":"load","field":"<java.io.ObjectInputStream: java.util.ArrayList objectsRead>"},{"step":3,"from":"1093499576","to":"1083994088","type":"load","field":"<java.util.ArrayList: java.lang.Object[] array>"},{"step":4,"from":"1093499576","to":"1093499576.<java.util.ArrayList: int size>","type":"load","field":"<java.util.ArrayList: int size>"},{"step":5,"from":"1083994088","to":"1093601832","type":"model"},{"step":6,"from":"1093499576","to":"1093601832","type":"create","field":"<java.util.ArrayList: java.lang.Object[] array>"},{"step":7,"from":"1093601504","to":"1093601832","type":"store","field":"arrayIdx_int:0"},{"step":8,"from":"sdaReg9","to":"1093499576","type":"store","field":"<java.util.ArrayList: int size>"},{"step":9,"from":"1093499576","to":"1093499576.<java.util.AbstractList: int modCount>","type":"load","field":"<java.util.AbstractList: int modCount>"},{"step":10,"from":"sdaReg10","to":"1093499576","type":"store","field":"<java.util.AbstractList: int modCount>"}],"parameters":[{"id":"1093539856","name":"this","klass":"java.io.ObjectInputStream"},{"id":"1093601504","name":"arg#1","klass":"java.lang.Object"},{"id":"sdaReg0","name":"arg#2","klass":"int"},{"id":"sdaReg1","name":"arg#3","klass":"boolean"}],"returns":[{"id":null,"name":"return","klass":null}],"colors":{"heapLocToColor":{"1093499576.<java.util.ArrayList: int size>":[0],"sdaReg8":[0],"sdaReg9":[0],"sdaReg4":[0],"sdaReg5":[1],"1093539856":[0],"1093601832":[4],"1093601504":[1],"1083994088":[0],"sdaReg10":[0],"1093499576":[0],"1093499576.<java.util.AbstractList: int modCount>":[0],"sdaReg3":[0],"1093539856.<java.io.ObjectInputStream: java.util.ArrayList objectsRead>":[0],"sdaReg2":[2],"sdaReg1":[3],"sdaReg0":[2]},"colorToColor":{"0":[0, 4],"1":[4],"4":[0]},"colorToLabel":{"0":"this","1":"arg#1","2":"arg#2","3":"arg#3","5":"return"}}}

Generated Model
	arg#1->this

