Scanning method <java.util.HashMap: java.util.Iterator newEntryIterator()>

All seen event types: BinaryOperationRecord, SimpleAssignmentRecord, MethodReturnRecord, MethodCallRecord, ArrayLengthRecord, LoadInstanceRecord, MethodStartRecord, LoadArrayRecord, MethodEndRecord, IfRecord, StoreInstanceRecord, NewObjectRecord, 
Ignored event types: IfRecord, 

JSON Encoded Analysis Data (for visualization):{"heapEdges":[{"step":0,"from":"1093277256","to":"1093583952","type":"store","field":"<java.util.HashMap$EntryIterator: java.util.HashMap this$0>"},{"step":1,"from":"1093277256","to":"1093583952","type":"store","field":"<java.util.HashMap$HashIterator: java.util.HashMap this$0>"},{"step":2,"from":"1093277256","to":"1093277256.<java.util.HashMap: int modCount>","type":"load","field":"<java.util.HashMap: int modCount>"},{"step":3,"from":"1093277256.<java.util.HashMap: int modCount>","to":"1093583952","type":"store","field":"<java.util.HashMap$HashIterator: int expectedModCount>"},{"step":4,"from":"1093277256","to":"1093229216","type":"load","field":"<java.util.HashMap: java.util.HashMap$HashMapEntry[] table>"},{"step":5,"from":"1093583952","to":"1093583952.<java.util.HashMap$HashIterator: int nextIndex>","type":"load","field":"<java.util.HashMap$HashIterator: int nextIndex>"},{"step":6,"from":"1093583952","to":"1093583952.<java.util.HashMap$HashIterator: int nextIndex>","type":"load","field":"<java.util.HashMap$HashIterator: int nextIndex>"},{"step":7,"from":"sdaReg9","to":"1093583952","type":"store","field":"<java.util.HashMap$HashIterator: int nextIndex>"},{"step":8,"from":"1093229216","to":"1093229272","type":"load","field":"arrayIdx_int:0"},{"step":9,"from":"1093229272","to":"1093583952","type":"store","field":"<java.util.HashMap$HashIterator: java.util.HashMap$HashMapEntry nextEntry>"}],"parameters":[{"id":"1093277256","name":"this","klass":"java.util.HashMap"}],"returns":[{"id":"1093583952","name":"return","klass":"java.util.Iterator"}],"colors":{"heapLocToColor":{"1093229216":[0],"1093229272":[0],"sdaReg9":[1],"sdaReg6":[1],"1093277256":[0],"sdaReg4":[1],"sdaReg5":[0],"1093583952.<java.util.HashMap$HashIterator: int nextIndex>":[1],"sdaReg11":[1],"sdaReg12":[1],"sdaReg10":[1],"1093583952":[1],"sdaReg3":[0],"sdaReg2":[1],"sdaReg1":[0],"1093277256.<java.util.HashMap: int modCount>":[0],"sdaReg0":[1]},"colorToColor":{"0":[1],"1":[1, 2]},"colorToLabel":{"0":"this","2":"return"}}}

Generated Model
	this->return

