Scanning method <java.io.PrintStream: void <init>(java.lang.String)>

All seen event types: LoadStaticRecord, BinaryOperationRecord, MethodReturnRecord, MethodCallRecord, LoadInstanceRecord, MethodStartRecord, MethodEndRecord, IfRecord, StoreInstanceRecord, NewObjectRecord, 
Ignored event types: IfRecord, 

JSON Encoded Analysis Data (for visualization):{"heapEdges":[{"step":0,"from":"1093673880","to":"sdaReg0","type":"model"},{"step":1,"from":"sdaReg0","to":"1093673880","type":"model"},{"step":2,"from":"sdaReg0","to":"1093673880","type":"model"},{"step":3,"from":"1093674016","to":"1083966016","type":"create","field":"<java.io.FileOutputStream: dalvik.system.CloseGuard guard>"},{"step":4,"from":"static.<libcore.io.OsConstants: int O_WRONLY>","to":"static.<libcore.io.OsConstants: int O_WRONLY>","type":"load","field":"<libcore.io.OsConstants: int O_WRONLY>"},{"step":5,"from":"static.<libcore.io.OsConstants: int O_CREAT>","to":"static.<libcore.io.OsConstants: int O_CREAT>","type":"load","field":"<libcore.io.OsConstants: int O_CREAT>"},{"step":6,"from":"static.<libcore.io.OsConstants: int O_TRUNC>","to":"static.<libcore.io.OsConstants: int O_TRUNC>","type":"load","field":"<libcore.io.OsConstants: int O_TRUNC>"},{"step":7,"from":"sdaReg12","to":"1093674016","type":"store","field":"<java.io.FileOutputStream: int mode>"},{"step":8,"from":"1093673880","to":"sdaReg13","type":"model"},{"step":9,"from":"sdaReg13","to":"1093674184","type":"model"},{"step":10,"from":"1093674016","to":"1093674184","type":"create","field":"<java.io.FileOutputStream: java.io.FileDescriptor fd>"},{"step":11,"from":"1093674016","to":"sdaReg15","type":"create","field":"<java.io.FileOutputStream: boolean shouldClose>"},{"step":12,"from":"1093674016","to":"1093665504","type":"model"},{"step":13,"from":"1093674016","to":"1093665504","type":"model"}],"parameters":[{"id":"1093665504","name":"this","klass":"java.io.PrintStream"},{"id":"sdaReg0","name":"arg#1","klass":"string"}],"returns":[{"id":"1093665504","name":"return","klass":"java.io.PrintStream"}],"colors":{"heapLocToColor":{"1093674184":[9],"1093674016":[3],"1093673880":[2],"sdaReg13":[2, 8],"sdaReg14":[9],"sdaReg11":[5, 6],"sdaReg12":[5, 6, 7],"sdaReg10":[4],"sdaReg19":[0],"sdaReg17":[3],"1083966016":[4],"sdaReg18":[0],"sdaReg16":[3],"sdaReg9":[3],"sdaReg6":[3],"static.<libcore.io.OsConstants: int O_WRONLY>":[5],"sdaReg7":[2],"sdaReg4":[3],"sdaReg5":[2],"sdaReg3":[2],"sdaReg2":[0],"sdaReg1":[2],"sdaReg0":[1, 2],"static.<libcore.io.OsConstants: int O_TRUNC>":[7],"1093665504":[0],"static.<libcore.io.OsConstants: int O_CREAT>":[6]},"colorToColor":{"0":[10],"1":[2],"2":[2, 9],"3":[0],"4":[3],"5":[3],"6":[3],"7":[3],"8":[9],"9":[3]},"colorToLabel":{"0":"this","1":"arg#1","5":"<libcore.io.OsConstants: int O_WRONLY>","6":"<libcore.io.OsConstants: int O_CREAT>","7":"<libcore.io.OsConstants: int O_TRUNC>","10":"return"}}}

Generated Model
	this->return
	arg#1->this
	arg#1->return

