Scanning method <java.util.HashMap$EntryIterator: java.util.Map$Entry next()>

All seen event types: BinaryOperationRecord, MethodReturnRecord, MethodCallRecord, ArrayLengthRecord, LoadInstanceRecord, MethodStartRecord, LoadArrayRecord, MethodEndRecord, IfRecord, StoreInstanceRecord, 
Ignored event types: IfRecord, 

JSON Encoded Analysis Data (for visualization):{"heapEdges":[{"step":0,"from":"1093317656","to":"1093294040","type":"load","field":"<java.util.HashMap$HashIterator: java.util.HashMap this$0>"},{"step":1,"from":"1093294040","to":"1093294040.<java.util.HashMap: int modCount>","type":"load","field":"<java.util.HashMap: int modCount>"},{"step":2,"from":"1093317656","to":"1093317656.<java.util.HashMap$HashIterator: int expectedModCount>","type":"load","field":"<java.util.HashMap$HashIterator: int expectedModCount>"},{"step":3,"from":"1093317656","to":"1093294176","type":"load","field":"<java.util.HashMap$HashIterator: java.util.HashMap$HashMapEntry nextEntry>"},{"step":4,"from":"1093317656","to":"1093294176","type":"load","field":"<java.util.HashMap$HashIterator: java.util.HashMap$HashMapEntry nextEntry>"},{"step":5,"from":"1093317656","to":"1093294040","type":"load","field":"<java.util.HashMap$HashIterator: java.util.HashMap this$0>"},{"step":6,"from":"1093294040","to":"1093296000","type":"load","field":"<java.util.HashMap: java.util.HashMap$HashMapEntry[] table>"},{"step":7,"from":"1093317656","to":"1093317656.<java.util.HashMap$HashIterator: int nextIndex>","type":"load","field":"<java.util.HashMap$HashIterator: int nextIndex>"},{"step":8,"from":"1093317656","to":"1093317656.<java.util.HashMap$HashIterator: int nextIndex>","type":"load","field":"<java.util.HashMap$HashIterator: int nextIndex>"},{"step":9,"from":"sdaReg2","to":"1093317656","type":"store","field":"<java.util.HashMap$HashIterator: int nextIndex>"},{"step":10,"from":"1093296000","to":"1093295936","type":"load","field":"arrayIdx_int:1"},{"step":11,"from":"1093295936","to":"1093317656","type":"store","field":"<java.util.HashMap$HashIterator: java.util.HashMap$HashMapEntry nextEntry>"},{"step":12,"from":"1093294176","to":"1093317656","type":"store","field":"<java.util.HashMap$HashIterator: java.util.HashMap$HashMapEntry lastEntryReturned>"}],"parameters":[{"id":"1093317656","name":"this","klass":"java.util.HashMap$EntryIterator"}],"returns":[{"id":"1093294176","name":"return","klass":"java.util.Map$Entry"}],"colors":{"heapLocToColor":{"1093294040":[0],"1093317656.<java.util.HashMap$HashIterator: int expectedModCount>":[0],"1093317656.<java.util.HashMap$HashIterator: int nextIndex>":[0],"1093294176":[0],"1093317656.<java.util.HashMap$HashIterator: java.util.HashMap$HashMapEntry nextEntry>":[0],"1093317656.<java.util.HashMap$HashIterator: java.util.HashMap this$0>":[0],"1093295936":[0],"1093296000":[0],"sdaReg3":[0],"1093294040.<java.util.HashMap: int modCount>":[0],"sdaReg2":[0],"sdaReg0":[0],"1093317656":[0]},"colorToColor":{"0":[0, 1]},"colorToLabel":{"0":"this","1":"return"}}}

Generated Model
	this->return

