Scanning method <java.util.AbstractList: void clear()>

All seen event types: BinaryOperationRecord, StoreArrayRecord, SimpleAssignmentRecord, MethodReturnRecord, MethodCallRecord, ArrayLengthRecord, LoadInstanceRecord, MethodStartRecord, MethodEndRecord, IfRecord, StoreInstanceRecord, 
Ignored event types: IfRecord, 

JSON Encoded Analysis Data (for visualization):{"heapEdges":[{"step":0,"from":"1093351928","to":"1093351928.<java.util.AbstractList: int modCount>","type":"load","field":"<java.util.AbstractList: int modCount>"},{"step":1,"from":"1093351928","to":"1093519824","type":"load","field":"<java.util.AbstractList$SubAbstractList: java.util.AbstractList fullList>"},{"step":2,"from":"1093519824","to":"1093519824.<java.util.AbstractList: int modCount>","type":"load","field":"<java.util.AbstractList: int modCount>"},{"step":3,"from":"1093351928","to":"1093351928.<java.util.AbstractList$SubAbstractList: int size>","type":"load","field":"<java.util.AbstractList$SubAbstractList: int size>"},{"step":4,"from":"1093351928","to":"1093351928.<java.util.AbstractList: int modCount>","type":"load","field":"<java.util.AbstractList: int modCount>"},{"step":5,"from":"1093351928","to":"1093519824","type":"load","field":"<java.util.AbstractList$SubAbstractList: java.util.AbstractList fullList>"},{"step":6,"from":"1093519824","to":"1093519824.<java.util.AbstractList: int modCount>","type":"load","field":"<java.util.AbstractList: int modCount>"},{"step":7,"from":"1093351928","to":"1093519824","type":"load","field":"<java.util.AbstractList$SubAbstractList: java.util.AbstractList fullList>"},{"step":8,"from":"1093351928","to":"1093351928.<java.util.AbstractList$SubAbstractList: int offset>","type":"load","field":"<java.util.AbstractList$SubAbstractList: int offset>"},{"step":9,"from":"1093351928","to":"1093351928.<java.util.AbstractList$SubAbstractList: int offset>","type":"load","field":"<java.util.AbstractList$SubAbstractList: int offset>"},{"step":10,"from":"1093519824","to":"1094129696","type":"load","field":"<java.util.ArrayList: java.lang.Object[] array>"},{"step":11,"from":"1093519824","to":"1093519824.<java.util.ArrayList: int size>","type":"load","field":"<java.util.ArrayList: int size>"},{"step":12,"from":"sdaReg12","to":"1093519824","type":"store","field":"<java.util.ArrayList: int size>"},{"step":13,"from":"1093519824","to":"1093519824.<java.util.AbstractList: int modCount>","type":"load","field":"<java.util.AbstractList: int modCount>"},{"step":14,"from":"sdaReg13","to":"1093519824","type":"store","field":"<java.util.AbstractList: int modCount>"},{"step":15,"from":"1093351928","to":"1093351928.<java.util.AbstractList$SubAbstractList: int size>","type":"load","field":"<java.util.AbstractList$SubAbstractList: int size>"},{"step":16,"from":"sdaReg15","to":"1093351928","type":"store","field":"<java.util.AbstractList$SubAbstractList: int size>"},{"step":17,"from":"1093351928","to":"1093519824","type":"load","field":"<java.util.AbstractList$SubAbstractList: java.util.AbstractList fullList>"},{"step":18,"from":"sdaReg16","to":"1093351928","type":"store","field":"<java.util.AbstractList: int modCount>"}],"parameters":[{"id":"1093351928","name":"this","klass":"java.util.AbstractList"}],"returns":[{"id":null,"name":"return","klass":null}],"colors":{"heapLocToColor":{"sdaReg8":[0],"sdaReg9":[0],"sdaReg6":[0],"sdaReg7":[0],"sdaReg4":[0],"sdaReg5":[0],"1094129696":[0],"1093519824.<java.util.ArrayList: int size>":[0],"1093351928":[0],"1093351928.<java.util.AbstractList: int modCount>":[0],"sdaReg13":[0],"sdaReg14":[0],"sdaReg11":[0],"sdaReg12":[0],"1093351928.<java.util.AbstractList$SubAbstractList: int offset>":[0],"1093519824":[0],"sdaReg3":[0],"1093351928.<java.util.AbstractList$SubAbstractList: int size>":[0],"1093351928.<java.util.AbstractList$SubAbstractList: java.util.AbstractList fullList>":[0],"sdaReg1":[0],"sdaReg0":[0],"1093519824.<java.util.AbstractList: int modCount>":[0],"sdaReg15":[0]},"colorToColor":{"0":[0]},"colorToLabel":{"0":"this","1":"return"}}}

Generated Model

