Scanning method <android.os.Bundle: void writeToParcel(android.os.Parcel,int)>

All seen event types: StoreArrayRecord, SimpleAssignmentRecord, LoadInstanceRecord, MethodStartRecord, IfRecord, InstanceOfRecord, NewObjectRecord, StoreInstanceRecord, LoadStaticRecord, NewArrayRecord, BinaryOperationRecord, MethodCallRecord, MethodReturnRecord, ArrayLengthRecord, CastRecord, LoadArrayRecord, MethodEndRecord, 
Ignored event types: IfRecord, 

JSON Encoded Analysis Data (for visualization):{"heapEdges":[{"step":0,"from":"1093499008","to":"1093499008.<android.os.Bundle: boolean mAllowFds>","type":"load","field":"<android.os.Bundle: boolean mAllowFds>"},{"step":1,"from":"1093468776","to":"1093499008.<android.os.Bundle: boolean mAllowFds>","type":"model"},{"step":2,"from":"1093468776","to":"sdaReg1","type":"model"},{"step":3,"from":"1093499008.<android.os.Bundle: boolean mAllowFds>","to":"1093468776","type":"model"},{"step":4,"from":"1093499008.<android.os.Bundle: boolean mAllowFds>","to":"sdaReg1","type":"model"},{"step":5,"from":"1093468776","to":"sdaReg2","type":"model"},{"step":6,"from":"1093499008","to":"1093682856","type":"load","field":"<android.os.Bundle: java.util.Map mMap>"},{"step":7,"from":"1093682856","to":"1093872936","type":"store","field":"<java.util.HashMap$EntrySet: java.util.HashMap this$0>"},{"step":8,"from":"1093682856","to":"1093872936","type":"create","field":"<java.util.HashMap: java.util.Set entrySet>"},{"step":9,"from":"1093682856","to":"1093682856.<java.util.HashMap: int size>","type":"load","field":"<java.util.HashMap: int size>"},{"step":10,"from":"1093468776","to":"1093682856.<java.util.HashMap: int size>","type":"model"},{"step":11,"from":"1093682856.<java.util.HashMap: int size>","to":"1093468776","type":"model"},{"step":12,"from":"1093682856","to":"1093491184","type":"store","field":"<java.util.HashMap$EntryIterator: java.util.HashMap this$0>"},{"step":13,"from":"1093682856","to":"1093491184","type":"store","field":"<java.util.HashMap$HashIterator: java.util.HashMap this$0>"},{"step":14,"from":"1093682856","to":"1093682856.<java.util.HashMap: int modCount>","type":"load","field":"<java.util.HashMap: int modCount>"},{"step":15,"from":"1093682856.<java.util.HashMap: int modCount>","to":"1093491184","type":"store","field":"<java.util.HashMap$HashIterator: int expectedModCount>"},{"step":16,"from":"1093682856","to":"1094081768","type":"load","field":"<java.util.HashMap: java.util.HashMap$HashMapEntry[] table>"},{"step":17,"from":"1093491184","to":"1093491184.<java.util.HashMap$HashIterator: int nextIndex>","type":"load","field":"<java.util.HashMap$HashIterator: int nextIndex>"},{"step":18,"from":"1093491184","to":"1093491184.<java.util.HashMap$HashIterator: int nextIndex>","type":"load","field":"<java.util.HashMap$HashIterator: int nextIndex>"},{"step":19,"from":"sdaReg31","to":"1093491184","type":"store","field":"<java.util.HashMap$HashIterator: int nextIndex>"},{"step":20,"from":"sdaReg31","to":"1093491184","type":"store","field":"<java.util.HashMap$HashIterator: int nextIndex>"},{"step":21,"from":"sdaReg31","to":"1093491184","type":"store","field":"<java.util.HashMap$HashIterator: int nextIndex>"},{"step":22,"from":"1094081768","to":"1094081808","type":"load","field":"arrayIdx_int:2"},{"step":23,"from":"1094081808","to":"1093491184","type":"store","field":"<java.util.HashMap$HashIterator: java.util.HashMap$HashMapEntry nextEntry>"},{"step":24,"from":"1093682856","to":"1093682856.<java.util.HashMap: int modCount>","type":"load","field":"<java.util.HashMap: int modCount>"},{"step":25,"from":"1093682856","to":"1094081768","type":"load","field":"<java.util.HashMap: java.util.HashMap$HashMapEntry[] table>"},{"step":26,"from":"sdaReg45","to":"1093491184","type":"store","field":"<java.util.HashMap$HashIterator: int nextIndex>"},{"step":27,"from":"1094081808","to":"1093491184","type":"store","field":"<java.util.HashMap$HashIterator: java.util.HashMap$HashMapEntry lastEntryReturned>"},{"step":28,"from":"1094081808","to":"1093533024","type":"load","field":"<java.util.HashMap$HashMapEntry: java.lang.Object key>"},{"step":29,"from":"1093468776","to":"sdaReg56","type":"model"},{"step":30,"from":"sdaReg56","to":"1093468776","type":"model"},{"step":31,"from":"1094081808","to":"1094054624","type":"load","field":"<java.util.HashMap$HashMapEntry: java.lang.Object value>"},{"step":32,"from":"1094054624","to":"1083914536","type":"model"},{"step":33,"from":"1083914536","to":"sdaReg89","type":"model"},{"step":34,"from":"1093468776","to":"sdaReg89","type":"model"},{"step":35,"from":"sdaReg89","to":"1093468776","type":"model"},{"step":36,"from":"1093990152","to":"1093774536","type":"create","field":"<java.io.ByteArrayOutputStream: byte[] buf>"},{"step":37,"from":"1083925600","to":"1093849888","type":"model"},{"step":38,"from":"1093506128","to":"1093849888","type":"create","field":"<java.io.ObjectOutputStream: java.io.ObjectStreamClass proxyClassDesc>"},{"step":39,"from":"1093990152","to":"1093913488","type":"model"},{"step":40,"from":"1093990152","to":"1093913488","type":"model"},{"step":41,"from":"1093913488","to":"1093913512","type":"create","field":"<java.io.DataOutputStream: byte[] scratch>"},{"step":42,"from":"1093506128","to":"1093913488","type":"create","field":"<java.io.ObjectOutputStream: java.io.DataOutputStream output>"},{"step":43,"from":"1093506128","to":"sdaReg103","type":"create","field":"<java.io.ObjectOutputStream: boolean enableReplace>"},{"step":44,"from":"1093506128","to":"sdaReg104","type":"create","field":"<java.io.ObjectOutputStream: int protocolVersion>"},{"step":45,"from":"1093506128","to":"sdaReg105","type":"create","field":"<java.io.ObjectOutputStream: boolean subclassOverridingImplementation>"},{"step":46,"from":"1093913736","to":"sdaReg110","type":"create","field":"<java.io.SerializationHandleMap: int size>"},{"step":47,"from":"1093913736","to":"sdaReg111","type":"create","field":"<java.io.SerializationHandleMap: int threshold>"},{"step":48,"from":"1093913736","to":"1093913768","type":"create","field":"<java.io.SerializationHandleMap: java.lang.Object[] keys>"},{"step":49,"from":"1093913736","to":"1093913904","type":"create","field":"<java.io.SerializationHandleMap: int[] values>"},{"step":50,"from":"1093506128","to":"1093913736","type":"create","field":"<java.io.ObjectOutputStream: java.io.SerializationHandleMap objectsWritten>"},{"step":51,"from":"1093506128","to":"sdaReg118","type":"create","field":"<java.io.ObjectOutputStream: int currentHandle>"},{"step":52,"from":"1093506128","to":"sdaReg119","type":"create","field":"<java.io.ObjectOutputStream: int nestedLevels>"},{"step":53,"from":"1093506128","to":"1093890856","type":"create","field":"<java.io.ObjectOutputStream: java.io.StreamCorruptedException nestedException>"},{"step":54,"from":"1093913488","to":"1093506128","type":"store","field":"<java.io.ObjectOutputStream: java.io.DataOutputStream primitiveTypes>"},{"step":55,"from":"static.<java.nio.ByteOrder: java.nio.ByteOrder BIG_ENDIAN>","to":"1084439336","type":"load","field":"<java.nio.ByteOrder: java.nio.ByteOrder BIG_ENDIAN>"},{"step":56,"from":"1093913512","to":"sdaReg130","type":"model"},{"step":57,"from":"1093913512","to":"1084439336","type":"model"},{"step":58,"from":"sdaReg130","to":"1093913512","type":"model"},{"step":59,"from":"sdaReg130","to":"1084439336","type":"model"},{"step":60,"from":"1084439336","to":"1093913512","type":"model"},{"step":61,"from":"1084439336","to":"sdaReg130","type":"model"},{"step":62,"from":"1093913488","to":"1093990152","type":"load","field":"<java.io.FilterOutputStream: java.io.OutputStream out>"},{"step":63,"from":"1093990152","to":"1093990152.<java.io.ByteArrayOutputStream: int count>","type":"load","field":"<java.io.ByteArrayOutputStream: int count>"},{"step":64,"from":"1093990152","to":"1093990152.<java.io.ByteArrayOutputStream: int count>","type":"load","field":"<java.io.ByteArrayOutputStream: int count>"},{"step":65,"from":"1093913512","to":"1093774536","type":"model"},{"step":66,"from":"1093990152","to":"1093990152.<java.io.ByteArrayOutputStream: int count>","type":"load","field":"<java.io.ByteArrayOutputStream: int count>"},{"step":67,"from":"sdaReg141","to":"1093990152","type":"store","field":"<java.io.ByteArrayOutputStream: int count>"},{"step":68,"from":"1093913488","to":"1093913488.<java.io.DataOutputStream: int written>","type":"load","field":"<java.io.DataOutputStream: int written>"},{"step":69,"from":"sdaReg142","to":"1093913488","type":"store","field":"<java.io.DataOutputStream: int written>"},{"step":70,"from":"static.<java.nio.ByteOrder: java.nio.ByteOrder BIG_ENDIAN>","to":"1084439336","type":"load","field":"<java.nio.ByteOrder: java.nio.ByteOrder BIG_ENDIAN>"},{"step":71,"from":"1093913512","to":"sdaReg145","type":"model"},{"step":72,"from":"1093913512","to":"1084439336","type":"model"},{"step":73,"from":"sdaReg145","to":"1093913512","type":"model"},{"step":74,"from":"sdaReg145","to":"1084439336","type":"model"},{"step":75,"from":"1084439336","to":"1093913512","type":"model"},{"step":76,"from":"1084439336","to":"sdaReg145","type":"model"},{"step":77,"from":"1093913488","to":"1093990152","type":"load","field":"<java.io.FilterOutputStream: java.io.OutputStream out>"},{"step":78,"from":"1093913512","to":"1093774536","type":"model"},{"step":79,"from":"sdaReg156","to":"1093990152","type":"store","field":"<java.io.ByteArrayOutputStream: int count>"},{"step":80,"from":"sdaReg157","to":"1093913488","type":"store","field":"<java.io.DataOutputStream: int written>"},{"step":81,"from":"1093506128","to":"sdaReg158","type":"create","field":"<java.io.ObjectOutputStream: java.io.DataOutputStream primitiveTypes>"},{"step":82,"from":"1094054624","to":"sdaReg184","type":"model"},{"step":83,"from":"1094054624","to":"1083914536","type":"model"},{"step":84,"from":"1083914536","to":"1093447456","type":"model"},{"step":85,"from":"sdaReg194","to":"1093506128","type":"store","field":"<java.io.ObjectOutputStream: int nestedLevels>"},{"step":86,"from":"static.<java.io.ObjectStreamClass: java.lang.Class CLASSCLASS>","to":"1083908584","type":"load","field":"<java.io.ObjectStreamClass: java.lang.Class CLASSCLASS>"},{"step":87,"from":"static.<java.io.ObjectStreamClass: java.lang.Class OBJECTSTREAMCLASSCLASS>","to":"1083943040","type":"load","field":"<java.io.ObjectStreamClass: java.lang.Class OBJECTSTREAMCLASSCLASS>"},{"step":88,"from":"1093447456","to":"sdaReg195","type":"model"},{"step":89,"from":"1093447456","to":"sdaReg196","type":"model"},{"step":90,"from":"static.<java.io.ObjectStreamClass: java.lang.Class CLASSCLASS>","to":"1083908584","type":"load","field":"<java.io.ObjectStreamClass: java.lang.Class CLASSCLASS>"},{"step":91,"from":"static.<java.io.ObjectStreamClass: java.lang.Class OBJECTSTREAMCLASSCLASS>","to":"1083943040","type":"load","field":"<java.io.ObjectStreamClass: java.lang.Class OBJECTSTREAMCLASSCLASS>"},{"step":92,"from":"static.<java.io.ObjectStreamClass: java.lang.Class STRINGCLASS>","to":"1083912376","type":"load","field":"<java.io.ObjectStreamClass: java.lang.Class STRINGCLASS>"},{"step":93,"from":"1083914536","to":"sdaReg197","type":"model"},{"step":94,"from":"1083914536","to":"1083909448","type":"model"},{"step":95,"from":"1093913488","to":"1093990152","type":"load","field":"<java.io.FilterOutputStream: java.io.OutputStream out>"},{"step":96,"from":"sdaReg208","to":"1093990152","type":"store","field":"<java.io.ByteArrayOutputStream: int count>"},{"step":97,"from":"sdaReg209","to":"1093774536","type":"store","field":"arrayIdx_int:4"},{"step":98,"from":"sdaReg210","to":"1093913488","type":"store","field":"<java.io.DataOutputStream: int written>"},{"step":99,"from":"1093447456","to":"sdaReg225","type":"model"},{"step":100,"from":"1093447456","to":"1083914536","type":"model"},{"step":101,"from":"sdaReg238","to":"1093506128","type":"store","field":"<java.io.ObjectOutputStream: int currentHandle>"},{"step":102,"from":"1093447456","to":"sdaReg250","type":"model"},{"step":103,"from":"sdaReg256","to":"1093913736","type":"store","field":"<java.io.SerializationHandleMap: int size>"},{"step":104,"from":"1093913768","to":"1093447456","type":"create","field":"arrayIdx_int:24"},{"step":105,"from":"1093913904","to":"sdaReg257","type":"create","field":"arrayIdx_int:24"},{"step":106,"from":"sdaReg243","to":"1093913904","type":"store","field":"arrayIdx_int:24"},{"step":107,"from":"1093447456","to":"sdaReg259","type":"model"},{"step":108,"from":"1093913488","to":"1093990152","type":"load","field":"<java.io.FilterOutputStream: java.io.OutputStream out>"},{"step":109,"from":"sdaReg264","to":"1093990152","type":"store","field":"<java.io.ByteArrayOutputStream: int count>"},{"step":110,"from":"sdaReg265","to":"1093774536","type":"store","field":"arrayIdx_int:5"},{"step":111,"from":"sdaReg266","to":"1093913488","type":"store","field":"<java.io.DataOutputStream: int written>"},{"step":112,"from":"1093913488","to":"1093506128","type":"store","field":"<java.io.ObjectOutputStream: java.io.DataOutputStream primitiveTypes>"},{"step":113,"from":"1093447456","to":"sdaReg271","type":"model"},{"step":114,"from":"sdaReg271","to":"sdaReg277","type":"model"},{"step":115,"from":"sdaReg271","to":"sdaReg279","type":"model"},{"step":116,"from":"static.<java.nio.ByteOrder: java.nio.ByteOrder BIG_ENDIAN>","to":"1084439336","type":"load","field":"<java.nio.ByteOrder: java.nio.ByteOrder BIG_ENDIAN>"},{"step":117,"from":"1093637000","to":"sdaReg282","type":"model"},{"step":118,"from":"1093637000","to":"1084439336","type":"model"},{"step":119,"from":"sdaReg282","to":"1093637000","type":"model"},{"step":120,"from":"sdaReg282","to":"1084439336","type":"model"},{"step":121,"from":"1084439336","to":"1093637000","type":"model"},{"step":122,"from":"1084439336","to":"sdaReg282","type":"model"},{"step":123,"from":"sdaReg271","to":"sdaReg287","type":"model"},{"step":124,"from":"sdaReg289","to":"1093637000","type":"store","field":"arrayIdx_int:2"},{"step":125,"from":"sdaReg271","to":"sdaReg290","type":"model"},{"step":126,"from":"sdaReg289","to":"1093637000","type":"store","field":"arrayIdx_int:3"},{"step":127,"from":"1093913488","to":"1093637000","type":"model"},{"step":128,"from":"1093637000","to":"1093913488","type":"model"},{"step":129,"from":"1093447456","to":"sdaReg292","type":"model"},{"step":130,"from":"static.<java.nio.ByteOrder: java.nio.ByteOrder BIG_ENDIAN>","to":"1084439336","type":"load","field":"<java.nio.ByteOrder: java.nio.ByteOrder BIG_ENDIAN>"},{"step":131,"from":"1093913512","to":"sdaReg292","type":"model"},{"step":132,"from":"1093913512","to":"1084439336","type":"model"},{"step":133,"from":"sdaReg292","to":"1093913512","type":"model"},{"step":134,"from":"sdaReg292","to":"1084439336","type":"model"},{"step":135,"from":"1084439336","to":"1093913512","type":"model"},{"step":136,"from":"1084439336","to":"sdaReg292","type":"model"},{"step":137,"from":"1093913488","to":"1093990152","type":"load","field":"<java.io.FilterOutputStream: java.io.OutputStream out>"},{"step":138,"from":"1093913512","to":"1093774536","type":"model"},{"step":139,"from":"sdaReg304","to":"1093990152","type":"store","field":"<java.io.ByteArrayOutputStream: int count>"},{"step":140,"from":"sdaReg305","to":"1093913488","type":"store","field":"<java.io.DataOutputStream: int written>"},{"step":141,"from":"1093447456","to":"sdaReg306","type":"model"},{"step":142,"from":"1093447456","to":"sdaReg307","type":"model"},{"step":143,"from":"1093913488","to":"sdaReg306","type":"model"},{"step":144,"from":"sdaReg306","to":"1093913488","type":"model"},{"step":145,"from":"1093447456","to":"sdaReg308","type":"model"},{"step":146,"from":"1093447456","to":"1083914536","type":"model"},{"step":147,"from":"static.<java.io.ObjectStreamClass: java.lang.Class STRINGCLASS>","to":"1083912376","type":"load","field":"<java.io.ObjectStreamClass: java.lang.Class STRINGCLASS>"},{"step":148,"from":"1093447456","to":"1085826224","type":"model"},{"step":149,"from":"static.<java.nio.ByteOrder: java.nio.ByteOrder BIG_ENDIAN>","to":"1084439336","type":"load","field":"<java.nio.ByteOrder: java.nio.ByteOrder BIG_ENDIAN>"},{"step":150,"from":"1093913512","to":"sdaReg317","type":"model"},{"step":151,"from":"1093913512","to":"1084439336","type":"model"},{"step":152,"from":"sdaReg317","to":"1093913512","type":"model"},{"step":153,"from":"sdaReg317","to":"1084439336","type":"model"},{"step":154,"from":"1084439336","to":"1093913512","type":"model"},{"step":155,"from":"1084439336","to":"sdaReg317","type":"model"},{"step":156,"from":"1093913488","to":"1093990152","type":"load","field":"<java.io.FilterOutputStream: java.io.OutputStream out>"},{"step":157,"from":"1093913512","to":"1093774536","type":"model"},{"step":158,"from":"sdaReg328","to":"1093990152","type":"store","field":"<java.io.ByteArrayOutputStream: int count>"},{"step":159,"from":"sdaReg329","to":"1093913488","type":"store","field":"<java.io.DataOutputStream: int written>"},{"step":160,"from":"1093506128","to":"sdaReg331","type":"create","field":"<java.io.ObjectOutputStream: java.io.DataOutputStream primitiveTypes>"},{"step":161,"from":"1093913488","to":"1093990152","type":"load","field":"<java.io.FilterOutputStream: java.io.OutputStream out>"},{"step":162,"from":"sdaReg339","to":"1093990152","type":"store","field":"<java.io.ByteArrayOutputStream: int count>"},{"step":163,"from":"sdaReg340","to":"1093774536","type":"store","field":"arrayIdx_int:21"},{"step":164,"from":"sdaReg341","to":"1093913488","type":"store","field":"<java.io.DataOutputStream: int written>"},{"step":165,"from":"1093447456","to":"0","type":"model"},{"step":166,"from":"1093913488","to":"1093990152","type":"load","field":"<java.io.FilterOutputStream: java.io.OutputStream out>"},{"step":167,"from":"sdaReg350","to":"1093990152","type":"store","field":"<java.io.ByteArrayOutputStream: int count>"},{"step":168,"from":"sdaReg351","to":"1093774536","type":"store","field":"arrayIdx_int:22"},{"step":169,"from":"sdaReg352","to":"1093913488","type":"store","field":"<java.io.DataOutputStream: int written>"},{"step":170,"from":"sdaReg355","to":"1093506128","type":"store","field":"<java.io.ObjectOutputStream: int currentHandle>"},{"step":171,"from":"1094054624","to":"sdaReg367","type":"model"},{"step":172,"from":"sdaReg373","to":"1093913736","type":"store","field":"<java.io.SerializationHandleMap: int size>"},{"step":173,"from":"1094054624","to":"1093913768","type":"store","field":"arrayIdx_int:12"},{"step":174,"from":"1093913904","to":"sdaReg374","type":"create","field":"arrayIdx_int:12"},{"step":175,"from":"sdaReg360","to":"1093913904","type":"store","field":"arrayIdx_int:12"},{"step":176,"from":"1083909448","to":"sdaReg376","type":"model"},{"step":177,"from":"static.<java.lang.Integer: java.lang.Class TYPE>","to":"1083909616","type":"load","field":"<java.lang.Integer: java.lang.Class TYPE>"},{"step":178,"from":"static.<java.lang.Byte: java.lang.Class TYPE>","to":"1083909112","type":"load","field":"<java.lang.Byte: java.lang.Class TYPE>"},{"step":179,"from":"static.<java.lang.Character: java.lang.Class TYPE>","to":"1083909448","type":"load","field":"<java.lang.Character: java.lang.Class TYPE>"},{"step":180,"from":"static.<java.nio.ByteOrder: java.nio.ByteOrder BIG_ENDIAN>","to":"1084439336","type":"load","field":"<java.nio.ByteOrder: java.nio.ByteOrder BIG_ENDIAN>"},{"step":181,"from":"1093913512","to":"sdaReg379","type":"model"},{"step":182,"from":"1093913512","to":"1084439336","type":"model"},{"step":183,"from":"sdaReg379","to":"1093913512","type":"model"},{"step":184,"from":"sdaReg379","to":"1084439336","type":"model"},{"step":185,"from":"1084439336","to":"1093913512","type":"model"},{"step":186,"from":"1084439336","to":"sdaReg379","type":"model"},{"step":187,"from":"1093913488","to":"1093990152","type":"load","field":"<java.io.FilterOutputStream: java.io.OutputStream out>"},{"step":188,"from":"1093913512","to":"1093774536","type":"model"},{"step":189,"from":"sdaReg391","to":"1093990152","type":"store","field":"<java.io.ByteArrayOutputStream: int count>"},{"step":190,"from":"sdaReg392","to":"1093913488","type":"store","field":"<java.io.DataOutputStream: int written>"},{"step":191,"from":"1094054624","to":"1094054624.arrayIdx_int:0","type":"load","field":"arrayIdx_int:0"},{"step":192,"from":"1093913488","to":"1094054624.arrayIdx_int:0","type":"model"},{"step":193,"from":"1094054624.arrayIdx_int:0","to":"1093913488","type":"model"},{"step":194,"from":"1094054624","to":"1094054624.arrayIdx_int:1","type":"load","field":"arrayIdx_int:1"},{"step":195,"from":"1093913488","to":"1094054624.arrayIdx_int:1","type":"model"},{"step":196,"from":"1094054624.arrayIdx_int:1","to":"1093913488","type":"model"},{"step":197,"from":"sdaReg397","to":"1093506128","type":"store","field":"<java.io.ObjectOutputStream: int nestedLevels>"},{"step":198,"from":"1093774536","to":"1093854888","type":"model"},{"step":199,"from":"1093468776","to":"1093854888","type":"model"},{"step":200,"from":"1093468776","to":"sdaReg405","type":"model"},{"step":201,"from":"1093468776","to":"sdaReg406","type":"model"},{"step":202,"from":"1093854888","to":"1093468776","type":"model"},{"step":203,"from":"1093854888","to":"sdaReg405","type":"model"},{"step":204,"from":"1093854888","to":"sdaReg406","type":"model"},{"step":205,"from":"sdaReg405","to":"1093468776","type":"model"},{"step":206,"from":"sdaReg405","to":"1093854888","type":"model"},{"step":207,"from":"sdaReg405","to":"sdaReg406","type":"model"},{"step":208,"from":"sdaReg406","to":"1093468776","type":"model"},{"step":209,"from":"sdaReg406","to":"1093854888","type":"model"},{"step":210,"from":"sdaReg406","to":"sdaReg405","type":"model"},{"step":211,"from":"1093468776","to":"sdaReg409","type":"model"},{"step":212,"from":"1093468776","to":"sdaReg410","type":"model"},{"step":213,"from":"sdaReg410","to":"1093468776","type":"model"},{"step":214,"from":"1093468776","to":"sdaReg411","type":"model"},{"step":215,"from":"sdaReg411","to":"1093468776","type":"model"},{"step":216,"from":"1093468776","to":"sdaReg409","type":"model"},{"step":217,"from":"sdaReg409","to":"1093468776","type":"model"},{"step":218,"from":"1093468776","to":"sdaReg1","type":"model"},{"step":219,"from":"sdaReg1","to":"1093468776","type":"model"}],"parameters":[{"id":"1093499008","name":"this","klass":"android.os.Bundle"},{"id":"1093468776","name":"arg#1","klass":"android.os.Parcel"},{"id":"sdaReg0","name":"arg#2","klass":"int"}],"returns":[{"id":null,"name":"return","klass":null}],"colors":{"heapLocToColor":{"sdaReg294":[9, 13],"sdaReg293":[13],"sdaReg193":[21],"sdaReg295":[14],"sdaReg192":[0, 7],"sdaReg199":[11],"sdaReg325":[9, 13],"sdaReg198":[0, 7, 28],"sdaReg290":[32, 21, 39],"sdaReg195":[21, 24],"1093913904":[17],"sdaReg292":[21, 40],"sdaReg197":[0, 7, 27],"sdaReg291":[36],"sdaReg196":[21, 25],"sdaReg13":[5],"sdaReg14":[5],"sdaReg11":[5],"sdaReg12":[5],"sdaReg10":[5],"1093682856.<java.util.HashMap: int modCount>":[0],"sdaReg19":[5],"sdaReg17":[5],"sdaReg18":[5],"sdaReg15":[5],"sdaReg16":[5],"sdaReg411":[1, 4, 52],"sdaReg314":[21, 44],"sdaReg316":[13],"sdaReg319":[14],"sdaReg318":[9, 13],"0":[21, 45],"sdaReg310":[21],"sdaReg311":[0, 21, 7],"sdaReg410":[1, 4],"1093506128":[11],"1093872936":[5],"1093913488":[13],"static.<java.lang.Character: java.lang.Class TYPE>":[0, 50, 7, 28],"sdaReg309":[11],"sdaReg170":[0],"sdaReg308":[21, 43],"sdaReg307":[21, 42],"sdaReg306":[21, 41, 13],"sdaReg175":[0],"sdaReg174":[11],"sdaReg177":[0],"sdaReg176":[15],"sdaReg179":[0],"sdaReg301":[9, 13],"sdaReg178":[15],"1093913488.<java.io.DataOutputStream: int written>":[13],"1093491184.<java.util.HashMap$HashIterator: int nextIndex>":[6],"1093854888":[51, 1],"sdaReg182":[15],"sdaReg180":[16],"1093682856":[0],"sdaReg186":[20],"sdaReg185":[20],"sdaReg184":[20],"sdaReg183":[0],"sdaReg189":[20],"sdaReg188":[20],"sdaReg187":[20],"1093447456":[21],"static.<java.io.ObjectStreamClass: java.lang.Class CLASSCLASS>":[22],"1093533024":[0],"sdaReg60":[0],"sdaReg59":[1],"sdaReg58":[0],"sdaReg57":[0],"1093468776":[1],"1093682856.<java.util.HashMap: int size>":[0, 1],"sdaReg56":[0, 1],"sdaReg54":[0],"sdaReg53":[1],"sdaReg52":[0],"sdaReg51":[0],"sdaReg50":[0],"1093849888":[12],"sdaReg49":[0],"sdaReg48":[0],"sdaReg47":[0],"sdaReg41":[6],"sdaReg43":[6],"sdaReg42":[6],"sdaReg409":[1, 52],"sdaReg402":[51],"sdaReg403":[1],"sdaReg400":[11],"sdaReg401":[9, 13],"1084439336":[19],"sdaReg406":[1],"sdaReg200":[0],"sdaReg407":[6],"sdaReg201":[0, 7],"sdaReg404":[51],"sdaReg405":[1],"sdaReg39":[6],"sdaReg204":[13],"sdaReg38":[6],"sdaReg203":[0, 7, 28],"sdaReg37":[6],"sdaReg202":[21],"sdaReg206":[9, 13],"sdaReg31":[6],"sdaReg36":[6],"1094081768":[0],"sdaReg35":[6],"sdaReg34":[6],"1093990152":[9, 13],"sdaReg8":[5],"sdaReg9":[0],"sdaReg6":[5],"sdaReg7":[0],"sdaReg4":[0],"sdaReg5":[0],"1093890856":[18],"sdaReg27":[0],"sdaReg26":[6],"sdaReg28":[6],"sdaReg3":[1],"sdaReg2":[1, 4],"sdaReg1":[1, 3],"sdaReg21":[0],"sdaReg0":[2],"sdaReg20":[5],"1083912376":[26],"sdaReg23":[0],"sdaReg22":[6],"sdaReg25":[0],"sdaReg24":[6],"sdaReg125":[18],"sdaReg126":[18],"sdaReg127":[11],"sdaReg128":[13],"sdaReg228":[29],"sdaReg229":[29],"sdaReg224":[21],"sdaReg225":[29],"sdaReg226":[29],"sdaReg227":[29],"sdaReg221":[16],"sdaReg220":[21],"sdaReg223":[15],"sdaReg120":[18],"sdaReg122":[18],"sdaReg121":[18],"sdaReg124":[18],"sdaReg123":[18],"sdaReg116":[15],"1093637000":[36, 13],"sdaReg117":[15],"sdaReg398":[11],"sdaReg399":[11],"1093499008":[0],"sdaReg219":[15],"sdaReg217":[15],"sdaReg218":[21],"sdaReg215":[11],"sdaReg216":[21],"sdaReg212":[21],"sdaReg211":[11],"1094054624.arrayIdx_int:0":[0, 13],"1094054624.arrayIdx_int:1":[0, 13],"sdaReg107":[11],"sdaReg108":[15],"sdaReg109":[15],"sdaReg388":[9, 13],"sdaReg381":[9, 13],"sdaReg382":[14],"sdaReg106":[11],"sdaReg246":[16],"sdaReg86":[1],"sdaReg87":[0],"sdaReg248":[15],"sdaReg380":[13],"sdaReg249":[21],"sdaReg85":[0],"sdaReg88":[0, 7],"1093774536":[10],"sdaReg89":[0, 1, 7, 8],"sdaReg90":[9],"sdaReg241":[21],"1083909616":[48],"sdaReg240":[15],"sdaReg94":[11],"sdaReg93":[9],"sdaReg242":[21],"sdaReg245":[21],"sdaReg92":[9],"sdaReg244":[15],"sdaReg91":[9],"sdaReg100":[9],"sdaReg102":[13],"sdaReg101":[13],"1093913488.<java.io.FilterOutputStream: java.io.OutputStream out>":[9, 13],"sdaReg376":[0, 7, 28, 47],"1093990152.<java.io.ByteArrayOutputStream: int count>":[9, 13],"sdaReg377":[0],"sdaReg372":[46],"sdaReg370":[46],"sdaReg371":[46],"static.<java.io.ObjectStreamClass: java.lang.Class STRINGCLASS>":[26],"sdaReg95":[9],"sdaReg237":[11],"sdaReg96":[11],"sdaReg97":[12],"sdaReg235":[11],"sdaReg236":[21],"sdaReg99":[13],"sdaReg230":[29],"1083943040":[23],"sdaReg233":[0, 21, 7],"sdaReg378":[0],"1094054624":[0],"sdaReg269":[11],"sdaReg268":[21],"1093913512":[14],"sdaReg169":[11],"sdaReg362":[0],"sdaReg361":[15],"static.<java.lang.Byte: java.lang.Class TYPE>":[49],"sdaReg363":[16],"sdaReg366":[0],"sdaReg365":[15],"sdaReg367":[46],"sdaReg161":[11],"1083909112":[49],"sdaReg368":[46],"sdaReg162":[0],"sdaReg369":[46],"sdaReg163":[11],"sdaReg164":[0],"sdaReg168":[11],"sdaReg267":[11],"sdaReg260":[13],"static.<java.nio.ByteOrder: java.nio.ByteOrder BIG_ENDIAN>":[19],"1094081808":[0],"sdaReg262":[9, 13],"sdaReg160":[11],"1085826224":[21, 44],"sdaReg259":[21, 31],"1083914536":[0, 21, 7],"sdaReg159":[11],"sdaReg354":[11],"1093913736":[15],"sdaReg358":[0],"sdaReg359":[0],"sdaReg153":[9, 13],"sdaReg357":[15],"1093682856.<java.util.HashMap: java.util.HashMap$HashMapEntry[] table>":[0],"sdaReg255":[30],"sdaReg253":[30],"sdaReg254":[30],"sdaReg251":[30],"sdaReg252":[30],"1083909448":[0, 50, 7, 28],"1093499008.<android.os.Bundle: boolean mAllowFds>":[0, 1],"sdaReg250":[30],"1093913768":[16],"sdaReg342":[21, 45],"sdaReg344":[21, 45],"sdaReg343":[11],"sdaReg147":[14],"static.<java.io.ObjectStreamClass: java.lang.Class OBJECTSTREAMCLASSCLASS>":[23],"sdaReg143":[13],"sdaReg146":[9, 13],"sdaReg345":[11],"sdaReg346":[13],"sdaReg141":[9, 13],"sdaReg348":[9, 13],"sdaReg142":[13],"sdaReg283":[36],"1083908584":[22],"sdaReg285":[37],"sdaReg287":[32, 21, 38],"sdaReg289":[32, 38, 21, 39],"sdaReg279":[35, 32, 21],"sdaReg333":[0, 21, 7],"sdaReg332":[11],"sdaReg139":[9, 13],"sdaReg138":[9, 13],"sdaReg132":[14],"1093491184":[6],"sdaReg337":[9, 13],"sdaReg270":[21],"sdaReg131":[9, 13],"sdaReg334":[11],"sdaReg335":[13],"static.<java.lang.Integer: java.lang.Class TYPE>":[48],"sdaReg271":[32, 21],"sdaReg272":[13],"sdaReg277":[34, 32, 21],"sdaReg275":[33]},"colorToColor":{"0":[16, 1, 3, 21, 20, 5, 6, 46, 13],"1":[51, 1, 3],"3":[1],"4":[1],"5":[0],"6":[6],"7":[1, 21],"8":[1],"9":[9, 13],"10":[51, 9],"12":[11],"13":[9, 11, 13],"14":[19, 21, 40, 10, 13],"15":[11],"17":[15],"16":[15],"19":[21, 36, 40, 14],"18":[11],"21":[16, 19, 36, 29, 13, 14, 30],"32":[36],"38":[36],"39":[36],"36":[19, 13],"40":[19, 14],"41":[13],"51":[1],"52":[1]},"colorToLabel":{"0":"this","1":"arg#1","2":"arg#2","19":"<java.nio.ByteOrder: java.nio.ByteOrder BIG_ENDIAN>","22":"<java.io.ObjectStreamClass: java.lang.Class CLASSCLASS>","23":"<java.io.ObjectStreamClass: java.lang.Class OBJECTSTREAMCLASSCLASS>","26":"<java.io.ObjectStreamClass: java.lang.Class STRINGCLASS>","48":"<java.lang.Integer: java.lang.Class TYPE>","49":"<java.lang.Byte: java.lang.Class TYPE>","50":"<java.lang.Character: java.lang.Class TYPE>","53":"return"}}}

Generated Model
	this->arg#1
	this-><java.nio.ByteOrder: java.nio.ByteOrder BIG_ENDIAN>

