Scanning method <android.os.Bundle: void writeToParcel(android.os.Parcel,int)>

All seen event types: SimpleAssignmentRecord, LoadInstanceRecord, MethodStartRecord, IfRecord, InstanceOfRecord, NewObjectRecord, StoreInstanceRecord, BinaryOperationRecord, MethodCallRecord, MethodReturnRecord, ArrayLengthRecord, CastRecord, LoadArrayRecord, MethodEndRecord, 
Ignored event types: IfRecord, 

JSON Encoded Analysis Data (for visualization):{"heapEdges":[{"step":0,"from":"1093950024","to":"1093950024.<android.os.Bundle: boolean mAllowFds>","type":"load","field":"<android.os.Bundle: boolean mAllowFds>"},{"step":1,"from":"1093445200","to":"1093950024.<android.os.Bundle: boolean mAllowFds>","type":"model"},{"step":2,"from":"1093445200","to":"sdaReg1","type":"model"},{"step":3,"from":"1093950024.<android.os.Bundle: boolean mAllowFds>","to":"1093445200","type":"model"},{"step":4,"from":"1093950024.<android.os.Bundle: boolean mAllowFds>","to":"sdaReg1","type":"model"},{"step":5,"from":"1093445200","to":"sdaReg2","type":"model"},{"step":6,"from":"1093950024","to":"1093956992","type":"load","field":"<android.os.Bundle: java.util.Map mMap>"},{"step":7,"from":"1093956992","to":"1093615048","type":"store","field":"<java.util.HashMap$EntrySet: java.util.HashMap this$0>"},{"step":8,"from":"1093956992","to":"1093615048","type":"create","field":"<java.util.HashMap: java.util.Set entrySet>"},{"step":9,"from":"1093956992","to":"1093956992.<java.util.HashMap: int size>","type":"load","field":"<java.util.HashMap: int size>"},{"step":10,"from":"1093445200","to":"1093956992.<java.util.HashMap: int size>","type":"model"},{"step":11,"from":"1093956992.<java.util.HashMap: int size>","to":"1093445200","type":"model"},{"step":12,"from":"1093956992","to":"1093556960","type":"store","field":"<java.util.HashMap$EntryIterator: java.util.HashMap this$0>"},{"step":13,"from":"1093956992","to":"1093556960","type":"store","field":"<java.util.HashMap$HashIterator: java.util.HashMap this$0>"},{"step":14,"from":"1093956992","to":"1093956992.<java.util.HashMap: int modCount>","type":"load","field":"<java.util.HashMap: int modCount>"},{"step":15,"from":"1093956992.<java.util.HashMap: int modCount>","to":"1093556960","type":"store","field":"<java.util.HashMap$HashIterator: int expectedModCount>"},{"step":16,"from":"1093956992","to":"1093786608","type":"load","field":"<java.util.HashMap: java.util.HashMap$HashMapEntry[] table>"},{"step":17,"from":"1093556960","to":"1093556960.<java.util.HashMap$HashIterator: int nextIndex>","type":"load","field":"<java.util.HashMap$HashIterator: int nextIndex>"},{"step":18,"from":"1093556960","to":"1093556960.<java.util.HashMap$HashIterator: int nextIndex>","type":"load","field":"<java.util.HashMap$HashIterator: int nextIndex>"},{"step":19,"from":"sdaReg31","to":"1093556960","type":"store","field":"<java.util.HashMap$HashIterator: int nextIndex>"},{"step":20,"from":"sdaReg31","to":"1093556960","type":"store","field":"<java.util.HashMap$HashIterator: int nextIndex>"},{"step":21,"from":"sdaReg31","to":"1093556960","type":"store","field":"<java.util.HashMap$HashIterator: int nextIndex>"},{"step":22,"from":"1093786608","to":"1093786648","type":"load","field":"arrayIdx_int:2"},{"step":23,"from":"1093786648","to":"1093556960","type":"store","field":"<java.util.HashMap$HashIterator: java.util.HashMap$HashMapEntry nextEntry>"},{"step":24,"from":"1093956992","to":"1093956992.<java.util.HashMap: int modCount>","type":"load","field":"<java.util.HashMap: int modCount>"},{"step":25,"from":"1093956992","to":"1093786608","type":"load","field":"<java.util.HashMap: java.util.HashMap$HashMapEntry[] table>"},{"step":26,"from":"sdaReg45","to":"1093556960","type":"store","field":"<java.util.HashMap$HashIterator: int nextIndex>"},{"step":27,"from":"1093786648","to":"1093556960","type":"store","field":"<java.util.HashMap$HashIterator: java.util.HashMap$HashMapEntry lastEntryReturned>"},{"step":28,"from":"1093786648","to":"1093512704","type":"load","field":"<java.util.HashMap$HashMapEntry: java.lang.Object key>"},{"step":29,"from":"1093445200","to":"sdaReg56","type":"model"},{"step":30,"from":"sdaReg56","to":"1093445200","type":"model"},{"step":31,"from":"1093786648","to":"1093564952","type":"load","field":"<java.util.HashMap$HashMapEntry: java.lang.Object value>"},{"step":32,"from":"1093445200","to":"sdaReg62","type":"model"},{"step":33,"from":"sdaReg62","to":"1093445200","type":"model"},{"step":34,"from":"1093445200","to":"sdaReg65","type":"model"},{"step":35,"from":"1093445200","to":"sdaReg66","type":"model"},{"step":36,"from":"sdaReg66","to":"1093445200","type":"model"},{"step":37,"from":"1093445200","to":"sdaReg67","type":"model"},{"step":38,"from":"sdaReg67","to":"1093445200","type":"model"},{"step":39,"from":"1093445200","to":"sdaReg65","type":"model"},{"step":40,"from":"sdaReg65","to":"1093445200","type":"model"},{"step":41,"from":"1093445200","to":"sdaReg1","type":"model"},{"step":42,"from":"sdaReg1","to":"1093445200","type":"model"}],"parameters":[{"id":"1093950024","name":"this","klass":"android.os.Bundle"},{"id":"1093445200","name":"arg#1","klass":"android.os.Parcel"},{"id":"sdaReg0","name":"arg#2","klass":"int"}],"returns":[{"id":null,"name":"return","klass":null}],"colors":{"heapLocToColor":{"sdaReg60":[0],"1093956992.<java.util.HashMap: java.util.HashMap$HashMapEntry[] table>":[0],"1093564952":[0],"sdaReg66":[1, 4],"sdaReg67":[1, 4, 7],"sdaReg65":[1, 7],"sdaReg62":[0, 1],"sdaReg63":[6],"sdaReg13":[5],"sdaReg14":[5],"sdaReg11":[5],"sdaReg12":[5],"sdaReg10":[5],"sdaReg59":[1],"sdaReg58":[0],"sdaReg57":[0],"sdaReg56":[0, 1],"sdaReg19":[5],"sdaReg54":[0],"sdaReg17":[5],"sdaReg53":[1],"sdaReg18":[5],"sdaReg52":[0],"sdaReg15":[5],"sdaReg51":[0],"sdaReg16":[5],"sdaReg50":[0],"1093615048":[5],"1093556960":[6],"sdaReg49":[0],"sdaReg48":[0],"sdaReg47":[0],"1093956992.<java.util.HashMap: int size>":[0, 1],"sdaReg41":[6],"sdaReg43":[6],"sdaReg42":[6],"sdaReg39":[6],"sdaReg38":[6],"sdaReg37":[6],"1093512704":[0],"sdaReg31":[6],"1093956992.<java.util.HashMap: int modCount>":[0],"1093950024":[0],"sdaReg36":[6],"1093445200":[1],"sdaReg35":[6],"1093556960.<java.util.HashMap$HashIterator: int nextIndex>":[6],"sdaReg34":[6],"sdaReg8":[5],"sdaReg9":[0],"sdaReg6":[5],"1093786608":[0],"1093786648":[0],"sdaReg7":[0],"sdaReg4":[0],"sdaReg5":[0],"1093950024.<android.os.Bundle: boolean mAllowFds>":[0, 1],"sdaReg27":[0],"sdaReg26":[6],"sdaReg28":[6],"sdaReg3":[1],"sdaReg2":[1, 4],"sdaReg1":[1, 3],"sdaReg21":[0],"sdaReg0":[2],"sdaReg20":[5],"sdaReg23":[0],"1093956992":[0],"sdaReg22":[6],"sdaReg25":[0],"sdaReg24":[6]},"colorToColor":{"0":[1, 3, 5, 6],"1":[1, 3],"3":[1],"4":[1],"5":[0],"6":[6],"7":[1]},"colorToLabel":{"0":"this","1":"arg#1","2":"arg#2","8":"return"}}}

Generated Model
	this->arg#1

