Scanning method <android.os.Bundle: void writeToParcel(android.os.Parcel,int)>

All seen event types: SimpleAssignmentRecord, LoadInstanceRecord, MethodStartRecord, IfRecord, InstanceOfRecord, NewObjectRecord, StoreInstanceRecord, BinaryOperationRecord, MethodCallRecord, MethodReturnRecord, ArrayLengthRecord, CastRecord, LoadArrayRecord, MethodEndRecord, 
Ignored event types: IfRecord, 

JSON Encoded Analysis Data (for visualization):{"heapEdges":[{"step":0,"from":"1093770544","to":"1093770544.<android.os.Bundle: boolean mAllowFds>","type":"load","field":"<android.os.Bundle: boolean mAllowFds>"},{"step":1,"from":"1093464816","to":"1093770544.<android.os.Bundle: boolean mAllowFds>","type":"model"},{"step":2,"from":"1093464816","to":"sdaReg1","type":"model"},{"step":3,"from":"1093770544.<android.os.Bundle: boolean mAllowFds>","to":"1093464816","type":"model"},{"step":4,"from":"1093770544.<android.os.Bundle: boolean mAllowFds>","to":"sdaReg1","type":"model"},{"step":5,"from":"1093464816","to":"sdaReg2","type":"model"},{"step":6,"from":"1093770544","to":"1093771400","type":"load","field":"<android.os.Bundle: java.util.Map mMap>"},{"step":7,"from":"1093771400","to":"1093880424","type":"load","field":"<java.util.HashMap: java.util.Set entrySet>"},{"step":8,"from":"1093880424","to":"1093771400","type":"load","field":"<java.util.HashMap$EntrySet: java.util.HashMap this$0>"},{"step":9,"from":"1093771400","to":"1093771400.<java.util.HashMap: int size>","type":"load","field":"<java.util.HashMap: int size>"},{"step":10,"from":"1093464816","to":"1093771400.<java.util.HashMap: int size>","type":"model"},{"step":11,"from":"1093771400.<java.util.HashMap: int size>","to":"1093464816","type":"model"},{"step":12,"from":"1093880424","to":"1093771400","type":"load","field":"<java.util.HashMap$EntrySet: java.util.HashMap this$0>"},{"step":13,"from":"1093771400","to":"1093427560","type":"store","field":"<java.util.HashMap$EntryIterator: java.util.HashMap this$0>"},{"step":14,"from":"1093771400","to":"1093427560","type":"store","field":"<java.util.HashMap$HashIterator: java.util.HashMap this$0>"},{"step":15,"from":"1093771400","to":"1093771400.<java.util.HashMap: int modCount>","type":"load","field":"<java.util.HashMap: int modCount>"},{"step":16,"from":"1093771400.<java.util.HashMap: int modCount>","to":"1093427560","type":"store","field":"<java.util.HashMap$HashIterator: int expectedModCount>"},{"step":17,"from":"1093771400","to":"1093825536","type":"load","field":"<java.util.HashMap: java.util.HashMap$HashMapEntry[] table>"},{"step":18,"from":"1093427560","to":"1093427560.<java.util.HashMap$HashIterator: int nextIndex>","type":"load","field":"<java.util.HashMap$HashIterator: int nextIndex>"},{"step":19,"from":"1093427560","to":"1093427560.<java.util.HashMap$HashIterator: int nextIndex>","type":"load","field":"<java.util.HashMap$HashIterator: int nextIndex>"},{"step":20,"from":"sdaReg20","to":"1093427560","type":"store","field":"<java.util.HashMap$HashIterator: int nextIndex>"},{"step":21,"from":"1093825536","to":"1093821440","type":"load","field":"arrayIdx_int:0"},{"step":22,"from":"1093821440","to":"1093427560","type":"store","field":"<java.util.HashMap$HashIterator: java.util.HashMap$HashMapEntry nextEntry>"},{"step":23,"from":"1093771400","to":"1093771400.<java.util.HashMap: int modCount>","type":"load","field":"<java.util.HashMap: int modCount>"},{"step":24,"from":"1093771400","to":"1093825536","type":"load","field":"<java.util.HashMap: java.util.HashMap$HashMapEntry[] table>"},{"step":25,"from":"1093821440","to":"1093503432","type":"load","field":"<java.util.HashMap$HashMapEntry: java.util.HashMap$HashMapEntry next>"},{"step":26,"from":"1093503432","to":"1093427560","type":"store","field":"<java.util.HashMap$HashIterator: java.util.HashMap$HashMapEntry nextEntry>"},{"step":27,"from":"1093821440","to":"1093427560","type":"store","field":"<java.util.HashMap$HashIterator: java.util.HashMap$HashMapEntry lastEntryReturned>"},{"step":28,"from":"1093821440","to":"1093507456","type":"load","field":"<java.util.HashMap$HashMapEntry: java.lang.Object key>"},{"step":29,"from":"1093464816","to":"sdaReg40","type":"model"},{"step":30,"from":"sdaReg40","to":"1093464816","type":"model"},{"step":31,"from":"1093821440","to":"1083976944","type":"load","field":"<java.util.HashMap$HashMapEntry: java.lang.Object value>"},{"step":32,"from":"1083976944","to":"sdaReg48","type":"model"},{"step":33,"from":"1093464816","to":"sdaReg48","type":"model"},{"step":34,"from":"sdaReg48","to":"1093464816","type":"model"},{"step":35,"from":"1093771400","to":"1093771400.<java.util.HashMap: int modCount>","type":"load","field":"<java.util.HashMap: int modCount>"},{"step":36,"from":"1093771400","to":"1093825536","type":"load","field":"<java.util.HashMap: java.util.HashMap$HashMapEntry[] table>"},{"step":37,"from":"sdaReg55","to":"1093427560","type":"store","field":"<java.util.HashMap$HashIterator: int nextIndex>"},{"step":38,"from":"1093825536","to":"1093852592","type":"load","field":"arrayIdx_int:1"},{"step":39,"from":"1093852592","to":"1093427560","type":"store","field":"<java.util.HashMap$HashIterator: java.util.HashMap$HashMapEntry nextEntry>"},{"step":40,"from":"1093503432","to":"1093427560","type":"store","field":"<java.util.HashMap$HashIterator: java.util.HashMap$HashMapEntry lastEntryReturned>"},{"step":41,"from":"1093503432","to":"1084420848","type":"load","field":"<java.util.HashMap$HashMapEntry: java.lang.Object key>"},{"step":42,"from":"1093464816","to":"sdaReg64","type":"model"},{"step":43,"from":"sdaReg64","to":"1093464816","type":"model"},{"step":44,"from":"1093503432","to":"1093507072","type":"load","field":"<java.util.HashMap$HashMapEntry: java.lang.Object value>"},{"step":45,"from":"1093464816","to":"sdaReg70","type":"model"},{"step":46,"from":"sdaReg70","to":"1093464816","type":"model"},{"step":47,"from":"1093771400","to":"1093771400.<java.util.HashMap: int modCount>","type":"load","field":"<java.util.HashMap: int modCount>"},{"step":48,"from":"1093771400","to":"1093825536","type":"load","field":"<java.util.HashMap: java.util.HashMap$HashMapEntry[] table>"},{"step":49,"from":"sdaReg77","to":"1093427560","type":"store","field":"<java.util.HashMap$HashIterator: int nextIndex>"},{"step":50,"from":"1093825536","to":"1093446040","type":"load","field":"arrayIdx_int:2"},{"step":51,"from":"1093446040","to":"1093427560","type":"store","field":"<java.util.HashMap$HashIterator: java.util.HashMap$HashMapEntry nextEntry>"},{"step":52,"from":"1093852592","to":"1093427560","type":"store","field":"<java.util.HashMap$HashIterator: java.util.HashMap$HashMapEntry lastEntryReturned>"},{"step":53,"from":"1093852592","to":"1085340984","type":"load","field":"<java.util.HashMap$HashMapEntry: java.lang.Object key>"},{"step":54,"from":"1093464816","to":"sdaReg86","type":"model"},{"step":55,"from":"sdaReg86","to":"1093464816","type":"model"},{"step":56,"from":"1093852592","to":"1093579760","type":"load","field":"<java.util.HashMap$HashMapEntry: java.lang.Object value>"},{"step":57,"from":"1093464816","to":"sdaReg92","type":"model"},{"step":58,"from":"sdaReg92","to":"1093464816","type":"model"},{"step":59,"from":"1093771400","to":"1093771400.<java.util.HashMap: int modCount>","type":"load","field":"<java.util.HashMap: int modCount>"},{"step":60,"from":"1093771400","to":"1093825536","type":"load","field":"<java.util.HashMap: java.util.HashMap$HashMapEntry[] table>"},{"step":61,"from":"sdaReg99","to":"1093427560","type":"store","field":"<java.util.HashMap$HashIterator: int nextIndex>"},{"step":62,"from":"1093825536","to":"1093478584","type":"load","field":"arrayIdx_int:3"},{"step":63,"from":"1093478584","to":"1093427560","type":"store","field":"<java.util.HashMap$HashIterator: java.util.HashMap$HashMapEntry nextEntry>"},{"step":64,"from":"1093446040","to":"1093427560","type":"store","field":"<java.util.HashMap$HashIterator: java.util.HashMap$HashMapEntry lastEntryReturned>"},{"step":65,"from":"1093446040","to":"1084612152","type":"load","field":"<java.util.HashMap$HashMapEntry: java.lang.Object key>"},{"step":66,"from":"1093464816","to":"sdaReg108","type":"model"},{"step":67,"from":"sdaReg108","to":"1093464816","type":"model"},{"step":68,"from":"1093446040","to":"1083999368","type":"load","field":"<java.util.HashMap$HashMapEntry: java.lang.Object value>"},{"step":69,"from":"1093464816","to":"sdaReg114","type":"model"},{"step":70,"from":"sdaReg114","to":"1093464816","type":"model"},{"step":71,"from":"1093771400","to":"1093771400.<java.util.HashMap: int modCount>","type":"load","field":"<java.util.HashMap: int modCount>"},{"step":72,"from":"1093771400","to":"1093825536","type":"load","field":"<java.util.HashMap: java.util.HashMap$HashMapEntry[] table>"},{"step":73,"from":"sdaReg121","to":"1093427560","type":"store","field":"<java.util.HashMap$HashIterator: int nextIndex>"},{"step":74,"from":"sdaReg121","to":"1093427560","type":"store","field":"<java.util.HashMap$HashIterator: int nextIndex>"},{"step":75,"from":"1093825536","to":"1093489088","type":"load","field":"arrayIdx_int:5"},{"step":76,"from":"1093489088","to":"1093427560","type":"store","field":"<java.util.HashMap$HashIterator: java.util.HashMap$HashMapEntry nextEntry>"},{"step":77,"from":"1093478584","to":"1093427560","type":"store","field":"<java.util.HashMap$HashIterator: java.util.HashMap$HashMapEntry lastEntryReturned>"},{"step":78,"from":"1093478584","to":"1093507608","type":"load","field":"<java.util.HashMap$HashMapEntry: java.lang.Object key>"},{"step":79,"from":"1093464816","to":"sdaReg131","type":"model"},{"step":80,"from":"sdaReg131","to":"1093464816","type":"model"},{"step":81,"from":"1093478584","to":"1083976944","type":"load","field":"<java.util.HashMap$HashMapEntry: java.lang.Object value>"},{"step":82,"from":"1083976944","to":"sdaReg139","type":"model"},{"step":83,"from":"1093464816","to":"sdaReg139","type":"model"},{"step":84,"from":"sdaReg139","to":"1093464816","type":"model"},{"step":85,"from":"1093771400","to":"1093771400.<java.util.HashMap: int modCount>","type":"load","field":"<java.util.HashMap: int modCount>"},{"step":86,"from":"1093771400","to":"1093825536","type":"load","field":"<java.util.HashMap: java.util.HashMap$HashMapEntry[] table>"},{"step":87,"from":"sdaReg146","to":"1093427560","type":"store","field":"<java.util.HashMap$HashIterator: int nextIndex>"},{"step":88,"from":"sdaReg146","to":"1093427560","type":"store","field":"<java.util.HashMap$HashIterator: int nextIndex>"},{"step":89,"from":"1093489088","to":"1093427560","type":"store","field":"<java.util.HashMap$HashIterator: java.util.HashMap$HashMapEntry lastEntryReturned>"},{"step":90,"from":"1093489088","to":"1093507392","type":"load","field":"<java.util.HashMap$HashMapEntry: java.lang.Object key>"},{"step":91,"from":"1093464816","to":"sdaReg157","type":"model"},{"step":92,"from":"sdaReg157","to":"1093464816","type":"model"},{"step":93,"from":"1093489088","to":"1093522184","type":"load","field":"<java.util.HashMap$HashMapEntry: java.lang.Object value>"},{"step":94,"from":"1093464816","to":"sdaReg163","type":"model"},{"step":95,"from":"sdaReg163","to":"1093464816","type":"model"},{"step":96,"from":"1093464816","to":"sdaReg166","type":"model"},{"step":97,"from":"1093464816","to":"sdaReg167","type":"model"},{"step":98,"from":"sdaReg167","to":"1093464816","type":"model"},{"step":99,"from":"1093464816","to":"sdaReg168","type":"model"},{"step":100,"from":"sdaReg168","to":"1093464816","type":"model"},{"step":101,"from":"1093464816","to":"sdaReg166","type":"model"},{"step":102,"from":"sdaReg166","to":"1093464816","type":"model"},{"step":103,"from":"1093464816","to":"sdaReg1","type":"model"},{"step":104,"from":"sdaReg1","to":"1093464816","type":"model"}],"parameters":[{"id":"1093770544","name":"this","klass":"android.os.Bundle"},{"id":"1093464816","name":"arg#1","klass":"android.os.Parcel"},{"id":"sdaReg0","name":"arg#2","klass":"int"}],"returns":[{"id":null,"name":"return","klass":null}],"colors":{"heapLocToColor":{"sdaReg125":[0],"sdaReg126":[0],"sdaReg127":[0],"sdaReg128":[1],"sdaReg129":[0],"sdaReg68":[0],"sdaReg66":[0],"1093478584.<java.util.HashMap$HashMapEntry: java.lang.Object value>":[0],"sdaReg67":[1],"sdaReg64":[0, 1],"sdaReg65":[0],"sdaReg62":[0],"sdaReg13":[5],"1093446040":[0],"sdaReg14":[0],"1083976944":[0],"sdaReg71":[5],"1093579760":[0],"sdaReg11":[5],"sdaReg70":[0, 1],"sdaReg12":[0],"sdaReg10":[0],"sdaReg17":[5],"sdaReg124":[0],"sdaReg15":[5],"sdaReg123":[0],"sdaReg16":[0],"1093522184":[0],"sdaReg117":[5],"sdaReg114":[0, 1],"sdaReg115":[5],"sdaReg118":[5],"sdaReg119":[5],"sdaReg78":[0],"sdaReg79":[0],"sdaReg73":[5],"1093507608":[0],"sdaReg74":[5],"sdaReg75":[5],"sdaReg81":[0],"sdaReg80":[0],"sdaReg83":[1],"sdaReg82":[0],"1093427560":[5],"1093771400.<java.util.HashMap: java.util.HashMap$HashMapEntry[] table>":[0],"sdaReg112":[0],"sdaReg111":[1],"sdaReg110":[0],"sdaReg108":[0, 1],"sdaReg109":[0],"sdaReg103":[0],"sdaReg104":[0],"sdaReg105":[1],"sdaReg106":[0],"sdaReg86":[0, 1],"sdaReg87":[0],"sdaReg84":[0],"1093771400.<java.util.HashMap: int modCount>":[0],"sdaReg88":[0],"sdaReg89":[1],"sdaReg90":[0],"1093880424.<java.util.HashMap$EntrySet: java.util.HashMap this$0>":[0],"sdaReg93":[5],"sdaReg92":[0, 1],"sdaReg100":[0],"sdaReg102":[0],"sdaReg101":[0],"1093507456":[0],"sdaReg95":[5],"sdaReg96":[5],"sdaReg97":[5],"1093503432":[0],"1093464816":[1],"sdaReg60":[0],"sdaReg61":[1],"1084420848":[0],"1093489088":[0],"sdaReg161":[0],"sdaReg163":[0, 1],"sdaReg164":[5],"1093770544.<android.os.Bundle: boolean mAllowFds>":[0, 1],"sdaReg166":[1, 8],"sdaReg167":[1, 4],"sdaReg168":[1, 4, 8],"sdaReg59":[0],"sdaReg58":[0],"sdaReg57":[0],"sdaReg56":[0],"sdaReg53":[5],"sdaReg52":[5],"sdaReg160":[1],"sdaReg51":[5],"1093852592":[0],"sdaReg159":[0],"sdaReg158":[0],"sdaReg152":[0],"sdaReg153":[0],"sdaReg150":[0],"sdaReg151":[0],"1093825536":[0],"sdaReg49":[5],"sdaReg157":[0, 1],"1083999368":[0],"sdaReg48":[0, 1, 6],"sdaReg154":[1],"sdaReg155":[0],"sdaReg44":[0],"sdaReg47":[0],"sdaReg41":[0],"sdaReg40":[0, 1],"sdaReg43":[1],"sdaReg42":[0],"1093507392":[0],"1093880424":[0],"1093770544":[0],"1093771400.<java.util.HashMap: int size>":[0, 1],"1085340984":[0],"1093478584":[0],"sdaReg149":[0],"1093771400":[0],"sdaReg143":[5],"sdaReg144":[5],"sdaReg38":[0],"sdaReg37":[1],"sdaReg140":[5],"sdaReg142":[5],"sdaReg32":[0],"sdaReg31":[0],"sdaReg30":[5],"sdaReg36":[0],"sdaReg35":[0],"sdaReg34":[0],"sdaReg33":[0],"sdaReg8":[0],"sdaReg9":[0],"sdaReg7":[0],"sdaReg4":[0],"sdaReg5":[0],"1084612152":[0],"1093427560.<java.util.HashMap$HashIterator: int nextIndex>":[5],"sdaReg139":[0, 1, 7],"sdaReg138":[0],"sdaReg134":[1],"sdaReg135":[0],"sdaReg26":[5],"sdaReg132":[0],"sdaReg29":[5],"sdaReg133":[0],"sdaReg28":[5],"1093507072":[0],"sdaReg131":[0, 1],"sdaReg3":[1],"sdaReg2":[1, 4],"sdaReg21":[5],"sdaReg1":[1, 3],"sdaReg20":[5],"sdaReg0":[2],"sdaReg23":[5],"sdaReg22":[5],"sdaReg25":[5],"sdaReg24":[5],"1093821440":[0]},"colorToColor":{"0":[1, 3, 5],"1":[1, 3],"3":[1],"4":[1],"5":[5],"6":[1],"7":[1],"8":[1]},"colorToLabel":{"0":"this","1":"arg#1","2":"arg#2","9":"return"}}}

Generated Model
	this->arg#1

