Scanning method <android.os.Bundle: void writeToParcel(android.os.Parcel,int)>

All seen event types: StoreArrayRecord, SimpleAssignmentRecord, LoadInstanceRecord, MethodStartRecord, IfRecord, InstanceOfRecord, NewObjectRecord, StoreInstanceRecord, LoadStaticRecord, NewArrayRecord, BinaryOperationRecord, MethodCallRecord, MethodReturnRecord, ArrayLengthRecord, CastRecord, LoadArrayRecord, MethodEndRecord, 
Ignored event types: IfRecord, 

JSON Encoded Analysis Data (for visualization):{"heapEdges":[{"step":0,"from":"1093718744","to":"1093718744.<android.os.Bundle: boolean mAllowFds>","type":"load","field":"<android.os.Bundle: boolean mAllowFds>"},{"step":1,"from":"1093445320","to":"1093718744.<android.os.Bundle: boolean mAllowFds>","type":"model"},{"step":2,"from":"1093445320","to":"sdaReg1","type":"model"},{"step":3,"from":"1093718744.<android.os.Bundle: boolean mAllowFds>","to":"1093445320","type":"model"},{"step":4,"from":"1093718744.<android.os.Bundle: boolean mAllowFds>","to":"sdaReg1","type":"model"},{"step":5,"from":"1093445320","to":"sdaReg2","type":"model"},{"step":6,"from":"1093718744","to":"1093467008","type":"load","field":"<android.os.Bundle: java.util.Map mMap>"},{"step":7,"from":"1093467008","to":"1093476256","type":"store","field":"<java.util.HashMap$EntrySet: java.util.HashMap this$0>"},{"step":8,"from":"1093467008","to":"1093476256","type":"create","field":"<java.util.HashMap: java.util.Set entrySet>"},{"step":9,"from":"1093467008","to":"1093467008.<java.util.HashMap: int size>","type":"load","field":"<java.util.HashMap: int size>"},{"step":10,"from":"1093445320","to":"1093467008.<java.util.HashMap: int size>","type":"model"},{"step":11,"from":"1093467008.<java.util.HashMap: int size>","to":"1093445320","type":"model"},{"step":12,"from":"1093467008","to":"1093806496","type":"store","field":"<java.util.HashMap$EntryIterator: java.util.HashMap this$0>"},{"step":13,"from":"1093467008","to":"1093806496","type":"store","field":"<java.util.HashMap$HashIterator: java.util.HashMap this$0>"},{"step":14,"from":"1093467008","to":"1093467008.<java.util.HashMap: int modCount>","type":"load","field":"<java.util.HashMap: int modCount>"},{"step":15,"from":"1093467008.<java.util.HashMap: int modCount>","to":"1093806496","type":"store","field":"<java.util.HashMap$HashIterator: int expectedModCount>"},{"step":16,"from":"1093467008","to":"1094073424","type":"load","field":"<java.util.HashMap: java.util.HashMap$HashMapEntry[] table>"},{"step":17,"from":"1093806496","to":"1093806496.<java.util.HashMap$HashIterator: int nextIndex>","type":"load","field":"<java.util.HashMap$HashIterator: int nextIndex>"},{"step":18,"from":"1093806496","to":"1093806496.<java.util.HashMap$HashIterator: int nextIndex>","type":"load","field":"<java.util.HashMap$HashIterator: int nextIndex>"},{"step":19,"from":"sdaReg31","to":"1093806496","type":"store","field":"<java.util.HashMap$HashIterator: int nextIndex>"},{"step":20,"from":"sdaReg31","to":"1093806496","type":"store","field":"<java.util.HashMap$HashIterator: int nextIndex>"},{"step":21,"from":"sdaReg31","to":"1093806496","type":"store","field":"<java.util.HashMap$HashIterator: int nextIndex>"},{"step":22,"from":"1094073424","to":"1094073464","type":"load","field":"arrayIdx_int:2"},{"step":23,"from":"1094073464","to":"1093806496","type":"store","field":"<java.util.HashMap$HashIterator: java.util.HashMap$HashMapEntry nextEntry>"},{"step":24,"from":"1093467008","to":"1093467008.<java.util.HashMap: int modCount>","type":"load","field":"<java.util.HashMap: int modCount>"},{"step":25,"from":"1093467008","to":"1094073424","type":"load","field":"<java.util.HashMap: java.util.HashMap$HashMapEntry[] table>"},{"step":26,"from":"sdaReg45","to":"1093806496","type":"store","field":"<java.util.HashMap$HashIterator: int nextIndex>"},{"step":27,"from":"1094073464","to":"1093806496","type":"store","field":"<java.util.HashMap$HashIterator: java.util.HashMap$HashMapEntry lastEntryReturned>"},{"step":28,"from":"1094073464","to":"1093512816","type":"load","field":"<java.util.HashMap$HashMapEntry: java.lang.Object key>"},{"step":29,"from":"1093445320","to":"sdaReg56","type":"model"},{"step":30,"from":"sdaReg56","to":"1093445320","type":"model"},{"step":31,"from":"1094073464","to":"1084053032","type":"load","field":"<java.util.HashMap$HashMapEntry: java.lang.Object value>"},{"step":32,"from":"1084053032","to":"1083932144","type":"model"},{"step":33,"from":"1083932144","to":"sdaReg89","type":"model"},{"step":34,"from":"1093445320","to":"sdaReg89","type":"model"},{"step":35,"from":"sdaReg89","to":"1093445320","type":"model"},{"step":36,"from":"1093720520","to":"1093688968","type":"create","field":"<java.io.ByteArrayOutputStream: byte[] buf>"},{"step":37,"from":"1083925600","to":"1093831352","type":"model"},{"step":38,"from":"1093689320","to":"1093831352","type":"create","field":"<java.io.ObjectOutputStream: java.io.ObjectStreamClass proxyClassDesc>"},{"step":39,"from":"1093720520","to":"1093506960","type":"model"},{"step":40,"from":"1093720520","to":"1093506960","type":"model"},{"step":41,"from":"1093506960","to":"1093506984","type":"create","field":"<java.io.DataOutputStream: byte[] scratch>"},{"step":42,"from":"1093689320","to":"1093506960","type":"create","field":"<java.io.ObjectOutputStream: java.io.DataOutputStream output>"},{"step":43,"from":"1093689320","to":"sdaReg103","type":"create","field":"<java.io.ObjectOutputStream: boolean enableReplace>"},{"step":44,"from":"1093689320","to":"sdaReg104","type":"create","field":"<java.io.ObjectOutputStream: int protocolVersion>"},{"step":45,"from":"1093689320","to":"sdaReg105","type":"create","field":"<java.io.ObjectOutputStream: boolean subclassOverridingImplementation>"},{"step":46,"from":"1093500888","to":"sdaReg110","type":"create","field":"<java.io.SerializationHandleMap: int size>"},{"step":47,"from":"1093500888","to":"sdaReg111","type":"create","field":"<java.io.SerializationHandleMap: int threshold>"},{"step":48,"from":"1093500888","to":"1093500920","type":"create","field":"<java.io.SerializationHandleMap: java.lang.Object[] keys>"},{"step":49,"from":"1093500888","to":"1093501056","type":"create","field":"<java.io.SerializationHandleMap: int[] values>"},{"step":50,"from":"1093689320","to":"1093500888","type":"create","field":"<java.io.ObjectOutputStream: java.io.SerializationHandleMap objectsWritten>"},{"step":51,"from":"1093689320","to":"sdaReg118","type":"create","field":"<java.io.ObjectOutputStream: int currentHandle>"},{"step":52,"from":"1093689320","to":"sdaReg119","type":"create","field":"<java.io.ObjectOutputStream: int nestedLevels>"},{"step":53,"from":"1093689320","to":"1093482224","type":"create","field":"<java.io.ObjectOutputStream: java.io.StreamCorruptedException nestedException>"},{"step":54,"from":"1093506960","to":"1093689320","type":"store","field":"<java.io.ObjectOutputStream: java.io.DataOutputStream primitiveTypes>"},{"step":55,"from":"static.<java.nio.ByteOrder: java.nio.ByteOrder BIG_ENDIAN>","to":"1084439336","type":"load","field":"<java.nio.ByteOrder: java.nio.ByteOrder BIG_ENDIAN>"},{"step":56,"from":"1093506984","to":"sdaReg130","type":"model"},{"step":57,"from":"1093506984","to":"1084439336","type":"model"},{"step":58,"from":"sdaReg130","to":"1093506984","type":"model"},{"step":59,"from":"sdaReg130","to":"1084439336","type":"model"},{"step":60,"from":"1084439336","to":"1093506984","type":"model"},{"step":61,"from":"1084439336","to":"sdaReg130","type":"model"},{"step":62,"from":"1093506960","to":"1093720520","type":"load","field":"<java.io.FilterOutputStream: java.io.OutputStream out>"},{"step":63,"from":"1093720520","to":"1093720520.<java.io.ByteArrayOutputStream: int count>","type":"load","field":"<java.io.ByteArrayOutputStream: int count>"},{"step":64,"from":"1093720520","to":"1093720520.<java.io.ByteArrayOutputStream: int count>","type":"load","field":"<java.io.ByteArrayOutputStream: int count>"},{"step":65,"from":"1093506984","to":"1093688968","type":"model"},{"step":66,"from":"1093720520","to":"1093720520.<java.io.ByteArrayOutputStream: int count>","type":"load","field":"<java.io.ByteArrayOutputStream: int count>"},{"step":67,"from":"sdaReg141","to":"1093720520","type":"store","field":"<java.io.ByteArrayOutputStream: int count>"},{"step":68,"from":"1093506960","to":"1093506960.<java.io.DataOutputStream: int written>","type":"load","field":"<java.io.DataOutputStream: int written>"},{"step":69,"from":"sdaReg142","to":"1093506960","type":"store","field":"<java.io.DataOutputStream: int written>"},{"step":70,"from":"static.<java.nio.ByteOrder: java.nio.ByteOrder BIG_ENDIAN>","to":"1084439336","type":"load","field":"<java.nio.ByteOrder: java.nio.ByteOrder BIG_ENDIAN>"},{"step":71,"from":"1093506984","to":"sdaReg145","type":"model"},{"step":72,"from":"1093506984","to":"1084439336","type":"model"},{"step":73,"from":"sdaReg145","to":"1093506984","type":"model"},{"step":74,"from":"sdaReg145","to":"1084439336","type":"model"},{"step":75,"from":"1084439336","to":"1093506984","type":"model"},{"step":76,"from":"1084439336","to":"sdaReg145","type":"model"},{"step":77,"from":"1093506960","to":"1093720520","type":"load","field":"<java.io.FilterOutputStream: java.io.OutputStream out>"},{"step":78,"from":"1093506984","to":"1093688968","type":"model"},{"step":79,"from":"sdaReg156","to":"1093720520","type":"store","field":"<java.io.ByteArrayOutputStream: int count>"},{"step":80,"from":"sdaReg157","to":"1093506960","type":"store","field":"<java.io.DataOutputStream: int written>"},{"step":81,"from":"1093689320","to":"sdaReg158","type":"create","field":"<java.io.ObjectOutputStream: java.io.DataOutputStream primitiveTypes>"},{"step":82,"from":"1084053032","to":"sdaReg184","type":"model"},{"step":83,"from":"1084053032","to":"1083932144","type":"model"},{"step":84,"from":"1083932144","to":"1093457872","type":"model"},{"step":85,"from":"sdaReg194","to":"1093689320","type":"store","field":"<java.io.ObjectOutputStream: int nestedLevels>"},{"step":86,"from":"static.<java.io.ObjectStreamClass: java.lang.Class CLASSCLASS>","to":"1083908584","type":"load","field":"<java.io.ObjectStreamClass: java.lang.Class CLASSCLASS>"},{"step":87,"from":"static.<java.io.ObjectStreamClass: java.lang.Class OBJECTSTREAMCLASSCLASS>","to":"1083943040","type":"load","field":"<java.io.ObjectStreamClass: java.lang.Class OBJECTSTREAMCLASSCLASS>"},{"step":88,"from":"1093457872","to":"sdaReg195","type":"model"},{"step":89,"from":"1093457872","to":"sdaReg196","type":"model"},{"step":90,"from":"static.<java.io.ObjectStreamClass: java.lang.Class CLASSCLASS>","to":"1083908584","type":"load","field":"<java.io.ObjectStreamClass: java.lang.Class CLASSCLASS>"},{"step":91,"from":"static.<java.io.ObjectStreamClass: java.lang.Class OBJECTSTREAMCLASSCLASS>","to":"1083943040","type":"load","field":"<java.io.ObjectStreamClass: java.lang.Class OBJECTSTREAMCLASSCLASS>"},{"step":92,"from":"static.<java.io.ObjectStreamClass: java.lang.Class STRINGCLASS>","to":"1083912376","type":"load","field":"<java.io.ObjectStreamClass: java.lang.Class STRINGCLASS>"},{"step":93,"from":"1083932144","to":"sdaReg197","type":"model"},{"step":94,"from":"1093689320","to":"sdaReg203","type":"create","field":"<java.io.ObjectOutputStream: java.io.EmulatedFieldsForDumping currentPutField>"},{"step":95,"from":"1093457872","to":"sdaReg204","type":"model"},{"step":96,"from":"1093457872","to":"sdaReg205","type":"model"},{"step":97,"from":"1093506960","to":"1093720520","type":"load","field":"<java.io.FilterOutputStream: java.io.OutputStream out>"},{"step":98,"from":"sdaReg210","to":"1093720520","type":"store","field":"<java.io.ByteArrayOutputStream: int count>"},{"step":99,"from":"sdaReg211","to":"1093688968","type":"store","field":"arrayIdx_int:4"},{"step":100,"from":"sdaReg212","to":"1093506960","type":"store","field":"<java.io.DataOutputStream: int written>"},{"step":101,"from":"1093457872","to":"sdaReg227","type":"model"},{"step":102,"from":"1093457872","to":"1083932144","type":"model"},{"step":103,"from":"sdaReg240","to":"1093689320","type":"store","field":"<java.io.ObjectOutputStream: int currentHandle>"},{"step":104,"from":"1093457872","to":"sdaReg252","type":"model"},{"step":105,"from":"sdaReg258","to":"1093500888","type":"store","field":"<java.io.SerializationHandleMap: int size>"},{"step":106,"from":"1093500920","to":"1093457872","type":"create","field":"arrayIdx_int:24"},{"step":107,"from":"1093501056","to":"sdaReg259","type":"create","field":"arrayIdx_int:24"},{"step":108,"from":"sdaReg245","to":"1093501056","type":"store","field":"arrayIdx_int:24"},{"step":109,"from":"1093457872","to":"sdaReg261","type":"model"},{"step":110,"from":"1093506960","to":"1093720520","type":"load","field":"<java.io.FilterOutputStream: java.io.OutputStream out>"},{"step":111,"from":"sdaReg266","to":"1093720520","type":"store","field":"<java.io.ByteArrayOutputStream: int count>"},{"step":112,"from":"sdaReg267","to":"1093688968","type":"store","field":"arrayIdx_int:5"},{"step":113,"from":"sdaReg268","to":"1093506960","type":"store","field":"<java.io.DataOutputStream: int written>"},{"step":114,"from":"1093506960","to":"1093689320","type":"store","field":"<java.io.ObjectOutputStream: java.io.DataOutputStream primitiveTypes>"},{"step":115,"from":"1093457872","to":"sdaReg273","type":"model"},{"step":116,"from":"sdaReg273","to":"sdaReg279","type":"model"},{"step":117,"from":"sdaReg273","to":"sdaReg281","type":"model"},{"step":118,"from":"sdaReg273","to":"sdaReg282","type":"model"},{"step":119,"from":"sdaReg273","to":"sdaReg283","type":"model"},{"step":120,"from":"sdaReg273","to":"sdaReg284","type":"model"},{"step":121,"from":"sdaReg273","to":"sdaReg285","type":"model"},{"step":122,"from":"sdaReg273","to":"sdaReg286","type":"model"},{"step":123,"from":"sdaReg273","to":"sdaReg287","type":"model"},{"step":124,"from":"sdaReg273","to":"sdaReg288","type":"model"},{"step":125,"from":"sdaReg273","to":"sdaReg289","type":"model"},{"step":126,"from":"sdaReg273","to":"sdaReg290","type":"model"},{"step":127,"from":"sdaReg273","to":"sdaReg291","type":"model"},{"step":128,"from":"sdaReg273","to":"sdaReg292","type":"model"},{"step":129,"from":"sdaReg273","to":"sdaReg293","type":"model"},{"step":130,"from":"sdaReg273","to":"sdaReg294","type":"model"},{"step":131,"from":"sdaReg273","to":"sdaReg295","type":"model"},{"step":132,"from":"sdaReg273","to":"sdaReg296","type":"model"},{"step":133,"from":"sdaReg273","to":"sdaReg297","type":"model"},{"step":134,"from":"sdaReg273","to":"sdaReg298","type":"model"},{"step":135,"from":"static.<java.nio.ByteOrder: java.nio.ByteOrder BIG_ENDIAN>","to":"1084439336","type":"load","field":"<java.nio.ByteOrder: java.nio.ByteOrder BIG_ENDIAN>"},{"step":136,"from":"1093553712","to":"sdaReg301","type":"model"},{"step":137,"from":"1093553712","to":"1084439336","type":"model"},{"step":138,"from":"sdaReg301","to":"1093553712","type":"model"},{"step":139,"from":"sdaReg301","to":"1084439336","type":"model"},{"step":140,"from":"1084439336","to":"1093553712","type":"model"},{"step":141,"from":"1084439336","to":"sdaReg301","type":"model"},{"step":142,"from":"sdaReg273","to":"sdaReg306","type":"model"},{"step":143,"from":"sdaReg308","to":"1093553712","type":"store","field":"arrayIdx_int:2"},{"step":144,"from":"sdaReg273","to":"sdaReg309","type":"model"},{"step":145,"from":"sdaReg308","to":"1093553712","type":"store","field":"arrayIdx_int:3"},{"step":146,"from":"sdaReg273","to":"sdaReg310","type":"model"},{"step":147,"from":"sdaReg308","to":"1093553712","type":"store","field":"arrayIdx_int:4"},{"step":148,"from":"sdaReg273","to":"sdaReg311","type":"model"},{"step":149,"from":"sdaReg308","to":"1093553712","type":"store","field":"arrayIdx_int:5"},{"step":150,"from":"sdaReg273","to":"sdaReg312","type":"model"},{"step":151,"from":"sdaReg308","to":"1093553712","type":"store","field":"arrayIdx_int:6"},{"step":152,"from":"sdaReg273","to":"sdaReg313","type":"model"},{"step":153,"from":"sdaReg308","to":"1093553712","type":"store","field":"arrayIdx_int:7"},{"step":154,"from":"sdaReg273","to":"sdaReg314","type":"model"},{"step":155,"from":"sdaReg308","to":"1093553712","type":"store","field":"arrayIdx_int:8"},{"step":156,"from":"sdaReg273","to":"sdaReg315","type":"model"},{"step":157,"from":"sdaReg308","to":"1093553712","type":"store","field":"arrayIdx_int:9"},{"step":158,"from":"sdaReg273","to":"sdaReg316","type":"model"},{"step":159,"from":"sdaReg308","to":"1093553712","type":"store","field":"arrayIdx_int:10"},{"step":160,"from":"sdaReg273","to":"sdaReg317","type":"model"},{"step":161,"from":"sdaReg308","to":"1093553712","type":"store","field":"arrayIdx_int:11"},{"step":162,"from":"sdaReg273","to":"sdaReg318","type":"model"},{"step":163,"from":"sdaReg308","to":"1093553712","type":"store","field":"arrayIdx_int:12"},{"step":164,"from":"sdaReg273","to":"sdaReg319","type":"model"},{"step":165,"from":"sdaReg308","to":"1093553712","type":"store","field":"arrayIdx_int:13"},{"step":166,"from":"sdaReg273","to":"sdaReg320","type":"model"},{"step":167,"from":"sdaReg308","to":"1093553712","type":"store","field":"arrayIdx_int:14"},{"step":168,"from":"sdaReg273","to":"sdaReg321","type":"model"},{"step":169,"from":"sdaReg308","to":"1093553712","type":"store","field":"arrayIdx_int:15"},{"step":170,"from":"sdaReg273","to":"sdaReg322","type":"model"},{"step":171,"from":"sdaReg308","to":"1093553712","type":"store","field":"arrayIdx_int:16"},{"step":172,"from":"sdaReg273","to":"sdaReg323","type":"model"},{"step":173,"from":"sdaReg308","to":"1093553712","type":"store","field":"arrayIdx_int:17"},{"step":174,"from":"sdaReg273","to":"sdaReg324","type":"model"},{"step":175,"from":"sdaReg308","to":"1093553712","type":"store","field":"arrayIdx_int:18"},{"step":176,"from":"sdaReg273","to":"sdaReg325","type":"model"},{"step":177,"from":"sdaReg308","to":"1093553712","type":"store","field":"arrayIdx_int:19"},{"step":178,"from":"sdaReg273","to":"sdaReg326","type":"model"},{"step":179,"from":"sdaReg308","to":"1093553712","type":"store","field":"arrayIdx_int:20"},{"step":180,"from":"1093506960","to":"1093553712","type":"model"},{"step":181,"from":"1093553712","to":"1093506960","type":"model"},{"step":182,"from":"1093457872","to":"sdaReg328","type":"model"},{"step":183,"from":"static.<java.nio.ByteOrder: java.nio.ByteOrder BIG_ENDIAN>","to":"1084439336","type":"load","field":"<java.nio.ByteOrder: java.nio.ByteOrder BIG_ENDIAN>"},{"step":184,"from":"1093506984","to":"sdaReg328","type":"model"},{"step":185,"from":"1093506984","to":"1084439336","type":"model"},{"step":186,"from":"sdaReg328","to":"1093506984","type":"model"},{"step":187,"from":"sdaReg328","to":"1084439336","type":"model"},{"step":188,"from":"1084439336","to":"1093506984","type":"model"},{"step":189,"from":"1084439336","to":"sdaReg328","type":"model"},{"step":190,"from":"1093506960","to":"1093720520","type":"load","field":"<java.io.FilterOutputStream: java.io.OutputStream out>"},{"step":191,"from":"1093688968","to":"1094131936","type":"model"},{"step":192,"from":"1093720520","to":"1094131936","type":"create","field":"<java.io.ByteArrayOutputStream: byte[] buf>"},{"step":193,"from":"1093506984","to":"1094131936","type":"model"},{"step":194,"from":"sdaReg342","to":"1093720520","type":"store","field":"<java.io.ByteArrayOutputStream: int count>"},{"step":195,"from":"sdaReg343","to":"1093506960","type":"store","field":"<java.io.DataOutputStream: int written>"},{"step":196,"from":"1093457872","to":"sdaReg344","type":"model"},{"step":197,"from":"1093457872","to":"sdaReg345","type":"model"},{"step":198,"from":"1093506960","to":"sdaReg344","type":"model"},{"step":199,"from":"sdaReg344","to":"1093506960","type":"model"},{"step":200,"from":"1093457872","to":"sdaReg346","type":"model"},{"step":201,"from":"1093457872","to":"1083932144","type":"model"},{"step":202,"from":"static.<java.io.ObjectStreamClass: java.lang.Class STRINGCLASS>","to":"1083912376","type":"load","field":"<java.io.ObjectStreamClass: java.lang.Class STRINGCLASS>"},{"step":203,"from":"1093457872","to":"1093892960","type":"model"},{"step":204,"from":"static.<java.nio.ByteOrder: java.nio.ByteOrder BIG_ENDIAN>","to":"1084439336","type":"load","field":"<java.nio.ByteOrder: java.nio.ByteOrder BIG_ENDIAN>"},{"step":205,"from":"1093506984","to":"sdaReg355","type":"model"},{"step":206,"from":"1093506984","to":"1084439336","type":"model"},{"step":207,"from":"sdaReg355","to":"1093506984","type":"model"},{"step":208,"from":"sdaReg355","to":"1084439336","type":"model"},{"step":209,"from":"1084439336","to":"1093506984","type":"model"},{"step":210,"from":"1084439336","to":"sdaReg355","type":"model"},{"step":211,"from":"1093506960","to":"1093720520","type":"load","field":"<java.io.FilterOutputStream: java.io.OutputStream out>"},{"step":212,"from":"1093506984","to":"1094131936","type":"model"},{"step":213,"from":"sdaReg366","to":"1093720520","type":"store","field":"<java.io.ByteArrayOutputStream: int count>"},{"step":214,"from":"sdaReg367","to":"1093506960","type":"store","field":"<java.io.DataOutputStream: int written>"},{"step":215,"from":"1093892960","to":"1093890560","type":"load","field":"arrayIdx_int:0"},{"step":216,"from":"1093890560","to":"1093892808","type":"load","field":"<java.io.ObjectStreamField: java.lang.Object type>"},{"step":217,"from":"1093890560","to":"1093892808","type":"load","field":"<java.io.ObjectStreamField: java.lang.Object type>"},{"step":218,"from":"1093892808","to":"1083909448","type":"model"},{"step":219,"from":"static.<java.lang.Integer: java.lang.Class TYPE>","to":"1083909616","type":"load","field":"<java.lang.Integer: java.lang.Class TYPE>"},{"step":220,"from":"static.<java.lang.Byte: java.lang.Class TYPE>","to":"1083909112","type":"load","field":"<java.lang.Byte: java.lang.Class TYPE>"},{"step":221,"from":"static.<java.lang.Character: java.lang.Class TYPE>","to":"1083909448","type":"load","field":"<java.lang.Character: java.lang.Class TYPE>"},{"step":222,"from":"1093506960","to":"sdaReg379","type":"model"},{"step":223,"from":"sdaReg379","to":"1093506960","type":"model"},{"step":224,"from":"1093890560","to":"1093890560.<java.io.ObjectStreamField: java.lang.String name>","type":"load","field":"<java.io.ObjectStreamField: java.lang.String name>"},{"step":225,"from":"1093890560.<java.io.ObjectStreamField: java.lang.String name>","to":"sdaReg385","type":"model"},{"step":226,"from":"1093890560.<java.io.ObjectStreamField: java.lang.String name>","to":"sdaReg387","type":"model"},{"step":227,"from":"1093890560.<java.io.ObjectStreamField: java.lang.String name>","to":"sdaReg388","type":"model"},{"step":228,"from":"1093890560.<java.io.ObjectStreamField: java.lang.String name>","to":"sdaReg389","type":"model"},{"step":229,"from":"1093890560.<java.io.ObjectStreamField: java.lang.String name>","to":"sdaReg390","type":"model"},{"step":230,"from":"static.<java.nio.ByteOrder: java.nio.ByteOrder BIG_ENDIAN>","to":"1084439336","type":"load","field":"<java.nio.ByteOrder: java.nio.ByteOrder BIG_ENDIAN>"},{"step":231,"from":"1094135032","to":"sdaReg393","type":"model"},{"step":232,"from":"1094135032","to":"1084439336","type":"model"},{"step":233,"from":"sdaReg393","to":"1094135032","type":"model"},{"step":234,"from":"sdaReg393","to":"1084439336","type":"model"},{"step":235,"from":"1084439336","to":"1094135032","type":"model"},{"step":236,"from":"1084439336","to":"sdaReg393","type":"model"},{"step":237,"from":"1093890560.<java.io.ObjectStreamField: java.lang.String name>","to":"sdaReg398","type":"model"},{"step":238,"from":"sdaReg400","to":"1094135032","type":"store","field":"arrayIdx_int:2"},{"step":239,"from":"1093890560.<java.io.ObjectStreamField: java.lang.String name>","to":"sdaReg401","type":"model"},{"step":240,"from":"sdaReg400","to":"1094135032","type":"store","field":"arrayIdx_int:3"},{"step":241,"from":"1093890560.<java.io.ObjectStreamField: java.lang.String name>","to":"sdaReg402","type":"model"},{"step":242,"from":"sdaReg400","to":"1094135032","type":"store","field":"arrayIdx_int:4"},{"step":243,"from":"1093890560.<java.io.ObjectStreamField: java.lang.String name>","to":"sdaReg403","type":"model"},{"step":244,"from":"sdaReg400","to":"1094135032","type":"store","field":"arrayIdx_int:5"},{"step":245,"from":"1093890560.<java.io.ObjectStreamField: java.lang.String name>","to":"sdaReg404","type":"model"},{"step":246,"from":"sdaReg400","to":"1094135032","type":"store","field":"arrayIdx_int:6"},{"step":247,"from":"1093506960","to":"1094135032","type":"model"},{"step":248,"from":"1094135032","to":"1093506960","type":"model"},{"step":249,"from":"1083909448","to":"sdaReg406","type":"model"},{"step":250,"from":"1093689320","to":"sdaReg408","type":"create","field":"<java.io.ObjectOutputStream: java.io.DataOutputStream primitiveTypes>"},{"step":251,"from":"1093506960","to":"1093720520","type":"load","field":"<java.io.FilterOutputStream: java.io.OutputStream out>"},{"step":252,"from":"sdaReg416","to":"1093720520","type":"store","field":"<java.io.ByteArrayOutputStream: int count>"},{"step":253,"from":"sdaReg417","to":"1094131936","type":"store","field":"arrayIdx_int:46"},{"step":254,"from":"sdaReg418","to":"1093506960","type":"store","field":"<java.io.DataOutputStream: int written>"},{"step":255,"from":"1093457872","to":"0","type":"model"},{"step":256,"from":"1093506960","to":"1093720520","type":"load","field":"<java.io.FilterOutputStream: java.io.OutputStream out>"},{"step":257,"from":"sdaReg427","to":"1093720520","type":"store","field":"<java.io.ByteArrayOutputStream: int count>"},{"step":258,"from":"sdaReg428","to":"1094131936","type":"store","field":"arrayIdx_int:47"},{"step":259,"from":"sdaReg429","to":"1093506960","type":"store","field":"<java.io.DataOutputStream: int written>"},{"step":260,"from":"sdaReg435","to":"1093689320","type":"store","field":"<java.io.ObjectOutputStream: int currentHandle>"},{"step":261,"from":"1084053032","to":"sdaReg447","type":"model"},{"step":262,"from":"sdaReg453","to":"1093500888","type":"store","field":"<java.io.SerializationHandleMap: int size>"},{"step":263,"from":"1084053032","to":"1093500920","type":"store","field":"arrayIdx_int:20"},{"step":264,"from":"1093501056","to":"sdaReg454","type":"create","field":"arrayIdx_int:20"},{"step":265,"from":"sdaReg440","to":"1093501056","type":"store","field":"arrayIdx_int:20"},{"step":266,"from":"1084053032","to":"1093689320","type":"store","field":"<java.io.ObjectOutputStream: java.lang.Object currentObject>"},{"step":267,"from":"1093457872","to":"1093689320","type":"store","field":"<java.io.ObjectOutputStream: java.io.ObjectStreamClass currentClass>"},{"step":268,"from":"1093457872","to":"1094139144","type":"model"},{"step":269,"from":"1094139144","to":"1094139144.<java.util.ArrayList: int size>","type":"load","field":"<java.util.ArrayList: int size>"},{"step":270,"from":"1094139144","to":"1094139144.<java.util.ArrayList: int size>","type":"load","field":"<java.util.ArrayList: int size>"},{"step":271,"from":"1094139144","to":"1093947960","type":"load","field":"<java.util.ArrayList: java.lang.Object[] array>"},{"step":272,"from":"1093947960","to":"1093457872","type":"load","field":"arrayIdx_int:0"},{"step":273,"from":"1084053032","to":"1093689320","type":"store","field":"<java.io.ObjectOutputStream: java.lang.Object currentObject>"},{"step":274,"from":"1093457872","to":"1093689320","type":"store","field":"<java.io.ObjectOutputStream: java.io.ObjectStreamClass currentClass>"},{"step":275,"from":"1093457872","to":"sdaReg466","type":"model"},{"step":276,"from":"1093457872","to":"1093892960","type":"model"},{"step":277,"from":"1093892960","to":"1093890560","type":"load","field":"arrayIdx_int:0"},{"step":278,"from":"1093890560","to":"1093892808","type":"load","field":"<java.io.ObjectStreamField: java.lang.Object type>"},{"step":279,"from":"1093890560","to":"1093892808","type":"load","field":"<java.io.ObjectStreamField: java.lang.Object type>"},{"step":280,"from":"1093892808","to":"1083909448","type":"model"},{"step":281,"from":"1093457872","to":"1093890560","type":"model"},{"step":282,"from":"1093457872","to":"1094139520","type":"model"},{"step":283,"from":"1093890560","to":"1093457872","type":"model"},{"step":284,"from":"1093890560","to":"1094139520","type":"model"},{"step":285,"from":"static.<java.lang.Byte: java.lang.Class TYPE>","to":"1083909112","type":"load","field":"<java.lang.Byte: java.lang.Class TYPE>"},{"step":286,"from":"static.<java.lang.Character: java.lang.Class TYPE>","to":"1083909448","type":"load","field":"<java.lang.Character: java.lang.Class TYPE>"},{"step":287,"from":"1094139520","to":"1084053032","type":"model"},{"step":288,"from":"1094139520","to":"sdaReg481","type":"model"},{"step":289,"from":"1084053032","to":"1094139520","type":"model"},{"step":290,"from":"1084053032","to":"sdaReg481","type":"model"},{"step":291,"from":"1093506960","to":"sdaReg481","type":"model"},{"step":292,"from":"sdaReg481","to":"1093506960","type":"model"},{"step":293,"from":"1093689320","to":"sdaReg482","type":"create","field":"<java.io.ObjectOutputStream: java.lang.Object currentObject>"},{"step":294,"from":"1093689320","to":"sdaReg483","type":"create","field":"<java.io.ObjectOutputStream: java.io.ObjectStreamClass currentClass>"},{"step":295,"from":"1093689320","to":"sdaReg484","type":"create","field":"<java.io.ObjectOutputStream: java.io.EmulatedFieldsForDumping currentPutField>"},{"step":296,"from":"1093689320","to":"sdaReg485","type":"create","field":"<java.io.ObjectOutputStream: java.lang.Object currentObject>"},{"step":297,"from":"1093689320","to":"sdaReg486","type":"create","field":"<java.io.ObjectOutputStream: java.io.ObjectStreamClass currentClass>"},{"step":298,"from":"sdaReg487","to":"1093689320","type":"store","field":"<java.io.ObjectOutputStream: int nestedLevels>"},{"step":299,"from":"1094131936","to":"1093485088","type":"model"},{"step":300,"from":"1093445320","to":"1093485088","type":"model"},{"step":301,"from":"1093445320","to":"sdaReg495","type":"model"},{"step":302,"from":"1093445320","to":"sdaReg496","type":"model"},{"step":303,"from":"1093485088","to":"1093445320","type":"model"},{"step":304,"from":"1093485088","to":"sdaReg495","type":"model"},{"step":305,"from":"1093485088","to":"sdaReg496","type":"model"},{"step":306,"from":"sdaReg495","to":"1093445320","type":"model"},{"step":307,"from":"sdaReg495","to":"1093485088","type":"model"},{"step":308,"from":"sdaReg495","to":"sdaReg496","type":"model"},{"step":309,"from":"sdaReg496","to":"1093445320","type":"model"},{"step":310,"from":"sdaReg496","to":"1093485088","type":"model"},{"step":311,"from":"sdaReg496","to":"sdaReg495","type":"model"},{"step":312,"from":"1093445320","to":"sdaReg499","type":"model"},{"step":313,"from":"1093445320","to":"sdaReg500","type":"model"},{"step":314,"from":"sdaReg500","to":"1093445320","type":"model"},{"step":315,"from":"1093445320","to":"sdaReg501","type":"model"},{"step":316,"from":"sdaReg501","to":"1093445320","type":"model"},{"step":317,"from":"1093445320","to":"sdaReg499","type":"model"},{"step":318,"from":"sdaReg499","to":"1093445320","type":"model"},{"step":319,"from":"1093445320","to":"sdaReg1","type":"model"},{"step":320,"from":"sdaReg1","to":"1093445320","type":"model"}],"parameters":[{"id":"1093718744","name":"this","klass":"android.os.Bundle"},{"id":"1093445320","name":"arg#1","klass":"android.os.Parcel"},{"id":"sdaReg0","name":"arg#2","klass":"int"}],"returns":[{"id":null,"name":"return","klass":null}],"colors":{"heapLocToColor":{"sdaReg294":[49, 33, 21],"sdaReg293":[33, 48, 21],"sdaReg296":[51, 33, 21],"sdaReg193":[21],"sdaReg295":[50, 33, 21],"sdaReg192":[0, 7],"sdaReg425":[9, 13],"sdaReg298":[33, 21, 53],"1093718744.<android.os.Bundle: boolean mAllowFds>":[0, 1],"sdaReg297":[33, 21, 52],"sdaReg423":[13],"sdaReg422":[11],"sdaReg326":[33, 21, 74],"sdaReg199":[11],"sdaReg325":[33, 21, 73],"sdaReg324":[33, 21, 72],"sdaReg323":[33, 71, 21],"sdaReg290":[33, 21, 45],"sdaReg195":[21, 24],"sdaReg329":[13],"sdaReg328":[21, 75],"sdaReg292":[33, 21, 47],"sdaReg197":[0, 7, 27],"sdaReg327":[54],"sdaReg291":[33, 21, 46],"sdaReg196":[21, 25],"sdaReg13":[5],"sdaReg14":[5],"sdaReg11":[5],"sdaReg12":[5],"sdaReg321":[69, 33, 21],"sdaReg322":[70, 33, 21],"sdaReg10":[5],"sdaReg320":[68, 33, 21],"sdaReg420":[11],"sdaReg421":[21, 99],"1084053032":[0, 103, 101, 21],"sdaReg19":[5],"sdaReg17":[5],"sdaReg18":[5],"sdaReg15":[5],"sdaReg16":[5],"1093482224":[18],"sdaReg412":[13],"sdaReg411":[11],"sdaReg414":[9, 13],"sdaReg313":[33, 21, 61],"sdaReg312":[33, 21, 60],"sdaReg315":[33, 21, 63],"1093947960.arrayIdx_int:0":[21],"sdaReg314":[33, 21, 62],"sdaReg317":[33, 21, 65],"sdaReg419":[21, 99],"sdaReg316":[33, 21, 64],"sdaReg319":[33, 21, 67],"sdaReg318":[33, 21, 66],"0":[21, 99],"1093689320":[11],"1094139520":[103, 101, 21],"sdaReg310":[33, 21, 58],"sdaReg311":[33, 21, 59],"sdaReg410":[0, 21, 7],"sdaReg447":[100],"1093890560.<java.io.ObjectStreamField: java.lang.String name>":[21, 80],"sdaReg446":[0],"1093720520.<java.io.ByteArrayOutputStream: int count>":[9, 13],"sdaReg445":[15],"static.<java.lang.Character: java.lang.Class TYPE>":[84, 101, 81, 21, 80],"sdaReg449":[100],"sdaReg448":[100],"sdaReg309":[33, 21, 57],"sdaReg170":[0],"sdaReg308":[68, 69, 70, 71, 33, 64, 65, 66, 67, 72, 73, 74, 21, 59, 58, 57, 56, 63, 62, 61, 60],"sdaReg306":[33, 21, 56],"sdaReg175":[0],"sdaReg174":[11],"sdaReg304":[55],"sdaReg177":[0],"sdaReg176":[15],"sdaReg302":[54],"sdaReg179":[0],"sdaReg178":[15],"1093718744":[0],"sdaReg442":[0],"1093467008.<java.util.HashMap: java.util.HashMap$HashMapEntry[] table>":[0],"sdaReg443":[16],"sdaReg441":[15],"1093892960.arrayIdx_int:0":[21, 80],"sdaReg434":[11],"sdaReg433":[0],"sdaReg438":[0],"sdaReg182":[15],"sdaReg437":[15],"sdaReg180":[16],"1093947960":[101, 21],"sdaReg439":[0],"1093890560.<java.io.ObjectStreamField: java.lang.Object type>":[101, 21, 80],"sdaReg186":[20],"sdaReg185":[20],"sdaReg184":[20],"sdaReg183":[0],"sdaReg189":[20],"1093476256":[5],"sdaReg188":[20],"sdaReg187":[20],"static.<java.io.ObjectStreamClass: java.lang.Class CLASSCLASS>":[22],"sdaReg432":[11],"sdaReg60":[0],"1093506960.<java.io.FilterOutputStream: java.io.OutputStream out>":[9, 13],"1093445320":[1],"sdaReg59":[1],"sdaReg58":[0],"sdaReg57":[0],"sdaReg56":[0, 1],"1093467008.<java.util.HashMap: int size>":[0, 1],"sdaReg54":[0],"sdaReg53":[1],"sdaReg52":[0],"1093501056":[17],"sdaReg51":[0],"sdaReg50":[0],"1093720520":[9, 13],"1093506960":[13],"sdaReg49":[0],"sdaReg48":[0],"sdaReg47":[0],"sdaReg41":[6],"sdaReg43":[6],"sdaReg42":[6],"sdaReg409":[11],"1094073424":[0],"sdaReg402":[21, 80, 95],"sdaReg403":[21, 80, 96],"sdaReg400":[21, 80, 96, 97, 93, 95, 94],"sdaReg401":[21, 80, 94],"1084439336":[19],"sdaReg406":[84, 81, 21, 98, 80],"sdaReg200":[0],"sdaReg201":[0, 7],"sdaReg404":[21, 80, 97],"sdaReg405":[91],"sdaReg205":[21, 29],"sdaReg39":[6],"sdaReg204":[21, 28],"sdaReg38":[6],"sdaReg37":[6],"sdaReg202":[21],"sdaReg208":[9, 13],"sdaReg206":[13],"sdaReg31":[6],"sdaReg36":[6],"sdaReg35":[6],"sdaReg34":[6],"1083932144":[0, 21, 7],"sdaReg8":[5],"sdaReg9":[0],"1093457872":[101, 21],"sdaReg6":[5],"sdaReg7":[0],"sdaReg4":[0],"sdaReg5":[0],"1094139144":[101, 21],"1093506984":[14],"sdaReg27":[0],"sdaReg26":[6],"sdaReg28":[6],"sdaReg3":[1],"sdaReg2":[1, 4],"sdaReg1":[1, 3],"sdaReg21":[0],"sdaReg0":[2],"sdaReg20":[5],"1083912376":[26],"sdaReg23":[0],"sdaReg22":[6],"sdaReg25":[0],"sdaReg24":[6],"sdaReg125":[18],"sdaReg126":[18],"1093512816":[0],"sdaReg127":[11],"sdaReg128":[13],"sdaReg228":[30],"sdaReg229":[30],"sdaReg225":[15],"sdaReg226":[21],"sdaReg227":[30],"sdaReg221":[15],"sdaReg220":[21],"sdaReg223":[16],"sdaReg222":[21],"1093890560":[101, 21, 80],"sdaReg120":[18],"sdaReg122":[18],"sdaReg121":[18],"sdaReg124":[18],"sdaReg123":[18],"sdaReg394":[91],"sdaReg116":[15],"sdaReg490":[11],"sdaReg117":[15],"1093688968":[10],"sdaReg398":[21, 80, 93],"sdaReg396":[92],"sdaReg497":[6],"sdaReg219":[15],"sdaReg495":[1],"sdaReg217":[11],"sdaReg496":[1],"sdaReg218":[21],"sdaReg493":[1],"sdaReg390":[21, 80, 90],"sdaReg494":[105],"sdaReg491":[9, 13],"sdaReg213":[11],"sdaReg492":[105],"sdaReg214":[21],"1093467008.<java.util.HashMap: int modCount>":[0],"sdaReg500":[1, 4],"sdaReg501":[1, 4, 106],"sdaReg499":[1, 106],"1093892808":[101, 21, 80],"sdaReg385":[86, 21, 80],"sdaReg107":[11],"sdaReg108":[15],"sdaReg387":[87, 21, 80],"sdaReg109":[15],"sdaReg388":[21, 80, 88],"sdaReg383":[85],"sdaReg106":[11],"sdaReg86":[1],"sdaReg246":[15],"sdaReg247":[21],"sdaReg87":[0],"sdaReg248":[16],"sdaReg380":[13],"sdaReg85":[0],"sdaReg88":[0, 7],"sdaReg89":[0, 1, 7, 8],"sdaReg90":[9],"1093806496.<java.util.HashMap$HashIterator: int nextIndex>":[6],"1083909616":[82],"sdaReg94":[11],"sdaReg243":[21],"sdaReg93":[9],"sdaReg242":[15],"sdaReg92":[9],"sdaReg91":[9],"sdaReg244":[21],"sdaReg100":[9],"1094073464":[0],"sdaReg102":[13],"sdaReg101":[13],"sdaReg389":[21, 80, 89],"sdaReg376":[81, 21, 80],"sdaReg377":[21, 80],"sdaReg374":[81, 21, 80],"sdaReg375":[21, 81, 80],"sdaReg373":[21, 80],"sdaReg370":[13],"sdaReg371":[21, 80],"static.<java.io.ObjectStreamClass: java.lang.Class STRINGCLASS>":[26],"1093500888":[15],"sdaReg95":[9],"sdaReg237":[11],"sdaReg96":[11],"1093806496":[6],"1093506960.<java.io.DataOutputStream: int written>":[13],"sdaReg238":[21],"sdaReg97":[12],"sdaReg235":[0, 21, 7],"sdaReg99":[13],"sdaReg239":[11],"sdaReg230":[30],"1094135032":[13, 91],"1083943040":[23],"1094139144.<java.util.ArrayList: int size>":[101, 21],"sdaReg232":[30],"sdaReg231":[30],"sdaReg379":[13],"sdaReg378":[81, 21, 80],"sdaReg463":[101, 21],"sdaReg462":[101, 21],"1093485088":[1, 105],"sdaReg464":[101, 21],"sdaReg269":[11],"sdaReg461":[101, 21],"sdaReg169":[11],"static.<java.lang.Byte: java.lang.Class TYPE>":[83],"sdaReg363":[9, 13],"sdaReg161":[11],"1083909112":[83],"sdaReg162":[0],"sdaReg369":[21, 80],"sdaReg163":[11],"sdaReg164":[0],"1093892960":[101, 21, 80],"sdaReg168":[11],"sdaReg264":[9, 13],"sdaReg466":[102, 101, 21],"static.<java.nio.ByteOrder: java.nio.ByteOrder BIG_ENDIAN>":[19],"sdaReg467":[11],"sdaReg261":[32, 21],"sdaReg468":[11],"sdaReg262":[13],"sdaReg469":[0],"sdaReg160":[11],"1093500920":[16],"sdaReg452":[100],"sdaReg451":[100],"sdaReg450":[100],"sdaReg257":[31],"sdaReg159":[11],"sdaReg354":[13],"sdaReg352":[21, 80],"sdaReg153":[9, 13],"sdaReg356":[9, 13],"sdaReg357":[14],"sdaReg255":[31],"sdaReg256":[31],"sdaReg459":[101, 21],"sdaReg253":[31],"1093831352":[12],"sdaReg254":[31],"sdaReg457":[0],"sdaReg251":[21],"sdaReg458":[21],"1083909448":[84, 101, 21, 81, 80],"sdaReg252":[31],"sdaReg456":[11],"sdaReg250":[15],"sdaReg481":[103, 101, 21, 13, 104],"sdaReg480":[103, 101, 21],"1094131936":[76],"sdaReg344":[21, 77, 13],"sdaReg147":[14],"static.<java.io.ObjectStreamClass: java.lang.Class OBJECTSTREAMCLASSCLASS>":[23],"sdaReg349":[0, 21, 7],"sdaReg143":[13],"sdaReg146":[9, 13],"sdaReg345":[21, 78],"sdaReg346":[21, 79],"sdaReg347":[11],"sdaReg141":[9, 13],"sdaReg348":[21],"sdaReg281":[33, 21, 36],"sdaReg142":[13],"sdaReg488":[11],"1093553712":[54, 13],"sdaReg282":[33, 21, 37],"sdaReg489":[11],"sdaReg283":[33, 21, 38],"sdaReg284":[33, 21, 39],"1083908584":[22],"sdaReg285":[33, 21, 40],"sdaReg286":[33, 21, 41],"sdaReg287":[33, 21, 42],"sdaReg288":[33, 21, 43],"sdaReg289":[33, 21, 44],"sdaReg471":[101, 21, 80],"sdaReg470":[101, 21],"sdaReg279":[35, 33, 21],"1093467008":[0],"sdaReg476":[101, 21, 80],"sdaReg474":[101, 21, 80],"sdaReg331":[14],"sdaReg330":[9, 13],"sdaReg139":[9, 13],"sdaReg138":[9, 13],"sdaReg132":[14],"sdaReg337":[9, 13],"sdaReg270":[21],"sdaReg131":[9, 13],"sdaReg479":[84, 101, 81, 21, 80],"static.<java.lang.Integer: java.lang.Class TYPE>":[82],"sdaReg273":[33, 21],"sdaReg274":[13],"sdaReg477":[84, 101, 81, 21, 80],"sdaReg271":[11],"sdaReg478":[84, 101, 21, 81, 80],"sdaReg272":[21],"sdaReg277":[34]},"colorToColor":{"0":[103, 16, 1, 100, 101, 3, 21, 20, 5, 6, 11, 104],"1":[1, 3, 105],"3":[1],"4":[1],"5":[0],"6":[6],"7":[1, 21],"8":[1],"9":[9, 13],"10":[76, 9],"12":[11],"13":[9, 11, 13],"14":[19, 21, 76, 10, 13, 75],"15":[11],"17":[15],"16":[15],"19":[21, 54, 91, 14, 75],"18":[11],"21":[103, 101, 11, 13, 14, 104, 16, 19, 21, 54, 31, 91, 30],"33":[54],"54":[19, 13],"59":[54],"58":[54],"57":[54],"56":[54],"63":[54],"62":[54],"61":[54],"60":[54],"68":[54],"69":[54],"70":[54],"71":[54],"64":[54],"65":[54],"66":[54],"67":[54],"76":[9, 13, 105],"77":[13],"72":[54],"73":[54],"74":[54],"75":[19, 14],"80":[103, 101, 21, 91],"93":[91],"95":[91],"94":[91],"91":[19, 13],"103":[103, 101, 21, 13, 104],"101":[103, 101, 21, 11, 13, 104],"96":[91],"97":[91],"106":[1],"104":[13],"105":[1]},"colorToLabel":{"0":"this","1":"arg#1","2":"arg#2","19":"<java.nio.ByteOrder: java.nio.ByteOrder BIG_ENDIAN>","22":"<java.io.ObjectStreamClass: java.lang.Class CLASSCLASS>","23":"<java.io.ObjectStreamClass: java.lang.Class OBJECTSTREAMCLASSCLASS>","26":"<java.io.ObjectStreamClass: java.lang.Class STRINGCLASS>","82":"<java.lang.Integer: java.lang.Class TYPE>","83":"<java.lang.Byte: java.lang.Class TYPE>","84":"<java.lang.Character: java.lang.Class TYPE>","107":"return"}}}

Generated Model
	this->arg#1
	this-><java.nio.ByteOrder: java.nio.ByteOrder BIG_ENDIAN>

