Scanning method <java.io.PrintStream: void <init>(java.lang.String,java.lang.String)>

All seen event types: StoreArrayRecord, SimpleAssignmentRecord, ExitMonitorRecord, MethodStartRecord, LoadInstanceRecord, IfRecord, NewObjectRecord, StoreInstanceRecord, LoadStaticRecord, BinaryOperationRecord, MethodCallRecord, MethodReturnRecord, EnterMonitorRecord, CastRecord, ArrayLengthRecord, LoadArrayRecord, MethodEndRecord, 
Ignored event types: ExitMonitorRecord, EnterMonitorRecord, IfRecord, 

JSON Encoded Analysis Data (for visualization):{"heapEdges":[{"step":0,"from":"1093654456","to":"sdaReg0","type":"model"},{"step":1,"from":"sdaReg0","to":"1093654456","type":"model"},{"step":2,"from":"sdaReg0","to":"1093654456","type":"model"},{"step":3,"from":"1093654656","to":"1083966016","type":"create","field":"<java.io.FileOutputStream: dalvik.system.CloseGuard guard>"},{"step":4,"from":"static.<libcore.io.OsConstants: int O_WRONLY>","to":"static.<libcore.io.OsConstants: int O_WRONLY>","type":"load","field":"<libcore.io.OsConstants: int O_WRONLY>"},{"step":5,"from":"static.<libcore.io.OsConstants: int O_CREAT>","to":"static.<libcore.io.OsConstants: int O_CREAT>","type":"load","field":"<libcore.io.OsConstants: int O_CREAT>"},{"step":6,"from":"static.<libcore.io.OsConstants: int O_TRUNC>","to":"static.<libcore.io.OsConstants: int O_TRUNC>","type":"load","field":"<libcore.io.OsConstants: int O_TRUNC>"},{"step":7,"from":"sdaReg13","to":"1093654656","type":"store","field":"<java.io.FileOutputStream: int mode>"},{"step":8,"from":"1093654456","to":"sdaReg14","type":"model"},{"step":9,"from":"sdaReg14","to":"1093654824","type":"model"},{"step":10,"from":"1093654656","to":"1093654824","type":"create","field":"<java.io.FileOutputStream: java.io.FileDescriptor fd>"},{"step":11,"from":"1093654656","to":"sdaReg16","type":"create","field":"<java.io.FileOutputStream: boolean shouldClose>"},{"step":12,"from":"1093654656","to":"1093645816","type":"model"},{"step":13,"from":"1093654656","to":"1093645816","type":"model"},{"step":14,"from":"static.<java.nio.charset.Charset: java.util.HashMap CACHED_CHARSETS>","to":"1084324784","type":"load","field":"<java.nio.charset.Charset: java.util.HashMap CACHED_CHARSETS>"},{"step":15,"from":"static.<java.nio.charset.Charset: java.util.HashMap CACHED_CHARSETS>","to":"1084324784","type":"load","field":"<java.nio.charset.Charset: java.util.HashMap CACHED_CHARSETS>"},{"step":16,"from":"1084324784","to":"1084332560","type":"load","field":"<java.util.HashMap: java.util.HashMap$HashMapEntry[] table>"},{"step":17,"from":"1084332560","to":"1084332528","type":"load","field":"arrayIdx_int:1"},{"step":18,"from":"1084332528","to":"1084331288","type":"load","field":"<java.util.HashMap$HashMapEntry: java.lang.Object key>"},{"step":19,"from":"1084332528","to":"1084332528.<java.util.HashMap$HashMapEntry: int hash>","type":"load","field":"<java.util.HashMap$HashMapEntry: int hash>"},{"step":20,"from":"1084332528","to":"1084329720","type":"load","field":"<java.util.HashMap$HashMapEntry: java.util.HashMap$HashMapEntry next>"},{"step":21,"from":"1084329720","to":"1084328416","type":"load","field":"<java.util.HashMap$HashMapEntry: java.lang.Object key>"},{"step":22,"from":"1084329720","to":"1084329720.<java.util.HashMap$HashMapEntry: int hash>","type":"load","field":"<java.util.HashMap$HashMapEntry: int hash>"},{"step":23,"from":"sdaReg1","to":"sdaReg36","type":"model"},{"step":24,"from":"sdaReg1","to":"sdaReg39","type":"model"},{"step":25,"from":"sdaReg1","to":"sdaReg41","type":"model"},{"step":26,"from":"sdaReg1","to":"sdaReg43","type":"model"},{"step":27,"from":"sdaReg1","to":"sdaReg45","type":"model"},{"step":28,"from":"sdaReg1","to":"sdaReg47","type":"model"},{"step":29,"from":"sdaReg1","to":"1093656512","type":"model"},{"step":30,"from":"static.<java.nio.charset.Charset: java.util.HashMap CACHED_CHARSETS>","to":"1084324784","type":"load","field":"<java.nio.charset.Charset: java.util.HashMap CACHED_CHARSETS>"},{"step":31,"from":"1093656512","to":"1093656512.<java.nio.charset.Charset: java.lang.String canonicalName>","type":"load","field":"<java.nio.charset.Charset: java.lang.String canonicalName>"},{"step":32,"from":"static.<java.nio.charset.Charset: java.util.HashMap CACHED_CHARSETS>","to":"1084324784","type":"load","field":"<java.nio.charset.Charset: java.util.HashMap CACHED_CHARSETS>"},{"step":33,"from":"1084324784","to":"1084332560","type":"load","field":"<java.util.HashMap: java.util.HashMap$HashMapEntry[] table>"},{"step":34,"from":"1084332560","to":"1084332840","type":"load","field":"arrayIdx_int:33"},{"step":35,"from":"1084332840","to":"1084331016","type":"load","field":"<java.util.HashMap$HashMapEntry: java.lang.Object key>"},{"step":36,"from":"1084332840","to":"1084332840.<java.util.HashMap$HashMapEntry: int hash>","type":"load","field":"<java.util.HashMap$HashMapEntry: int hash>"},{"step":37,"from":"1084332840","to":"1084326792","type":"load","field":"<java.util.HashMap$HashMapEntry: java.util.HashMap$HashMapEntry next>"},{"step":38,"from":"1084326792","to":"1084324840","type":"load","field":"<java.util.HashMap$HashMapEntry: java.lang.Object key>"},{"step":39,"from":"1084326792","to":"1084326792.<java.util.HashMap$HashMapEntry: int hash>","type":"load","field":"<java.util.HashMap$HashMapEntry: int hash>"},{"step":40,"from":"1084326792","to":"1084325896","type":"load","field":"<java.util.HashMap$HashMapEntry: java.lang.Object value>"},{"step":41,"from":"static.<java.nio.charset.Charset: java.util.HashMap CACHED_CHARSETS>","to":"1084324784","type":"load","field":"<java.nio.charset.Charset: java.util.HashMap CACHED_CHARSETS>"},{"step":42,"from":"1084324784","to":"1084332560","type":"load","field":"<java.util.HashMap: java.util.HashMap$HashMapEntry[] table>"},{"step":43,"from":"1084332560","to":"1084332840","type":"load","field":"arrayIdx_int:33"},{"step":44,"from":"1084332840","to":"1084332840.<java.util.HashMap$HashMapEntry: int hash>","type":"load","field":"<java.util.HashMap$HashMapEntry: int hash>"},{"step":45,"from":"1084332840","to":"1084326792","type":"load","field":"<java.util.HashMap$HashMapEntry: java.util.HashMap$HashMapEntry next>"},{"step":46,"from":"1084326792","to":"1084326792.<java.util.HashMap$HashMapEntry: int hash>","type":"load","field":"<java.util.HashMap$HashMapEntry: int hash>"},{"step":47,"from":"1084326792","to":"1084324840","type":"load","field":"<java.util.HashMap$HashMapEntry: java.lang.Object key>"},{"step":48,"from":"1084326792","to":"1084325896","type":"load","field":"<java.util.HashMap$HashMapEntry: java.lang.Object value>"},{"step":49,"from":"1084325896","to":"1084326792","type":"store","field":"<java.util.HashMap$HashMapEntry: java.lang.Object value>"},{"step":50,"from":"static.<java.nio.charset.Charset: java.util.HashMap CACHED_CHARSETS>","to":"1084324784","type":"load","field":"<java.nio.charset.Charset: java.util.HashMap CACHED_CHARSETS>"},{"step":51,"from":"1084324784","to":"1084332560","type":"load","field":"<java.util.HashMap: java.util.HashMap$HashMapEntry[] table>"},{"step":52,"from":"1084332560","to":"1084332528","type":"load","field":"arrayIdx_int:1"},{"step":53,"from":"1084332528","to":"1084332528.<java.util.HashMap$HashMapEntry: int hash>","type":"load","field":"<java.util.HashMap$HashMapEntry: int hash>"},{"step":54,"from":"1084332528","to":"1084329720","type":"load","field":"<java.util.HashMap$HashMapEntry: java.util.HashMap$HashMapEntry next>"},{"step":55,"from":"1084329720","to":"1084329720.<java.util.HashMap$HashMapEntry: int hash>","type":"load","field":"<java.util.HashMap$HashMapEntry: int hash>"},{"step":56,"from":"1084324784","to":"1084324784.<java.util.HashMap: int modCount>","type":"load","field":"<java.util.HashMap: int modCount>"},{"step":57,"from":"sdaReg100","to":"1084324784","type":"store","field":"<java.util.HashMap: int modCount>"},{"step":58,"from":"1084324784","to":"1084324784.<java.util.HashMap: int size>","type":"load","field":"<java.util.HashMap: int size>"},{"step":59,"from":"sdaReg101","to":"1084324784","type":"store","field":"<java.util.HashMap: int size>"},{"step":60,"from":"1084324784","to":"1084324784.<java.util.HashMap: int threshold>","type":"load","field":"<java.util.HashMap: int threshold>"},{"step":61,"from":"1084324784","to":"1084332560","type":"load","field":"<java.util.HashMap: java.util.HashMap$HashMapEntry[] table>"},{"step":62,"from":"1084324784","to":"1084332560","type":"load","field":"<java.util.HashMap: java.util.HashMap$HashMapEntry[] table>"},{"step":63,"from":"1084332560","to":"1084332528","type":"load","field":"arrayIdx_int:1"},{"step":64,"from":"1093645896","to":"1093301408","type":"store","field":"<java.util.HashMap$HashMapEntry: java.lang.Object key>"},{"step":65,"from":"1084325896","to":"1093301408","type":"store","field":"<java.util.HashMap$HashMapEntry: java.lang.Object value>"},{"step":66,"from":"sdaReg96","to":"1093301408","type":"store","field":"<java.util.HashMap$HashMapEntry: int hash>"},{"step":67,"from":"1084332528","to":"1093301408","type":"store","field":"<java.util.HashMap$HashMapEntry: java.util.HashMap$HashMapEntry next>"},{"step":68,"from":"1084332560","to":"1093301408","type":"create","field":"arrayIdx_int:1"},{"step":69,"from":"1093656512","to":"1093656984","type":"load","field":"<java.nio.charset.Charset: java.util.HashSet aliasesSet>"},{"step":70,"from":"1093656984","to":"1093657000","type":"load","field":"<java.util.HashSet: java.util.HashMap backingMap>"},{"step":71,"from":"1093657000","to":"1093301440","type":"store","field":"<java.util.HashMap$KeySet: java.util.HashMap this$0>"},{"step":72,"from":"1093657000","to":"1093301440","type":"create","field":"<java.util.HashMap: java.util.Set keySet>"},{"step":73,"from":"1093657000","to":"1093655336","type":"store","field":"<java.util.HashMap$KeyIterator: java.util.HashMap this$0>"},{"step":74,"from":"1093657000","to":"1093655336","type":"store","field":"<java.util.HashMap$HashIterator: java.util.HashMap this$0>"},{"step":75,"from":"1093657000","to":"1093657000.<java.util.HashMap: int modCount>","type":"load","field":"<java.util.HashMap: int modCount>"},{"step":76,"from":"1093657000.<java.util.HashMap: int modCount>","to":"1093655336","type":"store","field":"<java.util.HashMap$HashIterator: int expectedModCount>"},{"step":77,"from":"1093657000","to":"1093594800","type":"load","field":"<java.util.HashMap: java.util.HashMap$HashMapEntry[] table>"},{"step":78,"from":"1093655336","to":"1093655336.<java.util.HashMap$HashIterator: int nextIndex>","type":"load","field":"<java.util.HashMap$HashIterator: int nextIndex>"},{"step":79,"from":"1093655336","to":"1093655336.<java.util.HashMap$HashIterator: int nextIndex>","type":"load","field":"<java.util.HashMap$HashIterator: int nextIndex>"},{"step":80,"from":"sdaReg137","to":"1093655336","type":"store","field":"<java.util.HashMap$HashIterator: int nextIndex>"},{"step":81,"from":"sdaReg137","to":"1093655336","type":"store","field":"<java.util.HashMap$HashIterator: int nextIndex>"},{"step":82,"from":"1093594800","to":"1093251440","type":"load","field":"arrayIdx_int:1"},{"step":83,"from":"1093251440","to":"1093655336","type":"store","field":"<java.util.HashMap$HashIterator: java.util.HashMap$HashMapEntry nextEntry>"},{"step":84,"from":"1093657000","to":"1093657000.<java.util.HashMap: int modCount>","type":"load","field":"<java.util.HashMap: int modCount>"},{"step":85,"from":"1093657000","to":"1093594800","type":"load","field":"<java.util.HashMap: java.util.HashMap$HashMapEntry[] table>"},{"step":86,"from":"sdaReg150","to":"1093655336","type":"store","field":"<java.util.HashMap$HashIterator: int nextIndex>"},{"step":87,"from":"1093594800","to":"1093301088","type":"load","field":"arrayIdx_int:2"},{"step":88,"from":"1093301088","to":"1093655336","type":"store","field":"<java.util.HashMap$HashIterator: java.util.HashMap$HashMapEntry nextEntry>"},{"step":89,"from":"1093251440","to":"1093655336","type":"store","field":"<java.util.HashMap$HashIterator: java.util.HashMap$HashMapEntry lastEntryReturned>"},{"step":90,"from":"1093251440","to":"1093655592","type":"load","field":"<java.util.HashMap$HashMapEntry: java.lang.Object key>"},{"step":91,"from":"static.<java.nio.charset.Charset: java.util.HashMap CACHED_CHARSETS>","to":"1084324784","type":"load","field":"<java.nio.charset.Charset: java.util.HashMap CACHED_CHARSETS>"},{"step":92,"from":"1084324784","to":"1084332560","type":"load","field":"<java.util.HashMap: java.util.HashMap$HashMapEntry[] table>"},{"step":93,"from":"1084332560","to":"1084332840","type":"load","field":"arrayIdx_int:33"},{"step":94,"from":"1084332840","to":"1084332840.<java.util.HashMap$HashMapEntry: int hash>","type":"load","field":"<java.util.HashMap$HashMapEntry: int hash>"},{"step":95,"from":"1084332840","to":"1084326792","type":"load","field":"<java.util.HashMap$HashMapEntry: java.util.HashMap$HashMapEntry next>"},{"step":96,"from":"1084326792","to":"1084326792.<java.util.HashMap$HashMapEntry: int hash>","type":"load","field":"<java.util.HashMap$HashMapEntry: int hash>"},{"step":97,"from":"1084326792","to":"1084324840","type":"load","field":"<java.util.HashMap$HashMapEntry: java.lang.Object key>"},{"step":98,"from":"1084325896","to":"1084326792","type":"store","field":"<java.util.HashMap$HashMapEntry: java.lang.Object value>"},{"step":99,"from":"1093657000","to":"1093657000.<java.util.HashMap: int modCount>","type":"load","field":"<java.util.HashMap: int modCount>"},{"step":100,"from":"1093657000","to":"1093594800","type":"load","field":"<java.util.HashMap: java.util.HashMap$HashMapEntry[] table>"},{"step":101,"from":"sdaReg176","to":"1093655336","type":"store","field":"<java.util.HashMap$HashIterator: int nextIndex>"},{"step":102,"from":"sdaReg176","to":"1093655336","type":"store","field":"<java.util.HashMap$HashIterator: int nextIndex>"},{"step":103,"from":"1093594800","to":"1093298896","type":"load","field":"arrayIdx_int:4"},{"step":104,"from":"1093298896","to":"1093655336","type":"store","field":"<java.util.HashMap$HashIterator: java.util.HashMap$HashMapEntry nextEntry>"},{"step":105,"from":"1093301088","to":"1093655336","type":"store","field":"<java.util.HashMap$HashIterator: java.util.HashMap$HashMapEntry lastEntryReturned>"},{"step":106,"from":"1093301088","to":"1093656376","type":"load","field":"<java.util.HashMap$HashMapEntry: java.lang.Object key>"},{"step":107,"from":"static.<java.nio.charset.Charset: java.util.HashMap CACHED_CHARSETS>","to":"1084324784","type":"load","field":"<java.nio.charset.Charset: java.util.HashMap CACHED_CHARSETS>"},{"step":108,"from":"1084324784","to":"1084332560","type":"load","field":"<java.util.HashMap: java.util.HashMap$HashMapEntry[] table>"},{"step":109,"from":"1084332560","to":"1084327384","type":"load","field":"arrayIdx_int:18"},{"step":110,"from":"1084327384","to":"1084327384.<java.util.HashMap$HashMapEntry: int hash>","type":"load","field":"<java.util.HashMap$HashMapEntry: int hash>"},{"step":111,"from":"1084327384","to":"1084325760","type":"load","field":"<java.util.HashMap$HashMapEntry: java.lang.Object key>"},{"step":112,"from":"1084327384","to":"1084325896","type":"load","field":"<java.util.HashMap$HashMapEntry: java.lang.Object value>"},{"step":113,"from":"1084325896","to":"1084327384","type":"store","field":"<java.util.HashMap$HashMapEntry: java.lang.Object value>"},{"step":114,"from":"1093657000","to":"1093657000.<java.util.HashMap: int modCount>","type":"load","field":"<java.util.HashMap: int modCount>"},{"step":115,"from":"1093657000","to":"1093594800","type":"load","field":"<java.util.HashMap: java.util.HashMap$HashMapEntry[] table>"},{"step":116,"from":"sdaReg202","to":"1093655336","type":"store","field":"<java.util.HashMap$HashIterator: int nextIndex>"},{"step":117,"from":"1093594800","to":"1093594888","type":"load","field":"arrayIdx_int:5"},{"step":118,"from":"1093594888","to":"1093655336","type":"store","field":"<java.util.HashMap$HashIterator: java.util.HashMap$HashMapEntry nextEntry>"},{"step":119,"from":"1093298896","to":"1093655336","type":"store","field":"<java.util.HashMap$HashIterator: java.util.HashMap$HashMapEntry lastEntryReturned>"},{"step":120,"from":"1093298896","to":"1093656232","type":"load","field":"<java.util.HashMap$HashMapEntry: java.lang.Object key>"},{"step":121,"from":"static.<java.nio.charset.Charset: java.util.HashMap CACHED_CHARSETS>","to":"1084324784","type":"load","field":"<java.nio.charset.Charset: java.util.HashMap CACHED_CHARSETS>"},{"step":122,"from":"1084324784","to":"1084332560","type":"load","field":"<java.util.HashMap: java.util.HashMap$HashMapEntry[] table>"},{"step":123,"from":"1084332560","to":"1084332936","type":"load","field":"arrayIdx_int:4"},{"step":124,"from":"1084332936","to":"1084332936.<java.util.HashMap$HashMapEntry: int hash>","type":"load","field":"<java.util.HashMap$HashMapEntry: int hash>"},{"step":125,"from":"1084332936","to":"1084327416","type":"load","field":"<java.util.HashMap$HashMapEntry: java.util.HashMap$HashMapEntry next>"},{"step":126,"from":"1084327416","to":"1084327416.<java.util.HashMap$HashMapEntry: int hash>","type":"load","field":"<java.util.HashMap$HashMapEntry: int hash>"},{"step":127,"from":"1084327416","to":"1084325616","type":"load","field":"<java.util.HashMap$HashMapEntry: java.lang.Object key>"},{"step":128,"from":"1084327416","to":"1084325896","type":"load","field":"<java.util.HashMap$HashMapEntry: java.lang.Object value>"},{"step":129,"from":"1084325896","to":"1084327416","type":"store","field":"<java.util.HashMap$HashMapEntry: java.lang.Object value>"},{"step":130,"from":"1093657000","to":"1093657000.<java.util.HashMap: int modCount>","type":"load","field":"<java.util.HashMap: int modCount>"},{"step":131,"from":"1093657000","to":"1093594800","type":"load","field":"<java.util.HashMap: java.util.HashMap$HashMapEntry[] table>"},{"step":132,"from":"sdaReg227","to":"1093655336","type":"store","field":"<java.util.HashMap$HashIterator: int nextIndex>"},{"step":133,"from":"sdaReg227","to":"1093655336","type":"store","field":"<java.util.HashMap$HashIterator: int nextIndex>"},{"step":134,"from":"sdaReg227","to":"1093655336","type":"store","field":"<java.util.HashMap$HashIterator: int nextIndex>"},{"step":135,"from":"sdaReg227","to":"1093655336","type":"store","field":"<java.util.HashMap$HashIterator: int nextIndex>"},{"step":136,"from":"sdaReg227","to":"1093655336","type":"store","field":"<java.util.HashMap$HashIterator: int nextIndex>"},{"step":137,"from":"1093594800","to":"1093268640","type":"load","field":"arrayIdx_int:10"},{"step":138,"from":"1093268640","to":"1093655336","type":"store","field":"<java.util.HashMap$HashIterator: java.util.HashMap$HashMapEntry nextEntry>"},{"step":139,"from":"1093594888","to":"1093655336","type":"store","field":"<java.util.HashMap$HashIterator: java.util.HashMap$HashMapEntry lastEntryReturned>"},{"step":140,"from":"1093594888","to":"1093656088","type":"load","field":"<java.util.HashMap$HashMapEntry: java.lang.Object key>"},{"step":141,"from":"static.<java.nio.charset.Charset: java.util.HashMap CACHED_CHARSETS>","to":"1084324784","type":"load","field":"<java.nio.charset.Charset: java.util.HashMap CACHED_CHARSETS>"},{"step":142,"from":"1084324784","to":"1084332560","type":"load","field":"<java.util.HashMap: java.util.HashMap$HashMapEntry[] table>"},{"step":143,"from":"1084332560","to":"1084327448","type":"load","field":"arrayIdx_int:53"},{"step":144,"from":"1084327448","to":"1084327448.<java.util.HashMap$HashMapEntry: int hash>","type":"load","field":"<java.util.HashMap$HashMapEntry: int hash>"},{"step":145,"from":"1084327448","to":"1084325472","type":"load","field":"<java.util.HashMap$HashMapEntry: java.lang.Object key>"},{"step":146,"from":"1084327448","to":"1084325896","type":"load","field":"<java.util.HashMap$HashMapEntry: java.lang.Object value>"},{"step":147,"from":"1084325896","to":"1084327448","type":"store","field":"<java.util.HashMap$HashMapEntry: java.lang.Object value>"},{"step":148,"from":"1093657000","to":"1093657000.<java.util.HashMap: int modCount>","type":"load","field":"<java.util.HashMap: int modCount>"},{"step":149,"from":"1093657000","to":"1093594800","type":"load","field":"<java.util.HashMap: java.util.HashMap$HashMapEntry[] table>"},{"step":150,"from":"sdaReg256","to":"1093655336","type":"store","field":"<java.util.HashMap$HashIterator: int nextIndex>"},{"step":151,"from":"1093594800","to":"1093656624","type":"load","field":"arrayIdx_int:11"},{"step":152,"from":"1093656624","to":"1093655336","type":"store","field":"<java.util.HashMap$HashIterator: java.util.HashMap$HashMapEntry nextEntry>"},{"step":153,"from":"1093268640","to":"1093655336","type":"store","field":"<java.util.HashMap$HashIterator: java.util.HashMap$HashMapEntry lastEntryReturned>"},{"step":154,"from":"1093268640","to":"1093655944","type":"load","field":"<java.util.HashMap$HashMapEntry: java.lang.Object key>"},{"step":155,"from":"static.<java.nio.charset.Charset: java.util.HashMap CACHED_CHARSETS>","to":"1084324784","type":"load","field":"<java.nio.charset.Charset: java.util.HashMap CACHED_CHARSETS>"},{"step":156,"from":"1084324784","to":"1084332560","type":"load","field":"<java.util.HashMap: java.util.HashMap$HashMapEntry[] table>"},{"step":157,"from":"1084332560","to":"1084327536","type":"load","field":"arrayIdx_int:10"},{"step":158,"from":"1084327536","to":"1084327536.<java.util.HashMap$HashMapEntry: int hash>","type":"load","field":"<java.util.HashMap$HashMapEntry: int hash>"},{"step":159,"from":"1084327536","to":"1084325328","type":"load","field":"<java.util.HashMap$HashMapEntry: java.lang.Object key>"},{"step":160,"from":"1084327536","to":"1084325896","type":"load","field":"<java.util.HashMap$HashMapEntry: java.lang.Object value>"},{"step":161,"from":"1084325896","to":"1084327536","type":"store","field":"<java.util.HashMap$HashMapEntry: java.lang.Object value>"},{"step":162,"from":"1093657000","to":"1093657000.<java.util.HashMap: int modCount>","type":"load","field":"<java.util.HashMap: int modCount>"},{"step":163,"from":"1093657000","to":"1093594800","type":"load","field":"<java.util.HashMap: java.util.HashMap$HashMapEntry[] table>"},{"step":164,"from":"1093656624","to":"1093555848","type":"load","field":"<java.util.HashMap$HashMapEntry: java.util.HashMap$HashMapEntry next>"},{"step":165,"from":"1093555848","to":"1093655336","type":"store","field":"<java.util.HashMap$HashIterator: java.util.HashMap$HashMapEntry nextEntry>"},{"step":166,"from":"1093656624","to":"1093655336","type":"store","field":"<java.util.HashMap$HashIterator: java.util.HashMap$HashMapEntry lastEntryReturned>"},{"step":167,"from":"1093656624","to":"1093656160","type":"load","field":"<java.util.HashMap$HashMapEntry: java.lang.Object key>"},{"step":168,"from":"static.<java.nio.charset.Charset: java.util.HashMap CACHED_CHARSETS>","to":"1084324784","type":"load","field":"<java.nio.charset.Charset: java.util.HashMap CACHED_CHARSETS>"},{"step":169,"from":"1084324784","to":"1084332560","type":"load","field":"<java.util.HashMap: java.util.HashMap$HashMapEntry[] table>"},{"step":170,"from":"1084332560","to":"1084333032","type":"load","field":"arrayIdx_int:43"},{"step":171,"from":"1084333032","to":"1084333032.<java.util.HashMap$HashMapEntry: int hash>","type":"load","field":"<java.util.HashMap$HashMapEntry: int hash>"},{"step":172,"from":"1084333032","to":"1084327568","type":"load","field":"<java.util.HashMap$HashMapEntry: java.util.HashMap$HashMapEntry next>"},{"step":173,"from":"1084327568","to":"1084327568.<java.util.HashMap$HashMapEntry: int hash>","type":"load","field":"<java.util.HashMap$HashMapEntry: int hash>"},{"step":174,"from":"1084327568","to":"1084325544","type":"load","field":"<java.util.HashMap$HashMapEntry: java.lang.Object key>"},{"step":175,"from":"1084327568","to":"1084325896","type":"load","field":"<java.util.HashMap$HashMapEntry: java.lang.Object value>"},{"step":176,"from":"1084325896","to":"1084327568","type":"store","field":"<java.util.HashMap$HashMapEntry: java.lang.Object value>"},{"step":177,"from":"1093657000","to":"1093657000.<java.util.HashMap: int modCount>","type":"load","field":"<java.util.HashMap: int modCount>"},{"step":178,"from":"1093657000","to":"1093594800","type":"load","field":"<java.util.HashMap: java.util.HashMap$HashMapEntry[] table>"},{"step":179,"from":"1093555848","to":"1093305160","type":"load","field":"<java.util.HashMap$HashMapEntry: java.util.HashMap$HashMapEntry next>"},{"step":180,"from":"1093305160","to":"1093655336","type":"store","field":"<java.util.HashMap$HashIterator: java.util.HashMap$HashMapEntry nextEntry>"},{"step":181,"from":"1093555848","to":"1093655336","type":"store","field":"<java.util.HashMap$HashIterator: java.util.HashMap$HashMapEntry lastEntryReturned>"},{"step":182,"from":"1093555848","to":"1093656016","type":"load","field":"<java.util.HashMap$HashMapEntry: java.lang.Object key>"},{"step":183,"from":"static.<java.nio.charset.Charset: java.util.HashMap CACHED_CHARSETS>","to":"1084324784","type":"load","field":"<java.nio.charset.Charset: java.util.HashMap CACHED_CHARSETS>"},{"step":184,"from":"1084324784","to":"1084332560","type":"load","field":"<java.util.HashMap: java.util.HashMap$HashMapEntry[] table>"},{"step":185,"from":"1084332560","to":"1084329944","type":"load","field":"arrayIdx_int:11"},{"step":186,"from":"1084329944","to":"1084329944.<java.util.HashMap$HashMapEntry: int hash>","type":"load","field":"<java.util.HashMap$HashMapEntry: int hash>"},{"step":187,"from":"1084329944","to":"1084327600","type":"load","field":"<java.util.HashMap$HashMapEntry: java.util.HashMap$HashMapEntry next>"},{"step":188,"from":"1084327600","to":"1084327600.<java.util.HashMap$HashMapEntry: int hash>","type":"load","field":"<java.util.HashMap$HashMapEntry: int hash>"},{"step":189,"from":"1084327600","to":"1084325400","type":"load","field":"<java.util.HashMap$HashMapEntry: java.lang.Object key>"},{"step":190,"from":"1084327600","to":"1084325896","type":"load","field":"<java.util.HashMap$HashMapEntry: java.lang.Object value>"},{"step":191,"from":"1084325896","to":"1084327600","type":"store","field":"<java.util.HashMap$HashMapEntry: java.lang.Object value>"},{"step":192,"from":"1093657000","to":"1093657000.<java.util.HashMap: int modCount>","type":"load","field":"<java.util.HashMap: int modCount>"},{"step":193,"from":"1093657000","to":"1093594800","type":"load","field":"<java.util.HashMap: java.util.HashMap$HashMapEntry[] table>"},{"step":194,"from":"sdaReg327","to":"1093655336","type":"store","field":"<java.util.HashMap$HashIterator: int nextIndex>"},{"step":195,"from":"1093594800","to":"1093587808","type":"load","field":"arrayIdx_int:12"},{"step":196,"from":"1093587808","to":"1093655336","type":"store","field":"<java.util.HashMap$HashIterator: java.util.HashMap$HashMapEntry nextEntry>"},{"step":197,"from":"1093305160","to":"1093655336","type":"store","field":"<java.util.HashMap$HashIterator: java.util.HashMap$HashMapEntry lastEntryReturned>"},{"step":198,"from":"1093305160","to":"1093655800","type":"load","field":"<java.util.HashMap$HashMapEntry: java.lang.Object key>"},{"step":199,"from":"static.<java.nio.charset.Charset: java.util.HashMap CACHED_CHARSETS>","to":"1084324784","type":"load","field":"<java.nio.charset.Charset: java.util.HashMap CACHED_CHARSETS>"},{"step":200,"from":"1084324784","to":"1084332560","type":"load","field":"<java.util.HashMap: java.util.HashMap$HashMapEntry[] table>"},{"step":201,"from":"1084332560","to":"1084327720","type":"load","field":"arrayIdx_int:59"},{"step":202,"from":"1084327720","to":"1084327720.<java.util.HashMap$HashMapEntry: int hash>","type":"load","field":"<java.util.HashMap$HashMapEntry: int hash>"},{"step":203,"from":"1084327720","to":"1084325184","type":"load","field":"<java.util.HashMap$HashMapEntry: java.lang.Object key>"},{"step":204,"from":"1084327720","to":"1084325896","type":"load","field":"<java.util.HashMap$HashMapEntry: java.lang.Object value>"},{"step":205,"from":"1084325896","to":"1084327720","type":"store","field":"<java.util.HashMap$HashMapEntry: java.lang.Object value>"},{"step":206,"from":"1093657000","to":"1093657000.<java.util.HashMap: int modCount>","type":"load","field":"<java.util.HashMap: int modCount>"},{"step":207,"from":"1093657000","to":"1093594800","type":"load","field":"<java.util.HashMap: java.util.HashMap$HashMapEntry[] table>"},{"step":208,"from":"1093587808","to":"1093258360","type":"load","field":"<java.util.HashMap$HashMapEntry: java.util.HashMap$HashMapEntry next>"},{"step":209,"from":"1093258360","to":"1093655336","type":"store","field":"<java.util.HashMap$HashIterator: java.util.HashMap$HashMapEntry nextEntry>"},{"step":210,"from":"1093587808","to":"1093655336","type":"store","field":"<java.util.HashMap$HashIterator: java.util.HashMap$HashMapEntry lastEntryReturned>"},{"step":211,"from":"1093587808","to":"1093655872","type":"load","field":"<java.util.HashMap$HashMapEntry: java.lang.Object key>"},{"step":212,"from":"static.<java.nio.charset.Charset: java.util.HashMap CACHED_CHARSETS>","to":"1084324784","type":"load","field":"<java.nio.charset.Charset: java.util.HashMap CACHED_CHARSETS>"},{"step":213,"from":"1084324784","to":"1084332560","type":"load","field":"<java.util.HashMap: java.util.HashMap$HashMapEntry[] table>"},{"step":214,"from":"1084332560","to":"1084327752","type":"load","field":"arrayIdx_int:60"},{"step":215,"from":"1084327752","to":"1084327752.<java.util.HashMap$HashMapEntry: int hash>","type":"load","field":"<java.util.HashMap$HashMapEntry: int hash>"},{"step":216,"from":"1084327752","to":"1084325256","type":"load","field":"<java.util.HashMap$HashMapEntry: java.lang.Object key>"},{"step":217,"from":"1084327752","to":"1084325896","type":"load","field":"<java.util.HashMap$HashMapEntry: java.lang.Object value>"},{"step":218,"from":"1084325896","to":"1084327752","type":"store","field":"<java.util.HashMap$HashMapEntry: java.lang.Object value>"},{"step":219,"from":"1093657000","to":"1093657000.<java.util.HashMap: int modCount>","type":"load","field":"<java.util.HashMap: int modCount>"},{"step":220,"from":"1093657000","to":"1093594800","type":"load","field":"<java.util.HashMap: java.util.HashMap$HashMapEntry[] table>"},{"step":221,"from":"sdaReg375","to":"1093655336","type":"store","field":"<java.util.HashMap$HashIterator: int nextIndex>"},{"step":222,"from":"1093594800","to":"1093288640","type":"load","field":"arrayIdx_int:13"},{"step":223,"from":"1093288640","to":"1093655336","type":"store","field":"<java.util.HashMap$HashIterator: java.util.HashMap$HashMapEntry nextEntry>"},{"step":224,"from":"1093258360","to":"1093655336","type":"store","field":"<java.util.HashMap$HashIterator: java.util.HashMap$HashMapEntry lastEntryReturned>"},{"step":225,"from":"1093258360","to":"1093655728","type":"load","field":"<java.util.HashMap$HashMapEntry: java.lang.Object key>"},{"step":226,"from":"static.<java.nio.charset.Charset: java.util.HashMap CACHED_CHARSETS>","to":"1084324784","type":"load","field":"<java.nio.charset.Charset: java.util.HashMap CACHED_CHARSETS>"},{"step":227,"from":"1084324784","to":"1084332560","type":"load","field":"<java.util.HashMap: java.util.HashMap$HashMapEntry[] table>"},{"step":228,"from":"1084332560","to":"1084327784","type":"load","field":"arrayIdx_int:28"},{"step":229,"from":"1084327784","to":"1084327784.<java.util.HashMap$HashMapEntry: int hash>","type":"load","field":"<java.util.HashMap$HashMapEntry: int hash>"},{"step":230,"from":"1084327784","to":"1084325112","type":"load","field":"<java.util.HashMap$HashMapEntry: java.lang.Object key>"},{"step":231,"from":"1084327784","to":"1084325896","type":"load","field":"<java.util.HashMap$HashMapEntry: java.lang.Object value>"},{"step":232,"from":"1084325896","to":"1084327784","type":"store","field":"<java.util.HashMap$HashMapEntry: java.lang.Object value>"},{"step":233,"from":"1093657000","to":"1093657000.<java.util.HashMap: int modCount>","type":"load","field":"<java.util.HashMap: int modCount>"},{"step":234,"from":"1093657000","to":"1093594800","type":"load","field":"<java.util.HashMap: java.util.HashMap$HashMapEntry[] table>"},{"step":235,"from":"sdaReg400","to":"1093655336","type":"store","field":"<java.util.HashMap$HashIterator: int nextIndex>"},{"step":236,"from":"sdaReg400","to":"1093655336","type":"store","field":"<java.util.HashMap$HashIterator: int nextIndex>"},{"step":237,"from":"1093594800","to":"1093303056","type":"load","field":"arrayIdx_int:15"},{"step":238,"from":"1093303056","to":"1093655336","type":"store","field":"<java.util.HashMap$HashIterator: java.util.HashMap$HashMapEntry nextEntry>"},{"step":239,"from":"1093288640","to":"1093655336","type":"store","field":"<java.util.HashMap$HashIterator: java.util.HashMap$HashMapEntry lastEntryReturned>"},{"step":240,"from":"1093288640","to":"1093655656","type":"load","field":"<java.util.HashMap$HashMapEntry: java.lang.Object key>"},{"step":241,"from":"static.<java.nio.charset.Charset: java.util.HashMap CACHED_CHARSETS>","to":"1084324784","type":"load","field":"<java.nio.charset.Charset: java.util.HashMap CACHED_CHARSETS>"},{"step":242,"from":"1084324784","to":"1084332560","type":"load","field":"<java.util.HashMap: java.util.HashMap$HashMapEntry[] table>"},{"step":243,"from":"1084332560","to":"1084327816","type":"load","field":"arrayIdx_int:29"},{"step":244,"from":"1084327816","to":"1084327816.<java.util.HashMap$HashMapEntry: int hash>","type":"load","field":"<java.util.HashMap$HashMapEntry: int hash>"},{"step":245,"from":"1084327816","to":"1084325040","type":"load","field":"<java.util.HashMap$HashMapEntry: java.lang.Object key>"},{"step":246,"from":"1084327816","to":"1084325896","type":"load","field":"<java.util.HashMap$HashMapEntry: java.lang.Object value>"},{"step":247,"from":"1084325896","to":"1084327816","type":"store","field":"<java.util.HashMap$HashMapEntry: java.lang.Object value>"},{"step":248,"from":"1093657000","to":"1093657000.<java.util.HashMap: int modCount>","type":"load","field":"<java.util.HashMap: int modCount>"},{"step":249,"from":"1093657000","to":"1093594800","type":"load","field":"<java.util.HashMap: java.util.HashMap$HashMapEntry[] table>"},{"step":250,"from":"1093303056","to":"1093655336","type":"store","field":"<java.util.HashMap$HashIterator: java.util.HashMap$HashMapEntry lastEntryReturned>"},{"step":251,"from":"1093303056","to":"1093656312","type":"load","field":"<java.util.HashMap$HashMapEntry: java.lang.Object key>"},{"step":252,"from":"static.<java.nio.charset.Charset: java.util.HashMap CACHED_CHARSETS>","to":"1084324784","type":"load","field":"<java.nio.charset.Charset: java.util.HashMap CACHED_CHARSETS>"},{"step":253,"from":"1084324784","to":"1084332560","type":"load","field":"<java.util.HashMap: java.util.HashMap$HashMapEntry[] table>"},{"step":254,"from":"1084332560","to":"1084327848","type":"load","field":"arrayIdx_int:47"},{"step":255,"from":"1084327848","to":"1084327848.<java.util.HashMap$HashMapEntry: int hash>","type":"load","field":"<java.util.HashMap$HashMapEntry: int hash>"},{"step":256,"from":"1084327848","to":"1084325696","type":"load","field":"<java.util.HashMap$HashMapEntry: java.lang.Object key>"},{"step":257,"from":"1084327848","to":"1084325896","type":"load","field":"<java.util.HashMap$HashMapEntry: java.lang.Object value>"},{"step":258,"from":"1084325896","to":"1084327848","type":"store","field":"<java.util.HashMap$HashMapEntry: java.lang.Object value>"},{"step":259,"from":"sdaReg1","to":"1093645816","type":"store","field":"<java.io.PrintStream: java.lang.String encoding>"}],"parameters":[{"id":"1093645816","name":"this","klass":"java.io.PrintStream"},{"id":"sdaReg0","name":"arg#1","klass":"string"},{"id":"sdaReg1","name":"arg#2","klass":"string"}],"returns":[{"id":"1093645816","name":"return","klass":"java.io.PrintStream"}],"colors":{"heapLocToColor":{"sdaReg190":[31],"sdaReg193":[31],"sdaReg296":[40],"sdaReg295":[39],"1084333032":[11],"sdaReg298":[11],"1084327536.<java.util.HashMap$HashMapEntry: java.lang.Object value>":[11],"sdaReg297":[11],"sdaReg299":[28],"sdaReg199":[28],"1084327384":[11],"sdaReg195":[11],"sdaReg290":[39],"sdaReg194":[32],"sdaReg197":[28],"sdaReg292":[39],"sdaReg196":[11],"sdaReg291":[39],"1084327448":[11],"1084326792.<java.util.HashMap$HashMapEntry: java.lang.Object key>":[11],"1084327784.<java.util.HashMap$HashMapEntry: int hash>":[11],"1093654824":[10],"1084324784.<java.util.HashMap: int modCount>":[11],"1084329720.<java.util.HashMap$HashMapEntry: int hash>":[11],"1084327568.<java.util.HashMap$HashMapEntry: java.lang.Object value>":[11],"1084327848":[11],"sdaReg171":[28],"sdaReg170":[11],"sdaReg173":[28],"1093655592":[20],"sdaReg174":[28],"sdaReg179":[20],"sdaReg178":[20],"1084327568":[11],"1084327600.<java.util.HashMap$HashMapEntry: java.lang.Object value>":[11],"1084327784":[11],"1084326792.<java.util.HashMap$HashMapEntry: java.lang.Object value>":[11],"1093288640":[20],"sdaReg182":[31],"sdaReg181":[11],"sdaReg180":[11],"sdaReg186":[31],"sdaReg185":[31],"sdaReg184":[31],"sdaReg183":[31],"sdaReg189":[31],"sdaReg188":[31],"sdaReg187":[31],"1084326792":[11],"1084327384.<java.util.HashMap$HashMapEntry: int hash>":[11],"1084333032.<java.util.HashMap$HashMapEntry: int hash>":[11],"1084329720":[11],"1084327720":[11],"1084327416.<java.util.HashMap$HashMapEntry: java.lang.Object value>":[11],"1084327416.<java.util.HashMap$HashMapEntry: int hash>":[11],"1093298896":[20],"1084327600":[11],"1084327816.<java.util.HashMap$HashMapEntry: java.lang.Object value>":[11],"1084327752":[11],"1084331288":[11],"1084329944.<java.util.HashMap$HashMapEntry: int hash>":[11],"static.<libcore.io.OsConstants: int O_CREAT>":[7],"1084332840.<java.util.HashMap$HashMapEntry: java.util.HashMap$HashMapEntry next>":[11],"sdaReg68":[11],"sdaReg69":[11],"1084327384.<java.util.HashMap$HashMapEntry: java.lang.Object value>":[11],"sdaReg66":[22],"1084324784":[11],"sdaReg67":[11],"sdaReg65":[21],"sdaReg62":[21],"sdaReg72":[23],"sdaReg71":[23],"sdaReg70":[11],"1093655728":[20],"1084325184":[11],"1084327448.<java.util.HashMap$HashMapEntry: int hash>":[11],"sdaReg77":[23],"sdaReg78":[23],"sdaReg79":[23],"sdaReg73":[23],"sdaReg74":[23],"sdaReg75":[23],"sdaReg76":[23],"sdaReg83":[24],"sdaReg82":[23],"1084327600.<java.util.HashMap$HashMapEntry: int hash>":[11],"1093655336":[28],"static.<libcore.io.OsConstants: int O_TRUNC>":[8],"1084327448.<java.util.HashMap$HashMapEntry: java.lang.Object value>":[11],"sdaReg86":[11],"sdaReg87":[11],"sdaReg84":[11],"sdaReg85":[11],"sdaReg88":[25],"sdaReg89":[25],"sdaReg90":[25],"sdaReg94":[25],"sdaReg93":[25],"sdaReg92":[25],"sdaReg91":[25],"1083966016":[5],"1084329944":[11],"sdaReg95":[25],"1093301088":[20],"sdaReg96":[25],"sdaReg99":[25],"1084327848.<java.util.HashMap$HashMapEntry: java.lang.Object value>":[11],"1093654456":[3],"1084327816":[11],"1093656232":[20],"1093656376":[20],"1084327568.<java.util.HashMap$HashMapEntry: int hash>":[11],"1084325040":[11],"1093655800":[20],"1093655656":[20],"1093305160":[20],"1093258360":[20],"1093587808":[20],"sdaReg429":[11],"1084331016":[11],"sdaReg428":[11],"sdaReg427":[20],"sdaReg426":[20],"sdaReg424":[28],"sdaReg423":[28],"1084325112":[11],"sdaReg325":[28],"sdaReg324":[28],"1093251440":[20],"sdaReg329":[20],"sdaReg328":[20],"sdaReg13":[6, 7, 8],"sdaReg14":[3, 9],"sdaReg11":[5],"sdaReg12":[6, 7],"sdaReg321":[11],"sdaReg10":[4],"sdaReg322":[28],"sdaReg320":[11],"sdaReg420":[11],"sdaReg421":[28],"sdaReg19":[0],"1084325400":[11],"1093655944":[20],"sdaReg17":[4],"sdaReg18":[4],"sdaReg15":[10],"sdaReg418":[50],"sdaReg417":[49],"sdaReg412":[49],"sdaReg411":[49],"sdaReg414":[49],"1093656512.<java.nio.charset.Charset: java.lang.String canonicalName>":[20],"sdaReg413":[49],"1093656512":[20],"1084327536.<java.util.HashMap$HashMapEntry: int hash>":[11],"sdaReg313":[41],"sdaReg312":[41],"sdaReg315":[41],"sdaReg314":[41],"sdaReg419":[11],"sdaReg319":[42],"sdaReg318":[41],"1093656016":[20],"sdaReg310":[41],"sdaReg311":[41],"sdaReg410":[49],"1093656312":[20],"sdaReg447":[11],"sdaReg445":[28],"sdaReg444":[11],"sdaReg449":[0],"sdaReg309":[41],"sdaReg308":[41],"sdaReg307":[41],"sdaReg306":[11],"sdaReg305":[11],"sdaReg304":[20],"sdaReg303":[20],"sdaReg302":[28],"sdaReg301":[28],"sdaReg442":[52],"sdaReg443":[11],"sdaReg441":[51],"sdaReg434":[51],"1084328416":[11],"sdaReg433":[51],"sdaReg436":[51],"sdaReg435":[51],"sdaReg438":[51],"sdaReg437":[51],"1084326792.<java.util.HashMap$HashMapEntry: int hash>":[11],"1084324840":[11],"sdaReg430":[51],"sdaReg431":[51],"sdaReg432":[51],"1084325328":[11],"sdaReg60":[21],"sdaReg61":[21],"1093657000.<java.util.HashMap: int modCount>":[20],"1093656160":[20],"1093645816":[0],"sdaReg59":[21],"sdaReg58":[21],"sdaReg57":[21],"1093268640":[20],"1084325256":[11],"sdaReg56":[21],"sdaReg55":[21],"1093657000":[20],"sdaReg54":[21],"sdaReg53":[11],"sdaReg52":[20],"sdaReg51":[11],"sdaReg50":[20],"1084324784.<java.util.HashMap: int threshold>":[11],"1084327848.<java.util.HashMap$HashMapEntry: int hash>":[11],"sdaReg49":[20],"sdaReg45":[2, 18],"sdaReg47":[2, 19],"sdaReg41":[16, 2],"sdaReg43":[17, 2],"sdaReg408":[49],"sdaReg409":[49],"sdaReg402":[20],"1084332560.arrayIdx_int:33":[11],"sdaReg403":[20],"sdaReg406":[49],"sdaReg200":[28],"sdaReg407":[49],"1084325760":[11],"sdaReg404":[11],"sdaReg405":[11],"sdaReg205":[11],"sdaReg39":[2, 15],"sdaReg204":[20],"sdaReg203":[20],"sdaReg37":[14],"sdaReg209":[33],"sdaReg208":[33],"sdaReg207":[33],"1084325616":[11],"sdaReg206":[11],"sdaReg30":[12],"sdaReg36":[2, 13],"sdaReg33":[12],"sdaReg8":[3],"sdaReg6":[3],"static.<libcore.io.OsConstants: int O_WRONLY>":[6],"sdaReg7":[4],"sdaReg4":[3],"sdaReg5":[4],"1084325896":[11],"1084327720.<java.util.HashMap$HashMapEntry: java.lang.Object value>":[11],"1093594888":[20],"static.<java.nio.charset.Charset: java.util.HashMap CACHED_CHARSETS>":[11],"sdaReg27":[12],"sdaReg26":[12],"sdaReg29":[12],"1093655872":[20],"sdaReg28":[12],"sdaReg3":[0],"sdaReg2":[3],"1093303056":[20],"sdaReg21":[11],"sdaReg1":[2],"1093656984":[20],"sdaReg20":[11],"sdaReg0":[1, 3],"sdaReg23":[12],"sdaReg22":[12],"sdaReg25":[12],"sdaReg24":[12],"sdaReg125":[27],"sdaReg126":[27],"sdaReg127":[20],"sdaReg128":[28],"sdaReg129":[20],"sdaReg224":[28],"sdaReg225":[28],"1084327784.<java.util.HashMap$HashMapEntry: java.lang.Object value>":[11],"sdaReg221":[11],"sdaReg220":[11],"sdaReg222":[28],"sdaReg120":[27],"sdaReg122":[27],"sdaReg121":[27],"1084327752.<java.util.HashMap$HashMapEntry: int hash>":[11],"sdaReg124":[27],"sdaReg123":[27],"sdaReg394":[11],"sdaReg116":[20],"1084324784.<java.util.HashMap: int size>":[11],"sdaReg395":[28],"sdaReg117":[27],"sdaReg392":[48],"sdaReg114":[20],"sdaReg393":[11],"sdaReg115":[27],"sdaReg398":[28],"sdaReg118":[27],"sdaReg397":[28],"sdaReg119":[27],"sdaReg219":[34],"1084332528":[11],"sdaReg218":[33],"sdaReg215":[33],"sdaReg391":[47],"sdaReg213":[33],"sdaReg214":[33],"sdaReg212":[33],"sdaReg211":[33],"1084325696":[11],"sdaReg210":[33],"1084332936":[11],"sdaReg113":[27],"sdaReg112":[20],"sdaReg111":[20],"sdaReg110":[26],"sdaReg385":[47],"sdaReg107":[11],"sdaReg386":[47],"sdaReg108":[11],"sdaReg387":[47],"sdaReg109":[26],"1093555848":[20],"sdaReg388":[47],"sdaReg381":[47],"sdaReg382":[47],"sdaReg104":[11],"sdaReg383":[47],"sdaReg105":[26],"sdaReg384":[47],"1093656088":[20],"sdaReg247":[35],"sdaReg248":[36],"sdaReg380":[47],"sdaReg249":[11],"sdaReg241":[35],"sdaReg240":[35],"sdaReg243":[35],"sdaReg242":[35],"sdaReg244":[35],"sdaReg100":[11],"sdaReg102":[11],"sdaReg101":[11],"sdaReg376":[20],"sdaReg377":[20],"1084325472":[11],"sdaReg372":[28],"sdaReg373":[28],"sdaReg370":[28],"sdaReg237":[35],"sdaReg238":[35],"sdaReg235":[11],"sdaReg236":[35],"sdaReg239":[35],"sdaReg234":[11],"1084327720.<java.util.HashMap$HashMapEntry: int hash>":[11],"sdaReg233":[20],"sdaReg232":[20],"sdaReg379":[11],"sdaReg378":[11],"1084324784.<java.util.HashMap: java.util.HashMap$HashMapEntry[] table>":[11],"1084332528.<java.util.HashMap$HashMapEntry: java.util.HashMap$HashMapEntry next>":[11],"sdaReg269":[37],"sdaReg268":[37],"sdaReg360":[45],"sdaReg169":[11],"sdaReg362":[45],"1084327416":[11],"sdaReg361":[45],"1084327752.<java.util.HashMap$HashMapEntry: java.lang.Object value>":[11],"sdaReg363":[45],"1093655336.<java.util.HashMap$HashIterator: int nextIndex>":[28],"sdaReg366":[45],"1084325544":[11],"sdaReg367":[46],"sdaReg161":[29],"1084327816.<java.util.HashMap$HashMapEntry: int hash>":[11],"sdaReg368":[11],"sdaReg162":[29],"1093301440":[27],"sdaReg369":[11],"sdaReg163":[29],"sdaReg164":[29],"1084332936.<java.util.HashMap$HashMapEntry: int hash>":[11],"sdaReg167":[29],"sdaReg168":[30],"sdaReg264":[37],"sdaReg265":[37],"sdaReg266":[37],"sdaReg267":[37],"sdaReg260":[11],"1093654656":[4],"sdaReg261":[37],"sdaReg262":[37],"sdaReg160":[29],"1093656624":[20],"sdaReg263":[37],"1084332840":[11],"sdaReg259":[11],"sdaReg258":[20],"sdaReg257":[20],"sdaReg351":[20],"sdaReg350":[28],"sdaReg159":[29],"sdaReg158":[29],"sdaReg355":[45],"sdaReg354":[11],"sdaReg353":[11],"sdaReg352":[20],"sdaReg358":[45],"sdaReg152":[20],"sdaReg359":[45],"sdaReg153":[20],"sdaReg356":[45],"sdaReg357":[45],"sdaReg151":[20],"sdaReg156":[29],"sdaReg157":[29],"sdaReg154":[11],"sdaReg155":[11],"sdaReg253":[28],"sdaReg254":[28],"sdaReg251":[28],"sdaReg250":[11],"1093657000.<java.util.HashMap: java.util.HashMap$HashMapEntry[] table>":[20],"1084327536":[11],"1084332560.arrayIdx_int:1":[11],"sdaReg344":[44],"sdaReg343":[43],"sdaReg148":[28],"sdaReg147":[28],"sdaReg340":[43],"sdaReg143":[28],"sdaReg349":[28],"sdaReg144":[28],"sdaReg145":[28],"sdaReg345":[11],"sdaReg140":[28],"sdaReg346":[11],"sdaReg141":[28],"sdaReg280":[20],"sdaReg347":[28],"sdaReg142":[28],"sdaReg281":[20],"sdaReg282":[11],"sdaReg283":[11],"sdaReg284":[39],"1084332560":[11],"sdaReg285":[39],"sdaReg286":[39],"sdaReg287":[39],"sdaReg288":[39],"sdaReg289":[39],"1093301408":[26],"sdaReg279":[28],"sdaReg333":[43],"sdaReg332":[43],"sdaReg331":[11],"sdaReg330":[11],"sdaReg139":[28],"sdaReg137":[28],"sdaReg134":[28],"sdaReg132":[28],"sdaReg338":[43],"sdaReg133":[20],"sdaReg339":[43],"sdaReg130":[28],"sdaReg336":[43],"sdaReg131":[20],"sdaReg337":[43],"sdaReg334":[43],"1084332840.<java.util.HashMap$HashMapEntry: int hash>":[11],"sdaReg335":[43],"sdaReg273":[38],"1093594800":[20],"1084332528.<java.util.HashMap$HashMapEntry: int hash>":[11],"sdaReg274":[11],"sdaReg272":[37],"sdaReg278":[28],"sdaReg275":[11],"sdaReg276":[28]},"colorToColor":{"0":[53],"1":[3],"2":[0, 20],"3":[3, 10],"4":[0],"5":[4],"6":[4],"7":[4],"8":[4],"9":[10],"10":[4],"11":[26, 11],"20":[27, 28],"25":[26],"27":[20],"26":[11],"28":[28]},"colorToLabel":{"0":"this","1":"arg#1","2":"arg#2","6":"<libcore.io.OsConstants: int O_WRONLY>","7":"<libcore.io.OsConstants: int O_CREAT>","8":"<libcore.io.OsConstants: int O_TRUNC>","11":"<java.nio.charset.Charset: java.util.HashMap CACHED_CHARSETS>","53":"return"}}}

Generated Model
	this->return
	arg#2->this
	arg#2->return
	arg#1->this
	arg#1->return

