Scanning method <android.os.Bundle: char[] getCharArray(java.lang.String)>

All seen event types: StoreArrayRecord, SimpleAssignmentRecord, ExitMonitorRecord, MethodStartRecord, LoadInstanceRecord, IfRecord, InstanceOfRecord, NewObjectRecord, StoreInstanceRecord, NewArrayRecord, LoadStaticRecord, BinaryOperationRecord, MethodCallRecord, MethodReturnRecord, SwitchRecord, EnterMonitorRecord, CastRecord, ArrayLengthRecord, LoadArrayRecord, MethodEndRecord, 
Ignored event types: ExitMonitorRecord, SwitchRecord, EnterMonitorRecord, IfRecord, 

JSON Encoded Analysis Data (for visualization):{"heapEdges":[{"step":0,"from":"1093912672","to":"1093470904","type":"load","field":"<android.os.Bundle: android.os.Parcel mParcelledData>"},{"step":1,"from":"1093912672","to":"1093470904","type":"load","field":"<android.os.Bundle: android.os.Parcel mParcelledData>"},{"step":2,"from":"1093470904","to":"sdaReg2","type":"model"},{"step":3,"from":"static.<java.util.HashMap: java.util.Map$Entry[] EMPTY_TABLE>","to":"1083997920","type":"load","field":"<java.util.HashMap: java.util.Map$Entry[] EMPTY_TABLE>"},{"step":4,"from":"1083997920","to":"1093593512","type":"store","field":"<java.util.HashMap: java.util.HashMap$HashMapEntry[] table>"},{"step":5,"from":"1093593512","to":"sdaReg9","type":"create","field":"<java.util.HashMap: int threshold>"},{"step":6,"from":"1093912672","to":"1093593512","type":"create","field":"<android.os.Bundle: java.util.Map mMap>"},{"step":7,"from":"1093912672","to":"1093470904","type":"load","field":"<android.os.Bundle: android.os.Parcel mParcelledData>"},{"step":8,"from":"1093470904","to":"sdaReg16","type":"model"},{"step":9,"from":"1093470904","to":"sdaReg17","type":"model"},{"step":10,"from":"1093470904","to":"sdaReg21","type":"model"},{"step":11,"from":"1093470904","to":"sdaReg23","type":"model"},{"step":12,"from":"1093470904","to":"1093939296","type":"model"},{"step":13,"from":"1093939352","to":"sdaReg30","type":"create","field":"<java.io.ByteArrayInputStream: int mark>"},{"step":14,"from":"1093939352","to":"1093939296","type":"create","field":"<java.io.ByteArrayInputStream: byte[] buf>"},{"step":15,"from":"sdaReg31","to":"1093939352","type":"store","field":"<java.io.ByteArrayInputStream: int count>"},{"step":16,"from":"static.<libcore.util.EmptyArray: byte[] BYTE>","to":"1083993968","type":"load","field":"<libcore.util.EmptyArray: byte[] BYTE>"},{"step":17,"from":"1093540088","to":"sdaReg44","type":"create","field":"<java.io.ByteArrayInputStream: int mark>"},{"step":18,"from":"1083993968","to":"1093540088","type":"store","field":"<java.io.ByteArrayInputStream: byte[] buf>"},{"step":19,"from":"sdaReg45","to":"1093540088","type":"store","field":"<java.io.ByteArrayInputStream: int count>"},{"step":20,"from":"1093538072","to":"1093540088","type":"create","field":"<java.io.ObjectInputStream: java.io.InputStream emptyStream>"},{"step":21,"from":"1093540088","to":"1093538072","type":"store","field":"<java.io.ObjectInputStream: java.io.InputStream primitiveData>"},{"step":22,"from":"1093538072","to":"sdaReg47","type":"create","field":"<java.io.ObjectInputStream: boolean mustResolve>"},{"step":23,"from":"1093538072","to":"sdaReg48","type":"create","field":"<java.io.ObjectInputStream: int descriptorHandle>"},{"step":24,"from":"static.<java.util.HashMap: java.util.Map$Entry[] EMPTY_TABLE>","to":"1083997920","type":"load","field":"<java.util.HashMap: java.util.Map$Entry[] EMPTY_TABLE>"},{"step":25,"from":"1083997920","to":"1093540120","type":"store","field":"<java.util.HashMap: java.util.HashMap$HashMapEntry[] table>"},{"step":26,"from":"1093540120","to":"sdaReg55","type":"create","field":"<java.util.HashMap: int threshold>"},{"step":27,"from":"1093538072","to":"1093540120","type":"create","field":"<java.io.ObjectInputStream: java.util.HashMap cachedSuperclasses>"},{"step":28,"from":"1093705280","to":"1093939352","type":"create","field":"<java.io.FilterInputStream: java.io.InputStream in>"},{"step":29,"from":"1093705280","to":"1093705304","type":"create","field":"<java.io.DataInputStream: byte[] scratch>"},{"step":30,"from":"1093538072","to":"1093705280","type":"create","field":"<java.io.ObjectInputStream: java.io.DataInputStream input>"},{"step":31,"from":"1093705336","to":"1093538072","type":"create","field":"<java.io.FilterInputStream: java.io.InputStream in>"},{"step":32,"from":"1093705336","to":"1093705360","type":"create","field":"<java.io.DataInputStream: byte[] scratch>"},{"step":33,"from":"1093538072","to":"1093705336","type":"create","field":"<java.io.ObjectInputStream: java.io.DataInputStream primitiveTypes>"},{"step":34,"from":"1093538072","to":"sdaReg76","type":"create","field":"<java.io.ObjectInputStream: boolean enableResolve>"},{"step":35,"from":"1093538072","to":"sdaReg77","type":"create","field":"<java.io.ObjectInputStream: boolean subclassOverridingImplementation>"},{"step":36,"from":"static.<libcore.util.EmptyArray: java.lang.Object[] OBJECT>","to":"1083994088","type":"load","field":"<libcore.util.EmptyArray: java.lang.Object[] OBJECT>"},{"step":37,"from":"1083994088","to":"1093705392","type":"store","field":"<java.util.ArrayList: java.lang.Object[] array>"},{"step":38,"from":"1093538072","to":"1093705392","type":"create","field":"<java.io.ObjectInputStream: java.util.ArrayList objectsRead>"},{"step":39,"from":"1093538072","to":"sdaReg87","type":"create","field":"<java.io.ObjectInputStream: int nextHandle>"},{"step":40,"from":"1093540088","to":"1093538072","type":"store","field":"<java.io.ObjectInputStream: java.io.InputStream primitiveData>"},{"step":41,"from":"1093538072","to":"sdaReg88","type":"create","field":"<java.io.ObjectInputStream: boolean hasPushbackTC>"},{"step":42,"from":"1093538072","to":"sdaReg89","type":"create","field":"<java.io.ObjectInputStream: byte pushbackTC>"},{"step":43,"from":"1093538072","to":"sdaReg90","type":"create","field":"<java.io.ObjectInputStream: int nestedLevels>"},{"step":44,"from":"1093705280","to":"1093538072","type":"store","field":"<java.io.ObjectInputStream: java.io.InputStream primitiveData>"},{"step":45,"from":"1093939352","to":"1093705304","type":"model"},{"step":46,"from":"static.<java.nio.ByteOrder: java.nio.ByteOrder BIG_ENDIAN>","to":"1084439336","type":"load","field":"<java.nio.ByteOrder: java.nio.ByteOrder BIG_ENDIAN>"},{"step":47,"from":"1093705304","to":"sdaReg93","type":"model"},{"step":48,"from":"1093939352","to":"1093705304","type":"model"},{"step":49,"from":"static.<java.nio.ByteOrder: java.nio.ByteOrder BIG_ENDIAN>","to":"1084439336","type":"load","field":"<java.nio.ByteOrder: java.nio.ByteOrder BIG_ENDIAN>"},{"step":50,"from":"1093705304","to":"sdaReg95","type":"model"},{"step":51,"from":"1093540088","to":"1093538072","type":"store","field":"<java.io.ObjectInputStream: java.io.InputStream primitiveData>"},{"step":52,"from":"sdaReg103","to":"1093538072","type":"store","field":"<java.io.ObjectInputStream: int nestedLevels>"},{"step":53,"from":"1093705416","to":"1085809544","type":"load","field":"arrayIdx_int:0"},{"step":54,"from":"1085809544","to":"1083999984","type":"model"},{"step":55,"from":"static.<java.io.ObjectInputStream: java.lang.ClassLoader bootstrapLoader>","to":"1083999984","type":"load","field":"<java.io.ObjectInputStream: java.lang.ClassLoader bootstrapLoader>"},{"step":56,"from":"1093705416","to":"1085809544","type":"load","field":"arrayIdx_int:1"},{"step":57,"from":"1085809544","to":"1083999984","type":"model"},{"step":58,"from":"static.<java.io.ObjectInputStream: java.lang.ClassLoader bootstrapLoader>","to":"1083999984","type":"load","field":"<java.io.ObjectInputStream: java.lang.ClassLoader bootstrapLoader>"},{"step":59,"from":"1093705416","to":"1085809544","type":"load","field":"arrayIdx_int:2"},{"step":60,"from":"1085809544","to":"1083999984","type":"model"},{"step":61,"from":"static.<java.io.ObjectInputStream: java.lang.ClassLoader bootstrapLoader>","to":"1083999984","type":"load","field":"<java.io.ObjectInputStream: java.lang.ClassLoader bootstrapLoader>"},{"step":62,"from":"1093705416","to":"1085809544","type":"load","field":"arrayIdx_int:3"},{"step":63,"from":"1085809544","to":"1083999984","type":"model"},{"step":64,"from":"static.<java.io.ObjectInputStream: java.lang.ClassLoader bootstrapLoader>","to":"1083999984","type":"load","field":"<java.io.ObjectInputStream: java.lang.ClassLoader bootstrapLoader>"},{"step":65,"from":"1093705416","to":"1085809544","type":"load","field":"arrayIdx_int:4"},{"step":66,"from":"1085809544","to":"1083999984","type":"model"},{"step":67,"from":"static.<java.io.ObjectInputStream: java.lang.ClassLoader bootstrapLoader>","to":"1083999984","type":"load","field":"<java.io.ObjectInputStream: java.lang.ClassLoader bootstrapLoader>"},{"step":68,"from":"1093705416","to":"1084021776","type":"load","field":"arrayIdx_int:5"},{"step":69,"from":"1084021776","to":"1083999984","type":"model"},{"step":70,"from":"static.<java.io.ObjectInputStream: java.lang.ClassLoader bootstrapLoader>","to":"1083999984","type":"load","field":"<java.io.ObjectInputStream: java.lang.ClassLoader bootstrapLoader>"},{"step":71,"from":"1093705416","to":"1084021776","type":"load","field":"arrayIdx_int:6"},{"step":72,"from":"1084021776","to":"1083999984","type":"model"},{"step":73,"from":"static.<java.io.ObjectInputStream: java.lang.ClassLoader bootstrapLoader>","to":"1083999984","type":"load","field":"<java.io.ObjectInputStream: java.lang.ClassLoader bootstrapLoader>"},{"step":74,"from":"1093705416","to":"1084021776","type":"load","field":"arrayIdx_int:7"},{"step":75,"from":"1084021776","to":"1083999984","type":"model"},{"step":76,"from":"static.<java.io.ObjectInputStream: java.lang.ClassLoader bootstrapLoader>","to":"1083999984","type":"load","field":"<java.io.ObjectInputStream: java.lang.ClassLoader bootstrapLoader>"},{"step":77,"from":"1093705416","to":"1084021776","type":"load","field":"arrayIdx_int:8"},{"step":78,"from":"1084021776","to":"1083999984","type":"model"},{"step":79,"from":"static.<java.io.ObjectInputStream: java.lang.ClassLoader bootstrapLoader>","to":"1083999984","type":"load","field":"<java.io.ObjectInputStream: java.lang.ClassLoader bootstrapLoader>"},{"step":80,"from":"1093705416","to":"1084021776","type":"load","field":"arrayIdx_int:9"},{"step":81,"from":"1084021776","to":"1083999984","type":"model"},{"step":82,"from":"static.<java.io.ObjectInputStream: java.lang.ClassLoader bootstrapLoader>","to":"1083999984","type":"load","field":"<java.io.ObjectInputStream: java.lang.ClassLoader bootstrapLoader>"},{"step":83,"from":"1093705416","to":"1084021776","type":"load","field":"arrayIdx_int:10"},{"step":84,"from":"1084021776","to":"1083999984","type":"model"},{"step":85,"from":"static.<java.io.ObjectInputStream: java.lang.ClassLoader bootstrapLoader>","to":"1083999984","type":"load","field":"<java.io.ObjectInputStream: java.lang.ClassLoader bootstrapLoader>"},{"step":86,"from":"1093705416","to":"1084342632","type":"load","field":"arrayIdx_int:11"},{"step":87,"from":"1084342632","to":"1083999984","type":"model"},{"step":88,"from":"static.<java.io.ObjectInputStream: java.lang.ClassLoader bootstrapLoader>","to":"1083999984","type":"load","field":"<java.io.ObjectInputStream: java.lang.ClassLoader bootstrapLoader>"},{"step":89,"from":"1093705416","to":"1084342632","type":"load","field":"arrayIdx_int:12"},{"step":90,"from":"1084342632","to":"1083999984","type":"model"},{"step":91,"from":"static.<java.io.ObjectInputStream: java.lang.ClassLoader bootstrapLoader>","to":"1083999984","type":"load","field":"<java.io.ObjectInputStream: java.lang.ClassLoader bootstrapLoader>"},{"step":92,"from":"1093705416","to":"1084342632","type":"load","field":"arrayIdx_int:13"},{"step":93,"from":"1084342632","to":"1083999984","type":"model"},{"step":94,"from":"static.<java.io.ObjectInputStream: java.lang.ClassLoader bootstrapLoader>","to":"1083999984","type":"load","field":"<java.io.ObjectInputStream: java.lang.ClassLoader bootstrapLoader>"},{"step":95,"from":"1093705416","to":"1084342632","type":"load","field":"arrayIdx_int:14"},{"step":96,"from":"1084342632","to":"1083999984","type":"model"},{"step":97,"from":"static.<java.io.ObjectInputStream: java.lang.ClassLoader bootstrapLoader>","to":"1083999984","type":"load","field":"<java.io.ObjectInputStream: java.lang.ClassLoader bootstrapLoader>"},{"step":98,"from":"1093705416","to":"1093532024","type":"load","field":"arrayIdx_int:15"},{"step":99,"from":"1093532024","to":"1093483560","type":"model"},{"step":100,"from":"static.<java.io.ObjectInputStream: java.lang.ClassLoader bootstrapLoader>","to":"1083999984","type":"load","field":"<java.io.ObjectInputStream: java.lang.ClassLoader bootstrapLoader>"},{"step":101,"from":"static.<java.io.ObjectInputStream: java.lang.ClassLoader systemLoader>","to":"1083999760","type":"load","field":"<java.io.ObjectInputStream: java.lang.ClassLoader systemLoader>"},{"step":102,"from":"1093538072","to":"1093483560","type":"create","field":"<java.io.ObjectInputStream: java.lang.ClassLoader callerClassLoader>"},{"step":103,"from":"1093540088","to":"1093540088.<java.io.ByteArrayInputStream: int pos>","type":"load","field":"<java.io.ByteArrayInputStream: int pos>"},{"step":104,"from":"1093939352","to":"1093939352.<java.io.ByteArrayInputStream: int pos>","type":"load","field":"<java.io.ByteArrayInputStream: int pos>"},{"step":105,"from":"1093939352","to":"1093939352.<java.io.ByteArrayInputStream: int pos>","type":"load","field":"<java.io.ByteArrayInputStream: int pos>"},{"step":106,"from":"sdaReg132","to":"1093939352","type":"store","field":"<java.io.ByteArrayInputStream: int pos>"},{"step":107,"from":"1093939296","to":"1093939296.arrayIdx_int:4","type":"load","field":"arrayIdx_int:4"},{"step":108,"from":"sdaReg134","to":"1093538072","type":"store","field":"<java.io.ObjectInputStream: byte pushbackTC>"},{"step":109,"from":"1093538072","to":"sdaReg136","type":"create","field":"<java.io.ObjectInputStream: boolean hasPushbackTC>"},{"step":110,"from":"1093540088","to":"1093540088.<java.io.ByteArrayInputStream: int pos>","type":"load","field":"<java.io.ByteArrayInputStream: int pos>"},{"step":111,"from":"1093538072","to":"sdaReg140","type":"create","field":"<java.io.ObjectInputStream: boolean hasPushbackTC>"},{"step":112,"from":"sdaReg147","to":"1093939352","type":"store","field":"<java.io.ByteArrayInputStream: int pos>"},{"step":113,"from":"1093939296","to":"1093939296.arrayIdx_int:5","type":"load","field":"arrayIdx_int:5"},{"step":114,"from":"sdaReg149","to":"1093538072","type":"store","field":"<java.io.ObjectInputStream: byte pushbackTC>"},{"step":115,"from":"1093705280","to":"1093538072","type":"store","field":"<java.io.ObjectInputStream: java.io.InputStream primitiveData>"},{"step":116,"from":"sdaReg154","to":"1093538072","type":"store","field":"<java.io.ObjectInputStream: int nextHandle>"},{"step":117,"from":"sdaReg155","to":"1093538072","type":"store","field":"<java.io.ObjectInputStream: int descriptorHandle>"},{"step":118,"from":"1093939352","to":"1093705304","type":"model"},{"step":119,"from":"static.<java.nio.ByteOrder: java.nio.ByteOrder BIG_ENDIAN>","to":"1084439336","type":"load","field":"<java.nio.ByteOrder: java.nio.ByteOrder BIG_ENDIAN>"},{"step":120,"from":"1093705304","to":"sdaReg162","type":"model"},{"step":121,"from":"1093939352","to":"1093684128","type":"model"},{"step":122,"from":"1093684128","to":"1093684128.arrayIdx_int:0","type":"load","field":"arrayIdx_int:0"},{"step":123,"from":"sdaReg176","to":"1093415840","type":"store","field":"arrayIdx_int:0"},{"step":124,"from":"1093684128","to":"1093684128.arrayIdx_int:1","type":"load","field":"arrayIdx_int:1"},{"step":125,"from":"sdaReg176","to":"1093415840","type":"store","field":"arrayIdx_int:1"},{"step":126,"from":"1093415840","to":"sdaReg177","type":"model"},{"step":127,"from":"1093802200","to":"sdaReg177","type":"model"},{"step":128,"from":"sdaReg177","to":"1093802200","type":"model"},{"step":129,"from":"1093939352","to":"1093705304","type":"model"},{"step":130,"from":"static.<java.nio.ByteOrder: java.nio.ByteOrder BIG_ENDIAN>","to":"1084439336","type":"load","field":"<java.nio.ByteOrder: java.nio.ByteOrder BIG_ENDIAN>"},{"step":131,"from":"1093705304","to":"sdaReg180","type":"model"},{"step":132,"from":"1093802200","to":"sdaReg180","type":"model"},{"step":133,"from":"sdaReg180","to":"1093802200","type":"model"},{"step":134,"from":"sdaReg183","to":"1093939352","type":"store","field":"<java.io.ByteArrayInputStream: int pos>"},{"step":135,"from":"1093939296","to":"1093939296.arrayIdx_int:18","type":"load","field":"arrayIdx_int:18"},{"step":136,"from":"1093802200","to":"sdaReg185","type":"model"},{"step":137,"from":"sdaReg185","to":"1093802200","type":"model"},{"step":138,"from":"1093705392","to":"1093705392.<java.util.ArrayList: int size>","type":"load","field":"<java.util.ArrayList: int size>"},{"step":139,"from":"1093705392","to":"1093705392.<java.util.ArrayList: int size>","type":"load","field":"<java.util.ArrayList: int size>"},{"step":140,"from":"1083994088","to":"1093536240","type":"model"},{"step":141,"from":"1093705392","to":"1093536240","type":"create","field":"<java.util.ArrayList: java.lang.Object[] array>"},{"step":142,"from":"1093536240","to":"1093802200","type":"create","field":"arrayIdx_int:0"},{"step":143,"from":"sdaReg198","to":"1093705392","type":"store","field":"<java.util.ArrayList: int size>"},{"step":144,"from":"1093705392","to":"1093705392.<java.util.AbstractList: int modCount>","type":"load","field":"<java.util.AbstractList: int modCount>"},{"step":145,"from":"sdaReg199","to":"1093705392","type":"store","field":"<java.util.AbstractList: int modCount>"},{"step":146,"from":"1093939352","to":"1093705304","type":"model"},{"step":147,"from":"static.<java.nio.ByteOrder: java.nio.ByteOrder BIG_ENDIAN>","to":"1084439336","type":"load","field":"<java.nio.ByteOrder: java.nio.ByteOrder BIG_ENDIAN>"},{"step":148,"from":"1093705304","to":"sdaReg204","type":"model"},{"step":149,"from":"1093802200","to":"1093516096","type":"model"},{"step":150,"from":"1093516096","to":"1093802200","type":"model"},{"step":151,"from":"1093802200","to":"1093536240","type":"store","field":"arrayIdx_int:0"},{"step":152,"from":"sdaReg215","to":"1093538072","type":"store","field":"<java.io.ObjectInputStream: int descriptorHandle>"},{"step":153,"from":"1093540088","to":"1093538072","type":"store","field":"<java.io.ObjectInputStream: java.io.InputStream primitiveData>"},{"step":154,"from":"1093802200","to":"0","type":"model"},{"step":155,"from":"1093802200","to":"sdaReg219","type":"model"},{"step":156,"from":"static.<java.io.ObjectInputStream: java.util.HashMap PRIMITIVE_CLASSES>","to":"1093939384","type":"load","field":"<java.io.ObjectInputStream: java.util.HashMap PRIMITIVE_CLASSES>"},{"step":157,"from":"1093939384","to":"1093537304","type":"load","field":"<java.util.HashMap: java.util.HashMap$HashMapEntry[] table>"},{"step":158,"from":"1093537304","to":"1093568872","type":"load","field":"arrayIdx_int:10"},{"step":159,"from":"1093568872","to":"1083992440","type":"load","field":"<java.util.HashMap$HashMapEntry: java.lang.Object key>"},{"step":160,"from":"1093568872","to":"1093568872.<java.util.HashMap$HashMapEntry: int hash>","type":"load","field":"<java.util.HashMap$HashMapEntry: int hash>"},{"step":161,"from":"sdaReg219","to":"1093483560","type":"model"},{"step":162,"from":"sdaReg219","to":"1083914536","type":"model"},{"step":163,"from":"1093483560","to":"sdaReg219","type":"model"},{"step":164,"from":"1093483560","to":"1083914536","type":"model"},{"step":165,"from":"1093802200","to":"1083914536","type":"model"},{"step":166,"from":"1083914536","to":"1093802200","type":"model"},{"step":167,"from":"1093802200","to":"1083914536","type":"model"},{"step":168,"from":"1083914536","to":"1093447456","type":"model"},{"step":169,"from":"1093802200","to":"sdaReg240","type":"model"},{"step":170,"from":"1093447456","to":"sdaReg241","type":"model"},{"step":171,"from":"1093802200","to":"sdaReg243","type":"model"},{"step":172,"from":"sdaReg243","to":"sdaReg244","type":"model"},{"step":173,"from":"1093447456","to":"sdaReg245","type":"model"},{"step":174,"from":"sdaReg245","to":"sdaReg246","type":"model"},{"step":175,"from":"1093802200","to":"1093447456","type":"model"},{"step":176,"from":"1093447456","to":"1093802200","type":"model"},{"step":177,"from":"1093802200","to":"1093516096","type":"model"},{"step":178,"from":"1093802200","to":"1083914536","type":"model"},{"step":179,"from":"1093802200","to":"1083914536","type":"model"},{"step":180,"from":"1083914536","to":"1083999984","type":"model"},{"step":181,"from":"1093540088","to":"1093538072","type":"store","field":"<java.io.ObjectInputStream: java.io.InputStream primitiveData>"},{"step":182,"from":"1093538072","to":"sdaReg259","type":"create","field":"<java.io.ObjectInputStream: boolean mustResolve>"},{"step":183,"from":"sdaReg263","to":"1093939352","type":"store","field":"<java.io.ByteArrayInputStream: int pos>"},{"step":184,"from":"1093939296","to":"1093939296.arrayIdx_int:21","type":"load","field":"arrayIdx_int:21"},{"step":185,"from":"sdaReg265","to":"1093538072","type":"store","field":"<java.io.ObjectInputStream: byte pushbackTC>"},{"step":186,"from":"sdaReg267","to":"1093538072","type":"store","field":"<java.io.ObjectInputStream: boolean mustResolve>"},{"step":187,"from":"sdaReg272","to":"1093939352","type":"store","field":"<java.io.ByteArrayInputStream: int pos>"},{"step":188,"from":"1093939296","to":"1093939296.arrayIdx_int:22","type":"load","field":"arrayIdx_int:22"},{"step":189,"from":"sdaReg274","to":"1093538072","type":"store","field":"<java.io.ObjectInputStream: byte pushbackTC>"},{"step":190,"from":"sdaReg283","to":"1093538072","type":"store","field":"<java.io.ObjectInputStream: int nextHandle>"},{"step":191,"from":"1093939352","to":"1093705304","type":"model"},{"step":192,"from":"static.<java.nio.ByteOrder: java.nio.ByteOrder BIG_ENDIAN>","to":"1084439336","type":"load","field":"<java.nio.ByteOrder: java.nio.ByteOrder BIG_ENDIAN>"},{"step":193,"from":"1093705304","to":"sdaReg286","type":"model"},{"step":194,"from":"1093802200","to":"1083914536","type":"model"},{"step":195,"from":"1083914536","to":"1083909448","type":"model"},{"step":196,"from":"1093536240","to":"1093682112","type":"create","field":"arrayIdx_int:1"},{"step":197,"from":"sdaReg298","to":"1093705392","type":"store","field":"<java.util.ArrayList: int size>"},{"step":198,"from":"sdaReg299","to":"1093705392","type":"store","field":"<java.util.AbstractList: int modCount>"},{"step":199,"from":"1083909448","to":"sdaReg301","type":"model"},{"step":200,"from":"static.<java.lang.Integer: java.lang.Class TYPE>","to":"1083909616","type":"load","field":"<java.lang.Integer: java.lang.Class TYPE>"},{"step":201,"from":"static.<java.lang.Byte: java.lang.Class TYPE>","to":"1083909112","type":"load","field":"<java.lang.Byte: java.lang.Class TYPE>"},{"step":202,"from":"static.<java.lang.Character: java.lang.Class TYPE>","to":"1083909448","type":"load","field":"<java.lang.Character: java.lang.Class TYPE>"},{"step":203,"from":"1093939352","to":"1093705304","type":"model"},{"step":204,"from":"static.<java.nio.ByteOrder: java.nio.ByteOrder BIG_ENDIAN>","to":"1084439336","type":"load","field":"<java.nio.ByteOrder: java.nio.ByteOrder BIG_ENDIAN>"},{"step":205,"from":"1093705304","to":"sdaReg307","type":"model"},{"step":206,"from":"sdaReg308","to":"1093682112","type":"store","field":"arrayIdx_int:0"},{"step":207,"from":"1093939352","to":"1093705304","type":"model"},{"step":208,"from":"static.<java.nio.ByteOrder: java.nio.ByteOrder BIG_ENDIAN>","to":"1084439336","type":"load","field":"<java.nio.ByteOrder: java.nio.ByteOrder BIG_ENDIAN>"},{"step":209,"from":"1093705304","to":"sdaReg311","type":"model"},{"step":210,"from":"sdaReg312","to":"1093682112","type":"store","field":"arrayIdx_int:1"},{"step":211,"from":"sdaReg315","to":"1093538072","type":"store","field":"<java.io.ObjectInputStream: int nestedLevels>"},{"step":212,"from":"1093538072","to":"sdaReg316","type":"create","field":"<java.io.ObjectInputStream: java.lang.ClassLoader callerClassLoader>"},{"step":213,"from":"1093593512","to":"1093593512.<java.util.HashMap: int modCount>","type":"load","field":"<java.util.HashMap: int modCount>"},{"step":214,"from":"sdaReg337","to":"1093593512","type":"store","field":"<java.util.HashMap: int modCount>"},{"step":215,"from":"1093593512","to":"1093593512.<java.util.HashMap: int size>","type":"load","field":"<java.util.HashMap: int size>"},{"step":216,"from":"sdaReg338","to":"1093593512","type":"store","field":"<java.util.HashMap: int size>"},{"step":217,"from":"1093593512","to":"1093881288","type":"create","field":"<java.util.HashMap: java.util.HashMap$HashMapEntry[] table>"},{"step":218,"from":"sdaReg346","to":"1093593512","type":"store","field":"<java.util.HashMap: int threshold>"},{"step":219,"from":"1093492680","to":"1093881328","type":"store","field":"<java.util.HashMap$HashMapEntry: java.lang.Object key>"},{"step":220,"from":"1093682112","to":"1093881328","type":"store","field":"<java.util.HashMap$HashMapEntry: java.lang.Object value>"},{"step":221,"from":"sdaReg333","to":"1093881328","type":"store","field":"<java.util.HashMap$HashMapEntry: int hash>"},{"step":222,"from":"1093881288","to":"1093881328","type":"create","field":"arrayIdx_int:2"},{"step":223,"from":"1093912672","to":"1093470904","type":"load","field":"<android.os.Bundle: android.os.Parcel mParcelledData>"},{"step":224,"from":"1093470904","to":"1093470904.<android.os.Parcel: int mOwnObject>","type":"load","field":"<android.os.Parcel: int mOwnObject>"},{"step":225,"from":"static.<android.os.Parcel: android.os.Parcel[] sOwnedPool>","to":"1084044960","type":"load","field":"<android.os.Parcel: android.os.Parcel[] sOwnedPool>"},{"step":226,"from":"1093470904","to":"1084044960","type":"store","field":"arrayIdx_int:0"},{"step":227,"from":"1093912672","to":"sdaReg365","type":"create","field":"<android.os.Bundle: android.os.Parcel mParcelledData>"}],"parameters":[{"id":"1093912672","name":"this","klass":"android.os.Bundle"},{"id":"sdaReg0","name":"arg#1","klass":"string"}],"returns":[{"id":"1093682112","name":"return","klass":"char[]"}],"colors":{"heapLocToColor":{"sdaReg191":[19],"sdaReg293":[19],"sdaReg296":[55],"sdaReg193":[29],"1093705416.arrayIdx_int:13":[24],"sdaReg295":[19],"sdaReg192":[19],"1093705416.arrayIdx_int:14":[24],"sdaReg326":[62],"sdaReg199":[19],"static.<java.io.ObjectInputStream: java.lang.ClassLoader bootstrapLoader>":[25, 24, 26],"sdaReg325":[62],"sdaReg198":[19],"sdaReg324":[55],"sdaReg290":[11],"sdaReg329":[62],"sdaReg328":[62],"sdaReg327":[62],"sdaReg291":[55],"sdaReg196":[19],"sdaReg14":[0],"sdaReg11":[0],"sdaReg12":[3],"1093939296.arrayIdx_int:5":[0, 9],"sdaReg321":[55],"1093939296.arrayIdx_int:4":[0, 9],"sdaReg322":[3],"sdaReg10":[3],"sdaReg320":[55],"sdaReg19":[0],"sdaReg17":[0, 6],"1093705416.arrayIdx_int:12":[24],"1093705416.arrayIdx_int:10":[24],"sdaReg16":[0, 5],"sdaReg313":[55],"1083999760":[28],"sdaReg312":[61],"sdaReg314":[55],"sdaReg317":[55],"sdaReg319":[55],"sdaReg318":[55],"0":[39, 29],"sdaReg310":[15],"sdaReg311":[61],"1093705360":[18],"1093540088":[12],"1093705336":[17],"static.<java.lang.Character: java.lang.Class TYPE>":[54, 59, 43, 29],"sdaReg309":[15],"sdaReg170":[32],"sdaReg308":[60],"sdaReg307":[60],"1093912672":[0],"sdaReg306":[15],"sdaReg305":[15],"sdaReg177":[33, 29],"sdaReg303":[55],"sdaReg176":[31],"1093470904.<android.os.Parcel: int mOwnObject>":[0],"sdaReg302":[55],"sdaReg179":[15],"sdaReg301":[54, 43, 56, 29],"sdaReg178":[34],"1093705280":[15],"static.<java.util.HashMap: java.util.Map$Entry[] EMPTY_TABLE>":[4],"1093802200":[29],"sdaReg182":[10],"sdaReg181":[15],"1085809544":[24],"sdaReg180":[35, 29],"sdaReg186":[11],"sdaReg185":[0, 9, 29],"sdaReg184":[0, 9],"sdaReg187":[29],"1093447456":[29, 44],"sdaReg60":[15],"sdaReg61":[10],"1093705416":[24],"static.<libcore.util.EmptyArray: java.lang.Object[] OBJECT>":[20],"sdaReg59":[10],"sdaReg58":[15],"sdaReg56":[14],"1093912672.<android.os.Bundle: android.os.Parcel mParcelledData>":[0],"1083997920":[4],"sdaReg54":[4],"sdaReg53":[4],"sdaReg52":[14],"sdaReg51":[14],"1093593512.<java.util.HashMap: int modCount>":[3],"sdaReg50":[14],"1093470904":[0],"1093939352.<java.io.ByteArrayInputStream: int pos>":[10],"sdaReg49":[14],"sdaReg46":[12],"sdaReg41":[12],"sdaReg40":[13],"sdaReg43":[12],"sdaReg42":[12],"1093705392.<java.util.ArrayList: int size>":[19],"1093536240":[36],"1084439336":[21],"sdaReg201":[11],"sdaReg204":[37],"sdaReg39":[12],"sdaReg203":[15],"sdaReg38":[11],"sdaReg202":[29],"sdaReg37":[11],"sdaReg208":[29],"sdaReg207":[11],"sdaReg206":[29],"sdaReg32":[10],"sdaReg36":[11],"sdaReg35":[10],"sdaReg34":[11],"sdaReg33":[10],"sdaReg8":[4],"sdaReg6":[3],"1093684128.arrayIdx_int:1":[31],"sdaReg7":[4],"1093684128.arrayIdx_int:0":[31],"sdaReg4":[3],"1093881328":[64],"sdaReg5":[3],"1093684128":[31],"1093705304":[16],"sdaReg27":[10],"sdaReg26":[0, 9],"sdaReg29":[10],"sdaReg28":[10],"sdaReg3":[3],"sdaReg2":[0, 2],"sdaReg21":[0, 7],"sdaReg1":[0],"sdaReg0":[1],"sdaReg23":[0, 8],"sdaReg22":[0],"1093540120":[14],"sdaReg25":[10],"1093540088.<java.io.ByteArrayInputStream: int pos>":[12],"sdaReg24":[0, 9],"sdaReg125":[11],"sdaReg126":[11],"sdaReg127":[12],"sdaReg128":[12],"1084044960":[65],"sdaReg228":[42],"sdaReg68":[11],"sdaReg229":[42],"sdaReg69":[17],"1093568872.<java.util.HashMap$HashMapEntry: int hash>":[41],"sdaReg66":[15],"sdaReg67":[17],"sdaReg224":[42],"sdaReg64":[15],"sdaReg225":[42],"sdaReg65":[15],"sdaReg226":[42],"sdaReg62":[15],"sdaReg227":[42],"sdaReg63":[15],"1093568872":[41],"sdaReg221":[42],"sdaReg72":[17],"sdaReg220":[41],"sdaReg71":[17],"sdaReg223":[42],"sdaReg70":[11],"sdaReg222":[42],"sdaReg120":[25, 24, 26],"sdaReg122":[25, 24, 26],"sdaReg121":[25, 24, 26],"sdaReg124":[24, 27],"sdaReg123":[24, 27],"sdaReg116":[25, 24, 26],"sdaReg117":[25, 24, 26],"1083992440":[41],"sdaReg114":[25, 24, 26],"sdaReg115":[25, 24, 26],"sdaReg118":[25, 24, 26],"sdaReg119":[25, 24, 26],"sdaReg219":[40, 29],"sdaReg78":[11],"sdaReg217":[29],"sdaReg79":[11],"sdaReg218":[39, 29],"sdaReg73":[17],"sdaReg216":[11],"sdaReg74":[17],"sdaReg213":[19],"sdaReg75":[17],"sdaReg214":[29],"sdaReg81":[19],"sdaReg211":[19],"sdaReg80":[19],"sdaReg83":[19],"1083994088":[20],"sdaReg82":[19],"1083993968":[13],"sdaReg113":[25, 24, 26],"sdaReg112":[25, 24, 26],"sdaReg111":[25, 24, 26],"sdaReg110":[25, 24, 26],"sdaReg108":[25, 24],"sdaReg109":[25, 24, 26],"sdaReg381":[55],"sdaReg382":[55],"sdaReg104":[24],"1093532024":[24],"sdaReg105":[24],"1093682112":[55],"sdaReg246":[50, 49, 44],"sdaReg86":[19],"sdaReg247":[51],"sdaReg248":[38, 29],"sdaReg84":[19],"sdaReg380":[55],"sdaReg249":[38, 29],"sdaReg85":[19],"sdaReg241":[46, 44],"1083909616":[57],"sdaReg240":[29, 45],"sdaReg243":[29, 47],"sdaReg94":[15],"sdaReg242":[46, 29, 44, 45],"sdaReg93":[22],"sdaReg245":[49, 44],"sdaReg92":[15],"1093939296":[0, 9],"sdaReg244":[48, 29, 47],"sdaReg91":[11],"1084021776":[24],"1093483560":[24, 27],"sdaReg374":[66],"sdaReg375":[66],"sdaReg372":[66],"sdaReg373":[66],"sdaReg370":[66],"sdaReg371":[66],"sdaReg237":[29],"sdaReg95":[23],"sdaReg238":[43, 29],"sdaReg96":[11],"sdaReg235":[43],"sdaReg97":[11],"sdaReg236":[11],"1093593512":[3],"sdaReg98":[11],"sdaReg99":[11],"sdaReg239":[44],"1093939296.arrayIdx_int:18":[0, 9],"sdaReg234":[43],"sdaReg233":[39, 29],"1084342632":[24],"sdaReg232":[42],"1093593512.<java.util.HashMap: int size>":[3],"sdaReg379":[67],"1093516096":[38, 29],"sdaReg378":[66],"sdaReg269":[11],"sdaReg268":[11],"1093705392":[19],"sdaReg360":[64],"sdaReg169":[31],"sdaReg362":[65],"sdaReg361":[0],"sdaReg363":[65],"static.<java.lang.Byte: java.lang.Class TYPE>":[58],"sdaReg366":[3],"1093538072":[11],"sdaReg367":[66],"sdaReg161":[15],"sdaReg368":[66],"1083909112":[58],"sdaReg162":[30],"sdaReg369":[66],"sdaReg163":[30],"sdaReg164":[15],"1093939296.arrayIdx_int:22":[0, 9],"sdaReg165":[15],"1093939296.arrayIdx_int:21":[0, 9],"sdaReg166":[15],"sdaReg167":[31],"sdaReg264":[0, 9],"sdaReg265":[0, 9],"sdaReg260":[11],"static.<java.nio.ByteOrder: java.nio.ByteOrder BIG_ENDIAN>":[21],"sdaReg261":[15],"sdaReg262":[10],"sdaReg160":[15],"1093881288":[63],"sdaReg258":[11],"1083914536":[43, 29],"sdaReg159":[15],"static.<libcore.util.EmptyArray: byte[] BYTE>":[13],"sdaReg158":[29],"sdaReg355":[64],"sdaReg354":[55],"sdaReg352":[3],"sdaReg358":[39, 29],"sdaReg359":[64],"sdaReg153":[11],"sdaReg357":[55],"sdaReg151":[11],"1093705416.arrayIdx_int:8":[24],"sdaReg156":[11],"1093939384":[41],"1093705416.arrayIdx_int:9":[24],"sdaReg157":[29],"1093705416.arrayIdx_int:6":[24],"1093705416.arrayIdx_int:7":[24],"sdaReg255":[38, 29],"1093705416.arrayIdx_int:4":[24],"sdaReg253":[25, 24, 43, 26, 29],"1093705416.arrayIdx_int:2":[24],"sdaReg254":[25, 43, 24, 26, 29],"1093705416.arrayIdx_int:3":[24],"sdaReg251":[43, 29],"1083909448":[54, 59, 43, 29],"sdaReg252":[43, 29],"1093705416.arrayIdx_int:1":[24],"sdaReg250":[38, 29],"static.<android.os.Parcel: android.os.Parcel[] sOwnedPool>":[65],"sdaReg342":[3],"sdaReg148":[0, 9],"sdaReg149":[0, 9],"sdaReg349":[63],"1093939352":[10],"sdaReg143":[11],"sdaReg144":[11],"sdaReg145":[15],"sdaReg146":[10],"sdaReg347":[63],"sdaReg280":[29],"static.<java.io.ObjectInputStream: java.lang.ClassLoader systemLoader>":[28],"sdaReg281":[29],"sdaReg142":[11],"sdaReg282":[11],"1083999984":[25, 43, 24, 26, 29],"sdaReg285":[15],"1093705392.<java.util.AbstractList: int modCount>":[19],"sdaReg286":[53],"sdaReg287":[43, 29],"sdaReg288":[54, 43, 29],"sdaReg289":[55],"1093537304":[41],"sdaReg279":[52],"sdaReg333":[62],"sdaReg332":[62],"sdaReg331":[62],"sdaReg330":[62],"sdaReg139":[11],"sdaReg138":[12],"sdaReg137":[12],"1093415840":[32],"static.<java.io.ObjectInputStream: java.util.HashMap PRIMITIVE_CLASSES>":[41],"sdaReg134":[0, 9],"sdaReg135":[11],"sdaReg338":[3],"sdaReg132":[10],"sdaReg339":[3],"sdaReg133":[0, 9],"sdaReg336":[62],"sdaReg130":[15],"sdaReg337":[3],"sdaReg270":[15],"sdaReg131":[10],"static.<java.lang.Integer: java.lang.Class TYPE>":[57],"sdaReg273":[0, 9],"sdaReg274":[0, 9],"sdaReg271":[10],"sdaReg277":[29],"sdaReg278":[39, 29],"sdaReg276":[39, 29]},"colorToColor":{"0":[65, 10, 11, 29],"3":[0, 3],"64":[63],"4":[3, 14],"9":[10, 11, 29],"10":[16, 10, 31, 15],"11":[17],"12":[11],"13":[12],"14":[11],"15":[11],"17":[11],"16":[35, 53, 23, 37, 22, 61, 60, 30, 15],"19":[19, 11],"18":[17],"20":[19, 36],"24":[43, 40, 11, 29],"27":[43, 40, 11, 29],"29":[36, 43, 24, 27, 29, 44],"31":[32],"35":[29],"32":[33],"33":[29],"38":[29],"36":[19],"43":[29, 44],"40":[43, 24, 27],"44":[29],"55":[68, 64, 36],"63":[3],"62":[64],"61":[55],"60":[55]},"colorToLabel":{"0":"this","1":"arg#1","4":"<java.util.HashMap: java.util.Map$Entry[] EMPTY_TABLE>","13":"<libcore.util.EmptyArray: byte[] BYTE>","20":"<libcore.util.EmptyArray: java.lang.Object[] OBJECT>","21":"<java.nio.ByteOrder: java.nio.ByteOrder BIG_ENDIAN>","26":"<java.io.ObjectInputStream: java.lang.ClassLoader bootstrapLoader>","28":"<java.io.ObjectInputStream: java.lang.ClassLoader systemLoader>","41":"<java.io.ObjectInputStream: java.util.HashMap PRIMITIVE_CLASSES>","57":"<java.lang.Integer: java.lang.Class TYPE>","58":"<java.lang.Byte: java.lang.Class TYPE>","59":"<java.lang.Character: java.lang.Class TYPE>","65":"<android.os.Parcel: android.os.Parcel[] sOwnedPool>","68":"return"}}}

Generated Model
	this->return
	this-><android.os.Parcel: android.os.Parcel[] sOwnedPool>

