Scanning method <java.io.RandomAccessFile: void finalize()>

All seen event types: SimpleAssignmentRecord, ExitMonitorRecord, MethodReturnRecord, MethodCallRecord, EnterMonitorRecord, MethodStartRecord, LoadInstanceRecord, MethodEndRecord, IfRecord, 
Ignored event types: ExitMonitorRecord, EnterMonitorRecord, IfRecord, 

JSON Encoded Analysis Data (for visualization):{"heapEdges":[{"step":0,"from":"1093699392","to":"1083966016","type":"load","field":"<java.io.RandomAccessFile: dalvik.system.CloseGuard guard>"},{"step":1,"from":"1093699392","to":"1083966016","type":"load","field":"<java.io.RandomAccessFile: dalvik.system.CloseGuard guard>"},{"step":2,"from":"1093699392","to":"1083966016","type":"load","field":"<java.io.RandomAccessFile: dalvik.system.CloseGuard guard>"}],"parameters":[{"id":"1093699392","name":"this","klass":"java.io.RandomAccessFile"}],"returns":[{"id":null,"name":"return","klass":null}],"colors":{"heapLocToColor":{"1093699392":[0],"sdaReg1":[0],"sdaReg0":[0],"1083966016":[0],"1093699392.<java.io.RandomAccessFile: dalvik.system.CloseGuard guard>":[0]},"colorToColor":{},"colorToLabel":{"0":"this","1":"return"}}}

Generated Model

