Scanning method <java.net.InetAddress: boolean isIPv4MappedAddress(byte[])>

All seen event types: BinaryOperationRecord, SimpleAssignmentRecord, ArrayLengthRecord, LoadArrayRecord, IfRecord, 
Ignored event types: IfRecord, 

JSON Encoded Analysis Data (for visualization):{"heapEdges":[{"step":0,"from":"1093661752","to":"1093661752.arrayIdx_int:0","type":"load","field":"arrayIdx_int:0"},{"step":1,"from":"1093661752","to":"1093661752.arrayIdx_int:1","type":"load","field":"arrayIdx_int:1"},{"step":2,"from":"1093661752","to":"1093661752.arrayIdx_int:2","type":"load","field":"arrayIdx_int:2"},{"step":3,"from":"1093661752","to":"1093661752.arrayIdx_int:3","type":"load","field":"arrayIdx_int:3"},{"step":4,"from":"1093661752","to":"1093661752.arrayIdx_int:4","type":"load","field":"arrayIdx_int:4"},{"step":5,"from":"1093661752","to":"1093661752.arrayIdx_int:5","type":"load","field":"arrayIdx_int:5"},{"step":6,"from":"1093661752","to":"1093661752.arrayIdx_int:6","type":"load","field":"arrayIdx_int:6"},{"step":7,"from":"1093661752","to":"1093661752.arrayIdx_int:7","type":"load","field":"arrayIdx_int:7"},{"step":8,"from":"1093661752","to":"1093661752.arrayIdx_int:8","type":"load","field":"arrayIdx_int:8"},{"step":9,"from":"1093661752","to":"1093661752.arrayIdx_int:9","type":"load","field":"arrayIdx_int:9"},{"step":10,"from":"1093661752","to":"1093661752.arrayIdx_int:10","type":"load","field":"arrayIdx_int:10"},{"step":11,"from":"1093661752","to":"1093661752.arrayIdx_int:11","type":"load","field":"arrayIdx_int:11"}],"parameters":[{"id":"1093661752","name":"arg#0","klass":"byte[]"}],"returns":[{"id":null,"name":"return","klass":"boolean"}],"colors":{"heapLocToColor":{"1093661752.arrayIdx_int:6":[0],"1093661752.arrayIdx_int:7":[0],"1093661752.arrayIdx_int:4":[0],"1093661752.arrayIdx_int:5":[0],"1093661752.arrayIdx_int:8":[0],"1093661752.arrayIdx_int:9":[0],"1093661752.arrayIdx_int:0":[0],"1093661752.arrayIdx_int:1":[0],"1093661752.arrayIdx_int:2":[0],"1093661752.arrayIdx_int:3":[0],"1093661752.arrayIdx_int:11":[0],"1093661752":[0],"1093661752.arrayIdx_int:10":[0]},"colorToColor":{},"colorToLabel":{"0":"arg#0","1":"return"}}}

Generated Model

