Scanning method <java.util.AbstractList$FullListIterator: void add(java.lang.Object)>

All seen event types: BinaryOperationRecord, StoreArrayRecord, MethodReturnRecord, MethodCallRecord, ArrayLengthRecord, MethodStartRecord, LoadInstanceRecord, MethodEndRecord, IfRecord, StoreInstanceRecord, 
Ignored event types: IfRecord, 

JSON Encoded Analysis Data (for visualization):{"heapEdges":[{"step":0,"from":"1093246536","to":"1093246536.<java.util.AbstractList$SimpleListIterator: int expectedModCount>","type":"load","field":"<java.util.AbstractList$SimpleListIterator: int expectedModCount>"},{"step":1,"from":"1093246536","to":"1093519824","type":"load","field":"<java.util.AbstractList$FullListIterator: java.util.AbstractList this$0>"},{"step":2,"from":"1093519824","to":"1093519824.<java.util.AbstractList: int modCount>","type":"load","field":"<java.util.AbstractList: int modCount>"},{"step":3,"from":"1093246536","to":"1093519824","type":"load","field":"<java.util.AbstractList$FullListIterator: java.util.AbstractList this$0>"},{"step":4,"from":"1093246536","to":"1093246536.<java.util.AbstractList$SimpleListIterator: int pos>","type":"load","field":"<java.util.AbstractList$SimpleListIterator: int pos>"},{"step":5,"from":"1093519824","to":"1094129696","type":"load","field":"<java.util.ArrayList: java.lang.Object[] array>"},{"step":6,"from":"1093519824","to":"1093519824.<java.util.ArrayList: int size>","type":"load","field":"<java.util.ArrayList: int size>"},{"step":7,"from":"1094193536","to":"1094129696","type":"store","field":"arrayIdx_int:52"},{"step":8,"from":"sdaReg6","to":"1093519824","type":"store","field":"<java.util.ArrayList: int size>"},{"step":9,"from":"1093519824","to":"1093519824.<java.util.AbstractList: int modCount>","type":"load","field":"<java.util.AbstractList: int modCount>"},{"step":10,"from":"sdaReg7","to":"1093519824","type":"store","field":"<java.util.AbstractList: int modCount>"},{"step":11,"from":"1093246536","to":"1093246536.<java.util.AbstractList$SimpleListIterator: int pos>","type":"load","field":"<java.util.AbstractList$SimpleListIterator: int pos>"},{"step":12,"from":"sdaReg8","to":"1093246536","type":"store","field":"<java.util.AbstractList$SimpleListIterator: int pos>"},{"step":13,"from":"1093246536","to":"sdaReg9","type":"create","field":"<java.util.AbstractList$SimpleListIterator: int lastPosition>"},{"step":14,"from":"1093246536","to":"1093519824","type":"load","field":"<java.util.AbstractList$FullListIterator: java.util.AbstractList this$0>"},{"step":15,"from":"1093246536","to":"1093246536.<java.util.AbstractList$SimpleListIterator: int expectedModCount>","type":"load","field":"<java.util.AbstractList$SimpleListIterator: int expectedModCount>"},{"step":16,"from":"1093246536","to":"1093519824","type":"load","field":"<java.util.AbstractList$FullListIterator: java.util.AbstractList this$0>"},{"step":17,"from":"sdaReg10","to":"1093246536","type":"store","field":"<java.util.AbstractList$SimpleListIterator: int expectedModCount>"}],"parameters":[{"id":"1093246536","name":"this","klass":"java.util.AbstractList$FullListIterator"},{"id":"1094193536","name":"arg#1","klass":"java.lang.Object"}],"returns":[{"id":null,"name":"return","klass":null}],"colors":{"heapLocToColor":{"sdaReg8":[0],"1093246536.<java.util.AbstractList$SimpleListIterator: int expectedModCount>":[0],"sdaReg6":[0],"sdaReg7":[0],"sdaReg4":[0],"sdaReg5":[0],"1094129696":[0],"1093519824.<java.util.ArrayList: int size>":[0],"1093246536":[0],"1093246536.<java.util.AbstractList$SimpleListIterator: int pos>":[0],"1093519824":[0],"sdaReg2":[1],"sdaReg1":[0],"1094193536":[1],"sdaReg0":[0],"1093519824.<java.util.AbstractList: int modCount>":[0],"1093246536.<java.util.AbstractList$FullListIterator: java.util.AbstractList this$0>":[0]},"colorToColor":{"0":[0],"1":[0]},"colorToLabel":{"0":"this","1":"arg#1","2":"return"}}}

Generated Model
	arg#1->this

