Scanning method <java.io.RandomAccessFile: void write(byte[])>

All seen event types: MethodReturnRecord, MethodCallRecord, LoadInstanceRecord, MethodStartRecord, ArrayLengthRecord, MethodEndRecord, IfRecord, 
Ignored event types: IfRecord, 

JSON Encoded Analysis Data (for visualization):{"heapEdges":[{"step":0,"from":"1093683536","to":"1093684568","type":"load","field":"<java.io.RandomAccessFile: java.io.FileDescriptor fd>"},{"step":1,"from":"1093683536","to":"1093683536.<java.io.RandomAccessFile: boolean syncMetadata>","type":"load","field":"<java.io.RandomAccessFile: boolean syncMetadata>"}],"parameters":[{"id":"1093683536","name":"this","klass":"java.io.RandomAccessFile"},{"id":"1093278864","name":"arg#1","klass":"byte[]"}],"returns":[{"id":null,"name":"return","klass":null}],"colors":{"heapLocToColor":{"1093278864":[1],"1093683536.<java.io.RandomAccessFile: boolean syncMetadata>":[0],"sdaReg2":[1],"sdaReg1":[0],"1093684568":[0],"1093683536":[0]},"colorToColor":{},"colorToLabel":{"0":"this","1":"arg#1","2":"return"}}}

Generated Model

