Scanning method <android.os.Bundle: void readFromParcelInner(android.os.Parcel,int)>

All seen event types: StoreArrayRecord, SimpleAssignmentRecord, ExitMonitorRecord, MethodStartRecord, IfRecord, StoreInstanceRecord, LoadStaticRecord, BinaryOperationRecord, MethodCallRecord, MethodReturnRecord, EnterMonitorRecord, LoadArrayRecord, MethodEndRecord, 
Ignored event types: ExitMonitorRecord, EnterMonitorRecord, IfRecord, 

JSON Encoded Analysis Data (for visualization):{"heapEdges":[{"step":0,"from":"1093453088","to":"sdaReg1","type":"model"},{"step":1,"from":"1093453088","to":"sdaReg2","type":"model"},{"step":2,"from":"1093453088","to":"sdaReg3","type":"model"},{"step":3,"from":"sdaReg3","to":"1093453088","type":"model"},{"step":4,"from":"static.<android.os.Parcel: android.os.Parcel[] sOwnedPool>","to":"1084044960","type":"load","field":"<android.os.Parcel: android.os.Parcel[] sOwnedPool>"},{"step":5,"from":"1084044960","to":"1093449512","type":"load","field":"arrayIdx_int:2"},{"step":6,"from":"1084044960","to":"sdaReg6","type":"create","field":"arrayIdx_int:2"},{"step":7,"from":"1093449512","to":"1093453088","type":"model"},{"step":8,"from":"1093449512","to":"sdaReg2","type":"model"},{"step":9,"from":"1093449512","to":"sdaReg0","type":"model"},{"step":10,"from":"1093453088","to":"1093449512","type":"model"},{"step":11,"from":"1093453088","to":"sdaReg2","type":"model"},{"step":12,"from":"1093453088","to":"sdaReg0","type":"model"},{"step":13,"from":"sdaReg2","to":"1093449512","type":"model"},{"step":14,"from":"sdaReg2","to":"1093453088","type":"model"},{"step":15,"from":"sdaReg2","to":"sdaReg0","type":"model"},{"step":16,"from":"sdaReg0","to":"1093449512","type":"model"},{"step":17,"from":"sdaReg0","to":"1093453088","type":"model"},{"step":18,"from":"sdaReg0","to":"sdaReg2","type":"model"},{"step":19,"from":"1093449512","to":"1094175112","type":"store","field":"<android.os.Bundle: android.os.Parcel mParcelledData>"},{"step":20,"from":"1093449512","to":"sdaReg8","type":"model"},{"step":21,"from":"sdaReg8","to":"1094175112","type":"store","field":"<android.os.Bundle: boolean mHasFds>"},{"step":22,"from":"1094175112","to":"sdaReg9","type":"create","field":"<android.os.Bundle: boolean mFdsKnown>"}],"parameters":[{"id":"1094175112","name":"this","klass":"android.os.Bundle"},{"id":"1093453088","name":"arg#1","klass":"android.os.Parcel"},{"id":"sdaReg0","name":"arg#2","klass":"int"}],"returns":[{"id":null,"name":"return","klass":null}],"colors":{"heapLocToColor":{"sdaReg8":[5, 6],"1094175112":[0],"sdaReg7":[5],"1084044960":[5],"static.<android.os.Parcel: android.os.Parcel[] sOwnedPool>":[5],"1093453088":[1, 5],"sdaReg4":[5],"sdaReg3":[1, 2, 4],"sdaReg2":[1, 4, 5],"sdaReg1":[1, 3],"sdaReg0":[2, 5],"1093449512":[5]},"colorToColor":{"1":[1, 2, 4, 5],"2":[1, 4, 5],"4":[1, 2, 5],"5":[0, 1, 2, 4, 5],"6":[0]},"colorToLabel":{"0":"this","1":"arg#1","2":"arg#2","5":"<android.os.Parcel: android.os.Parcel[] sOwnedPool>","7":"return"}}}

Generated Model
	arg#2->this
	arg#2->arg#1
	arg#2-><android.os.Parcel: android.os.Parcel[] sOwnedPool>
	arg#1->this
	arg#1->arg#2
	arg#1-><android.os.Parcel: android.os.Parcel[] sOwnedPool>

