Scanning method <android.location.Location: boolean hasAltitude()>

All seen event types: LoadInstanceRecord, 
Ignored event types: 

JSON Encoded Analysis Data (for visualization):{"heapEdges":[{"step":0,"from":"1094013224","to":"1094013224.<android.location.Location: boolean mHasAltitude>","type":"load","field":"<android.location.Location: boolean mHasAltitude>"}],"parameters":[{"id":"1094013224","name":"this","klass":"android.location.Location"}],"returns":[{"id":"1094013224.<android.location.Location: boolean mHasAltitude>","name":"return","klass":"boolean"}],"colors":{"heapLocToColor":{"1094013224":[0],"1094013224.<android.location.Location: boolean mHasAltitude>":[0]},"colorToColor":{"0":[1]},"colorToLabel":{"0":"this","1":"return"}}}

Generated Model
	this->return

