Scanning method <java.util.HashMap: void addNewEntry(java.lang.Object,java.lang.Object,int,int)>

All seen event types: StoreArrayRecord, MethodReturnRecord, MethodCallRecord, MethodStartRecord, LoadInstanceRecord, LoadArrayRecord, MethodEndRecord, StoreInstanceRecord, NewObjectRecord, 
Ignored event types: 

JSON Encoded Analysis Data (for visualization):{"heapEdges":[{"step":0,"from":"1093294040","to":"1093294096","type":"load","field":"<java.util.HashMap: java.util.HashMap$HashMapEntry[] table>"},{"step":1,"from":"1093294040","to":"1093294096","type":"load","field":"<java.util.HashMap: java.util.HashMap$HashMapEntry[] table>"},{"step":2,"from":"1085130656","to":"1093295936","type":"store","field":"<java.util.HashMap$HashMapEntry: java.lang.Object key>"},{"step":3,"from":"1093642472","to":"1093295936","type":"store","field":"<java.util.HashMap$HashMapEntry: java.lang.Object value>"},{"step":4,"from":"sdaReg0","to":"1093295936","type":"store","field":"<java.util.HashMap$HashMapEntry: int hash>"},{"step":5,"from":"1093294096","to":"1093295936","type":"create","field":"arrayIdx_int:1"}],"parameters":[{"id":"1093294040","name":"this","klass":"java.util.HashMap"},{"id":"1085130656","name":"arg#1","klass":"java.lang.Object"},{"id":"1093642472","name":"arg#2","klass":"java.lang.Object"},{"id":"sdaReg0","name":"arg#3","klass":"int"},{"id":"sdaReg1","name":"arg#4","klass":"int"}],"returns":[{"id":null,"name":"return","klass":null}],"colors":{"heapLocToColor":{"1093294040":[0],"sdaReg6":[5],"sdaReg7":[5],"sdaReg4":[2],"1093295936":[5],"1093294040.<java.util.HashMap: java.util.HashMap$HashMapEntry[] table>":[0],"sdaReg3":[1],"1093294096":[0],"sdaReg2":[5],"sdaReg1":[4],"sdaReg0":[3],"1093642472":[2],"1085130656":[1]},"colorToColor":{"1":[5],"2":[5],"3":[5],"5":[0]},"colorToLabel":{"0":"this","1":"arg#1","2":"arg#2","3":"arg#3","4":"arg#4","6":"return"}}}

Generated Model
	arg#3->this
	arg#2->this
	arg#1->this

