Scanning method <java.util.HashMap: void addNewEntry(java.lang.Object,java.lang.Object,int,int)>

All seen event types: StoreArrayRecord, MethodReturnRecord, MethodCallRecord, MethodStartRecord, LoadInstanceRecord, LoadArrayRecord, MethodEndRecord, StoreInstanceRecord, NewObjectRecord, 
Ignored event types: 

JSON Encoded Analysis Data (for visualization):{"heapEdges":[{"step":0,"from":"1093277256","to":"1093277312","type":"load","field":"<java.util.HashMap: java.util.HashMap$HashMapEntry[] table>"},{"step":1,"from":"1093277256","to":"1093277312","type":"load","field":"<java.util.HashMap: java.util.HashMap$HashMapEntry[] table>"},{"step":2,"from":"1093277312","to":"1093229152","type":"load","field":"arrayIdx_int:1"},{"step":3,"from":"1093563624","to":"1093229184","type":"store","field":"<java.util.HashMap$HashMapEntry: java.lang.Object key>"},{"step":4,"from":"1093579560","to":"1093229184","type":"store","field":"<java.util.HashMap$HashMapEntry: java.lang.Object value>"},{"step":5,"from":"sdaReg0","to":"1093229184","type":"store","field":"<java.util.HashMap$HashMapEntry: int hash>"},{"step":6,"from":"1093229152","to":"1093229184","type":"store","field":"<java.util.HashMap$HashMapEntry: java.util.HashMap$HashMapEntry next>"},{"step":7,"from":"1093277312","to":"1093229184","type":"create","field":"arrayIdx_int:1"}],"parameters":[{"id":"1093277256","name":"this","klass":"java.util.HashMap"},{"id":"1093563624","name":"arg#1","klass":"java.lang.Object"},{"id":"1093579560","name":"arg#2","klass":"java.lang.Object"},{"id":"sdaReg0","name":"arg#3","klass":"int"},{"id":"sdaReg1","name":"arg#4","klass":"int"}],"returns":[{"id":null,"name":"return","klass":null}],"colors":{"heapLocToColor":{"sdaReg6":[5],"sdaReg7":[5],"1093277256":[0],"sdaReg4":[2],"sdaReg5":[0],"1093229152":[0],"1093563624":[1],"1093229184":[5],"sdaReg3":[1],"sdaReg2":[5],"sdaReg1":[4],"1093277312":[0],"1093277256.<java.util.HashMap: java.util.HashMap$HashMapEntry[] table>":[0],"1093579560":[2],"sdaReg0":[3]},"colorToColor":{"0":[5],"1":[5],"2":[5],"3":[5],"5":[0]},"colorToLabel":{"0":"this","1":"arg#1","2":"arg#2","3":"arg#3","4":"arg#4","6":"return"}}}

Generated Model
	arg#3->this
	arg#2->this
	arg#1->this

