Scanning method <java.util.HashMap: void addNewEntry(java.lang.Object,java.lang.Object,int,int)>

All seen event types: StoreArrayRecord, MethodReturnRecord, MethodCallRecord, MethodStartRecord, LoadInstanceRecord, LoadArrayRecord, MethodEndRecord, StoreInstanceRecord, NewObjectRecord, 
Ignored event types: 

JSON Encoded Analysis Data (for visualization):{"heapEdges":[{"step":0,"from":"1093544768","to":"1093278992","type":"load","field":"<java.util.HashMap: java.util.HashMap$HashMapEntry[] table>"},{"step":1,"from":"1093544768","to":"1093278992","type":"load","field":"<java.util.HashMap: java.util.HashMap$HashMapEntry[] table>"},{"step":2,"from":"1084469432","to":"1093278728","type":"store","field":"<java.util.HashMap$HashMapEntry: java.lang.Object key>"},{"step":3,"from":"1093297504","to":"1093278728","type":"store","field":"<java.util.HashMap$HashMapEntry: java.lang.Object value>"},{"step":4,"from":"sdaReg0","to":"1093278728","type":"store","field":"<java.util.HashMap$HashMapEntry: int hash>"},{"step":5,"from":"1093278992","to":"1093278728","type":"create","field":"arrayIdx_int:2"}],"parameters":[{"id":"1093544768","name":"this","klass":"java.util.HashMap"},{"id":"1084469432","name":"arg#1","klass":"java.lang.Object"},{"id":"1093297504","name":"arg#2","klass":"java.lang.Object"},{"id":"sdaReg0","name":"arg#3","klass":"int"},{"id":"sdaReg1","name":"arg#4","klass":"int"}],"returns":[{"id":null,"name":"return","klass":null}],"colors":{"heapLocToColor":{"1093544768.<java.util.HashMap: java.util.HashMap$HashMapEntry[] table>":[0],"sdaReg6":[5],"sdaReg7":[5],"sdaReg4":[2],"1084469432":[1],"1093278728":[5],"sdaReg3":[1],"sdaReg2":[5],"1093297504":[2],"sdaReg1":[4],"1093278992":[0],"1093544768":[0],"sdaReg0":[3]},"colorToColor":{"1":[5],"2":[5],"3":[5],"5":[0]},"colorToLabel":{"0":"this","1":"arg#1","2":"arg#2","3":"arg#3","4":"arg#4","6":"return"}}}

Generated Model
	arg#3->this
	arg#2->this
	arg#1->this

