Scanning method <java.util.regex.Pattern: void finalize()>

All seen event types: MethodReturnRecord, MethodCallRecord, LoadInstanceRecord, 
Ignored event types: 

JSON Encoded Analysis Data (for visualization):{"heapEdges":[{"step":0,"from":"1093551992","to":"1093551992.<java.util.regex.Pattern: int address>","type":"load","field":"<java.util.regex.Pattern: int address>"}],"parameters":[{"id":"1093551992","name":"this","klass":"java.util.regex.Pattern"}],"returns":[{"id":null,"name":"return","klass":null}],"colors":{"heapLocToColor":{"1093551992":[0],"1093551992.<java.util.regex.Pattern: int address>":[0]},"colorToColor":{},"colorToLabel":{"0":"this","1":"return"}}}

Generated Model

