Scanning method <java.util.ArrayList: boolean addAll(int,java.util.Collection)>

All seen event types: NewArrayRecord, BinaryOperationRecord, StoreArrayRecord, SimpleAssignmentRecord, MethodReturnRecord, MethodCallRecord, ArrayLengthRecord, MethodStartRecord, LoadInstanceRecord, MethodEndRecord, IfRecord, StoreInstanceRecord, 
Ignored event types: IfRecord, 

JSON Encoded Analysis Data (for visualization):{"heapEdges":[{"step":0,"from":"1093519824","to":"1093519824.<java.util.ArrayList: int size>","type":"load","field":"<java.util.ArrayList: int size>"},{"step":1,"from":"1093410688","to":"1093410688.<java.util.LinkedList: int size>","type":"load","field":"<java.util.LinkedList: int size>"},{"step":2,"from":"1093410688","to":"1093555712","type":"load","field":"<java.util.LinkedList: java.util.LinkedList$Link voidLink>"},{"step":3,"from":"1093555712","to":"1093446496","type":"load","field":"<java.util.LinkedList$Link: java.util.LinkedList$Link next>"},{"step":4,"from":"1093410688","to":"1093555712","type":"load","field":"<java.util.LinkedList: java.util.LinkedList$Link voidLink>"},{"step":5,"from":"1093446496","to":"1093736960","type":"load","field":"<java.util.LinkedList$Link: java.lang.Object data>"},{"step":6,"from":"1093736960","to":"1093531920","type":"store","field":"arrayIdx_int:0"},{"step":7,"from":"1093446496","to":"1093432632","type":"load","field":"<java.util.LinkedList$Link: java.util.LinkedList$Link next>"},{"step":8,"from":"1093410688","to":"1093555712","type":"load","field":"<java.util.LinkedList: java.util.LinkedList$Link voidLink>"},{"step":9,"from":"1093432632","to":"1093626440","type":"load","field":"<java.util.LinkedList$Link: java.lang.Object data>"},{"step":10,"from":"1093626440","to":"1093531920","type":"store","field":"arrayIdx_int:1"},{"step":11,"from":"1093432632","to":"1093369752","type":"load","field":"<java.util.LinkedList$Link: java.util.LinkedList$Link next>"},{"step":12,"from":"1093410688","to":"1093555712","type":"load","field":"<java.util.LinkedList: java.util.LinkedList$Link voidLink>"},{"step":13,"from":"1093369752","to":"1093568240","type":"load","field":"<java.util.LinkedList$Link: java.lang.Object data>"},{"step":14,"from":"1093568240","to":"1093531920","type":"store","field":"arrayIdx_int:2"},{"step":15,"from":"1093369752","to":"1093555712","type":"load","field":"<java.util.LinkedList$Link: java.util.LinkedList$Link next>"},{"step":16,"from":"1093410688","to":"1093555712","type":"load","field":"<java.util.LinkedList: java.util.LinkedList$Link voidLink>"},{"step":17,"from":"1093519824","to":"1094129696","type":"load","field":"<java.util.ArrayList: java.lang.Object[] array>"},{"step":18,"from":"1093531920","to":"1094129696","type":"model"},{"step":19,"from":"sdaReg6","to":"1093519824","type":"store","field":"<java.util.ArrayList: int size>"},{"step":20,"from":"1093519824","to":"1093519824.<java.util.AbstractList: int modCount>","type":"load","field":"<java.util.AbstractList: int modCount>"},{"step":21,"from":"sdaReg10","to":"1093519824","type":"store","field":"<java.util.AbstractList: int modCount>"}],"parameters":[{"id":"1093519824","name":"this","klass":"java.util.ArrayList"},{"id":"sdaReg0","name":"arg#1","klass":"int"},{"id":"1093410688","name":"arg#2","klass":"java.util.Collection"}],"returns":[{"id":null,"name":"return","klass":"boolean"}],"colors":{"heapLocToColor":{"1093736960":[2],"sdaReg8":[1],"sdaReg9":[0, 1],"1093555712":[2],"sdaReg6":[0],"sdaReg4":[3],"1094129696":[0],"1093519824.<java.util.ArrayList: int size>":[0],"1093531920":[3],"1093369752.<java.util.LinkedList$Link: java.util.LinkedList$Link next>":[2],"1093446496":[2],"1093568240":[2],"1093410688":[2],"1093519824":[0],"sdaReg10":[0],"1093410688.<java.util.LinkedList: int size>":[2],"1093410688.<java.util.LinkedList: java.util.LinkedList$Link voidLink>":[2],"sdaReg1":[2],"1093432632":[2],"sdaReg0":[1],"1093626440":[2],"1093519824.<java.util.AbstractList: int modCount>":[0],"1093369752":[2]},"colorToColor":{"0":[0],"2":[3],"3":[0]},"colorToLabel":{"0":"this","1":"arg#1","2":"arg#2","4":"return"}}}

Generated Model
	arg#2->this

