Scanning method <java.util.TreeMap$Node: java.util.TreeMap$Node next()>

All seen event types: SimpleAssignmentRecord, MethodReturnRecord, MethodCallRecord, MethodStartRecord, LoadInstanceRecord, MethodEndRecord, IfRecord, 
Ignored event types: IfRecord, 

JSON Encoded Analysis Data (for visualization):{"heapEdges":[{"step":0,"from":"1097092104","to":"1096599536","type":"load","field":"<java.util.TreeMap$Node: java.util.TreeMap$Node right>"},{"step":1,"from":"1097092104","to":"1096599536","type":"load","field":"<java.util.TreeMap$Node: java.util.TreeMap$Node right>"},{"step":2,"from":"1096599536","to":"1096599912","type":"load","field":"<java.util.TreeMap$Node: java.util.TreeMap$Node left>"}],"parameters":[{"id":"1097092104","name":"this","klass":"java.util.TreeMap$Node"}],"returns":[{"id":"1096599912","name":"return","klass":"java.util.TreeMap$Node"}],"colors":{"heapLocToColor":{"sdaReg2":[0],"sdaReg1":[0],"sdaReg0":[0],"1096599536":[0],"1096599912":[0],"1097092104":[0],"1097092104.<java.util.TreeMap$Node: java.util.TreeMap$Node right>":[0]},"colorToColor":{"0":[1]},"colorToLabel":{"0":"this","1":"return"}}}

Generated Model
	this->return

