Scanning method <java.util.TreeMap$Node: java.util.TreeMap$Node next()>

All seen event types: SimpleAssignmentRecord, LoadInstanceRecord, IfRecord, 
Ignored event types: IfRecord, 

JSON Encoded Analysis Data (for visualization):{"heapEdges":[{"step":0,"from":"1094612008","to":"1094908296","type":"load","field":"<java.util.TreeMap$Node: java.util.TreeMap$Node parent>"},{"step":1,"from":"1094908296","to":"1094612008","type":"load","field":"<java.util.TreeMap$Node: java.util.TreeMap$Node left>"}],"parameters":[{"id":"1094612008","name":"this","klass":"java.util.TreeMap$Node"}],"returns":[{"id":"1094908296","name":"return","klass":"java.util.TreeMap$Node"}],"colors":{"heapLocToColor":{"1094612008":[0],"1094908296.<java.util.TreeMap$Node: java.util.TreeMap$Node left>":[0],"1094908296":[0]},"colorToColor":{"0":[1]},"colorToLabel":{"0":"this","1":"return"}}}

Generated Model
	this->return

