Scanning method <java.util.TreeMap$Node: java.util.TreeMap$Node next()>

All seen event types: SimpleAssignmentRecord, MethodReturnRecord, MethodCallRecord, MethodStartRecord, LoadInstanceRecord, MethodEndRecord, IfRecord, 
Ignored event types: IfRecord, 

JSON Encoded Analysis Data (for visualization):{"heapEdges":[{"step":0,"from":"1095420264","to":"1095803272","type":"load","field":"<java.util.TreeMap$Node: java.util.TreeMap$Node right>"},{"step":1,"from":"1095420264","to":"1095803272","type":"load","field":"<java.util.TreeMap$Node: java.util.TreeMap$Node right>"},{"step":2,"from":"1095803272","to":"1095559696","type":"load","field":"<java.util.TreeMap$Node: java.util.TreeMap$Node left>"}],"parameters":[{"id":"1095420264","name":"this","klass":"java.util.TreeMap$Node"}],"returns":[{"id":"1095559696","name":"return","klass":"java.util.TreeMap$Node"}],"colors":{"heapLocToColor":{"1095803272":[0],"sdaReg2":[0],"sdaReg1":[0],"1095420264.<java.util.TreeMap$Node: java.util.TreeMap$Node right>":[0],"sdaReg0":[0],"1095420264":[0],"1095559696":[0]},"colorToColor":{"0":[1]},"colorToLabel":{"0":"this","1":"return"}}}

Generated Model
	this->return

