Scanning method <android.location.Address: int describeContents()>

All seen event types: SimpleAssignmentRecord, LoadInstanceRecord, MethodStartRecord, IfRecord, InstanceOfRecord, NewObjectRecord, StoreInstanceRecord, BinaryOperationRecord, MethodCallRecord, MethodReturnRecord, ArrayLengthRecord, CastRecord, LoadArrayRecord, MethodEndRecord, 
Ignored event types: IfRecord, 

JSON Encoded Analysis Data (for visualization):{"heapEdges":[{"step":0,"from":"1093511776","to":"1093775712","type":"load","field":"<android.location.Address: android.os.Bundle mExtras>"},{"step":1,"from":"1093511776","to":"1093775712","type":"load","field":"<android.location.Address: android.os.Bundle mExtras>"},{"step":2,"from":"1093775712","to":"1093775712.<android.os.Bundle: boolean mFdsKnown>","type":"load","field":"<android.os.Bundle: boolean mFdsKnown>"},{"step":3,"from":"1093775712","to":"1093562056","type":"load","field":"<android.os.Bundle: java.util.Map mMap>"},{"step":4,"from":"1093562056","to":"1093569656","type":"store","field":"<java.util.HashMap$EntrySet: java.util.HashMap this$0>"},{"step":5,"from":"1093562056","to":"1093569656","type":"create","field":"<java.util.HashMap: java.util.Set entrySet>"},{"step":6,"from":"1093562056","to":"1093452696","type":"store","field":"<java.util.HashMap$EntryIterator: java.util.HashMap this$0>"},{"step":7,"from":"1093562056","to":"1093452696","type":"store","field":"<java.util.HashMap$HashIterator: java.util.HashMap this$0>"},{"step":8,"from":"1093562056","to":"1093562056.<java.util.HashMap: int modCount>","type":"load","field":"<java.util.HashMap: int modCount>"},{"step":9,"from":"1093562056.<java.util.HashMap: int modCount>","to":"1093452696","type":"store","field":"<java.util.HashMap$HashIterator: int expectedModCount>"},{"step":10,"from":"1093562056","to":"1093562112","type":"load","field":"<java.util.HashMap: java.util.HashMap$HashMapEntry[] table>"},{"step":11,"from":"1093452696","to":"1093452696.<java.util.HashMap$HashIterator: int nextIndex>","type":"load","field":"<java.util.HashMap$HashIterator: int nextIndex>"},{"step":12,"from":"1093452696","to":"1093452696.<java.util.HashMap$HashIterator: int nextIndex>","type":"load","field":"<java.util.HashMap$HashIterator: int nextIndex>"},{"step":13,"from":"sdaReg29","to":"1093452696","type":"store","field":"<java.util.HashMap$HashIterator: int nextIndex>"},{"step":14,"from":"sdaReg29","to":"1093452696","type":"store","field":"<java.util.HashMap$HashIterator: int nextIndex>"},{"step":15,"from":"sdaReg29","to":"1093452696","type":"store","field":"<java.util.HashMap$HashIterator: int nextIndex>"},{"step":16,"from":"sdaReg29","to":"1093452696","type":"store","field":"<java.util.HashMap$HashIterator: int nextIndex>"},{"step":17,"from":"1093562112","to":"1093563888","type":"load","field":"arrayIdx_int:3"},{"step":18,"from":"1093563888","to":"1093452696","type":"store","field":"<java.util.HashMap$HashIterator: java.util.HashMap$HashMapEntry nextEntry>"},{"step":19,"from":"1093562056","to":"1093562056.<java.util.HashMap: int modCount>","type":"load","field":"<java.util.HashMap: int modCount>"},{"step":20,"from":"1093562056","to":"1093562112","type":"load","field":"<java.util.HashMap: java.util.HashMap$HashMapEntry[] table>"},{"step":21,"from":"1093563888","to":"1093452696","type":"store","field":"<java.util.HashMap$HashIterator: java.util.HashMap$HashMapEntry lastEntryReturned>"},{"step":22,"from":"1093563888","to":"1093782112","type":"load","field":"<java.util.HashMap$HashMapEntry: java.lang.Object value>"},{"step":23,"from":"sdaReg3","to":"1093775712","type":"store","field":"<android.os.Bundle: boolean mHasFds>"},{"step":24,"from":"1093775712","to":"sdaReg55","type":"create","field":"<android.os.Bundle: boolean mFdsKnown>"}],"parameters":[{"id":"1093511776","name":"this","klass":"android.location.Address"}],"returns":[{"id":"sdaReg1","name":"return","klass":"int"}],"colors":{"heapLocToColor":{"1093569656":[1],"1093775712.<android.os.Bundle: boolean mFdsKnown>":[0],"1093562056.<java.util.HashMap: int modCount>":[0],"sdaReg13":[1],"sdaReg14":[1],"sdaReg11":[1],"sdaReg12":[1],"sdaReg10":[1],"sdaReg19":[0],"sdaReg17":[1],"sdaReg18":[1],"sdaReg52":[0],"sdaReg15":[1],"sdaReg51":[0],"sdaReg16":[1],"sdaReg49":[0],"sdaReg48":[0],"1093511776":[0],"sdaReg45":[0],"sdaReg44":[0],"sdaReg47":[0],"sdaReg46":[0],"sdaReg41":[2],"sdaReg40":[2],"sdaReg42":[2],"1093775712":[0],"sdaReg38":[2],"sdaReg37":[2],"1093782112":[0],"1093562056.<java.util.HashMap: java.util.HashMap$HashMapEntry[] table>":[0],"1093563888":[0],"sdaReg36":[2],"1093562112":[0],"sdaReg35":[2],"1093452696.<java.util.HashMap$HashIterator: int nextIndex>":[2],"sdaReg34":[2],"sdaReg33":[2],"sdaReg8":[0],"sdaReg9":[1],"1093511776.<android.location.Address: android.os.Bundle mExtras>":[0],"sdaReg6":[0],"sdaReg7":[1],"sdaReg4":[0],"sdaReg5":[1],"1093452696":[2],"sdaReg26":[2],"sdaReg29":[2],"1093562056":[0],"sdaReg2":[0],"sdaReg21":[0],"sdaReg0":[0],"sdaReg20":[2],"sdaReg23":[0],"sdaReg22":[2],"sdaReg25":[0],"sdaReg24":[2]},"colorToColor":{"0":[1, 2],"1":[0],"2":[2]},"colorToLabel":{"0":"this","3":"return"}}}

Generated Model

