Scanning method <java.util.AbstractList: java.util.List subList(int,int)>

All seen event types: BinaryOperationRecord, MethodReturnRecord, MethodCallRecord, LoadInstanceRecord, MethodStartRecord, MethodEndRecord, IfRecord, StoreInstanceRecord, NewObjectRecord, InstanceOfRecord, 
Ignored event types: IfRecord, 

JSON Encoded Analysis Data (for visualization):{"heapEdges":[{"step":0,"from":"1094189776","to":"1094189776.<java.util.ArrayList: int size>","type":"load","field":"<java.util.ArrayList: int size>"},{"step":1,"from":"1094189776","to":"1095431800","type":"store","field":"<java.util.AbstractList$SubAbstractList: java.util.AbstractList fullList>"},{"step":2,"from":"1094189776","to":"1094189776.<java.util.AbstractList: int modCount>","type":"load","field":"<java.util.AbstractList: int modCount>"},{"step":3,"from":"1094189776.<java.util.AbstractList: int modCount>","to":"1095431800","type":"store","field":"<java.util.AbstractList: int modCount>"},{"step":4,"from":"sdaReg0","to":"1095431800","type":"store","field":"<java.util.AbstractList$SubAbstractList: int offset>"},{"step":5,"from":"sdaReg13","to":"1095431800","type":"store","field":"<java.util.AbstractList$SubAbstractList: int size>"}],"parameters":[{"id":"1094189776","name":"this","klass":"java.util.AbstractList"},{"id":"sdaReg0","name":"arg#1","klass":"int"},{"id":"sdaReg1","name":"arg#2","klass":"int"}],"returns":[{"id":"1095431800","name":"return","klass":"java.util.List"}],"colors":{"heapLocToColor":{"sdaReg8":[3],"1095431800":[3],"sdaReg9":[3],"sdaReg6":[3],"sdaReg7":[0],"sdaReg4":[3],"sdaReg5":[0],"1094189776.<java.util.AbstractList: int modCount>":[0],"1094189776.<java.util.ArrayList: int size>":[0],"sdaReg13":[1, 2],"sdaReg14":[3],"sdaReg11":[3],"sdaReg12":[3],"sdaReg10":[3],"sdaReg2":[0],"sdaReg1":[2],"sdaReg0":[1],"1094189776":[0],"sdaReg15":[3]},"colorToColor":{"0":[3],"1":[3],"2":[3],"3":[4]},"colorToLabel":{"0":"this","1":"arg#1","2":"arg#2","4":"return"}}}

Generated Model
	this->return
	arg#2->return
	arg#1->return

