Scanning method <java.util.HashMap: int secondaryHash(int)>

All seen event types: BinaryOperationRecord, 
Ignored event types: 

JSON Encoded Analysis Data (for visualization):{"heapEdges":[],"parameters":[{"id":"sdaReg0","name":"arg#0","klass":"int"}],"returns":[{"id":"sdaReg8","name":"return","klass":"int"}],"colors":{"heapLocToColor":{"sdaReg8":[0],"sdaReg6":[0],"sdaReg7":[0],"sdaReg4":[0],"sdaReg5":[0],"sdaReg3":[0],"sdaReg2":[0],"sdaReg1":[0],"sdaReg0":[0]},"colorToColor":{"0":[1]},"colorToLabel":{"0":"arg#0","1":"return"}}}

Generated Model
	arg#0->return

