Scanning method <java.io.FileOutputStream: java.nio.channels.FileChannel getChannel()>

All seen event types: SimpleAssignmentRecord, ExitMonitorRecord, EnterMonitorRecord, LoadInstanceRecord, IfRecord, 
Ignored event types: ExitMonitorRecord, EnterMonitorRecord, IfRecord, 

JSON Encoded Analysis Data (for visualization):{"heapEdges":[{"step":0,"from":"1093412896","to":"1093329896","type":"load","field":"<java.io.FileOutputStream: java.nio.channels.FileChannel channel>"},{"step":1,"from":"1093412896","to":"1093329896","type":"load","field":"<java.io.FileOutputStream: java.nio.channels.FileChannel channel>"}],"parameters":[{"id":"1093412896","name":"this","klass":"java.io.FileOutputStream"}],"returns":[{"id":"1093329896","name":"return","klass":"java.nio.channels.FileChannel"}],"colors":{"heapLocToColor":{"1093329896":[0],"1093412896.<java.io.FileOutputStream: java.nio.channels.FileChannel channel>":[0],"1093412896":[0]},"colorToColor":{"0":[1]},"colorToLabel":{"0":"this","1":"return"}}}

Generated Model
	this->return

