Scanning method <java.io.FileOutputStream: java.nio.channels.FileChannel getChannel()>

All seen event types: LoadStaticRecord, SimpleAssignmentRecord, ExitMonitorRecord, MethodReturnRecord, MethodCallRecord, EnterMonitorRecord, MethodStartRecord, LoadInstanceRecord, MethodEndRecord, IfRecord, StoreInstanceRecord, NewObjectRecord, 
Ignored event types: ExitMonitorRecord, EnterMonitorRecord, IfRecord, 

JSON Encoded Analysis Data (for visualization):{"heapEdges":[{"step":0,"from":"1093666872","to":"1093677216","type":"load","field":"<java.io.FileOutputStream: java.io.FileDescriptor fd>"},{"step":1,"from":"1093666872","to":"1093666872.<java.io.FileOutputStream: int mode>","type":"load","field":"<java.io.FileOutputStream: int mode>"},{"step":2,"from":"1093677368","to":"sdaReg9","type":"create","field":"<java.nio.channels.spi.AbstractInterruptibleChannel: boolean closed>"},{"step":3,"from":"1093677368","to":"sdaReg10","type":"create","field":"<java.nio.channels.spi.AbstractInterruptibleChannel: boolean interrupted>"},{"step":4,"from":"1093677408","to":"1093677368","type":"create","field":"<java.nio.channels.spi.AbstractInterruptibleChannel$1: java.nio.channels.spi.AbstractInterruptibleChannel this$0>"},{"step":5,"from":"1093677368","to":"1093677408","type":"create","field":"<java.nio.channels.spi.AbstractInterruptibleChannel: java.lang.Runnable interruptAndCloseRunnable>"},{"step":6,"from":"static.<java.nio.FileChannelImpl: java.util.Comparator LOCK_COMPARATOR>","to":"1083968440","type":"load","field":"<java.nio.FileChannelImpl: java.util.Comparator LOCK_COMPARATOR>"},{"step":7,"from":"1093677448","to":"sdaReg29","type":"create","field":"<java.util.TreeMap: int size>"},{"step":8,"from":"1093677448","to":"sdaReg30","type":"create","field":"<java.util.TreeMap: int modCount>"},{"step":9,"from":"1083968440","to":"1093677448","type":"store","field":"<java.util.TreeMap: java.util.Comparator comparator>"},{"step":10,"from":"1093677424","to":"1093677448","type":"create","field":"<java.util.TreeSet: java.util.NavigableMap backingMap>"},{"step":11,"from":"1093677368","to":"1093677424","type":"create","field":"<java.nio.FileChannelImpl: java.util.SortedSet locks>"},{"step":12,"from":"1093677216","to":"1093677368","type":"store","field":"<java.nio.FileChannelImpl: java.io.FileDescriptor fd>"},{"step":13,"from":"1093666872","to":"1093677368","type":"store","field":"<java.nio.FileChannelImpl: java.lang.Object stream>"},{"step":14,"from":"1093666872.<java.io.FileOutputStream: int mode>","to":"1093677368","type":"store","field":"<java.nio.FileChannelImpl: int mode>"},{"step":15,"from":"1093677368","to":"1093666872","type":"store","field":"<java.io.FileOutputStream: java.nio.channels.FileChannel channel>"}],"parameters":[{"id":"1093666872","name":"this","klass":"java.io.FileOutputStream"}],"returns":[{"id":"1093677368","name":"return","klass":"java.nio.channels.FileChannel"}],"colors":{"heapLocToColor":{"1093666872":[0],"1083968440":[4],"1093677448":[5],"sdaReg13":[2],"sdaReg14":[2],"sdaReg11":[2],"sdaReg12":[1],"1093677368":[1],"sdaReg32":[3],"1093677408":[2],"sdaReg31":[5],"1093677424":[3],"sdaReg19":[3],"sdaReg17":[3],"sdaReg18":[4],"sdaReg34":[1],"sdaReg15":[1],"sdaReg33":[1],"sdaReg16":[1],"sdaReg8":[1],"sdaReg6":[1],"sdaReg7":[1],"sdaReg4":[0],"sdaReg5":[0],"sdaReg27":[5],"sdaReg26":[5],"sdaReg28":[5],"1093677216":[0],"1093666872.<java.io.FileOutputStream: int mode>":[0],"sdaReg3":[1],"sdaReg2":[0],"sdaReg21":[3],"sdaReg1":[0],"sdaReg20":[3],"sdaReg23":[3],"static.<java.nio.FileChannelImpl: java.util.Comparator LOCK_COMPARATOR>":[4],"sdaReg22":[3],"sdaReg25":[4],"sdaReg24":[5]},"colorToColor":{"0":[1],"1":[0, 2, 6],"2":[1],"3":[1],"4":[5],"5":[3]},"colorToLabel":{"0":"this","4":"<java.nio.FileChannelImpl: java.util.Comparator LOCK_COMPARATOR>","6":"return"}}}

Generated Model
	this->return

