Scanning method <java.io.ObjectInputStream: byte nextTC()>

All seen event types: BinaryOperationRecord, SimpleAssignmentRecord, MethodReturnRecord, MethodCallRecord, CastRecord, ArrayLengthRecord, MethodStartRecord, LoadInstanceRecord, LoadArrayRecord, MethodEndRecord, IfRecord, StoreInstanceRecord, 
Ignored event types: IfRecord, 

JSON Encoded Analysis Data (for visualization):{"heapEdges":[{"step":0,"from":"1093619504","to":"1093619504.<java.io.ObjectInputStream: boolean hasPushbackTC>","type":"load","field":"<java.io.ObjectInputStream: boolean hasPushbackTC>"},{"step":1,"from":"1093619504","to":"1093551856","type":"load","field":"<java.io.ObjectInputStream: java.io.DataInputStream input>"},{"step":2,"from":"1093551856","to":"1093721784","type":"load","field":"<java.io.FilterInputStream: java.io.InputStream in>"},{"step":3,"from":"1093721784","to":"1093721784.<java.io.PipedInputStream: boolean isConnected>","type":"load","field":"<java.io.PipedInputStream: boolean isConnected>"},{"step":4,"from":"1093721784","to":"1093721824","type":"load","field":"<java.io.PipedInputStream: byte[] buffer>"},{"step":5,"from":"1093721784","to":"1093475720","type":"create","field":"<java.io.PipedInputStream: java.lang.Thread lastReader>"},{"step":6,"from":"1093721784","to":"1093721784.<java.io.PipedInputStream: int in>","type":"load","field":"<java.io.PipedInputStream: int in>"},{"step":7,"from":"1093721784","to":"1093721824","type":"load","field":"<java.io.PipedInputStream: byte[] buffer>"},{"step":8,"from":"1093721784","to":"1093721784.<java.io.PipedInputStream: int out>","type":"load","field":"<java.io.PipedInputStream: int out>"},{"step":9,"from":"sdaReg4","to":"1093721784","type":"store","field":"<java.io.PipedInputStream: int out>"},{"step":10,"from":"1093721824","to":"1093721824.arrayIdx_int:6","type":"load","field":"arrayIdx_int:6"},{"step":11,"from":"1093721784","to":"1093721824","type":"load","field":"<java.io.PipedInputStream: byte[] buffer>"},{"step":12,"from":"1093721784","to":"1093721784.<java.io.PipedInputStream: int in>","type":"load","field":"<java.io.PipedInputStream: int in>"},{"step":13,"from":"sdaReg7","to":"1093619504","type":"store","field":"<java.io.ObjectInputStream: byte pushbackTC>"}],"parameters":[{"id":"1093619504","name":"this","klass":"java.io.ObjectInputStream"}],"returns":[{"id":null,"name":"return","klass":"byte"}],"colors":{"heapLocToColor":{"1093721824.arrayIdx_int:6":[0],"1093721784.<java.io.PipedInputStream: int out>":[0],"sdaReg7":[0],"1093475720":[1],"sdaReg4":[0],"sdaReg5":[0],"1093619504.<java.io.ObjectInputStream: boolean hasPushbackTC>":[0],"1093551856":[0],"1093721784.<java.io.PipedInputStream: int in>":[0],"1093721784.<java.io.PipedInputStream: boolean isConnected>":[0],"1093721784":[0],"1093619504":[0],"sdaReg2":[1],"sdaReg1":[0],"sdaReg0":[0],"1093721784.<java.io.PipedInputStream: byte[] buffer>":[0],"1093721824":[0]},"colorToColor":{"0":[0],"1":[0]},"colorToLabel":{"0":"this","2":"return"}}}

Generated Model

