Scanning method <java.util.HashSet: java.util.Iterator iterator()>

All seen event types: BinaryOperationRecord, SimpleAssignmentRecord, MethodReturnRecord, MethodCallRecord, ArrayLengthRecord, MethodStartRecord, LoadInstanceRecord, LoadArrayRecord, MethodEndRecord, IfRecord, StoreInstanceRecord, NewObjectRecord, 
Ignored event types: IfRecord, 

JSON Encoded Analysis Data (for visualization):{"heapEdges":[{"step":0,"from":"1093555984","to":"1093556000","type":"load","field":"<java.util.HashSet: java.util.HashMap backingMap>"},{"step":1,"from":"1093556000","to":"1093647456","type":"load","field":"<java.util.HashMap: java.util.Set keySet>"},{"step":2,"from":"1093647456","to":"1093556000","type":"load","field":"<java.util.HashMap$KeySet: java.util.HashMap this$0>"},{"step":3,"from":"1093556000","to":"1093846600","type":"store","field":"<java.util.HashMap$KeyIterator: java.util.HashMap this$0>"},{"step":4,"from":"1093556000","to":"1093846600","type":"store","field":"<java.util.HashMap$HashIterator: java.util.HashMap this$0>"},{"step":5,"from":"1093556000","to":"1093556000.<java.util.HashMap: int modCount>","type":"load","field":"<java.util.HashMap: int modCount>"},{"step":6,"from":"1093556000.<java.util.HashMap: int modCount>","to":"1093846600","type":"store","field":"<java.util.HashMap$HashIterator: int expectedModCount>"},{"step":7,"from":"1093556000","to":"1093563192","type":"load","field":"<java.util.HashMap: java.util.HashMap$HashMapEntry[] table>"},{"step":8,"from":"1093846600","to":"1093846600.<java.util.HashMap$HashIterator: int nextIndex>","type":"load","field":"<java.util.HashMap$HashIterator: int nextIndex>"},{"step":9,"from":"1093846600","to":"1093846600.<java.util.HashMap$HashIterator: int nextIndex>","type":"load","field":"<java.util.HashMap$HashIterator: int nextIndex>"},{"step":10,"from":"sdaReg14","to":"1093846600","type":"store","field":"<java.util.HashMap$HashIterator: int nextIndex>"},{"step":11,"from":"sdaReg14","to":"1093846600","type":"store","field":"<java.util.HashMap$HashIterator: int nextIndex>"},{"step":12,"from":"1093563192","to":"1093563232","type":"load","field":"arrayIdx_int:1"},{"step":13,"from":"1093563232","to":"1093846600","type":"store","field":"<java.util.HashMap$HashIterator: java.util.HashMap$HashMapEntry nextEntry>"}],"parameters":[{"id":"1093555984","name":"this","klass":"java.util.HashSet"}],"returns":[{"id":"1093846600","name":"return","klass":"java.util.Iterator"}],"colors":{"heapLocToColor":{"1093556000.<java.util.HashMap: int modCount>":[0],"1093556000":[0],"1093647456":[0],"sdaReg14":[1],"sdaReg11":[1],"1093846600":[1],"sdaReg10":[0],"1093647456.<java.util.HashMap$KeySet: java.util.HashMap this$0>":[0],"sdaReg19":[1],"sdaReg17":[1],"sdaReg18":[1],"1093563232":[0],"sdaReg16":[1],"sdaReg8":[0],"sdaReg9":[1],"sdaReg6":[0],"1093563192":[0],"sdaReg7":[1],"sdaReg4":[0],"sdaReg5":[1],"1093555984":[0],"1093846600.<java.util.HashMap$HashIterator: int nextIndex>":[1],"sdaReg3":[0],"sdaReg2":[0],"sdaReg20":[1],"sdaReg0":[0]},"colorToColor":{"0":[1],"1":[1, 2]},"colorToLabel":{"0":"this","2":"return"}}}

Generated Model
	this->return

