Scanning method <java.net.URLConnection: boolean getUseCaches()>

All seen event types: LoadInstanceRecord, 
Ignored event types: 

JSON Encoded Analysis Data (for visualization):{"heapEdges":[{"step":0,"from":"1093631584","to":"1093631584.<java.net.URLConnection: boolean useCaches>","type":"load","field":"<java.net.URLConnection: boolean useCaches>"}],"parameters":[{"id":"1093631584","name":"this","klass":"java.net.URLConnection"}],"returns":[{"id":"1093631584.<java.net.URLConnection: boolean useCaches>","name":"return","klass":"boolean"}],"colors":{"heapLocToColor":{"1093631584":[0],"1093631584.<java.net.URLConnection: boolean useCaches>":[0]},"colorToColor":{"0":[1]},"colorToLabel":{"0":"this","1":"return"}}}

Generated Model
	this->return

