Scanning method <java.nio.CharBuffer: java.nio.CharBuffer wrap(char[])>

All seen event types: BinaryOperationRecord, SimpleAssignmentRecord, MethodReturnRecord, MethodCallRecord, MethodStartRecord, ArrayLengthRecord, MethodEndRecord, IfRecord, StoreInstanceRecord, NewObjectRecord, 
Ignored event types: IfRecord, 

JSON Encoded Analysis Data (for visualization):{"heapEdges":[{"step":0,"from":"1093599824","to":"sdaReg18","type":"create","field":"<java.nio.Buffer: int mark>"},{"step":1,"from":"1093599824","to":"sdaReg19","type":"create","field":"<java.nio.Buffer: int position>"},{"step":2,"from":"1093599824","to":"sdaReg16","type":"create","field":"<java.nio.Buffer: int _elementSizeShift>"},{"step":3,"from":"sdaReg10","to":"1093599824","type":"store","field":"<java.nio.Buffer: int limit>"},{"step":4,"from":"sdaReg10","to":"1093599824","type":"store","field":"<java.nio.Buffer: int capacity>"},{"step":5,"from":"1093599688","to":"1093599824","type":"store","field":"<java.nio.CharArrayBuffer: char[] backingArray>"},{"step":6,"from":"1093599824","to":"sdaReg13","type":"create","field":"<java.nio.CharArrayBuffer: int offset>"},{"step":7,"from":"1093599824","to":"sdaReg2","type":"create","field":"<java.nio.Buffer: int position>"},{"step":8,"from":"sdaReg26","to":"1093599824","type":"store","field":"<java.nio.Buffer: int limit>"}],"parameters":[{"id":"1093599688","name":"arg#0","klass":"char[]"}],"returns":[{"id":"1093599824","name":"return","klass":"java.nio.CharBuffer"}],"colors":{"heapLocToColor":{"sdaReg8":[1],"sdaReg9":[0],"sdaReg6":[1],"sdaReg7":[0],"1093599824":[1],"sdaReg27":[1],"1093599688":[0],"sdaReg14":[1],"sdaReg11":[1],"sdaReg12":[0],"sdaReg21":[1],"sdaReg1":[0],"sdaReg20":[1],"sdaReg23":[1],"sdaReg17":[1],"sdaReg22":[1],"sdaReg25":[1],"sdaReg15":[1],"sdaReg24":[1]},"colorToColor":{"0":[1],"1":[2]},"colorToLabel":{"0":"arg#0","2":"return"}}}

Generated Model
	arg#0->return

