Scanning method <java.io.ObjectInputStream: java.lang.String getBaseName(java.lang.String)>

All seen event types: BinaryOperationRecord, MethodReturnRecord, MethodCallRecord, IfRecord, 
Ignored event types: IfRecord, 

JSON Encoded Analysis Data (for visualization):{"heapEdges":[{"step":0,"from":"sdaReg0","to":"sdaReg1","type":"model"},{"step":1,"from":"sdaReg0","to":"sdaReg4","type":"model"},{"step":2,"from":"sdaReg0","to":"sdaReg5","type":"model"},{"step":3,"from":"sdaReg4","to":"sdaReg0","type":"model"},{"step":4,"from":"sdaReg4","to":"sdaReg5","type":"model"}],"parameters":[{"id":"sdaReg0","name":"arg#0","klass":"string"}],"returns":[{"id":"sdaReg5","name":"return","klass":"string"}],"colors":{"heapLocToColor":{"sdaReg4":[0, 1],"sdaReg5":[0, 3],"sdaReg3":[2],"sdaReg2":[2],"sdaReg1":[0, 1],"sdaReg0":[0]},"colorToColor":{"0":[0, 3, 4],"1":[0, 3],"3":[4]},"colorToLabel":{"0":"arg#0","4":"return"}}}

Generated Model
	arg#0->return

