Scanning method <java.io.ObjectInputStream: void discardData()>

All seen event types: BinaryOperationRecord, SimpleAssignmentRecord, MethodReturnRecord, MethodCallRecord, CastRecord, ArrayLengthRecord, MethodStartRecord, LoadInstanceRecord, LoadArrayRecord, MethodEndRecord, IfRecord, StoreInstanceRecord, 
Ignored event types: IfRecord, 

JSON Encoded Analysis Data (for visualization):{"heapEdges":[{"step":0,"from":"1093619504","to":"1093230200","type":"load","field":"<java.io.ObjectInputStream: java.io.InputStream emptyStream>"},{"step":1,"from":"1093230200","to":"1093619504","type":"store","field":"<java.io.ObjectInputStream: java.io.InputStream primitiveData>"},{"step":2,"from":"1093619504","to":"1093619504.<java.io.ObjectInputStream: boolean mustResolve>","type":"load","field":"<java.io.ObjectInputStream: boolean mustResolve>"},{"step":3,"from":"1093619504","to":"sdaReg0","type":"create","field":"<java.io.ObjectInputStream: boolean mustResolve>"},{"step":4,"from":"1093619504","to":"1093619504.<java.io.ObjectInputStream: boolean hasPushbackTC>","type":"load","field":"<java.io.ObjectInputStream: boolean hasPushbackTC>"},{"step":5,"from":"1093619504","to":"1093551856","type":"load","field":"<java.io.ObjectInputStream: java.io.DataInputStream input>"},{"step":6,"from":"1093551856","to":"1093721784","type":"load","field":"<java.io.FilterInputStream: java.io.InputStream in>"},{"step":7,"from":"1093721784","to":"1093721784.<java.io.PipedInputStream: boolean isConnected>","type":"load","field":"<java.io.PipedInputStream: boolean isConnected>"},{"step":8,"from":"1093721784","to":"1093721824","type":"load","field":"<java.io.PipedInputStream: byte[] buffer>"},{"step":9,"from":"1093721784","to":"1093475720","type":"create","field":"<java.io.PipedInputStream: java.lang.Thread lastReader>"},{"step":10,"from":"1093721784","to":"1093721784.<java.io.PipedInputStream: int in>","type":"load","field":"<java.io.PipedInputStream: int in>"},{"step":11,"from":"1093721784","to":"1093721824","type":"load","field":"<java.io.PipedInputStream: byte[] buffer>"},{"step":12,"from":"1093721784","to":"1093721784.<java.io.PipedInputStream: int out>","type":"load","field":"<java.io.PipedInputStream: int out>"},{"step":13,"from":"sdaReg6","to":"1093721784","type":"store","field":"<java.io.PipedInputStream: int out>"},{"step":14,"from":"1093721824","to":"1093721824.arrayIdx_int:14","type":"load","field":"arrayIdx_int:14"},{"step":15,"from":"1093721784","to":"1093721824","type":"load","field":"<java.io.PipedInputStream: byte[] buffer>"},{"step":16,"from":"1093721784","to":"1093721784.<java.io.PipedInputStream: int in>","type":"load","field":"<java.io.PipedInputStream: int in>"},{"step":17,"from":"sdaReg9","to":"1093619504","type":"store","field":"<java.io.ObjectInputStream: byte pushbackTC>"},{"step":18,"from":"1093619504.<java.io.ObjectInputStream: boolean mustResolve>","to":"1093619504","type":"store","field":"<java.io.ObjectInputStream: boolean mustResolve>"}],"parameters":[{"id":"1093619504","name":"this","klass":"java.io.ObjectInputStream"}],"returns":[{"id":null,"name":"return","klass":null}],"colors":{"heapLocToColor":{"1093230200":[0],"sdaReg9":[0],"sdaReg6":[0],"1093721784.<java.io.PipedInputStream: int out>":[0],"sdaReg7":[0],"1093475720":[1],"sdaReg4":[1],"1093619504.<java.io.ObjectInputStream: boolean hasPushbackTC>":[0],"1093551856":[0],"1093721784.<java.io.PipedInputStream: int in>":[0],"1093721784.<java.io.PipedInputStream: boolean isConnected>":[0],"1093721784":[0],"1093721824.arrayIdx_int:14":[0],"1093619504.<java.io.ObjectInputStream: boolean mustResolve>":[0],"1093619504":[0],"sdaReg3":[0],"sdaReg2":[0],"sdaReg1":[0],"1093721784.<java.io.PipedInputStream: byte[] buffer>":[0],"1093721824":[0]},"colorToColor":{"0":[0],"1":[0]},"colorToLabel":{"0":"this","2":"return"}}}

Generated Model

