Scanning method <android.text.Html: void withinBlockquote(java.lang.StringBuilder,android.text.Spanned,int,int)>

All seen event types: LoadStaticRecord, BinaryOperationRecord, SimpleAssignmentRecord, MethodReturnRecord, MethodCallRecord, ArrayLengthRecord, CastRecord, LoadInstanceRecord, MethodStartRecord, LoadArrayRecord, MethodEndRecord, IfRecord, 
Ignored event types: IfRecord, 

JSON Encoded Analysis Data (for visualization):{"heapEdges":[{"step":0,"from":"1094034248","to":"1094034248.<android.text.SpannableStringInternal: java.lang.String mText>","type":"load","field":"<android.text.SpannableStringInternal: java.lang.String mText>"},{"step":1,"from":"1094034248.<android.text.SpannableStringInternal: java.lang.String mText>","to":"sdaReg6","type":"model"},{"step":2,"from":"1094034248","to":"1094034248.<android.text.SpannableStringInternal: java.lang.String mText>","type":"load","field":"<android.text.SpannableStringInternal: java.lang.String mText>"},{"step":3,"from":"1094034248.<android.text.SpannableStringInternal: java.lang.String mText>","to":"sdaReg8","type":"model"},{"step":4,"from":"1094034248","to":"1094034248.<android.text.SpannableStringInternal: int mSpanCount>","type":"load","field":"<android.text.SpannableStringInternal: int mSpanCount>"},{"step":5,"from":"1094034248","to":"1093549256","type":"load","field":"<android.text.SpannableStringInternal: java.lang.Object[] mSpans>"},{"step":6,"from":"1094034248","to":"1094103376","type":"load","field":"<android.text.SpannableStringInternal: int[] mSpanData>"},{"step":7,"from":"1094034248","to":"1094034248.<android.text.SpannableStringInternal: int mSpanCount>","type":"load","field":"<android.text.SpannableStringInternal: int mSpanCount>"},{"step":8,"from":"1094034248","to":"1093549256","type":"load","field":"<android.text.SpannableStringInternal: java.lang.Object[] mSpans>"},{"step":9,"from":"1094034248","to":"1094103376","type":"load","field":"<android.text.SpannableStringInternal: int[] mSpanData>"},{"step":10,"from":"1084661656","to":"sdaReg30","type":"model"},{"step":11,"from":"static.<com.android.internal.util.ArrayUtils: java.lang.Object[] sCache>","to":"1084375760","type":"load","field":"<com.android.internal.util.ArrayUtils: java.lang.Object[] sCache>"},{"step":12,"from":"1084375760","to":"1093528904","type":"load","field":"arrayIdx_int:26"},{"step":13,"from":"1093528904","to":"1085374624","type":"model"},{"step":14,"from":"1085374624","to":"1084661656","type":"model"},{"step":15,"from":"1094034248","to":"1094034248.<android.text.SpannableStringInternal: java.lang.String mText>","type":"load","field":"<android.text.SpannableStringInternal: java.lang.String mText>"},{"step":16,"from":"1094034248.<android.text.SpannableStringInternal: java.lang.String mText>","to":"sdaReg49","type":"model"},{"step":17,"from":"sdaReg49","to":"1093464880","type":"model"},{"step":18,"from":"1094034248","to":"1094034248.<android.text.SpannableStringInternal: java.lang.String mText>","type":"load","field":"<android.text.SpannableStringInternal: java.lang.String mText>"},{"step":19,"from":"1094034248.<android.text.SpannableStringInternal: java.lang.String mText>","to":"sdaReg51","type":"model"},{"step":20,"from":"sdaReg51","to":"1093464880","type":"model"},{"step":21,"from":"1094034248","to":"1094034248.<android.text.SpannableStringInternal: java.lang.String mText>","type":"load","field":"<android.text.SpannableStringInternal: java.lang.String mText>"},{"step":22,"from":"1094034248.<android.text.SpannableStringInternal: java.lang.String mText>","to":"sdaReg53","type":"model"},{"step":23,"from":"sdaReg53","to":"1093464880","type":"model"},{"step":24,"from":"1094034248","to":"1094034248.<android.text.SpannableStringInternal: java.lang.String mText>","type":"load","field":"<android.text.SpannableStringInternal: java.lang.String mText>"},{"step":25,"from":"1094034248.<android.text.SpannableStringInternal: java.lang.String mText>","to":"sdaReg55","type":"model"},{"step":26,"from":"sdaReg55","to":"1093464880","type":"model"},{"step":27,"from":"1094034248","to":"1094034248.<android.text.SpannableStringInternal: java.lang.String mText>","type":"load","field":"<android.text.SpannableStringInternal: java.lang.String mText>"},{"step":28,"from":"1094034248.<android.text.SpannableStringInternal: java.lang.String mText>","to":"sdaReg57","type":"model"},{"step":29,"from":"sdaReg57","to":"1093464880","type":"model"},{"step":30,"from":"1094034248","to":"1094034248.<android.text.SpannableStringInternal: java.lang.String mText>","type":"load","field":"<android.text.SpannableStringInternal: java.lang.String mText>"},{"step":31,"from":"1094034248.<android.text.SpannableStringInternal: java.lang.String mText>","to":"sdaReg59","type":"model"},{"step":32,"from":"1094034248","to":"1094034248.<android.text.SpannableStringInternal: java.lang.String mText>","type":"load","field":"<android.text.SpannableStringInternal: java.lang.String mText>"},{"step":33,"from":"1094034248.<android.text.SpannableStringInternal: java.lang.String mText>","to":"sdaReg63","type":"model"},{"step":34,"from":"1094034248","to":"1094034248.<android.text.SpannableStringInternal: java.lang.String mText>","type":"load","field":"<android.text.SpannableStringInternal: java.lang.String mText>"},{"step":35,"from":"1094034248.<android.text.SpannableStringInternal: java.lang.String mText>","to":"sdaReg65","type":"model"},{"step":36,"from":"sdaReg65","to":"1093464880","type":"model"},{"step":37,"from":"1094034248","to":"1094034248.<android.text.SpannableStringInternal: java.lang.String mText>","type":"load","field":"<android.text.SpannableStringInternal: java.lang.String mText>"},{"step":38,"from":"1094034248.<android.text.SpannableStringInternal: java.lang.String mText>","to":"sdaReg67","type":"model"},{"step":39,"from":"sdaReg67","to":"1093464880","type":"model"},{"step":40,"from":"1094034248","to":"1094034248.<android.text.SpannableStringInternal: java.lang.String mText>","type":"load","field":"<android.text.SpannableStringInternal: java.lang.String mText>"},{"step":41,"from":"1094034248.<android.text.SpannableStringInternal: java.lang.String mText>","to":"sdaReg69","type":"model"},{"step":42,"from":"sdaReg69","to":"1093464880","type":"model"},{"step":43,"from":"1094034248","to":"1094034248.<android.text.SpannableStringInternal: java.lang.String mText>","type":"load","field":"<android.text.SpannableStringInternal: java.lang.String mText>"},{"step":44,"from":"1094034248.<android.text.SpannableStringInternal: java.lang.String mText>","to":"sdaReg71","type":"model"},{"step":45,"from":"sdaReg71","to":"1093464880","type":"model"},{"step":46,"from":"1094034248","to":"1094034248.<android.text.SpannableStringInternal: java.lang.String mText>","type":"load","field":"<android.text.SpannableStringInternal: java.lang.String mText>"},{"step":47,"from":"1094034248.<android.text.SpannableStringInternal: java.lang.String mText>","to":"sdaReg73","type":"model"},{"step":48,"from":"sdaReg73","to":"1093464880","type":"model"},{"step":49,"from":"1094034248","to":"1094034248.<android.text.SpannableStringInternal: int mSpanCount>","type":"load","field":"<android.text.SpannableStringInternal: int mSpanCount>"},{"step":50,"from":"1094034248","to":"1093549256","type":"load","field":"<android.text.SpannableStringInternal: java.lang.Object[] mSpans>"},{"step":51,"from":"1094034248","to":"1094103376","type":"load","field":"<android.text.SpannableStringInternal: int[] mSpanData>"},{"step":52,"from":"1094034248","to":"1094034248.<android.text.SpannableStringInternal: int mSpanCount>","type":"load","field":"<android.text.SpannableStringInternal: int mSpanCount>"},{"step":53,"from":"1094034248","to":"1093549256","type":"load","field":"<android.text.SpannableStringInternal: java.lang.Object[] mSpans>"},{"step":54,"from":"1094034248","to":"1094103376","type":"load","field":"<android.text.SpannableStringInternal: int[] mSpanData>"},{"step":55,"from":"1084661656","to":"sdaReg96","type":"model"},{"step":56,"from":"static.<com.android.internal.util.ArrayUtils: java.lang.Object[] sCache>","to":"1084375760","type":"load","field":"<com.android.internal.util.ArrayUtils: java.lang.Object[] sCache>"},{"step":57,"from":"1084375760","to":"1093528904","type":"load","field":"arrayIdx_int:26"},{"step":58,"from":"1093528904","to":"1085374624","type":"model"},{"step":59,"from":"1085374624","to":"1084661656","type":"model"},{"step":60,"from":"1094034248","to":"1094034248.<android.text.SpannableStringInternal: java.lang.String mText>","type":"load","field":"<android.text.SpannableStringInternal: java.lang.String mText>"},{"step":61,"from":"1094034248.<android.text.SpannableStringInternal: java.lang.String mText>","to":"sdaReg115","type":"model"},{"step":62,"from":"sdaReg115","to":"1093464880","type":"model"},{"step":63,"from":"1094034248","to":"1094034248.<android.text.SpannableStringInternal: java.lang.String mText>","type":"load","field":"<android.text.SpannableStringInternal: java.lang.String mText>"},{"step":64,"from":"1094034248.<android.text.SpannableStringInternal: java.lang.String mText>","to":"sdaReg117","type":"model"},{"step":65,"from":"sdaReg117","to":"1093464880","type":"model"},{"step":66,"from":"1094034248","to":"1094034248.<android.text.SpannableStringInternal: java.lang.String mText>","type":"load","field":"<android.text.SpannableStringInternal: java.lang.String mText>"},{"step":67,"from":"1094034248.<android.text.SpannableStringInternal: java.lang.String mText>","to":"sdaReg119","type":"model"},{"step":68,"from":"1094034248","to":"1094034248.<android.text.SpannableStringInternal: java.lang.String mText>","type":"load","field":"<android.text.SpannableStringInternal: java.lang.String mText>"},{"step":69,"from":"1094034248.<android.text.SpannableStringInternal: java.lang.String mText>","to":"sdaReg123","type":"model"},{"step":70,"from":"1094034248","to":"1094034248.<android.text.SpannableStringInternal: java.lang.String mText>","type":"load","field":"<android.text.SpannableStringInternal: java.lang.String mText>"},{"step":71,"from":"1094034248.<android.text.SpannableStringInternal: java.lang.String mText>","to":"sdaReg125","type":"model"},{"step":72,"from":"sdaReg125","to":"1093464880","type":"model"},{"step":73,"from":"1094034248","to":"1094034248.<android.text.SpannableStringInternal: java.lang.String mText>","type":"load","field":"<android.text.SpannableStringInternal: java.lang.String mText>"},{"step":74,"from":"1094034248.<android.text.SpannableStringInternal: java.lang.String mText>","to":"sdaReg127","type":"model"},{"step":75,"from":"sdaReg127","to":"1093464880","type":"model"},{"step":76,"from":"1094034248","to":"1094034248.<android.text.SpannableStringInternal: java.lang.String mText>","type":"load","field":"<android.text.SpannableStringInternal: java.lang.String mText>"},{"step":77,"from":"1094034248.<android.text.SpannableStringInternal: java.lang.String mText>","to":"sdaReg129","type":"model"},{"step":78,"from":"sdaReg129","to":"1093464880","type":"model"},{"step":79,"from":"1094034248","to":"1094034248.<android.text.SpannableStringInternal: java.lang.String mText>","type":"load","field":"<android.text.SpannableStringInternal: java.lang.String mText>"},{"step":80,"from":"1094034248.<android.text.SpannableStringInternal: java.lang.String mText>","to":"sdaReg131","type":"model"},{"step":81,"from":"sdaReg131","to":"1093464880","type":"model"},{"step":82,"from":"1094034248","to":"1094034248.<android.text.SpannableStringInternal: java.lang.String mText>","type":"load","field":"<android.text.SpannableStringInternal: java.lang.String mText>"},{"step":83,"from":"1094034248.<android.text.SpannableStringInternal: java.lang.String mText>","to":"sdaReg133","type":"model"},{"step":84,"from":"sdaReg133","to":"1093464880","type":"model"},{"step":85,"from":"1094034248","to":"1094034248.<android.text.SpannableStringInternal: java.lang.String mText>","type":"load","field":"<android.text.SpannableStringInternal: java.lang.String mText>"},{"step":86,"from":"1094034248.<android.text.SpannableStringInternal: java.lang.String mText>","to":"sdaReg135","type":"model"},{"step":87,"from":"sdaReg135","to":"1093464880","type":"model"},{"step":88,"from":"1094034248","to":"1094034248.<android.text.SpannableStringInternal: java.lang.String mText>","type":"load","field":"<android.text.SpannableStringInternal: java.lang.String mText>"},{"step":89,"from":"1094034248.<android.text.SpannableStringInternal: java.lang.String mText>","to":"sdaReg137","type":"model"},{"step":90,"from":"sdaReg137","to":"1093464880","type":"model"},{"step":91,"from":"1094034248","to":"1094034248.<android.text.SpannableStringInternal: java.lang.String mText>","type":"load","field":"<android.text.SpannableStringInternal: java.lang.String mText>"},{"step":92,"from":"1094034248.<android.text.SpannableStringInternal: java.lang.String mText>","to":"sdaReg139","type":"model"},{"step":93,"from":"sdaReg139","to":"1093464880","type":"model"},{"step":94,"from":"1094034248","to":"1094034248.<android.text.SpannableStringInternal: java.lang.String mText>","type":"load","field":"<android.text.SpannableStringInternal: java.lang.String mText>"},{"step":95,"from":"1094034248.<android.text.SpannableStringInternal: java.lang.String mText>","to":"sdaReg141","type":"model"},{"step":96,"from":"sdaReg141","to":"1093464880","type":"model"},{"step":97,"from":"sdaReg145","to":"1093464880","type":"model"}],"parameters":[{"id":"1093464880","name":"arg#0","klass":"java.lang.StringBuilder"},{"id":"1094034248","name":"arg#1","klass":"android.text.Spanned"},{"id":"sdaReg0","name":"arg#2","klass":"int"},{"id":"sdaReg1","name":"arg#3","klass":"int"}],"returns":[{"id":null,"name":"return","klass":null}],"colors":{"heapLocToColor":{"sdaReg125":[1, 29],"sdaReg126":[1],"1093549256":[1],"sdaReg127":[1, 30],"sdaReg128":[1],"sdaReg129":[1, 31],"1094034248.<android.text.SpannableStringInternal: java.lang.Object[] mSpans>":[1],"sdaReg68":[1],"sdaReg69":[1, 20],"sdaReg66":[1],"sdaReg67":[1, 19],"sdaReg64":[1],"sdaReg65":[1, 18],"sdaReg62":[1],"sdaReg63":[17, 1],"sdaReg13":[0],"sdaReg72":[1],"sdaReg14":[1],"sdaReg71":[1, 21],"sdaReg70":[1],"sdaReg10":[3, 4, 23],"sdaReg120":[2, 4],"sdaReg122":[1],"sdaReg121":[2, 4],"sdaReg18":[1],"sdaReg124":[1],"sdaReg15":[2, 4],"sdaReg123":[1, 28],"sdaReg16":[1],"sdaReg116":[1],"sdaReg117":[1, 26],"sdaReg114":[1],"sdaReg115":[1, 25],"sdaReg118":[1],"sdaReg119":[1, 27],"sdaReg78":[3, 23],"sdaReg79":[0],"1094103376":[1],"sdaReg73":[1, 22],"sdaReg81":[2, 3, 4, 23],"sdaReg80":[1],"sdaReg83":[8, 9, 10],"sdaReg82":[1],"sdaReg113":[2, 4],"sdaReg112":[1],"sdaReg111":[0],"sdaReg107":[8],"sdaReg108":[8],"sdaReg103":[8],"sdaReg104":[8],"sdaReg105":[8],"sdaReg106":[8],"static.<com.android.internal.util.ArrayUtils: java.lang.Object[] sCache>":[8],"sdaReg87":[1],"sdaReg84":[1],"sdaReg85":[8, 9, 10],"sdaReg88":[8, 9, 10],"sdaReg89":[1],"sdaReg90":[8, 9, 10],"1093464880":[0],"sdaReg100":[8, 9],"sdaReg102":[8],"sdaReg101":[8, 9, 10],"sdaReg95":[8, 9, 10],"sdaReg96":[24],"sdaReg97":[24],"sdaReg98":[24],"sdaReg99":[24],"1094034248.<android.text.SpannableStringInternal: int[] mSpanData>":[1],"sdaReg60":[2],"sdaReg61":[2],"1093528904":[8],"1084375760.arrayIdx_int:26":[8],"sdaReg59":[1, 16],"sdaReg58":[1],"sdaReg57":[1, 15],"sdaReg56":[1],"sdaReg55":[1, 14],"sdaReg54":[1],"sdaReg53":[1, 13],"sdaReg52":[1],"sdaReg51":[1, 12],"1094034248.<android.text.SpannableStringInternal: int mSpanCount>":[1],"sdaReg50":[1],"1084661656":[8, 9, 10],"sdaReg49":[1, 11],"sdaReg48":[1],"sdaReg45":[0],"sdaReg47":[2],"sdaReg46":[1],"sdaReg41":[8],"sdaReg40":[8],"sdaReg42":[8],"1085374624":[8, 9],"sdaReg39":[8],"sdaReg38":[8],"1084375760":[8],"sdaReg140":[1],"sdaReg141":[1, 37],"sdaReg32":[7],"sdaReg31":[7],"sdaReg30":[7],"sdaReg35":[8, 9, 10],"sdaReg34":[8, 9],"sdaReg33":[7],"sdaReg8":[1, 6],"sdaReg9":[2, 4],"sdaReg6":[1, 5],"sdaReg7":[1],"sdaReg5":[1],"sdaReg139":[1, 36],"1094034248.<android.text.SpannableStringInternal: java.lang.String mText>":[1],"sdaReg138":[1],"sdaReg137":[1, 35],"sdaReg136":[1],"sdaReg134":[1],"sdaReg135":[34, 1],"sdaReg132":[1],"sdaReg133":[1, 33],"sdaReg130":[1],"sdaReg131":[1, 32],"1094034248":[1],"sdaReg3":[4],"sdaReg2":[2, 3, 4, 23],"sdaReg1":[3],"sdaReg21":[1],"sdaReg0":[2],"sdaReg23":[1]},"colorToColor":{"1":[0],"8":[24],"9":[24],"10":[24],"11":[0],"12":[0],"13":[0],"14":[0],"15":[0],"19":[0],"18":[0],"21":[0],"20":[0],"22":[0],"25":[0],"26":[0],"29":[0],"31":[0],"30":[0],"34":[0],"35":[0],"32":[0],"33":[0],"36":[0],"37":[0]},"colorToLabel":{"0":"arg#0","1":"arg#1","2":"arg#2","3":"arg#3","8":"<com.android.internal.util.ArrayUtils: java.lang.Object[] sCache>","38":"return"}}}

Generated Model
	arg#1->arg#0

