Scanning method <android.text.Html: void withinBlockquote(java.lang.StringBuilder,android.text.Spanned,int,int)>

All seen event types: LoadStaticRecord, BinaryOperationRecord, SimpleAssignmentRecord, MethodReturnRecord, MethodCallRecord, ArrayLengthRecord, CastRecord, LoadInstanceRecord, MethodStartRecord, LoadArrayRecord, MethodEndRecord, IfRecord, 
Ignored event types: IfRecord, 

JSON Encoded Analysis Data (for visualization):{"heapEdges":[{"step":0,"from":"1094159864","to":"1094159864.<android.text.SpannableStringInternal: java.lang.String mText>","type":"load","field":"<android.text.SpannableStringInternal: java.lang.String mText>"},{"step":1,"from":"1094159864.<android.text.SpannableStringInternal: java.lang.String mText>","to":"sdaReg6","type":"model"},{"step":2,"from":"1094159864","to":"1094159864.<android.text.SpannableStringInternal: java.lang.String mText>","type":"load","field":"<android.text.SpannableStringInternal: java.lang.String mText>"},{"step":3,"from":"1094159864.<android.text.SpannableStringInternal: java.lang.String mText>","to":"sdaReg8","type":"model"},{"step":4,"from":"1094159864","to":"1094159864.<android.text.SpannableStringInternal: java.lang.String mText>","type":"load","field":"<android.text.SpannableStringInternal: java.lang.String mText>"},{"step":5,"from":"1094159864.<android.text.SpannableStringInternal: java.lang.String mText>","to":"sdaReg10","type":"model"},{"step":6,"from":"1094159864","to":"1094159864.<android.text.SpannableStringInternal: java.lang.String mText>","type":"load","field":"<android.text.SpannableStringInternal: java.lang.String mText>"},{"step":7,"from":"1094159864.<android.text.SpannableStringInternal: java.lang.String mText>","to":"sdaReg12","type":"model"},{"step":8,"from":"1094159864","to":"1094159864.<android.text.SpannableStringInternal: int mSpanCount>","type":"load","field":"<android.text.SpannableStringInternal: int mSpanCount>"},{"step":9,"from":"1094159864","to":"1093445856","type":"load","field":"<android.text.SpannableStringInternal: java.lang.Object[] mSpans>"},{"step":10,"from":"1094159864","to":"1093794952","type":"load","field":"<android.text.SpannableStringInternal: int[] mSpanData>"},{"step":11,"from":"1094159864","to":"1094159864.<android.text.SpannableStringInternal: int mSpanCount>","type":"load","field":"<android.text.SpannableStringInternal: int mSpanCount>"},{"step":12,"from":"1094159864","to":"1093445856","type":"load","field":"<android.text.SpannableStringInternal: java.lang.Object[] mSpans>"},{"step":13,"from":"1094159864","to":"1093794952","type":"load","field":"<android.text.SpannableStringInternal: int[] mSpanData>"},{"step":14,"from":"1084661656","to":"sdaReg34","type":"model"},{"step":15,"from":"static.<com.android.internal.util.ArrayUtils: java.lang.Object[] sCache>","to":"1084375760","type":"load","field":"<com.android.internal.util.ArrayUtils: java.lang.Object[] sCache>"},{"step":16,"from":"1084375760","to":"1093528904","type":"load","field":"arrayIdx_int:26"},{"step":17,"from":"1093528904","to":"1085374624","type":"model"},{"step":18,"from":"1085374624","to":"1084661656","type":"model"},{"step":19,"from":"1094159864","to":"1094159864.<android.text.SpannableStringInternal: java.lang.String mText>","type":"load","field":"<android.text.SpannableStringInternal: java.lang.String mText>"},{"step":20,"from":"1094159864.<android.text.SpannableStringInternal: java.lang.String mText>","to":"sdaReg53","type":"model"},{"step":21,"from":"sdaReg53","to":"1093463656","type":"model"},{"step":22,"from":"1094159864","to":"1094159864.<android.text.SpannableStringInternal: java.lang.String mText>","type":"load","field":"<android.text.SpannableStringInternal: java.lang.String mText>"},{"step":23,"from":"1094159864.<android.text.SpannableStringInternal: java.lang.String mText>","to":"sdaReg55","type":"model"},{"step":24,"from":"sdaReg55","to":"1093463656","type":"model"},{"step":25,"from":"1094159864","to":"1094159864.<android.text.SpannableStringInternal: java.lang.String mText>","type":"load","field":"<android.text.SpannableStringInternal: java.lang.String mText>"},{"step":26,"from":"1094159864.<android.text.SpannableStringInternal: java.lang.String mText>","to":"sdaReg57","type":"model"},{"step":27,"from":"sdaReg57","to":"1093463656","type":"model"},{"step":28,"from":"1094159864","to":"1094159864.<android.text.SpannableStringInternal: java.lang.String mText>","type":"load","field":"<android.text.SpannableStringInternal: java.lang.String mText>"},{"step":29,"from":"1094159864.<android.text.SpannableStringInternal: java.lang.String mText>","to":"sdaReg59","type":"model"},{"step":30,"from":"sdaReg59","to":"1093463656","type":"model"},{"step":31,"from":"1094159864","to":"1094159864.<android.text.SpannableStringInternal: java.lang.String mText>","type":"load","field":"<android.text.SpannableStringInternal: java.lang.String mText>"},{"step":32,"from":"1094159864.<android.text.SpannableStringInternal: java.lang.String mText>","to":"sdaReg61","type":"model"},{"step":33,"from":"sdaReg61","to":"1093463656","type":"model"},{"step":34,"from":"1094159864","to":"1094159864.<android.text.SpannableStringInternal: java.lang.String mText>","type":"load","field":"<android.text.SpannableStringInternal: java.lang.String mText>"},{"step":35,"from":"1094159864.<android.text.SpannableStringInternal: java.lang.String mText>","to":"sdaReg63","type":"model"},{"step":36,"from":"1094159864","to":"1094159864.<android.text.SpannableStringInternal: java.lang.String mText>","type":"load","field":"<android.text.SpannableStringInternal: java.lang.String mText>"},{"step":37,"from":"1094159864.<android.text.SpannableStringInternal: java.lang.String mText>","to":"sdaReg67","type":"model"},{"step":38,"from":"1094159864","to":"1094159864.<android.text.SpannableStringInternal: java.lang.String mText>","type":"load","field":"<android.text.SpannableStringInternal: java.lang.String mText>"},{"step":39,"from":"1094159864.<android.text.SpannableStringInternal: java.lang.String mText>","to":"sdaReg69","type":"model"},{"step":40,"from":"sdaReg69","to":"1093463656","type":"model"},{"step":41,"from":"1094159864","to":"1094159864.<android.text.SpannableStringInternal: java.lang.String mText>","type":"load","field":"<android.text.SpannableStringInternal: java.lang.String mText>"},{"step":42,"from":"1094159864.<android.text.SpannableStringInternal: java.lang.String mText>","to":"sdaReg71","type":"model"},{"step":43,"from":"sdaReg71","to":"1093463656","type":"model"},{"step":44,"from":"1094159864","to":"1094159864.<android.text.SpannableStringInternal: java.lang.String mText>","type":"load","field":"<android.text.SpannableStringInternal: java.lang.String mText>"},{"step":45,"from":"1094159864.<android.text.SpannableStringInternal: java.lang.String mText>","to":"sdaReg73","type":"model"},{"step":46,"from":"sdaReg73","to":"1093463656","type":"model"},{"step":47,"from":"1094159864","to":"1094159864.<android.text.SpannableStringInternal: java.lang.String mText>","type":"load","field":"<android.text.SpannableStringInternal: java.lang.String mText>"},{"step":48,"from":"1094159864.<android.text.SpannableStringInternal: java.lang.String mText>","to":"sdaReg75","type":"model"},{"step":49,"from":"sdaReg75","to":"1093463656","type":"model"},{"step":50,"from":"1094159864","to":"1094159864.<android.text.SpannableStringInternal: java.lang.String mText>","type":"load","field":"<android.text.SpannableStringInternal: java.lang.String mText>"},{"step":51,"from":"1094159864.<android.text.SpannableStringInternal: java.lang.String mText>","to":"sdaReg77","type":"model"},{"step":52,"from":"sdaReg77","to":"1093463656","type":"model"},{"step":53,"from":"sdaReg81","to":"1093463656","type":"model"},{"step":54,"from":"1094159864","to":"1094159864.<android.text.SpannableStringInternal: int mSpanCount>","type":"load","field":"<android.text.SpannableStringInternal: int mSpanCount>"},{"step":55,"from":"1094159864","to":"1093445856","type":"load","field":"<android.text.SpannableStringInternal: java.lang.Object[] mSpans>"},{"step":56,"from":"1094159864","to":"1093794952","type":"load","field":"<android.text.SpannableStringInternal: int[] mSpanData>"},{"step":57,"from":"1094159864","to":"1094159864.<android.text.SpannableStringInternal: int mSpanCount>","type":"load","field":"<android.text.SpannableStringInternal: int mSpanCount>"},{"step":58,"from":"1094159864","to":"1093445856","type":"load","field":"<android.text.SpannableStringInternal: java.lang.Object[] mSpans>"},{"step":59,"from":"1094159864","to":"1093794952","type":"load","field":"<android.text.SpannableStringInternal: int[] mSpanData>"},{"step":60,"from":"1084661656","to":"sdaReg101","type":"model"},{"step":61,"from":"static.<com.android.internal.util.ArrayUtils: java.lang.Object[] sCache>","to":"1084375760","type":"load","field":"<com.android.internal.util.ArrayUtils: java.lang.Object[] sCache>"},{"step":62,"from":"1084375760","to":"1093528904","type":"load","field":"arrayIdx_int:26"},{"step":63,"from":"1093528904","to":"1085374624","type":"model"},{"step":64,"from":"1085374624","to":"1084661656","type":"model"},{"step":65,"from":"1094159864","to":"1094159864.<android.text.SpannableStringInternal: java.lang.String mText>","type":"load","field":"<android.text.SpannableStringInternal: java.lang.String mText>"},{"step":66,"from":"1094159864.<android.text.SpannableStringInternal: java.lang.String mText>","to":"sdaReg120","type":"model"},{"step":67,"from":"sdaReg120","to":"1093463656","type":"model"},{"step":68,"from":"1094159864","to":"1094159864.<android.text.SpannableStringInternal: java.lang.String mText>","type":"load","field":"<android.text.SpannableStringInternal: java.lang.String mText>"},{"step":69,"from":"1094159864.<android.text.SpannableStringInternal: java.lang.String mText>","to":"sdaReg122","type":"model"},{"step":70,"from":"sdaReg122","to":"1093463656","type":"model"},{"step":71,"from":"1094159864","to":"1094159864.<android.text.SpannableStringInternal: java.lang.String mText>","type":"load","field":"<android.text.SpannableStringInternal: java.lang.String mText>"},{"step":72,"from":"1094159864.<android.text.SpannableStringInternal: java.lang.String mText>","to":"sdaReg124","type":"model"},{"step":73,"from":"1094159864","to":"1094159864.<android.text.SpannableStringInternal: java.lang.String mText>","type":"load","field":"<android.text.SpannableStringInternal: java.lang.String mText>"},{"step":74,"from":"1094159864.<android.text.SpannableStringInternal: java.lang.String mText>","to":"sdaReg128","type":"model"},{"step":75,"from":"1094159864","to":"1094159864.<android.text.SpannableStringInternal: java.lang.String mText>","type":"load","field":"<android.text.SpannableStringInternal: java.lang.String mText>"},{"step":76,"from":"1094159864.<android.text.SpannableStringInternal: java.lang.String mText>","to":"sdaReg130","type":"model"},{"step":77,"from":"sdaReg130","to":"1093463656","type":"model"},{"step":78,"from":"1094159864","to":"1094159864.<android.text.SpannableStringInternal: java.lang.String mText>","type":"load","field":"<android.text.SpannableStringInternal: java.lang.String mText>"},{"step":79,"from":"1094159864.<android.text.SpannableStringInternal: java.lang.String mText>","to":"sdaReg132","type":"model"},{"step":80,"from":"sdaReg132","to":"1093463656","type":"model"},{"step":81,"from":"1094159864","to":"1094159864.<android.text.SpannableStringInternal: java.lang.String mText>","type":"load","field":"<android.text.SpannableStringInternal: java.lang.String mText>"},{"step":82,"from":"1094159864.<android.text.SpannableStringInternal: java.lang.String mText>","to":"sdaReg134","type":"model"},{"step":83,"from":"sdaReg134","to":"1093463656","type":"model"},{"step":84,"from":"1094159864","to":"1094159864.<android.text.SpannableStringInternal: java.lang.String mText>","type":"load","field":"<android.text.SpannableStringInternal: java.lang.String mText>"},{"step":85,"from":"1094159864.<android.text.SpannableStringInternal: java.lang.String mText>","to":"sdaReg136","type":"model"},{"step":86,"from":"sdaReg136","to":"1093463656","type":"model"},{"step":87,"from":"1094159864","to":"1094159864.<android.text.SpannableStringInternal: java.lang.String mText>","type":"load","field":"<android.text.SpannableStringInternal: java.lang.String mText>"},{"step":88,"from":"1094159864.<android.text.SpannableStringInternal: java.lang.String mText>","to":"sdaReg138","type":"model"},{"step":89,"from":"sdaReg138","to":"1093463656","type":"model"},{"step":90,"from":"1094159864","to":"1094159864.<android.text.SpannableStringInternal: java.lang.String mText>","type":"load","field":"<android.text.SpannableStringInternal: java.lang.String mText>"},{"step":91,"from":"1094159864.<android.text.SpannableStringInternal: java.lang.String mText>","to":"sdaReg140","type":"model"},{"step":92,"from":"sdaReg140","to":"1093463656","type":"model"},{"step":93,"from":"1094159864","to":"1094159864.<android.text.SpannableStringInternal: java.lang.String mText>","type":"load","field":"<android.text.SpannableStringInternal: java.lang.String mText>"},{"step":94,"from":"1094159864.<android.text.SpannableStringInternal: java.lang.String mText>","to":"sdaReg142","type":"model"},{"step":95,"from":"sdaReg142","to":"1093463656","type":"model"},{"step":96,"from":"1094159864","to":"1094159864.<android.text.SpannableStringInternal: java.lang.String mText>","type":"load","field":"<android.text.SpannableStringInternal: java.lang.String mText>"},{"step":97,"from":"1094159864.<android.text.SpannableStringInternal: java.lang.String mText>","to":"sdaReg144","type":"model"},{"step":98,"from":"sdaReg144","to":"1093463656","type":"model"},{"step":99,"from":"1094159864","to":"1094159864.<android.text.SpannableStringInternal: java.lang.String mText>","type":"load","field":"<android.text.SpannableStringInternal: java.lang.String mText>"},{"step":100,"from":"1094159864.<android.text.SpannableStringInternal: java.lang.String mText>","to":"sdaReg146","type":"model"},{"step":101,"from":"sdaReg146","to":"1093463656","type":"model"},{"step":102,"from":"sdaReg150","to":"1093463656","type":"model"}],"parameters":[{"id":"1093463656","name":"arg#0","klass":"java.lang.StringBuilder"},{"id":"1094159864","name":"arg#1","klass":"android.text.Spanned"},{"id":"sdaReg0","name":"arg#2","klass":"int"},{"id":"sdaReg1","name":"arg#3","klass":"int"}],"returns":[{"id":null,"name":"return","klass":null}],"colors":{"heapLocToColor":{"sdaReg125":[2, 4],"sdaReg126":[2, 4],"sdaReg127":[1],"sdaReg128":[1, 30],"sdaReg129":[1],"sdaReg68":[1],"sdaReg69":[1, 20],"sdaReg66":[1],"sdaReg67":[1, 19],"sdaReg64":[2],"sdaReg65":[2],"sdaReg62":[1],"sdaReg63":[1, 18],"sdaReg13":[2, 4],"sdaReg72":[1],"sdaReg14":[3, 4, 25],"sdaReg71":[1, 21],"sdaReg11":[1],"sdaReg70":[1],"sdaReg12":[1, 8],"sdaReg10":[1, 7],"sdaReg120":[1, 27],"sdaReg19":[2, 4],"sdaReg122":[1, 28],"sdaReg17":[0],"sdaReg121":[1],"sdaReg18":[1],"sdaReg124":[1, 29],"sdaReg123":[1],"sdaReg116":[0],"sdaReg117":[1],"sdaReg118":[2, 4],"sdaReg119":[1],"sdaReg77":[1, 24],"sdaReg73":[1, 22],"sdaReg74":[1],"sdaReg75":[1, 23],"sdaReg76":[1],"1094159864.<android.text.SpannableStringInternal: java.lang.Object[] mSpans>":[1],"sdaReg83":[3, 25],"sdaReg113":[10],"sdaReg112":[10],"sdaReg111":[10],"sdaReg110":[10],"1093463656":[0],"sdaReg107":[10],"sdaReg108":[10],"sdaReg109":[10],"sdaReg103":[26],"sdaReg104":[26],"sdaReg105":[10, 11],"sdaReg106":[10, 11, 12],"static.<com.android.internal.util.ArrayUtils: java.lang.Object[] sCache>":[10],"sdaReg86":[2, 3, 4, 25],"sdaReg87":[1],"sdaReg84":[0],"sdaReg85":[1],"sdaReg88":[10, 11, 12],"sdaReg89":[1],"sdaReg90":[10, 11, 12],"sdaReg94":[1],"sdaReg93":[10, 11, 12],"sdaReg92":[1],"sdaReg100":[10, 11, 12],"sdaReg102":[26],"sdaReg101":[26],"sdaReg95":[10, 11, 12],"1093445856":[1],"sdaReg60":[1],"sdaReg61":[17, 1],"1093528904":[10],"1084375760.arrayIdx_int:26":[10],"sdaReg59":[1, 16],"1094159864.<android.text.SpannableStringInternal: java.lang.String mText>":[1],"sdaReg58":[1],"sdaReg57":[1, 15],"sdaReg56":[1],"sdaReg55":[1, 14],"sdaReg54":[1],"sdaReg53":[1, 13],"sdaReg52":[1],"sdaReg51":[2],"sdaReg50":[1],"1084661656":[10, 11, 12],"sdaReg49":[0],"sdaReg45":[10],"sdaReg44":[10],"sdaReg46":[10],"sdaReg43":[10],"sdaReg42":[10],"1093794952":[1],"1094159864":[1],"1094159864.<android.text.SpannableStringInternal: int[] mSpanData>":[1],"1085374624":[10, 11],"sdaReg143":[1],"sdaReg144":[1, 38],"sdaReg39":[10, 11, 12],"sdaReg145":[1],"sdaReg38":[10, 11],"sdaReg146":[1, 39],"1084375760":[10],"sdaReg37":[9],"sdaReg140":[1, 36],"sdaReg141":[1],"sdaReg142":[1, 37],"sdaReg36":[9],"sdaReg35":[9],"sdaReg34":[9],"sdaReg8":[1, 6],"sdaReg9":[1],"sdaReg6":[1, 5],"sdaReg7":[1],"sdaReg5":[1],"1094159864.<android.text.SpannableStringInternal: int mSpanCount>":[1],"sdaReg139":[1],"sdaReg138":[1, 35],"sdaReg137":[1],"sdaReg136":[34, 1],"sdaReg134":[1, 33],"sdaReg27":[1],"sdaReg135":[1],"sdaReg132":[1, 32],"sdaReg133":[1],"sdaReg130":[1, 31],"sdaReg131":[1],"sdaReg3":[4],"sdaReg2":[2, 3, 4, 25],"sdaReg1":[3],"sdaReg0":[2],"sdaReg20":[1],"sdaReg22":[1],"sdaReg25":[1]},"colorToColor":{"1":[0],"10":[26],"11":[26],"12":[26],"13":[0],"14":[0],"15":[0],"17":[0],"16":[0],"21":[0],"20":[0],"23":[0],"22":[0],"24":[0],"27":[0],"28":[0],"31":[0],"34":[0],"35":[0],"32":[0],"33":[0],"38":[0],"39":[0],"36":[0],"37":[0]},"colorToLabel":{"0":"arg#0","1":"arg#1","2":"arg#2","3":"arg#3","10":"<com.android.internal.util.ArrayUtils: java.lang.Object[] sCache>","40":"return"}}}

Generated Model
	arg#1->arg#0

