Scanning method <android.text.Html: void withinBlockquote(java.lang.StringBuilder,android.text.Spanned,int,int)>

All seen event types: StoreArrayRecord, SimpleAssignmentRecord, MethodStartRecord, LoadInstanceRecord, IfRecord, InstanceOfRecord, LoadStaticRecord, BinaryOperationRecord, MethodCallRecord, MethodReturnRecord, CastRecord, ArrayLengthRecord, LoadArrayRecord, MethodEndRecord, 
Ignored event types: IfRecord, 

JSON Encoded Analysis Data (for visualization):{"heapEdges":[{"step":0,"from":"1094316440","to":"1094316440.<android.text.SpannableStringInternal: int mSpanCount>","type":"load","field":"<android.text.SpannableStringInternal: int mSpanCount>"},{"step":1,"from":"1094316440","to":"1093908552","type":"load","field":"<android.text.SpannableStringInternal: java.lang.Object[] mSpans>"},{"step":2,"from":"1094316440","to":"1093914152","type":"load","field":"<android.text.SpannableStringInternal: int[] mSpanData>"},{"step":3,"from":"1093914152","to":"1093914152.arrayIdx_int:0","type":"load","field":"arrayIdx_int:0"},{"step":4,"from":"1093914152","to":"1093914152.arrayIdx_int:1","type":"load","field":"arrayIdx_int:1"},{"step":5,"from":"1093908552","to":"1093577648","type":"load","field":"arrayIdx_int:0"},{"step":6,"from":"1094316440","to":"1094316440.<android.text.SpannableStringInternal: int mSpanCount>","type":"load","field":"<android.text.SpannableStringInternal: int mSpanCount>"},{"step":7,"from":"1094316440","to":"1093908552","type":"load","field":"<android.text.SpannableStringInternal: java.lang.Object[] mSpans>"},{"step":8,"from":"1094316440","to":"1093914152","type":"load","field":"<android.text.SpannableStringInternal: int[] mSpanData>"},{"step":9,"from":"1093908552","to":"1093577648","type":"load","field":"arrayIdx_int:0"},{"step":10,"from":"1093914152","to":"1093914152.arrayIdx_int:0","type":"load","field":"arrayIdx_int:0"},{"step":11,"from":"1093914152","to":"1093914152.arrayIdx_int:1","type":"load","field":"arrayIdx_int:1"},{"step":12,"from":"1084661656","to":"sdaReg36","type":"model"},{"step":13,"from":"static.<com.android.internal.util.ArrayUtils: java.lang.Object[] sCache>","to":"1084375760","type":"load","field":"<com.android.internal.util.ArrayUtils: java.lang.Object[] sCache>"},{"step":14,"from":"1084375760","to":"1093550768","type":"load","field":"arrayIdx_int:26"},{"step":15,"from":"1093550768","to":"1085374624","type":"model"},{"step":16,"from":"1085374624","to":"1084661656","type":"model"},{"step":17,"from":"1094316440","to":"1094316440.<android.text.SpannableStringInternal: java.lang.String mText>","type":"load","field":"<android.text.SpannableStringInternal: java.lang.String mText>"},{"step":18,"from":"1094316440.<android.text.SpannableStringInternal: java.lang.String mText>","to":"sdaReg55","type":"model"},{"step":19,"from":"sdaReg55","to":"1094156456","type":"model"},{"step":20,"from":"1094316440","to":"1094316440.<android.text.SpannableStringInternal: java.lang.String mText>","type":"load","field":"<android.text.SpannableStringInternal: java.lang.String mText>"},{"step":21,"from":"1094316440.<android.text.SpannableStringInternal: java.lang.String mText>","to":"sdaReg57","type":"model"},{"step":22,"from":"sdaReg57","to":"1094156456","type":"model"},{"step":23,"from":"1094316440","to":"1094316440.<android.text.SpannableStringInternal: java.lang.String mText>","type":"load","field":"<android.text.SpannableStringInternal: java.lang.String mText>"},{"step":24,"from":"1094316440.<android.text.SpannableStringInternal: java.lang.String mText>","to":"sdaReg59","type":"model"},{"step":25,"from":"sdaReg59","to":"1094156456","type":"model"},{"step":26,"from":"1094316440","to":"1094316440.<android.text.SpannableStringInternal: java.lang.String mText>","type":"load","field":"<android.text.SpannableStringInternal: java.lang.String mText>"},{"step":27,"from":"1094316440.<android.text.SpannableStringInternal: java.lang.String mText>","to":"sdaReg61","type":"model"},{"step":28,"from":"sdaReg61","to":"1094156456","type":"model"},{"step":29,"from":"1094316440","to":"1094316440.<android.text.SpannableStringInternal: java.lang.String mText>","type":"load","field":"<android.text.SpannableStringInternal: java.lang.String mText>"},{"step":30,"from":"1094316440.<android.text.SpannableStringInternal: java.lang.String mText>","to":"sdaReg63","type":"model"},{"step":31,"from":"sdaReg63","to":"1094156456","type":"model"},{"step":32,"from":"1094316440","to":"1094316440.<android.text.SpannableStringInternal: java.lang.String mText>","type":"load","field":"<android.text.SpannableStringInternal: java.lang.String mText>"},{"step":33,"from":"1094316440.<android.text.SpannableStringInternal: java.lang.String mText>","to":"sdaReg65","type":"model"},{"step":34,"from":"1094316440","to":"1094316440.<android.text.SpannableStringInternal: int mSpanCount>","type":"load","field":"<android.text.SpannableStringInternal: int mSpanCount>"},{"step":35,"from":"1094316440","to":"1093908552","type":"load","field":"<android.text.SpannableStringInternal: java.lang.Object[] mSpans>"},{"step":36,"from":"1094316440","to":"1093914152","type":"load","field":"<android.text.SpannableStringInternal: int[] mSpanData>"},{"step":37,"from":"1093914152","to":"1093914152.arrayIdx_int:0","type":"load","field":"arrayIdx_int:0"},{"step":38,"from":"1093914152","to":"1093914152.arrayIdx_int:1","type":"load","field":"arrayIdx_int:1"},{"step":39,"from":"1093908552","to":"1093577648","type":"load","field":"arrayIdx_int:0"},{"step":40,"from":"1094316440","to":"1094316440.<android.text.SpannableStringInternal: int mSpanCount>","type":"load","field":"<android.text.SpannableStringInternal: int mSpanCount>"},{"step":41,"from":"1094316440","to":"1093908552","type":"load","field":"<android.text.SpannableStringInternal: java.lang.Object[] mSpans>"},{"step":42,"from":"1094316440","to":"1093914152","type":"load","field":"<android.text.SpannableStringInternal: int[] mSpanData>"},{"step":43,"from":"1093908552","to":"1093577648","type":"load","field":"arrayIdx_int:0"},{"step":44,"from":"1093914152","to":"1093914152.arrayIdx_int:0","type":"load","field":"arrayIdx_int:0"},{"step":45,"from":"1093914152","to":"1093914152.arrayIdx_int:1","type":"load","field":"arrayIdx_int:1"},{"step":46,"from":"1093908552","to":"1093577648","type":"load","field":"arrayIdx_int:0"},{"step":47,"from":"1093577648","to":"1093816096","type":"store","field":"arrayIdx_int:0"},{"step":48,"from":"1093577648","to":"1093577648.<android.text.style.TypefaceSpan: java.lang.String mFamily>","type":"load","field":"<android.text.style.TypefaceSpan: java.lang.String mFamily>"},{"step":49,"from":"1094316440","to":"1094316440.<android.text.SpannableStringInternal: java.lang.String mText>","type":"load","field":"<android.text.SpannableStringInternal: java.lang.String mText>"},{"step":50,"from":"1094316440.<android.text.SpannableStringInternal: java.lang.String mText>","to":"sdaReg117","type":"model"},{"step":51,"from":"sdaReg117","to":"1094156456","type":"model"},{"step":52,"from":"1094316440","to":"1094316440.<android.text.SpannableStringInternal: java.lang.String mText>","type":"load","field":"<android.text.SpannableStringInternal: java.lang.String mText>"},{"step":53,"from":"1094316440.<android.text.SpannableStringInternal: java.lang.String mText>","to":"sdaReg119","type":"model"},{"step":54,"from":"sdaReg119","to":"1094156456","type":"model"},{"step":55,"from":"1094316440","to":"1094316440.<android.text.SpannableStringInternal: java.lang.String mText>","type":"load","field":"<android.text.SpannableStringInternal: java.lang.String mText>"},{"step":56,"from":"1094316440.<android.text.SpannableStringInternal: java.lang.String mText>","to":"sdaReg121","type":"model"},{"step":57,"from":"sdaReg121","to":"1094156456","type":"model"},{"step":58,"from":"1094316440","to":"1094316440.<android.text.SpannableStringInternal: java.lang.String mText>","type":"load","field":"<android.text.SpannableStringInternal: java.lang.String mText>"},{"step":59,"from":"1094316440.<android.text.SpannableStringInternal: java.lang.String mText>","to":"sdaReg123","type":"model"},{"step":60,"from":"sdaReg123","to":"1094156456","type":"model"},{"step":61,"from":"1094316440","to":"1094316440.<android.text.SpannableStringInternal: java.lang.String mText>","type":"load","field":"<android.text.SpannableStringInternal: java.lang.String mText>"},{"step":62,"from":"1094316440.<android.text.SpannableStringInternal: java.lang.String mText>","to":"sdaReg125","type":"model"},{"step":63,"from":"sdaReg125","to":"1094156456","type":"model"},{"step":64,"from":"1094316440","to":"1094316440.<android.text.SpannableStringInternal: java.lang.String mText>","type":"load","field":"<android.text.SpannableStringInternal: java.lang.String mText>"},{"step":65,"from":"1094316440.<android.text.SpannableStringInternal: java.lang.String mText>","to":"sdaReg127","type":"model"},{"step":66,"from":"sdaReg127","to":"1094156456","type":"model"},{"step":67,"from":"1094316440","to":"1094316440.<android.text.SpannableStringInternal: java.lang.String mText>","type":"load","field":"<android.text.SpannableStringInternal: java.lang.String mText>"},{"step":68,"from":"1094316440.<android.text.SpannableStringInternal: java.lang.String mText>","to":"sdaReg129","type":"model"},{"step":69,"from":"sdaReg129","to":"1094156456","type":"model"},{"step":70,"from":"1094316440","to":"1094316440.<android.text.SpannableStringInternal: java.lang.String mText>","type":"load","field":"<android.text.SpannableStringInternal: java.lang.String mText>"},{"step":71,"from":"1094316440.<android.text.SpannableStringInternal: java.lang.String mText>","to":"sdaReg131","type":"model"},{"step":72,"from":"sdaReg131","to":"1094156456","type":"model"},{"step":73,"from":"1094316440","to":"1094316440.<android.text.SpannableStringInternal: java.lang.String mText>","type":"load","field":"<android.text.SpannableStringInternal: java.lang.String mText>"},{"step":74,"from":"1094316440.<android.text.SpannableStringInternal: java.lang.String mText>","to":"sdaReg133","type":"model"},{"step":75,"from":"sdaReg133","to":"1094156456","type":"model"},{"step":76,"from":"1093577648","to":"1093577648.<android.text.style.TypefaceSpan: java.lang.String mFamily>","type":"load","field":"<android.text.style.TypefaceSpan: java.lang.String mFamily>"},{"step":77,"from":"1094316440","to":"1094316440.<android.text.SpannableStringInternal: int mSpanCount>","type":"load","field":"<android.text.SpannableStringInternal: int mSpanCount>"},{"step":78,"from":"1094316440","to":"1093908552","type":"load","field":"<android.text.SpannableStringInternal: java.lang.Object[] mSpans>"},{"step":79,"from":"1094316440","to":"1093914152","type":"load","field":"<android.text.SpannableStringInternal: int[] mSpanData>"},{"step":80,"from":"1093914152","to":"1093914152.arrayIdx_int:0","type":"load","field":"arrayIdx_int:0"},{"step":81,"from":"1093914152","to":"1093914152.arrayIdx_int:1","type":"load","field":"arrayIdx_int:1"},{"step":82,"from":"1094316440","to":"1094316440.<android.text.SpannableStringInternal: int mSpanCount>","type":"load","field":"<android.text.SpannableStringInternal: int mSpanCount>"},{"step":83,"from":"1094316440","to":"1093908552","type":"load","field":"<android.text.SpannableStringInternal: java.lang.Object[] mSpans>"},{"step":84,"from":"1094316440","to":"1093914152","type":"load","field":"<android.text.SpannableStringInternal: int[] mSpanData>"},{"step":85,"from":"1093908552","to":"1093577648","type":"load","field":"arrayIdx_int:0"},{"step":86,"from":"1093914152","to":"1093914152.arrayIdx_int:0","type":"load","field":"arrayIdx_int:0"},{"step":87,"from":"1093914152","to":"1093914152.arrayIdx_int:1","type":"load","field":"arrayIdx_int:1"},{"step":88,"from":"1084661656","to":"sdaReg170","type":"model"},{"step":89,"from":"static.<com.android.internal.util.ArrayUtils: java.lang.Object[] sCache>","to":"1084375760","type":"load","field":"<com.android.internal.util.ArrayUtils: java.lang.Object[] sCache>"},{"step":90,"from":"1084375760","to":"1093550768","type":"load","field":"arrayIdx_int:26"},{"step":91,"from":"1093550768","to":"1085374624","type":"model"},{"step":92,"from":"1085374624","to":"1084661656","type":"model"},{"step":93,"from":"1094316440","to":"1094316440.<android.text.SpannableStringInternal: java.lang.String mText>","type":"load","field":"<android.text.SpannableStringInternal: java.lang.String mText>"},{"step":94,"from":"1094316440.<android.text.SpannableStringInternal: java.lang.String mText>","to":"sdaReg187","type":"model"},{"step":95,"from":"1094316440","to":"1094316440.<android.text.SpannableStringInternal: java.lang.String mText>","type":"load","field":"<android.text.SpannableStringInternal: java.lang.String mText>"},{"step":96,"from":"1094316440.<android.text.SpannableStringInternal: java.lang.String mText>","to":"sdaReg191","type":"model"},{"step":97,"from":"1094316440","to":"1094316440.<android.text.SpannableStringInternal: java.lang.String mText>","type":"load","field":"<android.text.SpannableStringInternal: java.lang.String mText>"},{"step":98,"from":"1094316440.<android.text.SpannableStringInternal: java.lang.String mText>","to":"sdaReg193","type":"model"},{"step":99,"from":"sdaReg193","to":"1094156456","type":"model"},{"step":100,"from":"1094316440","to":"1094316440.<android.text.SpannableStringInternal: java.lang.String mText>","type":"load","field":"<android.text.SpannableStringInternal: java.lang.String mText>"},{"step":101,"from":"1094316440.<android.text.SpannableStringInternal: java.lang.String mText>","to":"sdaReg195","type":"model"},{"step":102,"from":"sdaReg195","to":"1094156456","type":"model"},{"step":103,"from":"1094316440","to":"1094316440.<android.text.SpannableStringInternal: java.lang.String mText>","type":"load","field":"<android.text.SpannableStringInternal: java.lang.String mText>"},{"step":104,"from":"1094316440.<android.text.SpannableStringInternal: java.lang.String mText>","to":"sdaReg197","type":"model"},{"step":105,"from":"sdaReg197","to":"1094156456","type":"model"},{"step":106,"from":"1094316440","to":"1094316440.<android.text.SpannableStringInternal: java.lang.String mText>","type":"load","field":"<android.text.SpannableStringInternal: java.lang.String mText>"},{"step":107,"from":"1094316440.<android.text.SpannableStringInternal: java.lang.String mText>","to":"sdaReg199","type":"model"},{"step":108,"from":"sdaReg199","to":"1094156456","type":"model"},{"step":109,"from":"1094316440","to":"1094316440.<android.text.SpannableStringInternal: java.lang.String mText>","type":"load","field":"<android.text.SpannableStringInternal: java.lang.String mText>"},{"step":110,"from":"1094316440.<android.text.SpannableStringInternal: java.lang.String mText>","to":"sdaReg201","type":"model"},{"step":111,"from":"sdaReg201","to":"1094156456","type":"model"},{"step":112,"from":"sdaReg204","to":"1094156456","type":"model"}],"parameters":[{"id":"1094156456","name":"arg#0","klass":"java.lang.StringBuilder"},{"id":"1094316440","name":"arg#1","klass":"android.text.Spanned"},{"id":"sdaReg0","name":"arg#2","klass":"int"},{"id":"sdaReg1","name":"arg#3","klass":"int"}],"returns":[{"id":null,"name":"return","klass":null}],"colors":{"heapLocToColor":{"sdaReg191":[34, 1],"sdaReg125":[1, 25],"sdaReg190":[1],"sdaReg126":[1],"sdaReg193":[1, 35],"1093550768":[8],"sdaReg127":[1, 26],"sdaReg192":[1],"sdaReg128":[1],"sdaReg129":[1, 27],"sdaReg199":[1, 38],"1093908552":[1],"sdaReg198":[1],"sdaReg69":[1],"sdaReg66":[2],"sdaReg195":[1, 36],"sdaReg64":[1],"sdaReg194":[1],"sdaReg65":[1, 16],"sdaReg197":[1, 37],"sdaReg62":[1],"sdaReg196":[1],"sdaReg63":[1, 15],"sdaReg72":[8, 9, 10],"sdaReg14":[1],"sdaReg71":[1],"sdaReg11":[1, 2, 3, 4],"sdaReg70":[8, 9, 10],"sdaReg12":[1],"sdaReg10":[1],"1094316440.<android.text.SpannableStringInternal: int mSpanCount>":[1],"sdaReg120":[1],"sdaReg122":[1],"sdaReg121":[1, 23],"sdaReg124":[1],"sdaReg123":[1, 24],"sdaReg116":[1],"sdaReg117":[1, 21],"sdaReg114":[1],"sdaReg115":[1, 2, 3, 4],"sdaReg118":[1],"sdaReg119":[1, 22],"sdaReg78":[17],"sdaReg79":[1],"sdaReg81":[1],"sdaReg80":[8, 9, 10],"sdaReg82":[8, 9, 10],"1093908552.arrayIdx_int:0":[1],"sdaReg113":[0],"1093914152.arrayIdx_int:0":[1],"1093914152.arrayIdx_int:1":[1],"sdaReg103":[20],"1094156456":[0],"sdaReg171":[32],"sdaReg170":[32],"sdaReg173":[32],"static.<com.android.internal.util.ArrayUtils: java.lang.Object[] sCache>":[8],"sdaReg172":[32],"sdaReg87":[18],"sdaReg175":[8, 9, 10],"sdaReg174":[8, 9],"sdaReg177":[8],"sdaReg176":[8],"sdaReg179":[8],"sdaReg178":[8],"1094316440":[1],"sdaReg94":[19],"sdaReg93":[19],"sdaReg92":[19],"sdaReg102":[1],"sdaReg181":[8],"sdaReg180":[8],"sdaReg186":[1],"1094316440.<android.text.SpannableStringInternal: java.lang.String mText>":[1],"sdaReg95":[19],"sdaReg185":[1, 2, 3, 4],"sdaReg96":[19],"sdaReg184":[1],"sdaReg97":[19],"sdaReg183":[0],"sdaReg189":[1, 2, 3, 4],"sdaReg188":[1, 2, 3, 4],"sdaReg187":[1, 33],"1094316440.<android.text.SpannableStringInternal: int[] mSpanData>":[1],"sdaReg60":[1],"sdaReg61":[1, 14],"1084375760.arrayIdx_int:26":[8],"sdaReg169":[8, 9, 10],"sdaReg164":[31],"sdaReg59":[1, 13],"sdaReg58":[1],"sdaReg57":[1, 12],"sdaReg56":[1],"1093816096":[19],"sdaReg55":[1, 11],"sdaReg54":[1],"sdaReg53":[2],"sdaReg52":[1],"sdaReg51":[0],"1093577648":[1],"sdaReg159":[8, 9, 10],"sdaReg158":[1],"1084661656":[8, 9, 10],"sdaReg150":[8, 9, 10],"sdaReg156":[1],"sdaReg157":[8, 9, 10],"sdaReg48":[19, 8],"sdaReg45":[8],"sdaReg44":[8],"sdaReg47":[8],"sdaReg46":[8],"sdaReg41":[8, 9, 10],"sdaReg40":[8, 9],"1094316440.<android.text.SpannableStringInternal: java.lang.Object[] mSpans>":[1],"1093914152":[1],"sdaReg200":[1],"sdaReg148":[8, 9, 10],"sdaReg201":[1, 39],"sdaReg147":[1],"1085374624":[8, 9],"sdaReg149":[1],"sdaReg144":[1],"sdaReg39":[7],"sdaReg145":[30],"sdaReg38":[7],"1084375760":[8],"sdaReg37":[7],"sdaReg30":[6],"sdaReg36":[7],"sdaReg9":[0],"sdaReg6":[1, 3, 4],"sdaReg5":[2],"1093577648.<android.text.style.TypefaceSpan: java.lang.String mFamily>":[1],"sdaReg132":[1],"sdaReg133":[1, 29],"sdaReg130":[1],"sdaReg131":[1, 28],"sdaReg3":[3, 4],"sdaReg2":[2, 3, 4],"sdaReg1":[3],"sdaReg21":[5],"sdaReg0":[2],"sdaReg22":[1],"sdaReg24":[1]},"colorToColor":{"35":[0],"1":[0, 19],"38":[0],"39":[0],"36":[0],"37":[0],"8":[32],"9":[32],"10":[32],"11":[0],"12":[0],"13":[0],"14":[0],"15":[0],"21":[0],"23":[0],"22":[0],"25":[0],"24":[0],"27":[0],"26":[0],"29":[0],"28":[0]},"colorToLabel":{"0":"arg#0","1":"arg#1","2":"arg#2","3":"arg#3","8":"<com.android.internal.util.ArrayUtils: java.lang.Object[] sCache>","40":"return"}}}

Generated Model
	arg#1->arg#0

