Scanning method <android.text.Html: void withinStyle(java.lang.StringBuilder,android.text.Spanned,int,int)>

All seen event types: BinaryOperationRecord, SimpleAssignmentRecord, MethodReturnRecord, MethodCallRecord, LoadInstanceRecord, MethodStartRecord, MethodEndRecord, IfRecord, 
Ignored event types: IfRecord, 

JSON Encoded Analysis Data (for visualization):{"heapEdges":[{"step":0,"from":"1094557032","to":"1094557032.<android.text.SpannableStringInternal: java.lang.String mText>","type":"load","field":"<android.text.SpannableStringInternal: java.lang.String mText>"},{"step":1,"from":"1094557032.<android.text.SpannableStringInternal: java.lang.String mText>","to":"sdaReg4","type":"model"},{"step":2,"from":"1094557032","to":"1094557032.<android.text.SpannableStringInternal: java.lang.String mText>","type":"load","field":"<android.text.SpannableStringInternal: java.lang.String mText>"},{"step":3,"from":"1094557032.<android.text.SpannableStringInternal: java.lang.String mText>","to":"sdaReg8","type":"model"},{"step":4,"from":"1094557032","to":"1094557032.<android.text.SpannableStringInternal: java.lang.String mText>","type":"load","field":"<android.text.SpannableStringInternal: java.lang.String mText>"},{"step":5,"from":"1094557032.<android.text.SpannableStringInternal: java.lang.String mText>","to":"sdaReg10","type":"model"},{"step":6,"from":"sdaReg10","to":"1093780576","type":"model"},{"step":7,"from":"1094557032","to":"1094557032.<android.text.SpannableStringInternal: java.lang.String mText>","type":"load","field":"<android.text.SpannableStringInternal: java.lang.String mText>"},{"step":8,"from":"1094557032.<android.text.SpannableStringInternal: java.lang.String mText>","to":"sdaReg12","type":"model"},{"step":9,"from":"sdaReg12","to":"1093780576","type":"model"},{"step":10,"from":"1094557032","to":"1094557032.<android.text.SpannableStringInternal: java.lang.String mText>","type":"load","field":"<android.text.SpannableStringInternal: java.lang.String mText>"},{"step":11,"from":"1094557032.<android.text.SpannableStringInternal: java.lang.String mText>","to":"sdaReg14","type":"model"},{"step":12,"from":"sdaReg14","to":"1093780576","type":"model"},{"step":13,"from":"1094557032","to":"1094557032.<android.text.SpannableStringInternal: java.lang.String mText>","type":"load","field":"<android.text.SpannableStringInternal: java.lang.String mText>"},{"step":14,"from":"1094557032.<android.text.SpannableStringInternal: java.lang.String mText>","to":"sdaReg16","type":"model"},{"step":15,"from":"sdaReg16","to":"1093780576","type":"model"},{"step":16,"from":"1094557032","to":"1094557032.<android.text.SpannableStringInternal: java.lang.String mText>","type":"load","field":"<android.text.SpannableStringInternal: java.lang.String mText>"},{"step":17,"from":"1094557032.<android.text.SpannableStringInternal: java.lang.String mText>","to":"sdaReg18","type":"model"},{"step":18,"from":"sdaReg18","to":"1093780576","type":"model"}],"parameters":[{"id":"1093780576","name":"arg#0","klass":"java.lang.StringBuilder"},{"id":"1094557032","name":"arg#1","klass":"android.text.Spanned"},{"id":"sdaReg0","name":"arg#2","klass":"int"},{"id":"sdaReg1","name":"arg#3","klass":"int"}],"returns":[{"id":null,"name":"return","klass":null}],"colors":{"heapLocToColor":{"sdaReg8":[1, 5],"sdaReg9":[1],"1094557032":[1],"sdaReg6":[2],"sdaReg7":[1],"sdaReg4":[1, 4],"sdaReg5":[2],"1093780576":[0],"sdaReg13":[1],"sdaReg14":[1, 8],"sdaReg11":[1],"sdaReg12":[1, 7],"sdaReg10":[1, 6],"1094557032.<android.text.SpannableStringInternal: java.lang.String mText>":[1],"sdaReg3":[1],"sdaReg2":[2],"sdaReg1":[3],"sdaReg0":[2],"sdaReg17":[1],"sdaReg18":[1, 10],"sdaReg15":[1],"sdaReg16":[1, 9]},"colorToColor":{"1":[0],"6":[0],"7":[0],"8":[0],"9":[0],"10":[0]},"colorToLabel":{"0":"arg#0","1":"arg#1","2":"arg#2","3":"arg#3","11":"return"}}}

Generated Model
	arg#1->arg#0

