Scanning method <android.text.Html: void withinStyle(java.lang.StringBuilder,android.text.Spanned,int,int)>

All seen event types: BinaryOperationRecord, SimpleAssignmentRecord, MethodReturnRecord, MethodCallRecord, LoadInstanceRecord, MethodStartRecord, MethodEndRecord, IfRecord, 
Ignored event types: IfRecord, 

JSON Encoded Analysis Data (for visualization):{"heapEdges":[{"step":0,"from":"1093778128","to":"1093778128.<android.text.SpannableStringInternal: java.lang.String mText>","type":"load","field":"<android.text.SpannableStringInternal: java.lang.String mText>"},{"step":1,"from":"1093778128.<android.text.SpannableStringInternal: java.lang.String mText>","to":"sdaReg4","type":"model"},{"step":2,"from":"sdaReg4","to":"1093847240","type":"model"},{"step":3,"from":"1093778128","to":"1093778128.<android.text.SpannableStringInternal: java.lang.String mText>","type":"load","field":"<android.text.SpannableStringInternal: java.lang.String mText>"},{"step":4,"from":"1093778128.<android.text.SpannableStringInternal: java.lang.String mText>","to":"sdaReg6","type":"model"},{"step":5,"from":"sdaReg6","to":"1093847240","type":"model"},{"step":6,"from":"1093778128","to":"1093778128.<android.text.SpannableStringInternal: java.lang.String mText>","type":"load","field":"<android.text.SpannableStringInternal: java.lang.String mText>"},{"step":7,"from":"1093778128.<android.text.SpannableStringInternal: java.lang.String mText>","to":"sdaReg8","type":"model"},{"step":8,"from":"sdaReg8","to":"1093847240","type":"model"},{"step":9,"from":"1093778128","to":"1093778128.<android.text.SpannableStringInternal: java.lang.String mText>","type":"load","field":"<android.text.SpannableStringInternal: java.lang.String mText>"},{"step":10,"from":"1093778128.<android.text.SpannableStringInternal: java.lang.String mText>","to":"sdaReg10","type":"model"},{"step":11,"from":"sdaReg10","to":"1093847240","type":"model"}],"parameters":[{"id":"1093847240","name":"arg#0","klass":"java.lang.StringBuilder"},{"id":"1093778128","name":"arg#1","klass":"android.text.Spanned"},{"id":"sdaReg0","name":"arg#2","klass":"int"},{"id":"sdaReg1","name":"arg#3","klass":"int"}],"returns":[{"id":null,"name":"return","klass":null}],"colors":{"heapLocToColor":{"sdaReg8":[1, 6],"sdaReg9":[1],"sdaReg6":[1, 5],"sdaReg7":[1],"sdaReg4":[1, 4],"sdaReg5":[1],"1093778128.<android.text.SpannableStringInternal: java.lang.String mText>":[1],"1093778128":[1],"sdaReg10":[1, 7],"1093847240":[0],"sdaReg3":[1],"sdaReg2":[2],"sdaReg1":[3],"sdaReg0":[2]},"colorToColor":{"1":[0],"4":[0],"5":[0],"6":[0],"7":[0]},"colorToLabel":{"0":"arg#0","1":"arg#1","2":"arg#2","3":"arg#3","8":"return"}}}

Generated Model
	arg#1->arg#0

