Scanning method <android.text.Html: void withinStyle(java.lang.StringBuilder,android.text.Spanned,int,int)>

All seen event types: BinaryOperationRecord, SimpleAssignmentRecord, MethodReturnRecord, MethodCallRecord, LoadInstanceRecord, MethodStartRecord, MethodEndRecord, IfRecord, 
Ignored event types: IfRecord, 

JSON Encoded Analysis Data (for visualization):{"heapEdges":[{"step":0,"from":"1093964760","to":"1093964760.<android.text.SpannableStringInternal: java.lang.String mText>","type":"load","field":"<android.text.SpannableStringInternal: java.lang.String mText>"},{"step":1,"from":"1093964760.<android.text.SpannableStringInternal: java.lang.String mText>","to":"sdaReg4","type":"model"},{"step":2,"from":"sdaReg4","to":"1093783016","type":"model"},{"step":3,"from":"1093964760","to":"1093964760.<android.text.SpannableStringInternal: java.lang.String mText>","type":"load","field":"<android.text.SpannableStringInternal: java.lang.String mText>"},{"step":4,"from":"1093964760.<android.text.SpannableStringInternal: java.lang.String mText>","to":"sdaReg6","type":"model"},{"step":5,"from":"sdaReg6","to":"1093783016","type":"model"},{"step":6,"from":"1093964760","to":"1093964760.<android.text.SpannableStringInternal: java.lang.String mText>","type":"load","field":"<android.text.SpannableStringInternal: java.lang.String mText>"},{"step":7,"from":"1093964760.<android.text.SpannableStringInternal: java.lang.String mText>","to":"sdaReg8","type":"model"},{"step":8,"from":"sdaReg8","to":"1093783016","type":"model"},{"step":9,"from":"1093964760","to":"1093964760.<android.text.SpannableStringInternal: java.lang.String mText>","type":"load","field":"<android.text.SpannableStringInternal: java.lang.String mText>"},{"step":10,"from":"1093964760.<android.text.SpannableStringInternal: java.lang.String mText>","to":"sdaReg10","type":"model"},{"step":11,"from":"sdaReg10","to":"1093783016","type":"model"},{"step":12,"from":"1093964760","to":"1093964760.<android.text.SpannableStringInternal: java.lang.String mText>","type":"load","field":"<android.text.SpannableStringInternal: java.lang.String mText>"},{"step":13,"from":"1093964760.<android.text.SpannableStringInternal: java.lang.String mText>","to":"sdaReg12","type":"model"},{"step":14,"from":"sdaReg12","to":"1093783016","type":"model"},{"step":15,"from":"1093964760","to":"1093964760.<android.text.SpannableStringInternal: java.lang.String mText>","type":"load","field":"<android.text.SpannableStringInternal: java.lang.String mText>"},{"step":16,"from":"1093964760.<android.text.SpannableStringInternal: java.lang.String mText>","to":"sdaReg14","type":"model"},{"step":17,"from":"1093964760","to":"1093964760.<android.text.SpannableStringInternal: java.lang.String mText>","type":"load","field":"<android.text.SpannableStringInternal: java.lang.String mText>"},{"step":18,"from":"1093964760.<android.text.SpannableStringInternal: java.lang.String mText>","to":"sdaReg18","type":"model"},{"step":19,"from":"1093964760","to":"1093964760.<android.text.SpannableStringInternal: java.lang.String mText>","type":"load","field":"<android.text.SpannableStringInternal: java.lang.String mText>"},{"step":20,"from":"1093964760.<android.text.SpannableStringInternal: java.lang.String mText>","to":"sdaReg20","type":"model"},{"step":21,"from":"1093964760","to":"1093964760.<android.text.SpannableStringInternal: java.lang.String mText>","type":"load","field":"<android.text.SpannableStringInternal: java.lang.String mText>"},{"step":22,"from":"1093964760.<android.text.SpannableStringInternal: java.lang.String mText>","to":"sdaReg22","type":"model"},{"step":23,"from":"1093964760","to":"1093964760.<android.text.SpannableStringInternal: java.lang.String mText>","type":"load","field":"<android.text.SpannableStringInternal: java.lang.String mText>"},{"step":24,"from":"1093964760.<android.text.SpannableStringInternal: java.lang.String mText>","to":"sdaReg24","type":"model"},{"step":25,"from":"1093964760","to":"1093964760.<android.text.SpannableStringInternal: java.lang.String mText>","type":"load","field":"<android.text.SpannableStringInternal: java.lang.String mText>"},{"step":26,"from":"1093964760.<android.text.SpannableStringInternal: java.lang.String mText>","to":"sdaReg26","type":"model"},{"step":27,"from":"1093964760","to":"1093964760.<android.text.SpannableStringInternal: java.lang.String mText>","type":"load","field":"<android.text.SpannableStringInternal: java.lang.String mText>"},{"step":28,"from":"1093964760.<android.text.SpannableStringInternal: java.lang.String mText>","to":"sdaReg28","type":"model"},{"step":29,"from":"1093964760","to":"1093964760.<android.text.SpannableStringInternal: java.lang.String mText>","type":"load","field":"<android.text.SpannableStringInternal: java.lang.String mText>"},{"step":30,"from":"1093964760.<android.text.SpannableStringInternal: java.lang.String mText>","to":"sdaReg30","type":"model"},{"step":31,"from":"sdaReg30","to":"1093783016","type":"model"},{"step":32,"from":"1093964760","to":"1093964760.<android.text.SpannableStringInternal: java.lang.String mText>","type":"load","field":"<android.text.SpannableStringInternal: java.lang.String mText>"},{"step":33,"from":"1093964760.<android.text.SpannableStringInternal: java.lang.String mText>","to":"sdaReg32","type":"model"},{"step":34,"from":"sdaReg32","to":"1093783016","type":"model"},{"step":35,"from":"1093964760","to":"1093964760.<android.text.SpannableStringInternal: java.lang.String mText>","type":"load","field":"<android.text.SpannableStringInternal: java.lang.String mText>"},{"step":36,"from":"1093964760.<android.text.SpannableStringInternal: java.lang.String mText>","to":"sdaReg34","type":"model"},{"step":37,"from":"sdaReg34","to":"1093783016","type":"model"},{"step":38,"from":"1093964760","to":"1093964760.<android.text.SpannableStringInternal: java.lang.String mText>","type":"load","field":"<android.text.SpannableStringInternal: java.lang.String mText>"},{"step":39,"from":"1093964760.<android.text.SpannableStringInternal: java.lang.String mText>","to":"sdaReg36","type":"model"},{"step":40,"from":"sdaReg36","to":"1093783016","type":"model"},{"step":41,"from":"1093964760","to":"1093964760.<android.text.SpannableStringInternal: java.lang.String mText>","type":"load","field":"<android.text.SpannableStringInternal: java.lang.String mText>"},{"step":42,"from":"1093964760.<android.text.SpannableStringInternal: java.lang.String mText>","to":"sdaReg38","type":"model"},{"step":43,"from":"sdaReg38","to":"1093783016","type":"model"}],"parameters":[{"id":"1093783016","name":"arg#0","klass":"java.lang.StringBuilder"},{"id":"1093964760","name":"arg#1","klass":"android.text.Spanned"},{"id":"sdaReg0","name":"arg#2","klass":"int"},{"id":"sdaReg1","name":"arg#3","klass":"int"}],"returns":[{"id":null,"name":"return","klass":null}],"colors":{"heapLocToColor":{"sdaReg13":[1],"sdaReg14":[1, 9],"sdaReg38":[1, 20],"sdaReg11":[1],"sdaReg37":[1],"sdaReg12":[1, 8],"sdaReg10":[1, 7],"sdaReg32":[17, 1],"sdaReg31":[1],"sdaReg30":[1, 16],"sdaReg19":[1],"sdaReg36":[1, 19],"sdaReg17":[1],"sdaReg35":[1],"sdaReg18":[1, 10],"sdaReg34":[1, 18],"sdaReg15":[2],"sdaReg33":[1],"sdaReg16":[2],"1093783016":[0],"sdaReg8":[1, 6],"sdaReg9":[1],"sdaReg6":[1, 5],"sdaReg7":[1],"sdaReg4":[1, 4],"sdaReg5":[1],"1093964760.<android.text.SpannableStringInternal: java.lang.String mText>":[1],"sdaReg27":[1],"sdaReg26":[1, 14],"sdaReg29":[1],"sdaReg28":[1, 15],"1093964760":[1],"sdaReg3":[1],"sdaReg2":[2],"sdaReg1":[3],"sdaReg21":[1],"sdaReg0":[2],"sdaReg20":[1, 11],"sdaReg23":[1],"sdaReg22":[1, 12],"sdaReg25":[1],"sdaReg24":[1, 13]},"colorToColor":{"17":[0],"16":[0],"1":[0],"19":[0],"18":[0],"4":[0],"20":[0],"5":[0],"6":[0],"7":[0],"8":[0]},"colorToLabel":{"0":"arg#0","1":"arg#1","2":"arg#2","3":"arg#3","21":"return"}}}

Generated Model
	arg#1->arg#0

