Scanning method <java.util.Vector$1: java.lang.Object nextElement()>

All seen event types: BinaryOperationRecord, SimpleAssignmentRecord, ExitMonitorRecord, EnterMonitorRecord, LoadInstanceRecord, LoadArrayRecord, IfRecord, StoreInstanceRecord, 
Ignored event types: ExitMonitorRecord, EnterMonitorRecord, IfRecord, 

JSON Encoded Analysis Data (for visualization):{"heapEdges":[{"step":0,"from":"1093677672","to":"1093627448","type":"load","field":"<java.util.Vector$1: java.util.Vector this$0>"},{"step":1,"from":"1093677672","to":"1093677672.<java.util.Vector$1: int pos>","type":"load","field":"<java.util.Vector$1: int pos>"},{"step":2,"from":"1093677672","to":"1093627448","type":"load","field":"<java.util.Vector$1: java.util.Vector this$0>"},{"step":3,"from":"1093627448","to":"1093627448.<java.util.Vector: int elementCount>","type":"load","field":"<java.util.Vector: int elementCount>"},{"step":4,"from":"1093677672","to":"1093627448","type":"load","field":"<java.util.Vector$1: java.util.Vector this$0>"},{"step":5,"from":"1093627448","to":"1093627480","type":"load","field":"<java.util.Vector: java.lang.Object[] elementData>"},{"step":6,"from":"1093677672","to":"1093677672.<java.util.Vector$1: int pos>","type":"load","field":"<java.util.Vector$1: int pos>"},{"step":7,"from":"sdaReg1","to":"1093677672","type":"store","field":"<java.util.Vector$1: int pos>"},{"step":8,"from":"1093627480","to":"1093642840","type":"load","field":"arrayIdx_int:0"}],"parameters":[{"id":"1093677672","name":"this","klass":"java.util.Vector$1"}],"returns":[{"id":"1093642840","name":"return","klass":"java.lang.Object"}],"colors":{"heapLocToColor":{"1093627448.<java.util.Vector: int elementCount>":[0],"1093677672.<java.util.Vector$1: int pos>":[0],"1093677672":[0],"1093642840":[0],"1093677672.<java.util.Vector$1: java.util.Vector this$0>":[0],"sdaReg1":[0],"1093627448":[0],"1093627480":[0]},"colorToColor":{"0":[0, 1]},"colorToLabel":{"0":"this","1":"return"}}}

Generated Model
	this->return

