Scanning method <java.net.InetAddress: byte[] getAddress()>

All seen event types: MethodReturnRecord, MethodCallRecord, CastRecord, LoadInstanceRecord, 
Ignored event types: 

JSON Encoded Analysis Data (for visualization):{"heapEdges":[{"step":0,"from":"1093502704","to":"1093478960","type":"load","field":"<java.net.InetAddress: byte[] ipaddress>"},{"step":1,"from":"1093478960","to":"1093297424","type":"model"}],"parameters":[{"id":"1093502704","name":"this","klass":"java.net.InetAddress"}],"returns":[{"id":"1093297424","name":"return","klass":"byte[]"}],"colors":{"heapLocToColor":{"1093502704":[0],"1093297424":[0, 1],"sdaReg1":[0, 1],"sdaReg0":[0, 1],"1093478960":[0]},"colorToColor":{"0":[2],"1":[2]},"colorToLabel":{"0":"this","2":"return"}}}

Generated Model
	this->return

