Scanning method <java.net.InetAddress: java.net.InetAddress parseNumericAddressNoThrow(java.lang.String)>

All seen event types: LoadStaticRecord, CaughtExceptionRecord, SimpleAssignmentRecord, MethodReturnRecord, MethodCallRecord, IfRecord, StoreInstanceRecord, NewObjectRecord, 
Ignored event types: IfRecord, 

JSON Encoded Analysis Data (for visualization):{"heapEdges":[{"step":0,"from":"static.<libcore.io.OsConstants: int AI_NUMERICHOST>","to":"static.<libcore.io.OsConstants: int AI_NUMERICHOST>","type":"load","field":"<libcore.io.OsConstants: int AI_NUMERICHOST>"},{"step":1,"from":"static.<libcore.io.OsConstants: int AI_NUMERICHOST>","to":"1093310072","type":"store","field":"<libcore.io.StructAddrinfo: int ai_flags>"},{"step":2,"from":"static.<libcore.io.Libcore: libcore.io.Os os>","to":"1083982784","type":"load","field":"<libcore.io.Libcore: libcore.io.Os os>"}],"parameters":[{"id":"sdaReg0","name":"arg#0","klass":"string"}],"returns":[{"id":"0","name":"return","klass":"java.net.InetAddress"}],"colors":{"heapLocToColor":{"sdaReg3":[2],"sdaReg2":[2],"1083982784":[4],"static.<libcore.io.OsConstants: int AI_NUMERICHOST>":[3],"sdaReg1":[1],"sdaReg0":[0],"static.<libcore.io.Libcore: libcore.io.Os os>":[4],"1093310072":[2]},"colorToColor":{"3":[2]},"colorToLabel":{"0":"arg#0","3":"<libcore.io.OsConstants: int AI_NUMERICHOST>","4":"<libcore.io.Libcore: libcore.io.Os os>","5":"return"}}}

Generated Model

