Scanning method <java.util.LinkedList: void add(int,java.lang.Object)>

All seen event types: BinaryOperationRecord, SimpleAssignmentRecord, MethodReturnRecord, MethodCallRecord, MethodStartRecord, LoadInstanceRecord, MethodEndRecord, IfRecord, StoreInstanceRecord, NewObjectRecord, 
Ignored event types: IfRecord, 

JSON Encoded Analysis Data (for visualization):{"heapEdges":[{"step":0,"from":"1093410032","to":"1093410032.<java.util.LinkedList: int size>","type":"load","field":"<java.util.LinkedList: int size>"},{"step":1,"from":"1093410032","to":"1093408040","type":"load","field":"<java.util.LinkedList: java.util.LinkedList$Link voidLink>"},{"step":2,"from":"1093410032","to":"1093410032.<java.util.LinkedList: int size>","type":"load","field":"<java.util.LinkedList: int size>"},{"step":3,"from":"1093410032","to":"1093410032.<java.util.LinkedList: int size>","type":"load","field":"<java.util.LinkedList: int size>"},{"step":4,"from":"1093408040","to":"1093260128","type":"load","field":"<java.util.LinkedList$Link: java.util.LinkedList$Link previous>"},{"step":5,"from":"1093260128","to":"1093260104","type":"load","field":"<java.util.LinkedList$Link: java.util.LinkedList$Link previous>"},{"step":6,"from":"1093260104","to":"1093260080","type":"load","field":"<java.util.LinkedList$Link: java.util.LinkedList$Link previous>"},{"step":7,"from":"1093260080","to":"1093260056","type":"load","field":"<java.util.LinkedList$Link: java.util.LinkedList$Link previous>"},{"step":8,"from":"1093260056","to":"1093260032","type":"load","field":"<java.util.LinkedList$Link: java.util.LinkedList$Link previous>"},{"step":9,"from":"1093260032","to":"1093260008","type":"load","field":"<java.util.LinkedList$Link: java.util.LinkedList$Link previous>"},{"step":10,"from":"1093260008","to":"1093258056","type":"load","field":"<java.util.LinkedList$Link: java.util.LinkedList$Link previous>"},{"step":11,"from":"1093258056","to":"1093258032","type":"load","field":"<java.util.LinkedList$Link: java.util.LinkedList$Link previous>"},{"step":12,"from":"1093258032","to":"1093258008","type":"load","field":"<java.util.LinkedList$Link: java.util.LinkedList$Link previous>"},{"step":13,"from":"1093258008","to":"1093257984","type":"load","field":"<java.util.LinkedList$Link: java.util.LinkedList$Link previous>"},{"step":14,"from":"1093257984","to":"1093257960","type":"load","field":"<java.util.LinkedList$Link: java.util.LinkedList$Link previous>"},{"step":15,"from":"1093257960","to":"1093257936","type":"load","field":"<java.util.LinkedList$Link: java.util.LinkedList$Link previous>"},{"step":16,"from":"1093257936","to":"1093257912","type":"load","field":"<java.util.LinkedList$Link: java.util.LinkedList$Link previous>"},{"step":17,"from":"1093257912","to":"1093257888","type":"load","field":"<java.util.LinkedList$Link: java.util.LinkedList$Link previous>"},{"step":18,"from":"1093257888","to":"1093257864","type":"load","field":"<java.util.LinkedList$Link: java.util.LinkedList$Link previous>"},{"step":19,"from":"1093257864","to":"1093257840","type":"load","field":"<java.util.LinkedList$Link: java.util.LinkedList$Link previous>"},{"step":20,"from":"1093257840","to":"1093257816","type":"load","field":"<java.util.LinkedList$Link: java.util.LinkedList$Link previous>"},{"step":21,"from":"1093257816","to":"1093257792","type":"load","field":"<java.util.LinkedList$Link: java.util.LinkedList$Link previous>"},{"step":22,"from":"1093257792","to":"1093257768","type":"load","field":"<java.util.LinkedList$Link: java.util.LinkedList$Link previous>"},{"step":23,"from":"1093257768","to":"1093257744","type":"load","field":"<java.util.LinkedList$Link: java.util.LinkedList$Link previous>"},{"step":24,"from":"1093257744","to":"1093257720","type":"load","field":"<java.util.LinkedList$Link: java.util.LinkedList$Link previous>"},{"step":25,"from":"1093257720","to":"1093257696","type":"load","field":"<java.util.LinkedList$Link: java.util.LinkedList$Link previous>"},{"step":26,"from":"1093257696","to":"1093257672","type":"load","field":"<java.util.LinkedList$Link: java.util.LinkedList$Link previous>"},{"step":27,"from":"1093257672","to":"1093257648","type":"load","field":"<java.util.LinkedList$Link: java.util.LinkedList$Link previous>"},{"step":28,"from":"1093257648","to":"1093257624","type":"load","field":"<java.util.LinkedList$Link: java.util.LinkedList$Link previous>"},{"step":29,"from":"1093257624","to":"1093257600","type":"load","field":"<java.util.LinkedList$Link: java.util.LinkedList$Link previous>"},{"step":30,"from":"1093257600","to":"1093257576","type":"load","field":"<java.util.LinkedList$Link: java.util.LinkedList$Link previous>"},{"step":31,"from":"1093257576","to":"1093257552","type":"load","field":"<java.util.LinkedList$Link: java.util.LinkedList$Link previous>"},{"step":32,"from":"1093257552","to":"1093257528","type":"load","field":"<java.util.LinkedList$Link: java.util.LinkedList$Link previous>"},{"step":33,"from":"1093257528","to":"1093257504","type":"load","field":"<java.util.LinkedList$Link: java.util.LinkedList$Link previous>"},{"step":34,"from":"1093257504","to":"1093257480","type":"load","field":"<java.util.LinkedList$Link: java.util.LinkedList$Link previous>"},{"step":35,"from":"1093257480","to":"1093257456","type":"load","field":"<java.util.LinkedList$Link: java.util.LinkedList$Link previous>"},{"step":36,"from":"1093257456","to":"1093257432","type":"load","field":"<java.util.LinkedList$Link: java.util.LinkedList$Link previous>"},{"step":37,"from":"1093257432","to":"1093257408","type":"load","field":"<java.util.LinkedList$Link: java.util.LinkedList$Link previous>"},{"step":38,"from":"1093257408","to":"1093257384","type":"load","field":"<java.util.LinkedList$Link: java.util.LinkedList$Link previous>"},{"step":39,"from":"1093257384","to":"1093257360","type":"load","field":"<java.util.LinkedList$Link: java.util.LinkedList$Link previous>"},{"step":40,"from":"1093257360","to":"1093257336","type":"load","field":"<java.util.LinkedList$Link: java.util.LinkedList$Link previous>"},{"step":41,"from":"1093257336","to":"1093257312","type":"load","field":"<java.util.LinkedList$Link: java.util.LinkedList$Link previous>"},{"step":42,"from":"1093257312","to":"1093257288","type":"load","field":"<java.util.LinkedList$Link: java.util.LinkedList$Link previous>"},{"step":43,"from":"1093257288","to":"1093257264","type":"load","field":"<java.util.LinkedList$Link: java.util.LinkedList$Link previous>"},{"step":44,"from":"1093257264","to":"1093257240","type":"load","field":"<java.util.LinkedList$Link: java.util.LinkedList$Link previous>"},{"step":45,"from":"1093257240","to":"1093257216","type":"load","field":"<java.util.LinkedList$Link: java.util.LinkedList$Link previous>"},{"step":46,"from":"1093257216","to":"1093257192","type":"load","field":"<java.util.LinkedList$Link: java.util.LinkedList$Link previous>"},{"step":47,"from":"1093257192","to":"1093257168","type":"load","field":"<java.util.LinkedList$Link: java.util.LinkedList$Link previous>"},{"step":48,"from":"1093257168","to":"1093257144","type":"load","field":"<java.util.LinkedList$Link: java.util.LinkedList$Link previous>"},{"step":49,"from":"1093257144","to":"1093257120","type":"load","field":"<java.util.LinkedList$Link: java.util.LinkedList$Link previous>"},{"step":50,"from":"1093257120","to":"1093257096","type":"load","field":"<java.util.LinkedList$Link: java.util.LinkedList$Link previous>"},{"step":51,"from":"1093257096","to":"1093282512","type":"load","field":"<java.util.LinkedList$Link: java.util.LinkedList$Link previous>"},{"step":52,"from":"1093282512","to":"1093513616","type":"load","field":"<java.util.LinkedList$Link: java.util.LinkedList$Link previous>"},{"step":53,"from":"1093513616","to":"1093445104","type":"load","field":"<java.util.LinkedList$Link: java.util.LinkedList$Link previous>"},{"step":54,"from":"1093445104","to":"1093438048","type":"load","field":"<java.util.LinkedList$Link: java.util.LinkedList$Link previous>"},{"step":55,"from":"1093438048","to":"1094370600","type":"store","field":"<java.util.LinkedList$Link: java.util.LinkedList$Link previous>"},{"step":56,"from":"1093445104","to":"1094370600","type":"store","field":"<java.util.LinkedList$Link: java.util.LinkedList$Link next>"},{"step":57,"from":"1093438048","to":"1094370600","type":"create","field":"<java.util.LinkedList$Link: java.util.LinkedList$Link next>"},{"step":58,"from":"1094370600","to":"1093445104","type":"store","field":"<java.util.LinkedList$Link: java.util.LinkedList$Link previous>"},{"step":59,"from":"1093410032","to":"1093410032.<java.util.LinkedList: int size>","type":"load","field":"<java.util.LinkedList: int size>"},{"step":60,"from":"sdaReg9","to":"1093410032","type":"store","field":"<java.util.LinkedList: int size>"},{"step":61,"from":"1093410032","to":"1093410032.<java.util.AbstractList: int modCount>","type":"load","field":"<java.util.AbstractList: int modCount>"},{"step":62,"from":"sdaReg10","to":"1093410032","type":"store","field":"<java.util.AbstractList: int modCount>"}],"parameters":[{"id":"1093410032","name":"this","klass":"java.util.LinkedList"},{"id":"sdaReg0","name":"arg#1","klass":"int"},{"id":"0","name":"arg#2","klass":"java.lang.Object"}],"returns":[{"id":null,"name":"return","klass":null}],"colors":{"heapLocToColor":{"1093257144":[0],"1093260032":[0],"1093257504":[0],"1093257672":[0],"1093438048":[0],"1093260128":[0],"1093410032.<java.util.LinkedList: int size>":[0],"sdaReg10":[0],"1093257960":[0],"1093260080":[0],"1093257480":[0],"1093257312":[0],"1093257216":[0],"1093257864":[0],"1093445104":[0],"1093257408":[0],"1093257768":[0],"1093257720":[0],"1093257384":[0],"1093257192":[0],"0":[2],"1093257552":[0],"1093257288":[0],"1093282512":[0],"1093257096":[0],"1093257624":[0],"1093257240":[0],"1093257912":[0],"1093258056":[0],"1093257816":[0],"1093257456":[0],"1093257168":[0],"1093258008":[0],"1093257792":[0],"1093257120":[0],"1093260104":[0],"1093260056":[0],"1093257696":[0],"1093260008":[0],"1093410032.<java.util.AbstractList: int modCount>":[0],"1094370600":[3],"sdaReg8":[3],"sdaReg9":[0],"sdaReg6":[3],"1093257528":[0],"sdaReg7":[3],"1093257984":[0],"1093258032":[0],"sdaReg4":[0],"sdaReg5":[0],"1093257648":[0],"1093257336":[0],"1093257840":[0],"1093513616":[0],"1093257432":[0],"1093257744":[0],"1093257360":[0],"1093257888":[0],"1093257576":[0],"1093257936":[0],"sdaReg3":[2],"1093257600":[0],"1093257264":[0],"sdaReg2":[3],"sdaReg1":[0],"1093410032":[0],"sdaReg0":[1],"1093408040":[0]},"colorToColor":{"0":[0, 3],"3":[0]},"colorToLabel":{"0":"this","1":"arg#1","2":"arg#2","4":"return"}}}

Generated Model

