Scanning method <java.util.LinkedList: void add(int,java.lang.Object)>

All seen event types: BinaryOperationRecord, SimpleAssignmentRecord, MethodReturnRecord, MethodCallRecord, MethodStartRecord, LoadInstanceRecord, MethodEndRecord, IfRecord, StoreInstanceRecord, NewObjectRecord, 
Ignored event types: IfRecord, 

JSON Encoded Analysis Data (for visualization):{"heapEdges":[{"step":0,"from":"1093372112","to":"1093372112.<java.util.LinkedList: int size>","type":"load","field":"<java.util.LinkedList: int size>"},{"step":1,"from":"1093372112","to":"1093374056","type":"load","field":"<java.util.LinkedList: java.util.LinkedList$Link voidLink>"},{"step":2,"from":"1093372112","to":"1093372112.<java.util.LinkedList: int size>","type":"load","field":"<java.util.LinkedList: int size>"},{"step":3,"from":"1093374056","to":"1093372760","type":"load","field":"<java.util.LinkedList$Link: java.util.LinkedList$Link next>"},{"step":4,"from":"1093372760","to":"1093376760","type":"load","field":"<java.util.LinkedList$Link: java.util.LinkedList$Link next>"},{"step":5,"from":"1093376760","to":"1093377072","type":"load","field":"<java.util.LinkedList$Link: java.util.LinkedList$Link next>"},{"step":6,"from":"1093377072","to":"1093377400","type":"load","field":"<java.util.LinkedList$Link: java.util.LinkedList$Link next>"},{"step":7,"from":"1093377400","to":"1093378384","type":"load","field":"<java.util.LinkedList$Link: java.util.LinkedList$Link next>"},{"step":8,"from":"1093378384","to":"1093379384","type":"load","field":"<java.util.LinkedList$Link: java.util.LinkedList$Link next>"},{"step":9,"from":"1093379384","to":"1093379056","type":"load","field":"<java.util.LinkedList$Link: java.util.LinkedList$Link next>"},{"step":10,"from":"1093379056","to":"1093380368","type":"load","field":"<java.util.LinkedList$Link: java.util.LinkedList$Link next>"},{"step":11,"from":"1093380368","to":"1093380696","type":"load","field":"<java.util.LinkedList$Link: java.util.LinkedList$Link next>"},{"step":12,"from":"1093380696","to":"1093383544","type":"load","field":"<java.util.LinkedList$Link: java.util.LinkedList$Link next>"},{"step":13,"from":"1093383544","to":"1093391656","type":"load","field":"<java.util.LinkedList$Link: java.util.LinkedList$Link next>"},{"step":14,"from":"1093391656","to":"1093392624","type":"load","field":"<java.util.LinkedList$Link: java.util.LinkedList$Link next>"},{"step":15,"from":"1093392624","to":"1093398544","type":"load","field":"<java.util.LinkedList$Link: java.util.LinkedList$Link next>"},{"step":16,"from":"1093398544","to":"1093407768","type":"load","field":"<java.util.LinkedList$Link: java.util.LinkedList$Link next>"},{"step":17,"from":"1093407768","to":"1093408424","type":"load","field":"<java.util.LinkedList$Link: java.util.LinkedList$Link next>"},{"step":18,"from":"1093408424","to":"1093408096","type":"load","field":"<java.util.LinkedList$Link: java.util.LinkedList$Link next>"},{"step":19,"from":"1093408096","to":"1093421720","type":"load","field":"<java.util.LinkedList$Link: java.util.LinkedList$Link next>"},{"step":20,"from":"1093421720","to":"1093422032","type":"load","field":"<java.util.LinkedList$Link: java.util.LinkedList$Link next>"},{"step":21,"from":"1093422032","to":"1093426256","type":"load","field":"<java.util.LinkedList$Link: java.util.LinkedList$Link next>"},{"step":22,"from":"1093426256","to":"1093427496","type":"load","field":"<java.util.LinkedList$Link: java.util.LinkedList$Link next>"},{"step":23,"from":"1093427496","to":"1093428736","type":"load","field":"<java.util.LinkedList$Link: java.util.LinkedList$Link next>"},{"step":24,"from":"1093428736","to":"1093427496","type":"load","field":"<java.util.LinkedList$Link: java.util.LinkedList$Link previous>"},{"step":25,"from":"1093427496","to":"1093787136","type":"store","field":"<java.util.LinkedList$Link: java.util.LinkedList$Link previous>"},{"step":26,"from":"1093428736","to":"1093787136","type":"store","field":"<java.util.LinkedList$Link: java.util.LinkedList$Link next>"},{"step":27,"from":"1093427496","to":"1093787136","type":"create","field":"<java.util.LinkedList$Link: java.util.LinkedList$Link next>"},{"step":28,"from":"1093787136","to":"1093428736","type":"store","field":"<java.util.LinkedList$Link: java.util.LinkedList$Link previous>"},{"step":29,"from":"1093372112","to":"1093372112.<java.util.LinkedList: int size>","type":"load","field":"<java.util.LinkedList: int size>"},{"step":30,"from":"sdaReg10","to":"1093372112","type":"store","field":"<java.util.LinkedList: int size>"},{"step":31,"from":"1093372112","to":"1093372112.<java.util.AbstractList: int modCount>","type":"load","field":"<java.util.AbstractList: int modCount>"},{"step":32,"from":"sdaReg11","to":"1093372112","type":"store","field":"<java.util.AbstractList: int modCount>"}],"parameters":[{"id":"1093372112","name":"this","klass":"java.util.LinkedList"},{"id":"sdaReg0","name":"arg#1","klass":"int"},{"id":"0","name":"arg#2","klass":"java.lang.Object"}],"returns":[{"id":null,"name":"return","klass":null}],"colors":{"heapLocToColor":{"1093408096":[0],"1093379056":[0],"1093372112":[0],"1093379384":[0],"1093428736.<java.util.LinkedList$Link: java.util.LinkedList$Link previous>":[0],"1093372112.<java.util.LinkedList: int size>":[0],"1093372760":[0],"sdaReg11":[0],"1093407768":[0],"1093372112.<java.util.AbstractList: int modCount>":[0],"sdaReg10":[0],"1093428736":[0],"1093378384":[0],"1093377072":[0],"1093421720":[0],"1093427496":[0],"1093392624":[0],"1093376760":[0],"1093380696":[0],"sdaReg8":[3],"sdaReg9":[3],"1093374056":[0],"sdaReg6":[0],"1093380368":[0],"sdaReg7":[3],"sdaReg4":[2],"sdaReg5":[0],"1093426256":[0],"1093398544":[0],"1093383544":[0],"0":[2],"sdaReg3":[3],"1093787136":[3],"sdaReg1":[0],"1093391656":[0],"sdaReg0":[1],"1093422032":[0],"1093377400":[0],"1093408424":[0]},"colorToColor":{"0":[0, 3],"3":[0]},"colorToLabel":{"0":"this","1":"arg#1","2":"arg#2","4":"return"}}}

Generated Model

