Scanning method <java.util.LinkedList: void add(int,java.lang.Object)>

All seen event types: BinaryOperationRecord, SimpleAssignmentRecord, MethodReturnRecord, MethodCallRecord, MethodStartRecord, LoadInstanceRecord, MethodEndRecord, IfRecord, StoreInstanceRecord, NewObjectRecord, 
Ignored event types: IfRecord, 

JSON Encoded Analysis Data (for visualization):{"heapEdges":[{"step":0,"from":"1093387136","to":"1093387136.<java.util.LinkedList: int size>","type":"load","field":"<java.util.LinkedList: int size>"},{"step":1,"from":"1093387136","to":"1093394432","type":"load","field":"<java.util.LinkedList: java.util.LinkedList$Link voidLink>"},{"step":2,"from":"1093387136","to":"1093387136.<java.util.LinkedList: int size>","type":"load","field":"<java.util.LinkedList: int size>"},{"step":3,"from":"1093387136","to":"1093387136.<java.util.LinkedList: int size>","type":"load","field":"<java.util.LinkedList: int size>"},{"step":4,"from":"1093394432","to":"1093659696","type":"load","field":"<java.util.LinkedList$Link: java.util.LinkedList$Link previous>"},{"step":5,"from":"1093659696","to":"1093659672","type":"load","field":"<java.util.LinkedList$Link: java.util.LinkedList$Link previous>"},{"step":6,"from":"1093659672","to":"1093659648","type":"load","field":"<java.util.LinkedList$Link: java.util.LinkedList$Link previous>"},{"step":7,"from":"1093659648","to":"1093659624","type":"load","field":"<java.util.LinkedList$Link: java.util.LinkedList$Link previous>"},{"step":8,"from":"1093659624","to":"1093659600","type":"load","field":"<java.util.LinkedList$Link: java.util.LinkedList$Link previous>"},{"step":9,"from":"1093659600","to":"1093659576","type":"load","field":"<java.util.LinkedList$Link: java.util.LinkedList$Link previous>"},{"step":10,"from":"1093659576","to":"1093659552","type":"load","field":"<java.util.LinkedList$Link: java.util.LinkedList$Link previous>"},{"step":11,"from":"1093659552","to":"1093659528","type":"load","field":"<java.util.LinkedList$Link: java.util.LinkedList$Link previous>"},{"step":12,"from":"1093659528","to":"1093659504","type":"load","field":"<java.util.LinkedList$Link: java.util.LinkedList$Link previous>"},{"step":13,"from":"1093659504","to":"1093657552","type":"load","field":"<java.util.LinkedList$Link: java.util.LinkedList$Link previous>"},{"step":14,"from":"1093657552","to":"1093657528","type":"load","field":"<java.util.LinkedList$Link: java.util.LinkedList$Link previous>"},{"step":15,"from":"1093657528","to":"1093657504","type":"load","field":"<java.util.LinkedList$Link: java.util.LinkedList$Link previous>"},{"step":16,"from":"1093657504","to":"1093657480","type":"load","field":"<java.util.LinkedList$Link: java.util.LinkedList$Link previous>"},{"step":17,"from":"1093657480","to":"1093657456","type":"load","field":"<java.util.LinkedList$Link: java.util.LinkedList$Link previous>"},{"step":18,"from":"1093657456","to":"1093657432","type":"load","field":"<java.util.LinkedList$Link: java.util.LinkedList$Link previous>"},{"step":19,"from":"1093657432","to":"1093657408","type":"load","field":"<java.util.LinkedList$Link: java.util.LinkedList$Link previous>"},{"step":20,"from":"1093657408","to":"1093657384","type":"load","field":"<java.util.LinkedList$Link: java.util.LinkedList$Link previous>"},{"step":21,"from":"1093657384","to":"1093657360","type":"load","field":"<java.util.LinkedList$Link: java.util.LinkedList$Link previous>"},{"step":22,"from":"1093657360","to":"1093657336","type":"load","field":"<java.util.LinkedList$Link: java.util.LinkedList$Link previous>"},{"step":23,"from":"1093657336","to":"1093657312","type":"load","field":"<java.util.LinkedList$Link: java.util.LinkedList$Link previous>"},{"step":24,"from":"1093657312","to":"1093657288","type":"load","field":"<java.util.LinkedList$Link: java.util.LinkedList$Link previous>"},{"step":25,"from":"1093657288","to":"1093657264","type":"load","field":"<java.util.LinkedList$Link: java.util.LinkedList$Link previous>"},{"step":26,"from":"1093657264","to":"1093657240","type":"load","field":"<java.util.LinkedList$Link: java.util.LinkedList$Link previous>"},{"step":27,"from":"1093657240","to":"1093657216","type":"load","field":"<java.util.LinkedList$Link: java.util.LinkedList$Link previous>"},{"step":28,"from":"1093657216","to":"1093657192","type":"load","field":"<java.util.LinkedList$Link: java.util.LinkedList$Link previous>"},{"step":29,"from":"1093657192","to":"1093657168","type":"load","field":"<java.util.LinkedList$Link: java.util.LinkedList$Link previous>"},{"step":30,"from":"1093657168","to":"1093657144","type":"load","field":"<java.util.LinkedList$Link: java.util.LinkedList$Link previous>"},{"step":31,"from":"1093657144","to":"1093253320","type":"load","field":"<java.util.LinkedList$Link: java.util.LinkedList$Link previous>"},{"step":32,"from":"1093253320","to":"1093253296","type":"load","field":"<java.util.LinkedList$Link: java.util.LinkedList$Link previous>"},{"step":33,"from":"1093253296","to":"1093253272","type":"load","field":"<java.util.LinkedList$Link: java.util.LinkedList$Link previous>"},{"step":34,"from":"1093253272","to":"1093253248","type":"load","field":"<java.util.LinkedList$Link: java.util.LinkedList$Link previous>"},{"step":35,"from":"1093253248","to":"1093253224","type":"load","field":"<java.util.LinkedList$Link: java.util.LinkedList$Link previous>"},{"step":36,"from":"1093253224","to":"1093253200","type":"load","field":"<java.util.LinkedList$Link: java.util.LinkedList$Link previous>"},{"step":37,"from":"1093253200","to":"1093253176","type":"load","field":"<java.util.LinkedList$Link: java.util.LinkedList$Link previous>"},{"step":38,"from":"1093253176","to":"1093253152","type":"load","field":"<java.util.LinkedList$Link: java.util.LinkedList$Link previous>"},{"step":39,"from":"1093253152","to":"1093253128","type":"load","field":"<java.util.LinkedList$Link: java.util.LinkedList$Link previous>"},{"step":40,"from":"1093253128","to":"1093253104","type":"load","field":"<java.util.LinkedList$Link: java.util.LinkedList$Link previous>"},{"step":41,"from":"1093253104","to":"1093253080","type":"load","field":"<java.util.LinkedList$Link: java.util.LinkedList$Link previous>"},{"step":42,"from":"1093253080","to":"1093253056","type":"load","field":"<java.util.LinkedList$Link: java.util.LinkedList$Link previous>"},{"step":43,"from":"1093253056","to":"1093253032","type":"load","field":"<java.util.LinkedList$Link: java.util.LinkedList$Link previous>"},{"step":44,"from":"1093253032","to":"1093253008","type":"load","field":"<java.util.LinkedList$Link: java.util.LinkedList$Link previous>"},{"step":45,"from":"1093253008","to":"1093252984","type":"load","field":"<java.util.LinkedList$Link: java.util.LinkedList$Link previous>"},{"step":46,"from":"1093252984","to":"1093252960","type":"load","field":"<java.util.LinkedList$Link: java.util.LinkedList$Link previous>"},{"step":47,"from":"1093252960","to":"1093252936","type":"load","field":"<java.util.LinkedList$Link: java.util.LinkedList$Link previous>"},{"step":48,"from":"1093252936","to":"1093250984","type":"load","field":"<java.util.LinkedList$Link: java.util.LinkedList$Link previous>"},{"step":49,"from":"1093250984","to":"1093250960","type":"load","field":"<java.util.LinkedList$Link: java.util.LinkedList$Link previous>"},{"step":50,"from":"1093250960","to":"1093250936","type":"load","field":"<java.util.LinkedList$Link: java.util.LinkedList$Link previous>"},{"step":51,"from":"1093250936","to":"1093250912","type":"load","field":"<java.util.LinkedList$Link: java.util.LinkedList$Link previous>"},{"step":52,"from":"1093250912","to":"1093250888","type":"load","field":"<java.util.LinkedList$Link: java.util.LinkedList$Link previous>"},{"step":53,"from":"1093250888","to":"1093250864","type":"load","field":"<java.util.LinkedList$Link: java.util.LinkedList$Link previous>"},{"step":54,"from":"1093250864","to":"1093761264","type":"load","field":"<java.util.LinkedList$Link: java.util.LinkedList$Link previous>"},{"step":55,"from":"1093761264","to":"1093250840","type":"load","field":"<java.util.LinkedList$Link: java.util.LinkedList$Link previous>"},{"step":56,"from":"1093250840","to":"1093787936","type":"store","field":"<java.util.LinkedList$Link: java.util.LinkedList$Link previous>"},{"step":57,"from":"1093761264","to":"1093787936","type":"store","field":"<java.util.LinkedList$Link: java.util.LinkedList$Link next>"},{"step":58,"from":"1093250840","to":"1093787936","type":"create","field":"<java.util.LinkedList$Link: java.util.LinkedList$Link next>"},{"step":59,"from":"1093787936","to":"1093761264","type":"store","field":"<java.util.LinkedList$Link: java.util.LinkedList$Link previous>"},{"step":60,"from":"1093387136","to":"1093387136.<java.util.LinkedList: int size>","type":"load","field":"<java.util.LinkedList: int size>"},{"step":61,"from":"sdaReg9","to":"1093387136","type":"store","field":"<java.util.LinkedList: int size>"},{"step":62,"from":"1093387136","to":"1093387136.<java.util.AbstractList: int modCount>","type":"load","field":"<java.util.AbstractList: int modCount>"},{"step":63,"from":"sdaReg10","to":"1093387136","type":"store","field":"<java.util.AbstractList: int modCount>"}],"parameters":[{"id":"1093387136","name":"this","klass":"java.util.LinkedList"},{"id":"sdaReg0","name":"arg#1","klass":"int"},{"id":"0","name":"arg#2","klass":"java.lang.Object"}],"returns":[{"id":null,"name":"return","klass":null}],"colors":{"heapLocToColor":{"1093659624":[0],"1093659528":[0],"1093657192":[0],"1093657528":[0],"1093253032":[0],"1093250864":[0],"1093657216":[0],"1093657456":[0],"1093253200":[0],"1093250936":[0],"sdaReg10":[0],"1093252960":[0],"1093253176":[0],"1093253128":[0],"1093253248":[0],"1093657432":[0],"1093657480":[0],"1093659576":[0],"1093657144":[0],"1093253296":[0],"1093659672":[0],"1093657384":[0],"1093657240":[0],"0":[2],"1093659600":[0],"1093657288":[0],"1093252936":[0],"1093250888":[0],"1093250984":[0],"1093659504":[0],"1093250960":[0],"1093659648":[0],"1093250840":[0],"1093253152":[0],"1093657504":[0],"1093657408":[0],"1093252984":[0],"1093787936":[3],"1093253008":[0],"1093253224":[0],"1093253056":[0],"1093387136.<java.util.AbstractList: int modCount>":[0],"1093761264":[0],"1093250912":[0],"1093657336":[0],"1093253320":[0],"1093387136.<java.util.LinkedList: int size>":[0],"sdaReg8":[3],"1093394432":[0],"sdaReg9":[0],"sdaReg6":[3],"sdaReg7":[3],"sdaReg4":[0],"sdaReg5":[0],"1093659552":[0],"1093659696":[0],"1093657264":[0],"1093657360":[0],"1093253104":[0],"1093387136":[0],"1093657552":[0],"1093253272":[0],"1093253080":[0],"sdaReg3":[2],"sdaReg2":[3],"1093657312":[0],"sdaReg1":[0],"sdaReg0":[1],"1093657168":[0]},"colorToColor":{"0":[0, 3],"3":[0]},"colorToLabel":{"0":"this","1":"arg#1","2":"arg#2","4":"return"}}}

Generated Model

