Scanning method <java.util.HashMap: java.util.HashMap$HashMapEntry[] makeTable(int)>

All seen event types: NewArrayRecord, BinaryOperationRecord, CastRecord, StoreInstanceRecord, 
Ignored event types: 

JSON Encoded Analysis Data (for visualization):{"heapEdges":[{"step":0,"from":"1093249896","to":"1093544184","type":"create","field":"<java.util.HashMap: java.util.HashMap$HashMapEntry[] table>"},{"step":1,"from":"sdaReg4","to":"1093249896","type":"store","field":"<java.util.HashMap: int threshold>"}],"parameters":[{"id":"1093249896","name":"this","klass":"java.util.HashMap"},{"id":"sdaReg0","name":"arg#1","klass":"int"}],"returns":[{"id":"1093544184","name":"return","klass":"java.util.HashMap$HashMapEntry[]"}],"colors":{"heapLocToColor":{"sdaReg4":[1],"sdaReg3":[1],"sdaReg2":[1],"sdaReg0":[1],"1093249896":[0],"1093544184":[2]},"colorToColor":{"1":[0],"2":[0, 3]},"colorToLabel":{"0":"this","1":"arg#1","3":"return"}}}

Generated Model
	arg#1->this

