Scanning method <android.os.Bundle: void putShort(java.lang.String,short)>

All seen event types: StoreArrayRecord, SimpleAssignmentRecord, MethodStartRecord, LoadInstanceRecord, IfRecord, NewObjectRecord, StoreInstanceRecord, NewArrayRecord, BinaryOperationRecord, MethodCallRecord, MethodReturnRecord, ArrayLengthRecord, CastRecord, LoadArrayRecord, MethodEndRecord, 
Ignored event types: IfRecord, 

JSON Encoded Analysis Data (for visualization):{"heapEdges":[{"step":0,"from":"1093666992","to":"1093673960","type":"load","field":"<android.os.Bundle: java.util.Map mMap>"},{"step":1,"from":"sdaReg1","to":"1093740624","type":"model"},{"step":2,"from":"1093673960","to":"1083997920","type":"load","field":"<java.util.HashMap: java.util.HashMap$HashMapEntry[] table>"},{"step":3,"from":"1093673960","to":"1093673960.<java.util.HashMap: int modCount>","type":"load","field":"<java.util.HashMap: int modCount>"},{"step":4,"from":"sdaReg18","to":"1093673960","type":"store","field":"<java.util.HashMap: int modCount>"},{"step":5,"from":"1093673960","to":"1093673960.<java.util.HashMap: int size>","type":"load","field":"<java.util.HashMap: int size>"},{"step":6,"from":"sdaReg19","to":"1093673960","type":"store","field":"<java.util.HashMap: int size>"},{"step":7,"from":"1093673960","to":"1093673960.<java.util.HashMap: int threshold>","type":"load","field":"<java.util.HashMap: int threshold>"},{"step":8,"from":"1093673960","to":"1083997920","type":"load","field":"<java.util.HashMap: java.util.HashMap$HashMapEntry[] table>"},{"step":9,"from":"1093673960","to":"1093910248","type":"create","field":"<java.util.HashMap: java.util.HashMap$HashMapEntry[] table>"},{"step":10,"from":"sdaReg27","to":"1093673960","type":"store","field":"<java.util.HashMap: int threshold>"},{"step":11,"from":"1093523072","to":"1093911984","type":"store","field":"<java.util.HashMap$HashMapEntry: java.lang.Object key>"},{"step":12,"from":"1093911984","to":"1093740624","type":"create","field":"<java.util.HashMap$HashMapEntry: java.lang.Object value>"},{"step":13,"from":"sdaReg14","to":"1093911984","type":"store","field":"<java.util.HashMap$HashMapEntry: int hash>"},{"step":14,"from":"1093910248","to":"1093911984","type":"create","field":"arrayIdx_int:2"}],"parameters":[{"id":"1093666992","name":"this","klass":"android.os.Bundle"},{"id":"sdaReg0","name":"arg#1","klass":"string"},{"id":"sdaReg1","name":"arg#2","klass":"short"}],"returns":[{"id":null,"name":"return","klass":null}],"colors":{"heapLocToColor":{"1093911984":[6],"1093740624":[3],"1093673960":[0],"sdaReg13":[4],"1093673960.<java.util.HashMap: int size>":[0],"sdaReg14":[4],"1093673960.<java.util.HashMap: int threshold>":[0],"sdaReg38":[3],"sdaReg11":[4],"sdaReg12":[4],"sdaReg10":[4],"sdaReg30":[5],"1083997920":[0],"1093673960.<java.util.HashMap: int modCount>":[0],"sdaReg19":[0],"sdaReg36":[6],"sdaReg17":[4],"sdaReg35":[3],"sdaReg18":[0],"sdaReg33":[0],"sdaReg8":[4],"sdaReg9":[4],"1093673960.<java.util.HashMap: java.util.HashMap$HashMapEntry[] table>":[0],"sdaReg6":[4],"sdaReg7":[4],"sdaReg4":[0],"sdaReg5":[3],"1093910248":[5],"sdaReg28":[5],"sdaReg3":[3],"1093666992":[0],"sdaReg2":[0],"sdaReg1":[2],"sdaReg20":[0],"sdaReg0":[1],"sdaReg41":[6],"sdaReg23":[0],"sdaReg40":[6]},"colorToColor":{"0":[0],"2":[3],"3":[6],"4":[6],"5":[0],"6":[5]},"colorToLabel":{"0":"this","1":"arg#1","2":"arg#2","7":"return"}}}

Generated Model
	arg#2->this

