Scanning method <java.nio.ByteBuffer: java.nio.ByteBuffer get(byte[])>

All seen event types: BinaryOperationRecord, MethodReturnRecord, MethodCallRecord, LoadInstanceRecord, MethodStartRecord, ArrayLengthRecord, MethodEndRecord, IfRecord, StoreInstanceRecord, 
Ignored event types: IfRecord, 

JSON Encoded Analysis Data (for visualization):{"heapEdges":[{"step":0,"from":"1093589168","to":"1093589168.<java.nio.Buffer: int limit>","type":"load","field":"<java.nio.Buffer: int limit>"},{"step":1,"from":"1093589168","to":"1093589168.<java.nio.Buffer: int position>","type":"load","field":"<java.nio.Buffer: int position>"},{"step":2,"from":"1093589168","to":"1093589224","type":"load","field":"<java.nio.HeapByteBuffer: byte[] backingArray>"},{"step":3,"from":"1093589168","to":"1093589168.<java.nio.HeapByteBuffer: int offset>","type":"load","field":"<java.nio.HeapByteBuffer: int offset>"},{"step":4,"from":"1093589168","to":"1093589168.<java.nio.Buffer: int position>","type":"load","field":"<java.nio.Buffer: int position>"},{"step":5,"from":"1093589224","to":"1093631856","type":"model"},{"step":6,"from":"1093589168","to":"1093589168.<java.nio.Buffer: int position>","type":"load","field":"<java.nio.Buffer: int position>"},{"step":7,"from":"sdaReg13","to":"1093589168","type":"store","field":"<java.nio.Buffer: int position>"}],"parameters":[{"id":"1093589168","name":"this","klass":"java.nio.ByteBuffer"},{"id":"1093631856","name":"arg#1","klass":"byte[]"}],"returns":[{"id":"1093589168","name":"return","klass":"java.nio.ByteBuffer"}],"colors":{"heapLocToColor":{"1093589168":[0],"sdaReg5":[0],"1093589168.<java.nio.Buffer: int position>":[0],"1093631856":[1],"1093589168.<java.nio.Buffer: int limit>":[0],"1093589224":[0],"1093589168.<java.nio.HeapByteBuffer: int offset>":[0],"sdaReg13":[0],"sdaReg14":[0],"sdaReg11":[0],"sdaReg12":[0],"sdaReg10":[0],"sdaReg2":[1],"sdaReg1":[0]},"colorToColor":{"0":[0, 1, 2]},"colorToLabel":{"0":"this","1":"arg#1","2":"return"}}}

Generated Model
	this->return
	this->arg#1

