Scanning method <java.util.HashMap: java.lang.Object put(java.lang.Object,java.lang.Object)>

All seen event types: StoreArrayRecord, SimpleAssignmentRecord, MethodStartRecord, LoadInstanceRecord, IfRecord, NewObjectRecord, StoreInstanceRecord, NewArrayRecord, BinaryOperationRecord, MethodCallRecord, MethodReturnRecord, ArrayLengthRecord, CastRecord, LoadArrayRecord, MethodEndRecord, 
Ignored event types: IfRecord, 

JSON Encoded Analysis Data (for visualization):{"heapEdges":[{"step":0,"from":"1093575232","to":"1083997920","type":"load","field":"<java.util.HashMap: java.util.HashMap$HashMapEntry[] table>"},{"step":1,"from":"1093575232","to":"1093575232.<java.util.HashMap: int modCount>","type":"load","field":"<java.util.HashMap: int modCount>"},{"step":2,"from":"sdaReg12","to":"1093575232","type":"store","field":"<java.util.HashMap: int modCount>"},{"step":3,"from":"1093575232","to":"1093575232.<java.util.HashMap: int size>","type":"load","field":"<java.util.HashMap: int size>"},{"step":4,"from":"sdaReg13","to":"1093575232","type":"store","field":"<java.util.HashMap: int size>"},{"step":5,"from":"1093575232","to":"1093575232.<java.util.HashMap: int threshold>","type":"load","field":"<java.util.HashMap: int threshold>"},{"step":6,"from":"1093575232","to":"1083997920","type":"load","field":"<java.util.HashMap: java.util.HashMap$HashMapEntry[] table>"},{"step":7,"from":"1093575232","to":"1093353456","type":"create","field":"<java.util.HashMap: java.util.HashMap$HashMapEntry[] table>"},{"step":8,"from":"sdaReg21","to":"1093575232","type":"store","field":"<java.util.HashMap: int threshold>"},{"step":9,"from":"1084469432","to":"1093576904","type":"store","field":"<java.util.HashMap$HashMapEntry: java.lang.Object key>"},{"step":10,"from":"1093494264","to":"1093576904","type":"store","field":"<java.util.HashMap$HashMapEntry: java.lang.Object value>"},{"step":11,"from":"sdaReg8","to":"1093576904","type":"store","field":"<java.util.HashMap$HashMapEntry: int hash>"},{"step":12,"from":"1093353456","to":"1093576904","type":"create","field":"arrayIdx_int:2"}],"parameters":[{"id":"1093575232","name":"this","klass":"java.util.HashMap"},{"id":"1084469432","name":"arg#1","klass":"java.lang.Object"},{"id":"1093494264","name":"arg#2","klass":"java.lang.Object"}],"returns":[{"id":"0","name":"return","klass":"java.lang.Object"}],"colors":{"heapLocToColor":{"1093575232.<java.util.HashMap: int size>":[0],"1093575232":[0],"sdaReg13":[0],"sdaReg14":[0],"sdaReg11":[3],"sdaReg12":[0],"1084469432":[1],"sdaReg32":[2],"sdaReg31":[1],"1093353456":[4],"sdaReg30":[5],"1083997920":[0],"sdaReg17":[0],"sdaReg35":[5],"sdaReg34":[5],"sdaReg8":[3],"1093575232.<java.util.HashMap: int threshold>":[0],"sdaReg6":[3],"1093575232.<java.util.HashMap: int modCount>":[0],"sdaReg7":[3],"sdaReg4":[3],"sdaReg5":[3],"sdaReg27":[0],"1093494264":[2],"sdaReg29":[2],"sdaReg28":[1],"1093576904":[5],"1093575232.<java.util.HashMap: java.util.HashMap$HashMapEntry[] table>":[0],"sdaReg3":[3],"sdaReg2":[3],"sdaReg1":[3],"sdaReg0":[3],"sdaReg22":[4],"sdaReg24":[4]},"colorToColor":{"0":[0],"1":[5],"2":[5],"3":[5],"4":[0],"5":[4]},"colorToLabel":{"0":"this","1":"arg#1","2":"arg#2","6":"return"}}}

Generated Model
	arg#2->this
	arg#1->this

