Scanning method <java.util.HashMap: java.lang.Object put(java.lang.Object,java.lang.Object)>

All seen event types: BinaryOperationRecord, StoreArrayRecord, MethodReturnRecord, MethodCallRecord, ArrayLengthRecord, LoadInstanceRecord, MethodStartRecord, LoadArrayRecord, MethodEndRecord, IfRecord, NewObjectRecord, StoreInstanceRecord, 
Ignored event types: IfRecord, 

JSON Encoded Analysis Data (for visualization):{"heapEdges":[{"step":0,"from":"1093558912","to":"1093566104","type":"load","field":"<java.util.HashMap: java.util.HashMap$HashMapEntry[] table>"},{"step":1,"from":"1093566104","to":"1093566144","type":"load","field":"arrayIdx_int:1"},{"step":2,"from":"1093566144","to":"1093566144.<java.util.HashMap$HashMapEntry: int hash>","type":"load","field":"<java.util.HashMap$HashMapEntry: int hash>"},{"step":3,"from":"1093558912","to":"1093558912.<java.util.HashMap: int modCount>","type":"load","field":"<java.util.HashMap: int modCount>"},{"step":4,"from":"sdaReg12","to":"1093558912","type":"store","field":"<java.util.HashMap: int modCount>"},{"step":5,"from":"1093558912","to":"1093558912.<java.util.HashMap: int size>","type":"load","field":"<java.util.HashMap: int size>"},{"step":6,"from":"sdaReg13","to":"1093558912","type":"store","field":"<java.util.HashMap: int size>"},{"step":7,"from":"1093558912","to":"1093558912.<java.util.HashMap: int threshold>","type":"load","field":"<java.util.HashMap: int threshold>"},{"step":8,"from":"1093558912","to":"1093566104","type":"load","field":"<java.util.HashMap: java.util.HashMap$HashMapEntry[] table>"},{"step":9,"from":"1093558912","to":"1093566104","type":"load","field":"<java.util.HashMap: java.util.HashMap$HashMapEntry[] table>"},{"step":10,"from":"1093566104","to":"1093566144","type":"load","field":"arrayIdx_int:1"},{"step":11,"from":"1093616112","to":"1093616232","type":"store","field":"<java.util.HashMap$HashMapEntry: java.lang.Object key>"},{"step":12,"from":"1093558896","to":"1093616232","type":"store","field":"<java.util.HashMap$HashMapEntry: java.lang.Object value>"},{"step":13,"from":"sdaReg8","to":"1093616232","type":"store","field":"<java.util.HashMap$HashMapEntry: int hash>"},{"step":14,"from":"1093566144","to":"1093616232","type":"store","field":"<java.util.HashMap$HashMapEntry: java.util.HashMap$HashMapEntry next>"},{"step":15,"from":"1093566104","to":"1093616232","type":"create","field":"arrayIdx_int:1"}],"parameters":[{"id":"1093558912","name":"this","klass":"java.util.HashMap"},{"id":"1093616112","name":"arg#1","klass":"java.lang.Object"},{"id":"1093558896","name":"arg#2","klass":"java.lang.Object"}],"returns":[{"id":"0","name":"return","klass":"java.lang.Object"}],"colors":{"heapLocToColor":{"1093558912.<java.util.HashMap: int threshold>":[0],"1093566104.arrayIdx_int:1":[0],"1093566104":[0],"1093558912.<java.util.HashMap: java.util.HashMap$HashMapEntry[] table>":[0],"sdaReg13":[0],"sdaReg14":[0],"sdaReg11":[3],"1093558912.<java.util.HashMap: int modCount>":[0],"sdaReg12":[0],"1093566144.<java.util.HashMap$HashMapEntry: int hash>":[0],"sdaReg19":[2],"1093566144":[0],"sdaReg17":[4],"sdaReg18":[1],"sdaReg15":[1],"1093616112":[1],"sdaReg16":[2],"sdaReg8":[3],"sdaReg6":[3],"sdaReg7":[3],"sdaReg4":[3],"sdaReg5":[3],"1093558912.<java.util.HashMap: int size>":[0],"1093558912":[0],"1093558896":[2],"sdaReg3":[3],"sdaReg2":[3],"sdaReg21":[4],"sdaReg1":[3],"sdaReg20":[0],"sdaReg0":[3],"sdaReg22":[4],"1093616232":[4]},"colorToColor":{"0":[0, 4],"1":[4],"2":[4],"3":[4],"4":[0]},"colorToLabel":{"0":"this","1":"arg#1","2":"arg#2","5":"return"}}}

Generated Model
	arg#2->this
	arg#1->this

