Scanning method <java.util.HashMap: java.lang.Object put(java.lang.Object,java.lang.Object)>

All seen event types: MethodReturnRecord, MethodCallRecord, LoadInstanceRecord, MethodStartRecord, MethodEndRecord, IfRecord, StoreInstanceRecord, 
Ignored event types: IfRecord, 

JSON Encoded Analysis Data (for visualization):{"heapEdges":[{"step":0,"from":"1094039048","to":"1094039104","type":"load","field":"<java.util.HashMap: java.util.HashMap$HashMapEntry entryForNullKey>"},{"step":1,"from":"1094039104","to":"1093882080","type":"load","field":"<java.util.HashMap$HashMapEntry: java.lang.Object value>"},{"step":2,"from":"1093882080","to":"1094039104","type":"store","field":"<java.util.HashMap$HashMapEntry: java.lang.Object value>"}],"parameters":[{"id":"1094039048","name":"this","klass":"java.util.HashMap"},{"id":"0","name":"arg#1","klass":"java.lang.Object"},{"id":"1093882080","name":"arg#2","klass":"java.lang.Object"}],"returns":[{"id":"1093882080","name":"return","klass":"java.lang.Object"}],"colors":{"heapLocToColor":{"0":[1],"1094039104.<java.util.HashMap$HashMapEntry: java.lang.Object value>":[2],"1093882080":[0, 2],"sdaReg4":[0, 2],"sdaReg3":[0],"sdaReg2":[0],"1094039104":[0],"sdaReg1":[2],"1094039048":[0],"sdaReg0":[0]},"colorToColor":{"0":[0, 3],"2":[0, 3]},"colorToLabel":{"0":"this","1":"arg#1","2":"arg#2","3":"return"}}}

Generated Model
	this->return
	arg#2->this
	arg#2->return

