Scanning method <java.util.HashMap: java.lang.Object put(java.lang.Object,java.lang.Object)>

All seen event types: BinaryOperationRecord, MethodReturnRecord, MethodCallRecord, ArrayLengthRecord, LoadInstanceRecord, MethodStartRecord, LoadArrayRecord, MethodEndRecord, IfRecord, StoreInstanceRecord, 
Ignored event types: IfRecord, 

JSON Encoded Analysis Data (for visualization):{"heapEdges":[{"step":0,"from":"1093277256","to":"1093229216","type":"load","field":"<java.util.HashMap: java.util.HashMap$HashMapEntry[] table>"},{"step":1,"from":"1093229216","to":"1093583448","type":"load","field":"arrayIdx_int:2"},{"step":2,"from":"1093583448","to":"1093583448.<java.util.HashMap$HashMapEntry: int hash>","type":"load","field":"<java.util.HashMap$HashMapEntry: int hash>"},{"step":3,"from":"1093583448","to":"1084469432","type":"load","field":"<java.util.HashMap$HashMapEntry: java.lang.Object key>"},{"step":4,"from":"1093583448","to":"1093583192","type":"load","field":"<java.util.HashMap$HashMapEntry: java.lang.Object value>"},{"step":5,"from":"1083999368","to":"1093583448","type":"store","field":"<java.util.HashMap$HashMapEntry: java.lang.Object value>"}],"parameters":[{"id":"1093277256","name":"this","klass":"java.util.HashMap"},{"id":"1084469432","name":"arg#1","klass":"java.lang.Object"},{"id":"1083999368","name":"arg#2","klass":"java.lang.Object"}],"returns":[{"id":"1093583192","name":"return","klass":"java.lang.Object"}],"colors":{"heapLocToColor":{"1093229216":[0],"sdaReg8":[3],"1093583448.<java.util.HashMap$HashMapEntry: int hash>":[0],"sdaReg6":[3],"1093277256":[0],"sdaReg7":[3],"sdaReg4":[3],"sdaReg5":[3],"sdaReg13":[0],"sdaReg14":[0],"sdaReg11":[3],"sdaReg12":[4],"1093583448":[0],"1084469432":[0, 1],"1083999368":[2],"1093583192":[0],"sdaReg3":[3],"sdaReg2":[3],"sdaReg1":[3],"sdaReg0":[3],"1093583448.<java.util.HashMap$HashMapEntry: java.lang.Object key>":[1]},"colorToColor":{"0":[5],"2":[0]},"colorToLabel":{"0":"this","1":"arg#1","2":"arg#2","5":"return"}}}

Generated Model
	this->return
	arg#2->this
	arg#2->return

