Scanning method <java.io.DataOutputStream: void write(byte[],int,int)>

All seen event types: NewArrayRecord, BinaryOperationRecord, MethodReturnRecord, MethodCallRecord, ArrayLengthRecord, MethodStartRecord, LoadInstanceRecord, MethodEndRecord, IfRecord, StoreInstanceRecord, 
Ignored event types: IfRecord, 

JSON Encoded Analysis Data (for visualization):{"heapEdges":[{"step":0,"from":"1093647440","to":"1093314032","type":"load","field":"<java.io.FilterOutputStream: java.io.OutputStream out>"},{"step":1,"from":"1093314032","to":"1093314032.<java.io.ByteArrayOutputStream: int count>","type":"load","field":"<java.io.ByteArrayOutputStream: int count>"},{"step":2,"from":"1093314032","to":"1093645704","type":"load","field":"<java.io.ByteArrayOutputStream: byte[] buf>"},{"step":3,"from":"1093314032","to":"1093314032.<java.io.ByteArrayOutputStream: int count>","type":"load","field":"<java.io.ByteArrayOutputStream: int count>"},{"step":4,"from":"1093314032","to":"1093645704","type":"load","field":"<java.io.ByteArrayOutputStream: byte[] buf>"},{"step":5,"from":"1093314032","to":"1093314032.<java.io.ByteArrayOutputStream: int count>","type":"load","field":"<java.io.ByteArrayOutputStream: int count>"},{"step":6,"from":"1093645704","to":"1093462056","type":"model"},{"step":7,"from":"1093314032","to":"1093462056","type":"create","field":"<java.io.ByteArrayOutputStream: byte[] buf>"},{"step":8,"from":"1093314032","to":"1093314032.<java.io.ByteArrayOutputStream: int count>","type":"load","field":"<java.io.ByteArrayOutputStream: int count>"},{"step":9,"from":"1093744944","to":"1093462056","type":"model"},{"step":10,"from":"1093314032","to":"1093314032.<java.io.ByteArrayOutputStream: int count>","type":"load","field":"<java.io.ByteArrayOutputStream: int count>"},{"step":11,"from":"sdaReg12","to":"1093314032","type":"store","field":"<java.io.ByteArrayOutputStream: int count>"},{"step":12,"from":"1093647440","to":"1093647440.<java.io.DataOutputStream: int written>","type":"load","field":"<java.io.DataOutputStream: int written>"},{"step":13,"from":"sdaReg13","to":"1093647440","type":"store","field":"<java.io.DataOutputStream: int written>"}],"parameters":[{"id":"1093647440","name":"this","klass":"java.io.DataOutputStream"},{"id":"1093744944","name":"arg#1","klass":"byte[]"},{"id":"sdaReg0","name":"arg#2","klass":"int"},{"id":"sdaReg1","name":"arg#3","klass":"int"}],"returns":[{"id":null,"name":"return","klass":null}],"colors":{"heapLocToColor":{"1093647440":[0],"1093314032.<java.io.ByteArrayOutputStream: int count>":[0],"sdaReg8":[0, 3],"sdaReg6":[2],"sdaReg7":[0],"sdaReg5":[2, 3],"1093645704":[0],"1093462056":[4],"1093314032.<java.io.ByteArrayOutputStream: byte[] buf>":[0],"sdaReg13":[0, 3],"1093647440.<java.io.DataOutputStream: int written>":[0],"sdaReg11":[0, 3],"1093744944":[1],"sdaReg12":[0, 3],"sdaReg10":[0, 3],"sdaReg3":[1],"sdaReg2":[0],"sdaReg1":[3],"sdaReg0":[2],"1093314032":[0]},"colorToColor":{"0":[0, 4],"1":[4],"3":[0],"4":[0]},"colorToLabel":{"0":"this","1":"arg#1","2":"arg#2","3":"arg#3","5":"return"}}}

Generated Model
	arg#3->this
	arg#1->this

