Scanning method <java.io.DataOutputStream: void write(byte[],int,int)>

All seen event types: BinaryOperationRecord, MethodReturnRecord, MethodCallRecord, ArrayLengthRecord, MethodStartRecord, LoadInstanceRecord, MethodEndRecord, IfRecord, StoreInstanceRecord, 
Ignored event types: IfRecord, 

JSON Encoded Analysis Data (for visualization):{"heapEdges":[{"step":0,"from":"1093564288","to":"1093640496","type":"load","field":"<java.io.FilterOutputStream: java.io.OutputStream out>"},{"step":1,"from":"1093640496","to":"1093640496.<java.io.ByteArrayOutputStream: int count>","type":"load","field":"<java.io.ByteArrayOutputStream: int count>"},{"step":2,"from":"1093640496","to":"1093640520","type":"load","field":"<java.io.ByteArrayOutputStream: byte[] buf>"},{"step":3,"from":"1093640496","to":"1093640520","type":"load","field":"<java.io.ByteArrayOutputStream: byte[] buf>"},{"step":4,"from":"1093640496","to":"1093640496.<java.io.ByteArrayOutputStream: int count>","type":"load","field":"<java.io.ByteArrayOutputStream: int count>"},{"step":5,"from":"1093240320","to":"1093640520","type":"model"},{"step":6,"from":"1093640496","to":"1093640496.<java.io.ByteArrayOutputStream: int count>","type":"load","field":"<java.io.ByteArrayOutputStream: int count>"},{"step":7,"from":"sdaReg10","to":"1093640496","type":"store","field":"<java.io.ByteArrayOutputStream: int count>"},{"step":8,"from":"1093564288","to":"1093564288.<java.io.DataOutputStream: int written>","type":"load","field":"<java.io.DataOutputStream: int written>"},{"step":9,"from":"sdaReg11","to":"1093564288","type":"store","field":"<java.io.DataOutputStream: int written>"}],"parameters":[{"id":"1093564288","name":"this","klass":"java.io.DataOutputStream"},{"id":"1093240320","name":"arg#1","klass":"byte[]"},{"id":"sdaReg0","name":"arg#2","klass":"int"},{"id":"sdaReg1","name":"arg#3","klass":"int"}],"returns":[{"id":null,"name":"return","klass":null}],"colors":{"heapLocToColor":{"1093640496.<java.io.ByteArrayOutputStream: byte[] buf>":[0],"sdaReg8":[0, 3],"sdaReg6":[2],"1093240320":[1],"sdaReg7":[0],"1093564288":[0],"sdaReg5":[2, 3],"1093640520":[0],"1093640496":[0],"1093640496.<java.io.ByteArrayOutputStream: int count>":[0],"sdaReg11":[0, 3],"sdaReg10":[0, 3],"sdaReg3":[1],"sdaReg2":[0],"sdaReg1":[3],"sdaReg0":[2],"1093564288.<java.io.DataOutputStream: int written>":[0]},"colorToColor":{"0":[0],"1":[0],"3":[0]},"colorToLabel":{"0":"this","1":"arg#1","2":"arg#2","3":"arg#3","4":"return"}}}

Generated Model
	arg#3->this
	arg#1->this

