Scanning method <java.io.ObjectInputStream: void readHierarchy(java.lang.Object,java.io.ObjectStreamClass)>

All seen event types: SimpleAssignmentRecord, LoadInstanceRecord, MethodStartRecord, IfRecord, InstanceOfRecord, NewObjectRecord, StoreInstanceRecord, LoadStaticRecord, BinaryOperationRecord, MethodCallRecord, MethodReturnRecord, ArrayLengthRecord, CastRecord, LoadArrayRecord, MethodEndRecord, 
Ignored event types: IfRecord, 

JSON Encoded Analysis Data (for visualization):{"heapEdges":[{"step":0,"from":"1093497664","to":"1093328432","type":"model"},{"step":1,"from":"1093293768","to":"1093386320","type":"load","field":"<java.io.ObjectInputStream: java.util.HashMap cachedSuperclasses>"},{"step":2,"from":"1093281456","to":"1083934568","type":"model"},{"step":3,"from":"1093386320","to":"1083934568","type":"model"},{"step":4,"from":"1093386320","to":"0","type":"model"},{"step":5,"from":"1083934568","to":"1093386320","type":"model"},{"step":6,"from":"1083934568","to":"0","type":"model"},{"step":7,"from":"1093281456","to":"1083934568","type":"model"},{"step":8,"from":"static.<libcore.util.EmptyArray: java.lang.Object[] OBJECT>","to":"1083994088","type":"load","field":"<libcore.util.EmptyArray: java.lang.Object[] OBJECT>"},{"step":9,"from":"1083994088","to":"1093660920","type":"store","field":"<java.util.ArrayList: java.lang.Object[] array>"},{"step":10,"from":"1083934568","to":"1083931088","type":"model"},{"step":11,"from":"1093660920","to":"1083934568","type":"model"},{"step":12,"from":"1083934568","to":"1093660920","type":"model"},{"step":13,"from":"1083931088","to":"1083910288","type":"model"},{"step":14,"from":"1093660920","to":"1083931088","type":"model"},{"step":15,"from":"1083931088","to":"1093660920","type":"model"},{"step":16,"from":"1083910288","to":"0","type":"model"},{"step":17,"from":"1093293768","to":"1093386320","type":"load","field":"<java.io.ObjectInputStream: java.util.HashMap cachedSuperclasses>"},{"step":18,"from":"1093386320","to":"1083934568","type":"model"},{"step":19,"from":"1093386320","to":"1093660920","type":"model"},{"step":20,"from":"1083934568","to":"1093386320","type":"model"},{"step":21,"from":"1083934568","to":"1093660920","type":"model"},{"step":22,"from":"1093660920","to":"1093386320","type":"model"},{"step":23,"from":"1093660920","to":"1083934568","type":"model"},{"step":24,"from":"1093660920","to":"1093660920.<java.util.ArrayList: int size>","type":"load","field":"<java.util.ArrayList: int size>"},{"step":25,"from":"1093660920","to":"1093660920.<java.util.ArrayList: int size>","type":"load","field":"<java.util.ArrayList: int size>"},{"step":26,"from":"1093513352","to":"1083931088","type":"load","field":"arrayIdx_int:0"},{"step":27,"from":"1093328432","to":"1093328432.<java.util.ArrayList: int size>","type":"load","field":"<java.util.ArrayList: int size>"},{"step":28,"from":"1093328432","to":"1093328432.<java.util.ArrayList: int size>","type":"load","field":"<java.util.ArrayList: int size>"},{"step":29,"from":"1093328432","to":"1093424448","type":"load","field":"<java.util.ArrayList: java.lang.Object[] array>"},{"step":30,"from":"1093424448","to":"1093286304","type":"load","field":"arrayIdx_int:0"},{"step":31,"from":"1093286304","to":"1083931088","type":"model"},{"step":32,"from":"1083931088","to":"sdaReg35","type":"model"},{"step":33,"from":"1093286304","to":"sdaReg36","type":"model"},{"step":34,"from":"1083931088","to":"sdaReg38","type":"model"},{"step":35,"from":"1093286304","to":"sdaReg39","type":"model"},{"step":36,"from":"1093328432","to":"1093328432.<java.util.ArrayList: int size>","type":"load","field":"<java.util.ArrayList: int size>"},{"step":37,"from":"1093328432","to":"1093424448","type":"load","field":"<java.util.ArrayList: java.lang.Object[] array>"},{"step":38,"from":"1093424448","to":"1093286304","type":"load","field":"arrayIdx_int:0"},{"step":39,"from":"1093281456","to":"1093293768","type":"store","field":"<java.io.ObjectInputStream: java.lang.Object currentObject>"},{"step":40,"from":"1093286304","to":"1093293768","type":"store","field":"<java.io.ObjectInputStream: java.io.ObjectStreamClass currentClass>"},{"step":41,"from":"1093286304","to":"sdaReg48","type":"model"},{"step":42,"from":"1093286304","to":"1083931088","type":"model"},{"step":43,"from":"1093293768","to":"1093293768.<java.io.ObjectInputStream: boolean mustResolve>","type":"load","field":"<java.io.ObjectInputStream: boolean mustResolve>"},{"step":44,"from":"1093286304","to":"0","type":"model"},{"step":45,"from":"1093286304","to":"1093481392","type":"model"},{"step":46,"from":"1093286304","to":"1083931088","type":"model"},{"step":47,"from":"1093293768","to":"sdaReg65","type":"create","field":"<java.io.ObjectInputStream: java.lang.Object currentObject>"},{"step":48,"from":"1093293768","to":"sdaReg66","type":"create","field":"<java.io.ObjectInputStream: java.io.ObjectStreamClass currentClass>"},{"step":49,"from":"1093660920","to":"1093660920.<java.util.ArrayList: int size>","type":"load","field":"<java.util.ArrayList: int size>"},{"step":50,"from":"1093513352","to":"1083934568","type":"load","field":"arrayIdx_int:1"},{"step":51,"from":"1093328432","to":"1093328432.<java.util.ArrayList: int size>","type":"load","field":"<java.util.ArrayList: int size>"},{"step":52,"from":"1093328432","to":"1093328432.<java.util.ArrayList: int size>","type":"load","field":"<java.util.ArrayList: int size>"},{"step":53,"from":"1093328432","to":"1093424448","type":"load","field":"<java.util.ArrayList: java.lang.Object[] array>"},{"step":54,"from":"1093424448","to":"1093497664","type":"load","field":"arrayIdx_int:1"},{"step":55,"from":"1093497664","to":"1083934568","type":"model"},{"step":56,"from":"1083934568","to":"sdaReg78","type":"model"},{"step":57,"from":"1093497664","to":"sdaReg79","type":"model"},{"step":58,"from":"1083934568","to":"sdaReg81","type":"model"},{"step":59,"from":"1093497664","to":"sdaReg82","type":"model"},{"step":60,"from":"1093328432","to":"1093328432.<java.util.ArrayList: int size>","type":"load","field":"<java.util.ArrayList: int size>"},{"step":61,"from":"1093328432","to":"1093424448","type":"load","field":"<java.util.ArrayList: java.lang.Object[] array>"},{"step":62,"from":"1093424448","to":"1093497664","type":"load","field":"arrayIdx_int:1"},{"step":63,"from":"1093281456","to":"1093293768","type":"store","field":"<java.io.ObjectInputStream: java.lang.Object currentObject>"},{"step":64,"from":"1093497664","to":"1093293768","type":"store","field":"<java.io.ObjectInputStream: java.io.ObjectStreamClass currentClass>"},{"step":65,"from":"1093497664","to":"sdaReg89","type":"model"},{"step":66,"from":"1093497664","to":"1083934568","type":"model"},{"step":67,"from":"1093293768","to":"1093293768.<java.io.ObjectInputStream: boolean mustResolve>","type":"load","field":"<java.io.ObjectInputStream: boolean mustResolve>"},{"step":68,"from":"1093497664","to":"0","type":"model"},{"step":69,"from":"1093497664","to":"1093702528","type":"model"},{"step":70,"from":"1093497664","to":"1083934568","type":"model"},{"step":71,"from":"1093702528","to":"1093280088","type":"load","field":"arrayIdx_int:0"},{"step":72,"from":"1093497664","to":"1093280088","type":"model"},{"step":73,"from":"1093497664","to":"1093388936","type":"model"},{"step":74,"from":"1093280088","to":"1093497664","type":"model"},{"step":75,"from":"1093280088","to":"1093388936","type":"model"},{"step":76,"from":"1093280088","to":"1083909616","type":"load","field":"<java.io.ObjectStreamField: java.lang.Object type>"},{"step":77,"from":"1093280088","to":"1083909616","type":"load","field":"<java.io.ObjectStreamField: java.lang.Object type>"},{"step":78,"from":"static.<java.lang.Byte: java.lang.Class TYPE>","to":"1083909112","type":"load","field":"<java.lang.Byte: java.lang.Class TYPE>"},{"step":79,"from":"static.<java.lang.Character: java.lang.Class TYPE>","to":"1083909448","type":"load","field":"<java.lang.Character: java.lang.Class TYPE>"},{"step":80,"from":"static.<java.lang.Double: java.lang.Class TYPE>","to":"1083910120","type":"load","field":"<java.lang.Double: java.lang.Class TYPE>"},{"step":81,"from":"static.<java.lang.Float: java.lang.Class TYPE>","to":"1083909952","type":"load","field":"<java.lang.Float: java.lang.Class TYPE>"},{"step":82,"from":"static.<java.lang.Integer: java.lang.Class TYPE>","to":"1083909616","type":"load","field":"<java.lang.Integer: java.lang.Class TYPE>"},{"step":83,"from":"1093293768","to":"1093386376","type":"load","field":"<java.io.ObjectInputStream: java.io.DataInputStream input>"},{"step":84,"from":"1093386376","to":"1093544616","type":"load","field":"<java.io.FilterInputStream: java.io.InputStream in>"},{"step":85,"from":"1093386376","to":"1093388312","type":"load","field":"<java.io.DataInputStream: byte[] scratch>"},{"step":86,"from":"1093544616","to":"1093388312","type":"model"},{"step":87,"from":"1093386376","to":"1093388312","type":"load","field":"<java.io.DataInputStream: byte[] scratch>"},{"step":88,"from":"static.<java.nio.ByteOrder: java.nio.ByteOrder BIG_ENDIAN>","to":"1084339448","type":"load","field":"<java.nio.ByteOrder: java.nio.ByteOrder BIG_ENDIAN>"},{"step":89,"from":"1093388312","to":"sdaReg112","type":"model"},{"step":90,"from":"1093388936","to":"1093281456","type":"model"},{"step":91,"from":"1093388936","to":"sdaReg112","type":"model"},{"step":92,"from":"1093281456","to":"1093388936","type":"model"},{"step":93,"from":"1093281456","to":"sdaReg112","type":"model"},{"step":94,"from":"sdaReg112","to":"1093388936","type":"model"},{"step":95,"from":"sdaReg112","to":"1093281456","type":"model"},{"step":96,"from":"1093293768","to":"sdaReg113","type":"create","field":"<java.io.ObjectInputStream: java.lang.Object currentObject>"},{"step":97,"from":"1093293768","to":"sdaReg114","type":"create","field":"<java.io.ObjectInputStream: java.io.ObjectStreamClass currentClass>"}],"parameters":[{"id":"1093293768","name":"this","klass":"java.io.ObjectInputStream"},{"id":"1093281456","name":"arg#1","klass":"java.lang.Object"},{"id":"1093497664","name":"arg#2","klass":"java.io.ObjectStreamClass"}],"returns":[{"id":null,"name":"return","klass":null}],"colors":{"heapLocToColor":{"sdaReg68":[0, 1, 4, 6, 10],"sdaReg69":[0],"sdaReg67":[0, 6],"sdaReg62":[2, 3, 18],"sdaReg13":[6],"sdaReg14":[6],"sdaReg71":[2, 3],"sdaReg11":[6],"sdaReg70":[0, 1, 4, 6, 10],"1093328432":[2, 3],"sdaReg12":[6],"sdaReg10":[6],"1093388312":[0],"sdaReg19":[0, 6],"sdaReg17":[0, 1, 4, 8, 9],"sdaReg18":[0, 1, 4, 5, 8, 9],"sdaReg15":[0, 1, 4, 5, 8, 9],"sdaReg16":[0, 1, 4, 8],"1093286304":[2, 3],"sdaReg77":[0, 1, 2, 3, 4, 6, 10],"sdaReg78":[0, 1, 2, 19, 3, 4, 6, 10],"1093328432.<java.util.ArrayList: java.lang.Object[] array>":[2, 3],"sdaReg79":[2, 3, 20],"sdaReg73":[2, 3],"sdaReg74":[2, 3],"1083931088":[0, 1, 2, 3, 4, 6, 8, 10],"sdaReg75":[2, 3],"sdaReg76":[2, 3],"sdaReg81":[0, 1, 2, 3, 4, 6, 22, 10],"sdaReg80":[21],"sdaReg83":[24],"0":[0, 1, 2, 3, 4, 5, 8, 9],"1083994088":[7],"sdaReg82":[2, 3, 23],"1093328432.<java.util.ArrayList: int size>":[2, 3],"sdaReg112":[34, 2, 3, 27],"sdaReg111":[0],"sdaReg110":[2, 3, 26],"sdaReg107":[2, 3, 26],"sdaReg109":[2, 3, 26],"static.<java.lang.Character: java.lang.Class TYPE>":[29],"sdaReg103":[2, 3, 26],"sdaReg106":[2, 3, 27],"1083934568":[0, 1, 2, 3, 4, 6, 10],"sdaReg86":[0],"sdaReg87":[1],"1093481392":[2, 3, 18],"sdaReg84":[2, 3],"sdaReg85":[2, 3],"1093281456":[1, 2, 3, 27],"sdaReg88":[2, 3],"sdaReg89":[2, 3, 25],"sdaReg90":[2, 3, 25],"1083909616":[32, 2, 3, 26],"sdaReg94":[0, 1, 2, 3, 4, 5, 8, 9],"1093424448":[2, 3],"sdaReg93":[0, 1, 2, 3, 4, 6, 10],"sdaReg100":[2, 3, 26],"sdaReg102":[0, 1, 2, 3, 4, 6, 10],"1093497664":[2, 3],"sdaReg101":[2, 3, 26],"1093386320":[0],"sdaReg95":[0],"sdaReg96":[0],"1093424448.arrayIdx_int:1":[2, 3],"1093386376.<java.io.DataInputStream: byte[] scratch>":[0],"sdaReg97":[1],"1093424448.arrayIdx_int:0":[2, 3],"sdaReg98":[2, 3],"sdaReg99":[2, 3, 26],"1093513352.arrayIdx_int:0":[0, 1, 4, 6, 8],"1083910288":[0, 1, 4, 8, 9],"1093513352.arrayIdx_int:1":[0, 1, 4, 6],"1093660920":[0, 6],"1093388936":[2, 3, 27],"1084339448":[33],"sdaReg60":[2, 18, 3],"sdaReg61":[0, 1, 2, 3, 4, 6, 8, 10],"1093513352":[10],"static.<java.lang.Float: java.lang.Class TYPE>":[31],"static.<libcore.util.EmptyArray: java.lang.Object[] OBJECT>":[7],"1093280088.<java.io.ObjectStreamField: java.lang.Object type>":[2, 3, 26],"static.<java.lang.Byte: java.lang.Class TYPE>":[28],"1083909112":[28],"sdaReg59":[2, 3, 18],"sdaReg58":[2, 18, 3],"sdaReg57":[2, 3],"1093293768":[0],"sdaReg56":[1],"sdaReg55":[0],"static.<java.nio.ByteOrder: java.nio.ByteOrder BIG_ENDIAN>":[33],"sdaReg54":[0],"sdaReg53":[0, 1, 2, 3, 4, 5, 8, 9],"sdaReg52":[0, 1, 2, 3, 4, 6, 8, 10],"static.<java.lang.Double: java.lang.Class TYPE>":[30],"sdaReg49":[17, 2, 3],"sdaReg48":[17, 2, 3],"sdaReg45":[0],"sdaReg44":[2, 3],"1083910120":[30],"sdaReg47":[2, 3],"sdaReg46":[1],"1083909448":[29],"sdaReg40":[16],"sdaReg43":[2, 3],"sdaReg42":[2, 3],"1093660920.<java.util.ArrayList: int size>":[0, 6],"1093293768.<java.io.ObjectInputStream: java.util.HashMap cachedSuperclasses>":[0],"sdaReg39":[2, 3, 15],"sdaReg38":[0, 1, 2, 3, 4, 6, 8, 10, 14],"1083909952":[31],"sdaReg37":[13],"1093293768.<java.io.ObjectInputStream: boolean mustResolve>":[0],"sdaReg32":[2, 3],"sdaReg31":[2, 3],"sdaReg30":[2, 3],"sdaReg36":[2, 3, 12],"sdaReg35":[0, 1, 2, 3, 4, 6, 8, 10, 11],"sdaReg34":[0, 1, 2, 3, 4, 6, 8, 10],"1093702528":[2, 3, 26],"sdaReg33":[2, 3],"sdaReg8":[6],"sdaReg9":[6],"sdaReg6":[0, 1, 4],"sdaReg7":[6],"sdaReg4":[0, 1, 4],"sdaReg5":[0],"sdaReg27":[0, 1, 4, 6, 8, 10],"sdaReg26":[0],"sdaReg28":[2, 3],"1093386376":[0],"static.<java.lang.Integer: java.lang.Class TYPE>":[2, 32, 3, 26],"sdaReg3":[0, 5],"1093280088":[2, 3, 26],"sdaReg2":[0, 5],"sdaReg1":[1, 4],"sdaReg0":[2, 3],"1093544616":[0],"sdaReg23":[0, 6],"sdaReg22":[0, 6],"sdaReg25":[0, 1, 4, 6, 8, 10],"sdaReg24":[0, 1, 4, 6, 8, 10]},"colorToColor":{"34":[1, 2, 3, 27],"0":[34, 0, 1, 4, 5, 6],"1":[34, 0, 2, 3, 5, 6, 27],"2":[34, 0, 1, 2, 3, 27],"3":[34, 0, 1, 2, 3, 27],"4":[0, 5, 6],"6":[0, 1, 4, 6],"7":[6],"8":[6],"27":[34, 1, 2, 3, 27],"26":[2, 3, 27]},"colorToLabel":{"0":"this","1":"arg#1","2":"arg#2","7":"<libcore.util.EmptyArray: java.lang.Object[] OBJECT>","28":"<java.lang.Byte: java.lang.Class TYPE>","29":"<java.lang.Character: java.lang.Class TYPE>","30":"<java.lang.Double: java.lang.Class TYPE>","31":"<java.lang.Float: java.lang.Class TYPE>","32":"<java.lang.Integer: java.lang.Class TYPE>","33":"<java.nio.ByteOrder: java.nio.ByteOrder BIG_ENDIAN>","35":"return"}}}

Generated Model
	this->arg#2
	this->arg#1
	arg#2->this
	arg#2->arg#1
	arg#1->this
	arg#1->arg#2

