Scanning method <java.util.HashMap: java.util.Iterator newKeyIterator()>

All seen event types: BinaryOperationRecord, SimpleAssignmentRecord, MethodReturnRecord, MethodCallRecord, ArrayLengthRecord, LoadInstanceRecord, MethodStartRecord, LoadArrayRecord, MethodEndRecord, IfRecord, StoreInstanceRecord, NewObjectRecord, 
Ignored event types: IfRecord, 

JSON Encoded Analysis Data (for visualization):{"heapEdges":[{"step":0,"from":"1093558912","to":"1093637760","type":"store","field":"<java.util.HashMap$KeyIterator: java.util.HashMap this$0>"},{"step":1,"from":"1093558912","to":"1093637760","type":"store","field":"<java.util.HashMap$HashIterator: java.util.HashMap this$0>"},{"step":2,"from":"1093558912","to":"1093558912.<java.util.HashMap: int modCount>","type":"load","field":"<java.util.HashMap: int modCount>"},{"step":3,"from":"1093558912.<java.util.HashMap: int modCount>","to":"1093637760","type":"store","field":"<java.util.HashMap$HashIterator: int expectedModCount>"},{"step":4,"from":"1093558912","to":"1093566104","type":"load","field":"<java.util.HashMap: java.util.HashMap$HashMapEntry[] table>"},{"step":5,"from":"1093637760","to":"1093637760.<java.util.HashMap$HashIterator: int nextIndex>","type":"load","field":"<java.util.HashMap$HashIterator: int nextIndex>"},{"step":6,"from":"1093637760","to":"1093637760.<java.util.HashMap$HashIterator: int nextIndex>","type":"load","field":"<java.util.HashMap$HashIterator: int nextIndex>"},{"step":7,"from":"sdaReg9","to":"1093637760","type":"store","field":"<java.util.HashMap$HashIterator: int nextIndex>"},{"step":8,"from":"sdaReg9","to":"1093637760","type":"store","field":"<java.util.HashMap$HashIterator: int nextIndex>"},{"step":9,"from":"1093566104","to":"1093616232","type":"load","field":"arrayIdx_int:1"},{"step":10,"from":"1093616232","to":"1093637760","type":"store","field":"<java.util.HashMap$HashIterator: java.util.HashMap$HashMapEntry nextEntry>"}],"parameters":[{"id":"1093558912","name":"this","klass":"java.util.HashMap"}],"returns":[{"id":"1093637760","name":"return","klass":"java.util.Iterator"}],"colors":{"heapLocToColor":{"sdaReg9":[1],"sdaReg6":[1],"sdaReg4":[1],"1093637760":[1],"sdaReg5":[0],"1093558912":[0],"1093566104":[0],"sdaReg13":[1],"sdaReg11":[1],"sdaReg12":[1],"1093558912.<java.util.HashMap: int modCount>":[0],"sdaReg3":[0],"sdaReg2":[1],"sdaReg1":[0],"sdaReg0":[1],"1093616232":[0],"1093637760.<java.util.HashMap$HashIterator: int nextIndex>":[1]},"colorToColor":{"0":[1],"1":[1, 2]},"colorToLabel":{"0":"this","2":"return"}}}

Generated Model
	this->return

