Scanning method <java.io.PrintWriter: void close()>

All seen event types: StoreArrayRecord, SimpleAssignmentRecord, ExitMonitorRecord, LoadInstanceRecord, MethodStartRecord, IfRecord, NewObjectRecord, StoreInstanceRecord, NewArrayRecord, LoadStaticRecord, BinaryOperationRecord, MethodCallRecord, MethodReturnRecord, EnterMonitorRecord, LoadArrayRecord, MethodEndRecord, 
Ignored event types: ExitMonitorRecord, EnterMonitorRecord, IfRecord, 

JSON Encoded Analysis Data (for visualization):{"heapEdges":[{"step":0,"from":"1093637608","to":"1093637640","type":"load","field":"<java.io.Writer: java.lang.Object lock>"},{"step":1,"from":"1093637608","to":"1093637640","type":"load","field":"<java.io.PrintWriter: java.io.Writer out>"},{"step":2,"from":"1093637608","to":"1093637640","type":"load","field":"<java.io.PrintWriter: java.io.Writer out>"},{"step":3,"from":"1093637640","to":"1093637432","type":"load","field":"<java.io.Writer: java.lang.Object lock>"},{"step":4,"from":"1093637640","to":"1093646192","type":"load","field":"<java.io.OutputStreamWriter: java.nio.charset.CharsetEncoder encoder>"},{"step":5,"from":"1093495096","to":"sdaReg14","type":"create","field":"<java.nio.Buffer: int mark>"},{"step":6,"from":"1093495096","to":"sdaReg15","type":"create","field":"<java.nio.Buffer: int position>"},{"step":7,"from":"1093495096","to":"sdaReg12","type":"create","field":"<java.nio.Buffer: int _elementSizeShift>"},{"step":8,"from":"1093495096","to":"sdaReg4","type":"create","field":"<java.nio.Buffer: int limit>"},{"step":9,"from":"sdaReg4","to":"1093495096","type":"store","field":"<java.nio.Buffer: int capacity>"},{"step":10,"from":"1093495096","to":"1093672360","type":"create","field":"<java.nio.CharArrayBuffer: char[] backingArray>"},{"step":11,"from":"1093495096","to":"sdaReg9","type":"create","field":"<java.nio.CharArrayBuffer: int offset>"},{"step":12,"from":"1093637640","to":"1093646192","type":"load","field":"<java.io.OutputStreamWriter: java.nio.charset.CharsetEncoder encoder>"},{"step":13,"from":"1093637640","to":"1093637672","type":"load","field":"<java.io.OutputStreamWriter: java.nio.ByteBuffer bytes>"},{"step":14,"from":"1093646192","to":"1093495096","type":"model"},{"step":15,"from":"1093646192","to":"1093637672","type":"model"},{"step":16,"from":"1093646192","to":"1084215096","type":"model"},{"step":17,"from":"1093495096","to":"1093646192","type":"model"},{"step":18,"from":"1093495096","to":"1093637672","type":"model"},{"step":19,"from":"1093495096","to":"1084215096","type":"model"},{"step":20,"from":"1093637672","to":"1093646192","type":"model"},{"step":21,"from":"1093637672","to":"1093495096","type":"model"},{"step":22,"from":"1093637672","to":"1084215096","type":"model"},{"step":23,"from":"1084215096","to":"1084215096.<java.nio.charset.CoderResult: int type>","type":"load","field":"<java.nio.charset.CoderResult: int type>"},{"step":24,"from":"1084215096","to":"1084215096.<java.nio.charset.CoderResult: int type>","type":"load","field":"<java.nio.charset.CoderResult: int type>"},{"step":25,"from":"1084215096","to":"1084215096.<java.nio.charset.CoderResult: int type>","type":"load","field":"<java.nio.charset.CoderResult: int type>"},{"step":26,"from":"1093637640","to":"1093646192","type":"load","field":"<java.io.OutputStreamWriter: java.nio.charset.CharsetEncoder encoder>"},{"step":27,"from":"1093637640","to":"1093637672","type":"load","field":"<java.io.OutputStreamWriter: java.nio.ByteBuffer bytes>"},{"step":28,"from":"1093646192","to":"1093646192.<java.nio.charset.CharsetEncoder: int status>","type":"load","field":"<java.nio.charset.CharsetEncoder: int status>"},{"step":29,"from":"static.<libcore.util.EmptyArray: char[] CHAR>","to":"1083993992","type":"load","field":"<libcore.util.EmptyArray: char[] CHAR>"},{"step":30,"from":"1083993992","to":"1093646192","type":"store","field":"<java.nio.charset.CharsetEncoderICU: char[] input>"},{"step":31,"from":"1093646192","to":"sdaReg31","type":"create","field":"<java.nio.charset.CharsetEncoderICU: int inEnd>"},{"step":32,"from":"1093646192","to":"1093646320","type":"load","field":"<java.nio.charset.CharsetEncoderICU: int[] data>"},{"step":33,"from":"1093646320","to":"sdaReg32","type":"create","field":"arrayIdx_int:0"},{"step":34,"from":"1093646192","to":"1093646320","type":"load","field":"<java.nio.charset.CharsetEncoderICU: int[] data>"},{"step":35,"from":"1093637672","to":"1093637728","type":"load","field":"<java.nio.HeapByteBuffer: byte[] backingArray>"},{"step":36,"from":"1093637728","to":"1093646192","type":"store","field":"<java.nio.charset.CharsetEncoderICU: byte[] output>"},{"step":37,"from":"1093637672","to":"1093637672.<java.nio.HeapByteBuffer: int offset>","type":"load","field":"<java.nio.HeapByteBuffer: int offset>"},{"step":38,"from":"1093637672","to":"1093637672.<java.nio.Buffer: int limit>","type":"load","field":"<java.nio.Buffer: int limit>"},{"step":39,"from":"sdaReg45","to":"1093646192","type":"store","field":"<java.nio.charset.CharsetEncoderICU: int outEnd>"},{"step":40,"from":"1093637672","to":"1093637672.<java.nio.HeapByteBuffer: int offset>","type":"load","field":"<java.nio.HeapByteBuffer: int offset>"},{"step":41,"from":"1093637672","to":"1093637672.<java.nio.Buffer: int position>","type":"load","field":"<java.nio.Buffer: int position>"},{"step":42,"from":"sdaReg49","to":"1093646320","type":"store","field":"arrayIdx_int:1"},{"step":43,"from":"1093646192","to":"1093646320","type":"load","field":"<java.nio.charset.CharsetEncoderICU: int[] data>"},{"step":44,"from":"1093646320","to":"sdaReg50","type":"create","field":"arrayIdx_int:2"},{"step":45,"from":"1093646192","to":"1093646192.<java.nio.charset.CharsetEncoderICU: long converterHandle>","type":"load","field":"<java.nio.charset.CharsetEncoderICU: long converterHandle>"},{"step":46,"from":"1093646192","to":"1093646320","type":"load","field":"<java.nio.charset.CharsetEncoderICU: int[] data>"},{"step":47,"from":"1093646192.<java.nio.charset.CharsetEncoderICU: long converterHandle>","to":"1083993992","type":"model"},{"step":48,"from":"1093646192.<java.nio.charset.CharsetEncoderICU: long converterHandle>","to":"1093637728","type":"model"},{"step":49,"from":"1093646192.<java.nio.charset.CharsetEncoderICU: long converterHandle>","to":"1093646320","type":"model"},{"step":50,"from":"1093646192.<java.nio.charset.CharsetEncoderICU: long converterHandle>","to":"sdaReg51","type":"model"},{"step":51,"from":"1083993992","to":"1093646192.<java.nio.charset.CharsetEncoderICU: long converterHandle>","type":"model"},{"step":52,"from":"1083993992","to":"1093637728","type":"model"},{"step":53,"from":"1083993992","to":"1093646320","type":"model"},{"step":54,"from":"1083993992","to":"sdaReg51","type":"model"},{"step":55,"from":"1093637728","to":"1093646192.<java.nio.charset.CharsetEncoderICU: long converterHandle>","type":"model"},{"step":56,"from":"1093637728","to":"1083993992","type":"model"},{"step":57,"from":"1093637728","to":"1093646320","type":"model"},{"step":58,"from":"1093637728","to":"sdaReg51","type":"model"},{"step":59,"from":"1093646320","to":"1093646192.<java.nio.charset.CharsetEncoderICU: long converterHandle>","type":"model"},{"step":60,"from":"1093646320","to":"1083993992","type":"model"},{"step":61,"from":"1093646320","to":"1093637728","type":"model"},{"step":62,"from":"1093646320","to":"sdaReg51","type":"model"},{"step":63,"from":"sdaReg51","to":"1093646192","type":"store","field":"<java.nio.charset.CharsetEncoderICU: int ec>"},{"step":64,"from":"static.<java.nio.charset.CoderResult: java.nio.charset.CoderResult UNDERFLOW>","to":"1084215096","type":"load","field":"<java.nio.charset.CoderResult: java.nio.charset.CoderResult UNDERFLOW>"},{"step":65,"from":"1093637672","to":"1093637672.<java.nio.Buffer: int position>","type":"load","field":"<java.nio.Buffer: int position>"},{"step":66,"from":"1093646192","to":"1093646320","type":"load","field":"<java.nio.charset.CharsetEncoderICU: int[] data>"},{"step":67,"from":"1093637672","to":"1093637672.<java.nio.HeapByteBuffer: int offset>","type":"load","field":"<java.nio.HeapByteBuffer: int offset>"},{"step":68,"from":"1093637672","to":"1093637672.<java.nio.Buffer: int limit>","type":"load","field":"<java.nio.Buffer: int limit>"},{"step":69,"from":"sdaReg63","to":"1093637672","type":"store","field":"<java.nio.Buffer: int position>"},{"step":70,"from":"1093637672","to":"1093637672.<java.nio.Buffer: int mark>","type":"load","field":"<java.nio.Buffer: int mark>"},{"step":71,"from":"1093646192","to":"sdaReg66","type":"create","field":"<java.nio.charset.CharsetEncoderICU: byte[] output>"},{"step":72,"from":"1093646192","to":"1093646192.<java.nio.charset.CharsetEncoderICU: long converterHandle>","type":"load","field":"<java.nio.charset.CharsetEncoderICU: long converterHandle>"},{"step":73,"from":"1093646192","to":"1093646320","type":"load","field":"<java.nio.charset.CharsetEncoderICU: int[] data>"},{"step":74,"from":"1093646320","to":"sdaReg68","type":"create","field":"arrayIdx_int:0"},{"step":75,"from":"1093646192","to":"1093646320","type":"load","field":"<java.nio.charset.CharsetEncoderICU: int[] data>"},{"step":76,"from":"1093646320","to":"sdaReg69","type":"create","field":"arrayIdx_int:1"},{"step":77,"from":"1093646192","to":"1093646320","type":"load","field":"<java.nio.charset.CharsetEncoderICU: int[] data>"},{"step":78,"from":"1093646320","to":"sdaReg70","type":"create","field":"arrayIdx_int:2"},{"step":79,"from":"1093646192","to":"sdaReg71","type":"create","field":"<java.nio.charset.CharsetEncoderICU: byte[] output>"},{"step":80,"from":"1093646192","to":"sdaReg72","type":"create","field":"<java.nio.charset.CharsetEncoderICU: char[] input>"},{"step":81,"from":"1093646192","to":"sdaReg73","type":"create","field":"<java.nio.charset.CharsetEncoderICU: char[] allocatedInput>"},{"step":82,"from":"1093646192","to":"sdaReg74","type":"create","field":"<java.nio.charset.CharsetEncoderICU: byte[] allocatedOutput>"},{"step":83,"from":"1093646192","to":"sdaReg75","type":"create","field":"<java.nio.charset.CharsetEncoderICU: int ec>"},{"step":84,"from":"1093646192","to":"sdaReg76","type":"create","field":"<java.nio.charset.CharsetEncoderICU: int inEnd>"},{"step":85,"from":"1093646192","to":"sdaReg77","type":"create","field":"<java.nio.charset.CharsetEncoderICU: int outEnd>"},{"step":86,"from":"static.<java.nio.charset.CoderResult: java.nio.charset.CoderResult UNDERFLOW>","to":"1084215096","type":"load","field":"<java.nio.charset.CoderResult: java.nio.charset.CoderResult UNDERFLOW>"},{"step":87,"from":"1093646192","to":"sdaReg79","type":"create","field":"<java.nio.charset.CharsetEncoder: int status>"},{"step":88,"from":"1084215096","to":"1084215096.<java.nio.charset.CoderResult: int type>","type":"load","field":"<java.nio.charset.CoderResult: int type>"},{"step":89,"from":"1093637640","to":"1093637432","type":"load","field":"<java.io.OutputStreamWriter: java.io.OutputStream out>"},{"step":90,"from":"1093637640","to":"sdaReg84","type":"create","field":"<java.io.OutputStreamWriter: java.nio.charset.CharsetEncoder encoder>"},{"step":91,"from":"1093637640","to":"sdaReg85","type":"create","field":"<java.io.OutputStreamWriter: java.nio.ByteBuffer bytes>"},{"step":92,"from":"1093637608","to":"sdaReg86","type":"create","field":"<java.io.PrintWriter: java.io.Writer out>"}],"parameters":[{"id":"1093637608","name":"this","klass":"java.io.PrintWriter"}],"returns":[{"id":null,"name":"return","klass":null}],"colors":{"heapLocToColor":{"sdaReg60":[0],"sdaReg61":[0],"1093637672.<java.nio.Buffer: int mark>":[0],"sdaReg67":[0],"1093646192.<java.nio.charset.CharsetEncoderICU: int[] data>":[0],"sdaReg64":[0],"sdaReg65":[0],"sdaReg62":[0],"sdaReg63":[0],"1093637672.<java.nio.HeapByteBuffer: int offset>":[0],"sdaReg13":[1],"sdaReg11":[1],"sdaReg10":[1],"sdaReg59":[0],"sdaReg57":[0],"1093637672":[0],"sdaReg56":[0],"sdaReg19":[1],"sdaReg55":[0],"1093637640.<java.io.OutputStreamWriter: java.io.OutputStream out>":[0],"sdaReg54":[0],"sdaReg17":[1],"sdaReg18":[1],"sdaReg51":[5],"sdaReg16":[1],"1093637728":[0],"sdaReg78":[0, 3, 6],"1093637432":[0],"sdaReg81":[0, 3, 6],"1093672360":[2],"sdaReg80":[0, 3, 6],"sdaReg83":[0],"1093637640.<java.io.OutputStreamWriter: java.nio.ByteBuffer bytes>":[0],"sdaReg49":[0],"sdaReg48":[0],"1084215096":[0, 3, 6],"sdaReg45":[0],"sdaReg44":[0],"sdaReg47":[0],"1093646192.<java.nio.charset.CharsetEncoder: int status>":[0],"sdaReg46":[0],"sdaReg41":[0],"sdaReg40":[0],"sdaReg43":[0],"sdaReg42":[0],"1093646192.<java.nio.charset.CharsetEncoderICU: long converterHandle>":[0],"1093637640.<java.io.OutputStreamWriter: java.nio.charset.CharsetEncoder encoder>":[0],"static.<java.nio.charset.CoderResult: java.nio.charset.CoderResult UNDERFLOW>":[0, 3, 6],"1093637608.<java.io.PrintWriter: java.io.Writer out>":[0],"sdaReg39":[0],"sdaReg38":[0],"1093646320":[0],"sdaReg30":[0],"1084215096.<java.nio.charset.CoderResult: int type>":[0, 3, 6],"sdaReg36":[0],"sdaReg35":[0],"sdaReg34":[0],"sdaReg33":[0],"1093646192":[0],"sdaReg8":[2],"sdaReg6":[1],"1083993992":[4],"sdaReg7":[1],"sdaReg5":[1],"1093637672.<java.nio.Buffer: int limit>":[0],"static.<libcore.util.EmptyArray: char[] CHAR>":[4],"1093637672.<java.nio.Buffer: int position>":[0],"sdaReg27":[0],"sdaReg29":[0],"sdaReg28":[0],"1093495096":[0, 1],"sdaReg3":[0],"sdaReg21":[1],"sdaReg1":[0],"sdaReg20":[1],"1093637608":[0],"sdaReg23":[0, 3],"sdaReg22":[0, 3],"1093637640":[0],"sdaReg25":[0, 3]},"colorToColor":{"0":[0, 1, 3, 4, 5],"1":[0, 3],"2":[1],"4":[0, 5],"5":[0]},"colorToLabel":{"0":"this","4":"<libcore.util.EmptyArray: char[] CHAR>","6":"<java.nio.charset.CoderResult: java.nio.charset.CoderResult UNDERFLOW>","7":"return"}}}

Generated Model
	this-><libcore.util.EmptyArray: char[] CHAR>

