Scanning method <java.util.ArrayList$ArrayListIterator: void remove()>

All seen event types: BinaryOperationRecord, StoreArrayRecord, MethodReturnRecord, MethodCallRecord, LoadInstanceRecord, IfRecord, StoreInstanceRecord, 
Ignored event types: IfRecord, 

JSON Encoded Analysis Data (for visualization):{"heapEdges":[{"step":0,"from":"1097879176","to":"1093519824","type":"load","field":"<java.util.ArrayList$ArrayListIterator: java.util.ArrayList this$0>"},{"step":1,"from":"1093519824","to":"1094129696","type":"load","field":"<java.util.ArrayList: java.lang.Object[] array>"},{"step":2,"from":"1097879176","to":"1097879176.<java.util.ArrayList$ArrayListIterator: int removalIndex>","type":"load","field":"<java.util.ArrayList$ArrayListIterator: int removalIndex>"},{"step":3,"from":"1097879176","to":"1093519824","type":"load","field":"<java.util.ArrayList$ArrayListIterator: java.util.ArrayList this$0>"},{"step":4,"from":"1093519824","to":"1093519824.<java.util.AbstractList: int modCount>","type":"load","field":"<java.util.AbstractList: int modCount>"},{"step":5,"from":"1097879176","to":"1097879176.<java.util.ArrayList$ArrayListIterator: int expectedModCount>","type":"load","field":"<java.util.ArrayList$ArrayListIterator: int expectedModCount>"},{"step":6,"from":"1097879176","to":"1097879176.<java.util.ArrayList$ArrayListIterator: int remaining>","type":"load","field":"<java.util.ArrayList$ArrayListIterator: int remaining>"},{"step":7,"from":"1097879176","to":"1093519824","type":"load","field":"<java.util.ArrayList$ArrayListIterator: java.util.ArrayList this$0>"},{"step":8,"from":"1093519824","to":"1093519824.<java.util.ArrayList: int size>","type":"load","field":"<java.util.ArrayList: int size>"},{"step":9,"from":"sdaReg1","to":"1093519824","type":"store","field":"<java.util.ArrayList: int size>"},{"step":10,"from":"1094129696","to":"sdaReg2","type":"create","field":"arrayIdx_int:75"},{"step":11,"from":"1097879176","to":"sdaReg3","type":"create","field":"<java.util.ArrayList$ArrayListIterator: int removalIndex>"},{"step":12,"from":"1097879176","to":"1093519824","type":"load","field":"<java.util.ArrayList$ArrayListIterator: java.util.ArrayList this$0>"},{"step":13,"from":"1093519824","to":"1093519824.<java.util.AbstractList: int modCount>","type":"load","field":"<java.util.AbstractList: int modCount>"},{"step":14,"from":"sdaReg4","to":"1093519824","type":"store","field":"<java.util.AbstractList: int modCount>"},{"step":15,"from":"sdaReg4","to":"1097879176","type":"store","field":"<java.util.ArrayList$ArrayListIterator: int expectedModCount>"}],"parameters":[{"id":"1097879176","name":"this","klass":"java.util.ArrayList$ArrayListIterator"}],"returns":[{"id":null,"name":"return","klass":null}],"colors":{"heapLocToColor":{"1093519824":[0],"1097879176.<java.util.ArrayList$ArrayListIterator: int expectedModCount>":[0],"sdaReg4":[0],"1097879176.<java.util.ArrayList$ArrayListIterator: int removalIndex>":[0],"1094129696":[0],"1093519824.<java.util.ArrayList: int size>":[0],"sdaReg1":[0],"sdaReg0":[0],"1097879176.<java.util.ArrayList$ArrayListIterator: java.util.ArrayList this$0>":[0],"1093519824.<java.util.AbstractList: int modCount>":[0],"1097879176":[0],"1097879176.<java.util.ArrayList$ArrayListIterator: int remaining>":[0]},"colorToColor":{"0":[0]},"colorToLabel":{"0":"this","1":"return"}}}

Generated Model

