Scanning method <java.util.AbstractList$SimpleListIterator: void remove()>

All seen event types: BinaryOperationRecord, StoreArrayRecord, MethodReturnRecord, MethodCallRecord, MethodStartRecord, LoadInstanceRecord, LoadArrayRecord, MethodEndRecord, IfRecord, StoreInstanceRecord, 
Ignored event types: IfRecord, 

JSON Encoded Analysis Data (for visualization):{"heapEdges":[{"step":0,"from":"1095037464","to":"1095037464.<java.util.AbstractList$SimpleListIterator: int lastPosition>","type":"load","field":"<java.util.AbstractList$SimpleListIterator: int lastPosition>"},{"step":1,"from":"1095037464","to":"1095037464.<java.util.AbstractList$SimpleListIterator: int expectedModCount>","type":"load","field":"<java.util.AbstractList$SimpleListIterator: int expectedModCount>"},{"step":2,"from":"1095037464","to":"1093519824","type":"load","field":"<java.util.AbstractList$SimpleListIterator: java.util.AbstractList this$0>"},{"step":3,"from":"1093519824","to":"1093519824.<java.util.AbstractList: int modCount>","type":"load","field":"<java.util.AbstractList: int modCount>"},{"step":4,"from":"1095037464","to":"1093519824","type":"load","field":"<java.util.AbstractList$SimpleListIterator: java.util.AbstractList this$0>"},{"step":5,"from":"1095037464","to":"1095037464.<java.util.AbstractList$SimpleListIterator: int lastPosition>","type":"load","field":"<java.util.AbstractList$SimpleListIterator: int lastPosition>"},{"step":6,"from":"1093519824","to":"1094129696","type":"load","field":"<java.util.ArrayList: java.lang.Object[] array>"},{"step":7,"from":"1093519824","to":"1093519824.<java.util.ArrayList: int size>","type":"load","field":"<java.util.ArrayList: int size>"},{"step":8,"from":"1094129696","to":"1093914008","type":"load","field":"arrayIdx_int:2"},{"step":9,"from":"1094129696","to":"sdaReg4","type":"create","field":"arrayIdx_int:101"},{"step":10,"from":"sdaReg2","to":"1093519824","type":"store","field":"<java.util.ArrayList: int size>"},{"step":11,"from":"1093519824","to":"1093519824.<java.util.AbstractList: int modCount>","type":"load","field":"<java.util.AbstractList: int modCount>"},{"step":12,"from":"sdaReg5","to":"1093519824","type":"store","field":"<java.util.AbstractList: int modCount>"},{"step":13,"from":"1095037464","to":"1093519824","type":"load","field":"<java.util.AbstractList$SimpleListIterator: java.util.AbstractList this$0>"},{"step":14,"from":"sdaReg6","to":"1095037464","type":"store","field":"<java.util.AbstractList$SimpleListIterator: int expectedModCount>"},{"step":15,"from":"1095037464","to":"1095037464.<java.util.AbstractList$SimpleListIterator: int pos>","type":"load","field":"<java.util.AbstractList$SimpleListIterator: int pos>"},{"step":16,"from":"1095037464","to":"1095037464.<java.util.AbstractList$SimpleListIterator: int lastPosition>","type":"load","field":"<java.util.AbstractList$SimpleListIterator: int lastPosition>"},{"step":17,"from":"1095037464","to":"sdaReg7","type":"create","field":"<java.util.AbstractList$SimpleListIterator: int lastPosition>"}],"parameters":[{"id":"1095037464","name":"this","klass":"java.util.AbstractList$SimpleListIterator"}],"returns":[{"id":null,"name":"return","klass":null}],"colors":{"heapLocToColor":{"1095037464.<java.util.AbstractList$SimpleListIterator: int pos>":[0],"1095037464.<java.util.AbstractList$SimpleListIterator: int lastPosition>":[0],"sdaReg5":[0],"1094129696":[0],"1093519824.<java.util.ArrayList: int size>":[0],"1095037464.<java.util.AbstractList$SimpleListIterator: java.util.AbstractList this$0>":[0],"1093519824":[0],"sdaReg3":[0],"sdaReg2":[0],"sdaReg1":[0],"1095037464":[0],"sdaReg0":[0],"1095037464.<java.util.AbstractList$SimpleListIterator: int expectedModCount>":[0],"1093519824.<java.util.AbstractList: int modCount>":[0],"1093914008":[0]},"colorToColor":{"0":[0]},"colorToLabel":{"0":"this","1":"return"}}}

Generated Model

