Scanning method <java.io.Reader: void <init>()>

All seen event types: MethodReturnRecord, MethodCallRecord, StoreInstanceRecord, 
Ignored event types: 

JSON Encoded Analysis Data (for visualization):{"heapEdges":[{"step":0,"from":"1093671296","to":"1093671296","type":"store","field":"<java.io.Reader: java.lang.Object lock>"}],"parameters":[{"id":"1093671296","name":"this","klass":"java.io.Reader"}],"returns":[{"id":"1093671296","name":"return","klass":"java.io.Reader"}],"colors":{"heapLocToColor":{"1093671296":[0],"sdaReg0":[0]},"colorToColor":{"0":[0, 1]},"colorToLabel":{"0":"this","1":"return"}}}

Generated Model
	this->return

