Scanning method <java.io.FileOutputStream: void write(byte[],int,int)>

All seen event types: MethodReturnRecord, MethodCallRecord, LoadInstanceRecord, 
Ignored event types: 

JSON Encoded Analysis Data (for visualization):{"heapEdges":[{"step":0,"from":"1096892176","to":"1095754104","type":"load","field":"<java.io.FileOutputStream: java.io.FileDescriptor fd>"},{"step":1,"from":"1095754104","to":"1098302152","type":"model"},{"step":2,"from":"1095754104","to":"sdaReg0","type":"model"},{"step":3,"from":"1095754104","to":"sdaReg1","type":"model"},{"step":4,"from":"1098302152","to":"1095754104","type":"model"},{"step":5,"from":"1098302152","to":"sdaReg0","type":"model"},{"step":6,"from":"1098302152","to":"sdaReg1","type":"model"},{"step":7,"from":"sdaReg0","to":"1095754104","type":"model"},{"step":8,"from":"sdaReg0","to":"1098302152","type":"model"},{"step":9,"from":"sdaReg0","to":"sdaReg1","type":"model"},{"step":10,"from":"sdaReg1","to":"1095754104","type":"model"},{"step":11,"from":"sdaReg1","to":"1098302152","type":"model"},{"step":12,"from":"sdaReg1","to":"sdaReg0","type":"model"}],"parameters":[{"id":"1096892176","name":"this","klass":"java.io.FileOutputStream"},{"id":"1098302152","name":"arg#1","klass":"byte[]"},{"id":"sdaReg0","name":"arg#2","klass":"int"},{"id":"sdaReg1","name":"arg#3","klass":"int"}],"returns":[{"id":null,"name":"return","klass":null}],"colors":{"heapLocToColor":{"1095754104":[0],"1096892176":[0],"1098302152":[1],"sdaReg1":[3],"sdaReg0":[2]},"colorToColor":{"0":[1, 2, 3],"1":[0, 2, 3],"2":[0, 1, 3],"3":[0, 1, 2]},"colorToLabel":{"0":"this","1":"arg#1","2":"arg#2","3":"arg#3","4":"return"}}}

Generated Model
	this->arg#3
	this->arg#2
	this->arg#1
	arg#3->this
	arg#3->arg#2
	arg#3->arg#1
	arg#2->this
	arg#2->arg#3
	arg#2->arg#1
	arg#1->this
	arg#1->arg#3
	arg#1->arg#2

