Scanning method <java.util.regex.Matcher: void finalize()>

All seen event types: MethodReturnRecord, MethodCallRecord, LoadInstanceRecord, 
Ignored event types: 

JSON Encoded Analysis Data (for visualization):{"heapEdges":[{"step":0,"from":"1093561504","to":"1093561504.<java.util.regex.Matcher: int address>","type":"load","field":"<java.util.regex.Matcher: int address>"}],"parameters":[{"id":"1093561504","name":"this","klass":"java.util.regex.Matcher"}],"returns":[{"id":null,"name":"return","klass":null}],"colors":{"heapLocToColor":{"1093561504.<java.util.regex.Matcher: int address>":[0],"1093561504":[0]},"colorToColor":{},"colorToLabel":{"0":"this","1":"return"}}}

Generated Model

