Scanning method <java.io.BufferedReader: boolean isClosed()>

All seen event types: SimpleAssignmentRecord, LoadInstanceRecord, IfRecord, 
Ignored event types: IfRecord, 

JSON Encoded Analysis Data (for visualization):{"heapEdges":[],"parameters":[{"id":"1093689800","name":"this","klass":"java.io.BufferedReader"}],"returns":[{"id":"sdaReg0","name":"return","klass":"boolean"}],"colors":{"heapLocToColor":{"1093689800":[0]},"colorToColor":{},"colorToLabel":{"0":"this","1":"return"}}}

Generated Model

