Scanning method <java.io.InputStreamReader: int read(char[],int,int)>

All seen event types: StoreArrayRecord, SimpleAssignmentRecord, ExitMonitorRecord, LoadInstanceRecord, MethodStartRecord, IfRecord, NewObjectRecord, StoreInstanceRecord, LoadStaticRecord, BinaryOperationRecord, MethodCallRecord, MethodReturnRecord, EnterMonitorRecord, ArrayLengthRecord, LoadArrayRecord, MethodEndRecord, 
Ignored event types: ExitMonitorRecord, EnterMonitorRecord, IfRecord, 

JSON Encoded Analysis Data (for visualization):{"heapEdges":[{"step":0,"from":"1093652160","to":"1093651256","type":"load","field":"<java.io.Reader: java.lang.Object lock>"},{"step":1,"from":"1093652160","to":"1093651256","type":"load","field":"<java.io.InputStreamReader: java.io.InputStream in>"},{"step":2,"from":"1093364992","to":"sdaReg24","type":"create","field":"<java.nio.Buffer: int mark>"},{"step":3,"from":"1093364992","to":"sdaReg25","type":"create","field":"<java.nio.Buffer: int position>"},{"step":4,"from":"1093364992","to":"sdaReg22","type":"create","field":"<java.nio.Buffer: int _elementSizeShift>"},{"step":5,"from":"sdaReg16","to":"1093364992","type":"store","field":"<java.nio.Buffer: int limit>"},{"step":6,"from":"sdaReg16","to":"1093364992","type":"store","field":"<java.nio.Buffer: int capacity>"},{"step":7,"from":"1093364968","to":"1093364992","type":"store","field":"<java.nio.CharArrayBuffer: char[] backingArray>"},{"step":8,"from":"1093364992","to":"sdaReg19","type":"create","field":"<java.nio.CharArrayBuffer: int offset>"},{"step":9,"from":"sdaReg0","to":"1093364992","type":"store","field":"<java.nio.Buffer: int position>"},{"step":10,"from":"sdaReg32","to":"1093364992","type":"store","field":"<java.nio.Buffer: int limit>"},{"step":11,"from":"static.<java.nio.charset.CoderResult: java.nio.charset.CoderResult UNDERFLOW>","to":"1084215096","type":"load","field":"<java.nio.charset.CoderResult: java.nio.charset.CoderResult UNDERFLOW>"},{"step":12,"from":"1093652160","to":"1093652256","type":"load","field":"<java.io.InputStreamReader: java.nio.ByteBuffer bytes>"},{"step":13,"from":"1093652256","to":"1093652256.<java.nio.Buffer: int position>","type":"load","field":"<java.nio.Buffer: int position>"},{"step":14,"from":"1093652256","to":"1093652256.<java.nio.Buffer: int limit>","type":"load","field":"<java.nio.Buffer: int limit>"},{"step":15,"from":"1093652160","to":"1093651256","type":"load","field":"<java.io.InputStreamReader: java.io.InputStream in>"},{"step":16,"from":"1093651256","to":"1093651256.<java.io.ByteArrayInputStream: int count>","type":"load","field":"<java.io.ByteArrayInputStream: int count>"},{"step":17,"from":"1093651256","to":"1093651256.<java.io.ByteArrayInputStream: int pos>","type":"load","field":"<java.io.ByteArrayInputStream: int pos>"},{"step":18,"from":"1093652160","to":"1093652256","type":"load","field":"<java.io.InputStreamReader: java.nio.ByteBuffer bytes>"},{"step":19,"from":"1093652256","to":"1093652256.<java.nio.Buffer: int capacity>","type":"load","field":"<java.nio.Buffer: int capacity>"},{"step":20,"from":"1093652160","to":"1093652256","type":"load","field":"<java.io.InputStreamReader: java.nio.ByteBuffer bytes>"},{"step":21,"from":"1093652256","to":"1093652256.<java.nio.Buffer: int limit>","type":"load","field":"<java.nio.Buffer: int limit>"},{"step":22,"from":"1093652160","to":"1093652256","type":"load","field":"<java.io.InputStreamReader: java.nio.ByteBuffer bytes>"},{"step":23,"from":"1093652256","to":"1093652256.<java.nio.HeapByteBuffer: int offset>","type":"load","field":"<java.nio.HeapByteBuffer: int offset>"},{"step":24,"from":"1093652160","to":"1093652256","type":"load","field":"<java.io.InputStreamReader: java.nio.ByteBuffer bytes>"},{"step":25,"from":"1093652256","to":"1093652256.<java.nio.Buffer: int limit>","type":"load","field":"<java.nio.Buffer: int limit>"},{"step":26,"from":"1093652160","to":"1093651256","type":"load","field":"<java.io.InputStreamReader: java.io.InputStream in>"},{"step":27,"from":"1093652160","to":"1093652256","type":"load","field":"<java.io.InputStreamReader: java.nio.ByteBuffer bytes>"},{"step":28,"from":"1093652256","to":"1093652312","type":"load","field":"<java.nio.HeapByteBuffer: byte[] backingArray>"},{"step":29,"from":"1093651256","to":"1093651256.<java.io.ByteArrayInputStream: int pos>","type":"load","field":"<java.io.ByteArrayInputStream: int pos>"},{"step":30,"from":"1093651256","to":"1093651256.<java.io.ByteArrayInputStream: int count>","type":"load","field":"<java.io.ByteArrayInputStream: int count>"},{"step":31,"from":"1093652160","to":"sdaReg61","type":"create","field":"<java.io.InputStreamReader: boolean endOfInput>"},{"step":32,"from":"static.<java.nio.charset.CoderResult: java.nio.charset.CoderResult UNDERFLOW>","to":"1084215096","type":"load","field":"<java.nio.charset.CoderResult: java.nio.charset.CoderResult UNDERFLOW>"},{"step":33,"from":"1093652160","to":"1093670896","type":"load","field":"<java.io.InputStreamReader: java.nio.charset.CharsetDecoder decoder>"},{"step":34,"from":"1093652160","to":"1093652256","type":"load","field":"<java.io.InputStreamReader: java.nio.ByteBuffer bytes>"},{"step":35,"from":"1093670896","to":"1093670896.<java.nio.charset.CharsetDecoder: int status>","type":"load","field":"<java.nio.charset.CharsetDecoder: int status>"},{"step":36,"from":"1093652256","to":"1093652256.<java.nio.Buffer: int position>","type":"load","field":"<java.nio.Buffer: int position>"},{"step":37,"from":"1093652256","to":"1093652256.<java.nio.Buffer: int limit>","type":"load","field":"<java.nio.Buffer: int limit>"},{"step":38,"from":"static.<java.nio.charset.CoderResult: java.nio.charset.CoderResult UNDERFLOW>","to":"1084215096","type":"load","field":"<java.nio.charset.CoderResult: java.nio.charset.CoderResult UNDERFLOW>"},{"step":39,"from":"1084215096","to":"1084215096.<java.nio.charset.CoderResult: int type>","type":"load","field":"<java.nio.charset.CoderResult: int type>"},{"step":40,"from":"1093652256","to":"1093652256.<java.nio.Buffer: int limit>","type":"load","field":"<java.nio.Buffer: int limit>"},{"step":41,"from":"1093652256","to":"1093652256.<java.nio.Buffer: int position>","type":"load","field":"<java.nio.Buffer: int position>"},{"step":42,"from":"sdaReg78","to":"1093670896","type":"store","field":"<java.nio.charset.CharsetDecoder: int status>"},{"step":43,"from":"1093652160","to":"1093670896","type":"load","field":"<java.io.InputStreamReader: java.nio.charset.CharsetDecoder decoder>"},{"step":44,"from":"static.<libcore.util.EmptyArray: byte[] BYTE>","to":"1083993968","type":"load","field":"<libcore.util.EmptyArray: byte[] BYTE>"},{"step":45,"from":"1083993968","to":"1093670896","type":"store","field":"<java.nio.charset.CharsetDecoderICU: byte[] input>"},{"step":46,"from":"1093670896","to":"sdaReg84","type":"create","field":"<java.nio.charset.CharsetDecoderICU: int inEnd>"},{"step":47,"from":"1093670896","to":"1093671048","type":"load","field":"<java.nio.charset.CharsetDecoderICU: int[] data>"},{"step":48,"from":"1093671048","to":"sdaReg85","type":"create","field":"arrayIdx_int:0"},{"step":49,"from":"1093670896","to":"1093671048","type":"load","field":"<java.nio.charset.CharsetDecoderICU: int[] data>"},{"step":50,"from":"1093364968","to":"1093670896","type":"store","field":"<java.nio.charset.CharsetDecoderICU: char[] output>"},{"step":51,"from":"sdaReg100","to":"1093670896","type":"store","field":"<java.nio.charset.CharsetDecoderICU: int outEnd>"},{"step":52,"from":"sdaReg106","to":"1093671048","type":"store","field":"arrayIdx_int:1"},{"step":53,"from":"1093670896","to":"1093671048","type":"load","field":"<java.nio.charset.CharsetDecoderICU: int[] data>"},{"step":54,"from":"1093671048","to":"sdaReg107","type":"create","field":"arrayIdx_int:2"},{"step":55,"from":"1093670896","to":"1093670896.<java.nio.charset.CharsetDecoderICU: long converterHandle>","type":"load","field":"<java.nio.charset.CharsetDecoderICU: long converterHandle>"},{"step":56,"from":"1093670896","to":"1093671048","type":"load","field":"<java.nio.charset.CharsetDecoderICU: int[] data>"},{"step":57,"from":"1083993968","to":"1093364968","type":"model"},{"step":58,"from":"sdaReg108","to":"1093670896","type":"store","field":"<java.nio.charset.CharsetDecoderICU: int ec>"},{"step":59,"from":"static.<java.nio.charset.CoderResult: java.nio.charset.CoderResult UNDERFLOW>","to":"1084215096","type":"load","field":"<java.nio.charset.CoderResult: java.nio.charset.CoderResult UNDERFLOW>"},{"step":60,"from":"1093670896","to":"1093671048","type":"load","field":"<java.nio.charset.CharsetDecoderICU: int[] data>"},{"step":61,"from":"sdaReg122","to":"1093364992","type":"store","field":"<java.nio.Buffer: int position>"},{"step":62,"from":"1093670896","to":"sdaReg125","type":"create","field":"<java.nio.charset.CharsetDecoderICU: char[] output>"},{"step":63,"from":"1093670896","to":"1093670896.<java.nio.charset.CharsetDecoderICU: long converterHandle>","type":"load","field":"<java.nio.charset.CharsetDecoderICU: long converterHandle>"},{"step":64,"from":"1093670896","to":"1093671048","type":"load","field":"<java.nio.charset.CharsetDecoderICU: int[] data>"},{"step":65,"from":"1093671048","to":"sdaReg127","type":"create","field":"arrayIdx_int:0"},{"step":66,"from":"1093670896","to":"1093671048","type":"load","field":"<java.nio.charset.CharsetDecoderICU: int[] data>"},{"step":67,"from":"1093671048","to":"sdaReg128","type":"create","field":"arrayIdx_int:1"},{"step":68,"from":"1093670896","to":"1093671048","type":"load","field":"<java.nio.charset.CharsetDecoderICU: int[] data>"},{"step":69,"from":"1093671048","to":"sdaReg129","type":"create","field":"arrayIdx_int:2"},{"step":70,"from":"1093670896","to":"sdaReg130","type":"create","field":"<java.nio.charset.CharsetDecoderICU: char[] output>"},{"step":71,"from":"1093670896","to":"sdaReg131","type":"create","field":"<java.nio.charset.CharsetDecoderICU: byte[] input>"},{"step":72,"from":"1093670896","to":"sdaReg132","type":"create","field":"<java.nio.charset.CharsetDecoderICU: byte[] allocatedInput>"},{"step":73,"from":"1093670896","to":"sdaReg133","type":"create","field":"<java.nio.charset.CharsetDecoderICU: char[] allocatedOutput>"},{"step":74,"from":"1093670896","to":"sdaReg134","type":"create","field":"<java.nio.charset.CharsetDecoderICU: int ec>"},{"step":75,"from":"1093670896","to":"sdaReg135","type":"create","field":"<java.nio.charset.CharsetDecoderICU: int inEnd>"},{"step":76,"from":"1093670896","to":"sdaReg136","type":"create","field":"<java.nio.charset.CharsetDecoderICU: int outEnd>"},{"step":77,"from":"static.<java.nio.charset.CoderResult: java.nio.charset.CoderResult UNDERFLOW>","to":"1084215096","type":"load","field":"<java.nio.charset.CoderResult: java.nio.charset.CoderResult UNDERFLOW>"},{"step":78,"from":"1093670896","to":"sdaReg138","type":"create","field":"<java.nio.charset.CharsetDecoder: int status>"},{"step":79,"from":"1093652160","to":"1093670896","type":"load","field":"<java.io.InputStreamReader: java.nio.charset.CharsetDecoder decoder>"},{"step":80,"from":"1093670896","to":"sdaReg140","type":"create","field":"<java.nio.charset.CharsetDecoder: int status>"},{"step":81,"from":"1093670896","to":"1093670896.<java.nio.charset.CharsetDecoderICU: long converterHandle>","type":"load","field":"<java.nio.charset.CharsetDecoderICU: long converterHandle>"},{"step":82,"from":"1093670896","to":"1093671048","type":"load","field":"<java.nio.charset.CharsetDecoderICU: int[] data>"},{"step":83,"from":"1093671048","to":"sdaReg142","type":"create","field":"arrayIdx_int:0"},{"step":84,"from":"1093670896","to":"1093671048","type":"load","field":"<java.nio.charset.CharsetDecoderICU: int[] data>"},{"step":85,"from":"1093671048","to":"sdaReg143","type":"create","field":"arrayIdx_int:1"},{"step":86,"from":"1093670896","to":"1093671048","type":"load","field":"<java.nio.charset.CharsetDecoderICU: int[] data>"},{"step":87,"from":"1093671048","to":"sdaReg144","type":"create","field":"arrayIdx_int:2"},{"step":88,"from":"1093670896","to":"sdaReg145","type":"create","field":"<java.nio.charset.CharsetDecoderICU: char[] output>"},{"step":89,"from":"1093670896","to":"sdaReg146","type":"create","field":"<java.nio.charset.CharsetDecoderICU: byte[] input>"},{"step":90,"from":"1093670896","to":"sdaReg147","type":"create","field":"<java.nio.charset.CharsetDecoderICU: byte[] allocatedInput>"},{"step":91,"from":"1093670896","to":"sdaReg148","type":"create","field":"<java.nio.charset.CharsetDecoderICU: char[] allocatedOutput>"},{"step":92,"from":"1093670896","to":"sdaReg149","type":"create","field":"<java.nio.charset.CharsetDecoderICU: int ec>"},{"step":93,"from":"1093670896","to":"sdaReg150","type":"create","field":"<java.nio.charset.CharsetDecoderICU: int inEnd>"},{"step":94,"from":"1093670896","to":"sdaReg151","type":"create","field":"<java.nio.charset.CharsetDecoderICU: int outEnd>"},{"step":95,"from":"1084215096","to":"1084215096.<java.nio.charset.CoderResult: int type>","type":"load","field":"<java.nio.charset.CoderResult: int type>"},{"step":96,"from":"1084215096","to":"1084215096.<java.nio.charset.CoderResult: int type>","type":"load","field":"<java.nio.charset.CoderResult: int type>"}],"parameters":[{"id":"1093652160","name":"this","klass":"java.io.InputStreamReader"},{"id":"1093364968","name":"arg#1","klass":"char[]"},{"id":"sdaReg0","name":"arg#2","klass":"int"},{"id":"sdaReg1","name":"arg#3","klass":"int"}],"returns":[{"id":"sdaReg159","name":"return","klass":"int"}],"colors":{"heapLocToColor":{"sdaReg126":[0],"sdaReg68":[0],"sdaReg69":[0],"sdaReg64":[4],"sdaReg62":[0],"sdaReg63":[0],"sdaReg13":[1],"sdaReg14":[4],"sdaReg71":[0],"sdaReg11":[2],"sdaReg70":[4],"sdaReg12":[4],"sdaReg10":[2, 3],"1093364968":[1],"sdaReg120":[4],"sdaReg17":[4],"sdaReg18":[1],"sdaReg124":[4],"sdaReg15":[1],"sdaReg123":[4],"sdaReg116":[4],"1093652256.<java.nio.Buffer: int limit>":[0],"sdaReg114":[4],"sdaReg119":[4],"sdaReg77":[0],"sdaReg79":[5],"sdaReg73":[5],"sdaReg74":[5],"sdaReg76":[0],"sdaReg81":[4],"sdaReg80":[0],"sdaReg83":[4],"sdaReg82":[0],"1084215096":[5],"1093670896.<java.nio.charset.CharsetDecoderICU: int[] data>":[0],"1083993968":[6],"sdaReg113":[4],"sdaReg112":[4],"sdaReg111":[0],"sdaReg108":[7],"sdaReg104":[4],"sdaReg86":[0],"sdaReg87":[4],"1093364992":[4],"sdaReg88":[4],"sdaReg89":[4],"1093652256.<java.nio.Buffer: int position>":[0],"sdaReg94":[1],"sdaReg93":[1],"1093671048":[0],"sdaReg92":[4],"sdaReg91":[4],"sdaReg102":[4],"1093652256":[0],"sdaReg101":[4],"1093670896.<java.nio.charset.CharsetDecoder: int status>":[0],"sdaReg95":[4],"sdaReg96":[4],"sdaReg98":[4],"1093652312":[0],"1093652160.<java.io.InputStreamReader: java.nio.ByteBuffer bytes>":[0],"1093652256.<java.nio.HeapByteBuffer: int offset>":[0],"1093670896.<java.nio.charset.CharsetDecoderICU: long converterHandle>":[0],"1093651256.<java.io.ByteArrayInputStream: int pos>":[0],"sdaReg59":[0],"sdaReg58":[0],"sdaReg56":[0],"sdaReg55":[0],"sdaReg54":[0],"sdaReg53":[0],"sdaReg52":[0],"sdaReg51":[0],"sdaReg50":[0],"sdaReg158":[2],"static.<libcore.util.EmptyArray: byte[] BYTE>":[6],"sdaReg152":[5],"1093652160.<java.io.InputStreamReader: java.io.InputStream in>":[0],"sdaReg156":[4],"sdaReg49":[0],"sdaReg48":[0],"sdaReg154":[5],"sdaReg45":[0],"sdaReg44":[0],"sdaReg47":[0],"sdaReg46":[0],"sdaReg41":[0],"sdaReg40":[0],"sdaReg42":[4],"static.<java.nio.charset.CoderResult: java.nio.charset.CoderResult UNDERFLOW>":[5],"sdaReg38":[4],"sdaReg141":[0],"1093651256.<java.io.ByteArrayInputStream: int count>":[0],"sdaReg32":[2, 3],"sdaReg31":[4],"sdaReg30":[4],"1084215096.<java.nio.charset.CoderResult: int type>":[5],"sdaReg34":[0],"sdaReg33":[4],"sdaReg8":[1],"sdaReg6":[2, 3],"1093651256":[0],"sdaReg7":[2],"1093652160":[0],"1093670896":[0],"1093652256.<java.nio.Buffer: int capacity>":[0],"sdaReg139":[0],"sdaReg137":[5],"sdaReg27":[4],"sdaReg26":[4],"sdaReg29":[4],"1093652160.<java.io.InputStreamReader: java.nio.charset.CharsetDecoder decoder>":[0],"sdaReg28":[4],"sdaReg3":[0],"sdaReg1":[3],"sdaReg21":[4],"sdaReg0":[2],"sdaReg20":[4],"sdaReg23":[4]},"colorToColor":{"1":[0, 4],"2":[4],"3":[4],"6":[0, 1],"7":[0]},"colorToLabel":{"0":"this","1":"arg#1","2":"arg#2","3":"arg#3","5":"<java.nio.charset.CoderResult: java.nio.charset.CoderResult UNDERFLOW>","6":"<libcore.util.EmptyArray: byte[] BYTE>","8":"return"}}}

Generated Model
	arg#1->this

