Scanning method <java.io.FileOutputStream: void close()>

All seen event types: SimpleAssignmentRecord, ExitMonitorRecord, MethodReturnRecord, MethodCallRecord, EnterMonitorRecord, LoadInstanceRecord, IfRecord, 
Ignored event types: ExitMonitorRecord, EnterMonitorRecord, IfRecord, 

JSON Encoded Analysis Data (for visualization):{"heapEdges":[{"step":0,"from":"1093667536","to":"1083966016","type":"load","field":"<java.io.FileOutputStream: dalvik.system.CloseGuard guard>"},{"step":1,"from":"1093667536","to":"1093667536.<java.io.FileOutputStream: boolean shouldClose>","type":"load","field":"<java.io.FileOutputStream: boolean shouldClose>"},{"step":2,"from":"1093667536","to":"1093668152","type":"load","field":"<java.io.FileOutputStream: java.io.FileDescriptor fd>"}],"parameters":[{"id":"1093667536","name":"this","klass":"java.io.FileOutputStream"}],"returns":[{"id":null,"name":"return","klass":null}],"colors":{"heapLocToColor":{"1093667536.<java.io.FileOutputStream: boolean shouldClose>":[0],"1093667536":[0],"1083966016":[0],"1093668152":[0]},"colorToColor":{},"colorToLabel":{"0":"this","1":"return"}}}

Generated Model

