Scanning method <java.net.URL: void <init>(java.net.URL,java.lang.String)>

All seen event types: BinaryOperationRecord, SimpleAssignmentRecord, MethodReturnRecord, MethodCallRecord, LoadInstanceRecord, MethodStartRecord, MethodEndRecord, IfRecord, NewObjectRecord, StoreInstanceRecord, 
Ignored event types: IfRecord, 

JSON Encoded Analysis Data (for visualization):{"heapEdges":[{"step":0,"from":"1093304856","to":"sdaReg4","type":"create","field":"<java.net.URL: int port>"},{"step":1,"from":"sdaReg0","to":"sdaReg5","type":"model"},{"step":2,"from":"sdaReg5","to":"sdaReg6","type":"model"},{"step":3,"from":"1093304856","to":"sdaReg7","type":"create","field":"<java.net.URL: java.lang.String protocol>"},{"step":4,"from":"1093675688","to":"1093675688.<java.net.URL: java.lang.String protocol>","type":"load","field":"<java.net.URL: java.lang.String protocol>"},{"step":5,"from":"1093675688","to":"1093675688.<java.net.URL: java.lang.String host>","type":"load","field":"<java.net.URL: java.lang.String host>"},{"step":6,"from":"1093675688","to":"1093675688.<java.net.URL: int port>","type":"load","field":"<java.net.URL: int port>"},{"step":7,"from":"1093675688","to":"1093675688.<java.net.URL: java.lang.String authority>","type":"load","field":"<java.net.URL: java.lang.String authority>"},{"step":8,"from":"1093675688","to":"1093675688.<java.net.URL: java.lang.String userInfo>","type":"load","field":"<java.net.URL: java.lang.String userInfo>"},{"step":9,"from":"1093675688","to":"1093675688.<java.net.URL: java.lang.String path>","type":"load","field":"<java.net.URL: java.lang.String path>"},{"step":10,"from":"1093675688","to":"1093675688.<java.net.URL: java.lang.String query>","type":"load","field":"<java.net.URL: java.lang.String query>"},{"step":11,"from":"1093675688","to":"1093675688.<java.net.URL: java.lang.String ref>","type":"load","field":"<java.net.URL: java.lang.String ref>"},{"step":12,"from":"1093675688.<java.net.URL: java.lang.String query>","to":"sdaReg19","type":"model"},{"step":13,"from":"sdaReg18","to":"1093360456","type":"model"},{"step":14,"from":"sdaReg18","to":"1093360456","type":"model"},{"step":15,"from":"1093675688.<java.net.URL: java.lang.String query>","to":"1093360456","type":"model"},{"step":16,"from":"1093675688.<java.net.URL: java.lang.String query>","to":"1093360456","type":"model"},{"step":17,"from":"1093360456","to":"sdaReg24","type":"model"},{"step":18,"from":"1093675688.<java.net.URL: java.lang.String protocol>","to":"1093304856","type":"store","field":"<java.net.URL: java.lang.String protocol>"},{"step":19,"from":"1093675688.<java.net.URL: java.lang.String host>","to":"1093304856","type":"store","field":"<java.net.URL: java.lang.String host>"},{"step":20,"from":"sdaReg24","to":"1093304856","type":"store","field":"<java.net.URL: java.lang.String file>"},{"step":21,"from":"1093675688.<java.net.URL: int port>","to":"1093304856","type":"store","field":"<java.net.URL: int port>"},{"step":22,"from":"1093675688.<java.net.URL: java.lang.String ref>","to":"1093304856","type":"store","field":"<java.net.URL: java.lang.String ref>"},{"step":23,"from":"1093304856","to":"sdaReg26","type":"create","field":"<java.net.URL: int hashCode>"},{"step":24,"from":"sdaReg30","to":"1093304856","type":"store","field":"<java.net.URL: java.lang.String authority>"},{"step":25,"from":"1093304856","to":"sdaReg33","type":"create","field":"<java.net.URL: java.lang.String userInfo>"},{"step":26,"from":"sdaReg36","to":"sdaReg37","type":"model"},{"step":27,"from":"sdaReg37","to":"1093304856","type":"store","field":"<java.net.URL: java.lang.String query>"},{"step":28,"from":"sdaReg38","to":"1093304856","type":"store","field":"<java.net.URL: java.lang.String path>"},{"step":29,"from":"1093675688.<java.net.URL: java.lang.String authority>","to":"1093304856","type":"store","field":"<java.net.URL: java.lang.String authority>"},{"step":30,"from":"1093675688.<java.net.URL: java.lang.String userInfo>","to":"1093304856","type":"store","field":"<java.net.URL: java.lang.String userInfo>"},{"step":31,"from":"1093675688.<java.net.URL: java.lang.String path>","to":"1093304856","type":"store","field":"<java.net.URL: java.lang.String path>"},{"step":32,"from":"1093675688.<java.net.URL: java.lang.String query>","to":"1093304856","type":"store","field":"<java.net.URL: java.lang.String query>"},{"step":33,"from":"1093675688","to":"1093271080","type":"load","field":"<java.net.URL: java.net.URLStreamHandler streamHandler>"},{"step":34,"from":"1093271080","to":"1093304856","type":"store","field":"<java.net.URL: java.net.URLStreamHandler streamHandler>"},{"step":35,"from":"sdaReg5","to":"sdaReg9","type":"model"},{"step":36,"from":"sdaReg5","to":"sdaReg43","type":"model"},{"step":37,"from":"sdaReg9","to":"sdaReg5","type":"model"},{"step":38,"from":"sdaReg9","to":"sdaReg43","type":"model"},{"step":39,"from":"sdaReg5","to":"sdaReg47","type":"model"},{"step":40,"from":"sdaReg45","to":"sdaReg47","type":"model"},{"step":41,"from":"sdaReg45","to":"sdaReg48","type":"model"},{"step":42,"from":"sdaReg47","to":"sdaReg45","type":"model"},{"step":43,"from":"sdaReg47","to":"sdaReg48","type":"model"},{"step":44,"from":"sdaReg5","to":"sdaReg49","type":"model"},{"step":45,"from":"sdaReg5","to":"sdaReg52","type":"model"},{"step":46,"from":"sdaReg50","to":"sdaReg52","type":"model"},{"step":47,"from":"sdaReg50","to":"sdaReg53","type":"model"},{"step":48,"from":"sdaReg52","to":"sdaReg50","type":"model"},{"step":49,"from":"sdaReg52","to":"sdaReg53","type":"model"},{"step":50,"from":"sdaReg5","to":"sdaReg59","type":"model"},{"step":51,"from":"sdaReg57","to":"sdaReg59","type":"model"},{"step":52,"from":"sdaReg57","to":"sdaReg60","type":"model"},{"step":53,"from":"sdaReg59","to":"sdaReg57","type":"model"},{"step":54,"from":"sdaReg59","to":"sdaReg60","type":"model"},{"step":55,"from":"sdaReg5","to":"sdaReg63","type":"model"},{"step":56,"from":"sdaReg61","to":"sdaReg63","type":"model"},{"step":57,"from":"sdaReg61","to":"sdaReg64","type":"model"},{"step":58,"from":"sdaReg63","to":"sdaReg61","type":"model"},{"step":59,"from":"sdaReg63","to":"sdaReg64","type":"model"},{"step":60,"from":"sdaReg5","to":"sdaReg65","type":"model"},{"step":61,"from":"sdaReg49","to":"sdaReg71","type":"model"},{"step":62,"from":"sdaReg67","to":"sdaReg72","type":"model"},{"step":63,"from":"sdaReg65","to":"1093304856","type":"store","field":"<java.net.URL: java.lang.String host>"},{"step":64,"from":"sdaReg78","to":"1093304856","type":"store","field":"<java.net.URL: java.lang.String file>"},{"step":65,"from":"sdaReg42","to":"1093304856","type":"store","field":"<java.net.URL: int port>"},{"step":66,"from":"sdaReg69","to":"1093304856","type":"store","field":"<java.net.URL: java.lang.String ref>"},{"step":67,"from":"1093304856","to":"sdaReg80","type":"create","field":"<java.net.URL: int hashCode>"},{"step":68,"from":"sdaReg84","to":"1093304856","type":"store","field":"<java.net.URL: java.lang.String authority>"},{"step":69,"from":"1093304856","to":"sdaReg87","type":"create","field":"<java.net.URL: java.lang.String userInfo>"},{"step":70,"from":"1093304856","to":"sdaReg90","type":"create","field":"<java.net.URL: java.lang.String query>"},{"step":71,"from":"sdaReg91","to":"1093304856","type":"store","field":"<java.net.URL: java.lang.String path>"},{"step":72,"from":"sdaReg49","to":"1093304856","type":"store","field":"<java.net.URL: java.lang.String authority>"},{"step":73,"from":"sdaReg54","to":"1093304856","type":"store","field":"<java.net.URL: java.lang.String userInfo>"},{"step":74,"from":"sdaReg67","to":"1093304856","type":"store","field":"<java.net.URL: java.lang.String path>"},{"step":75,"from":"sdaReg68","to":"1093304856","type":"store","field":"<java.net.URL: java.lang.String query>"}],"parameters":[{"id":"1093304856","name":"this","klass":"java.net.URL"},{"id":"1093675688","name":"arg#1","klass":"java.net.URL"},{"id":"sdaReg0","name":"arg#2","klass":"string"}],"returns":[{"id":"1093304856","name":"return","klass":"java.net.URL"}],"colors":{"heapLocToColor":{"sdaReg60":[21],"sdaReg66":[13],"sdaReg64":[23],"sdaReg65":[2, 3, 24],"sdaReg62":[2, 3],"sdaReg63":[2, 3, 22],"sdaReg72":[26],"sdaReg13":[1],"sdaReg71":[17, 2, 3, 25],"sdaReg14":[1],"sdaReg70":[13],"sdaReg11":[1],"sdaReg12":[1],"sdaReg10":[1],"1093675688.<java.net.URL: int port>":[1],"sdaReg59":[2, 3, 20],"1093360456":[6],"sdaReg58":[2, 3],"1093675688.<java.net.URL: java.lang.String authority>":[1],"sdaReg56":[2, 3],"sdaReg19":[1, 5],"sdaReg55":[2, 3],"sdaReg17":[0],"sdaReg53":[19],"sdaReg18":[1],"sdaReg52":[2, 3, 18],"sdaReg15":[1],"sdaReg51":[2, 3],"sdaReg16":[1],"1093675688":[1],"sdaReg77":[0],"sdaReg79":[0],"sdaReg73":[0],"sdaReg75":[1],"sdaReg76":[0],"1093304856":[0],"sdaReg81":[0],"sdaReg83":[27],"sdaReg49":[17, 2, 3],"sdaReg48":[16],"1093675688.<java.net.URL: java.lang.String host>":[1],"1093675688.<java.net.URL: java.lang.String ref>":[1],"sdaReg44":[2, 3],"sdaReg47":[2, 3, 15],"sdaReg46":[2, 3],"sdaReg41":[0],"sdaReg40":[1],"1093675688.<java.net.URL: java.lang.String protocol>":[1],"sdaReg43":[2, 3, 14],"sdaReg86":[28],"1093675688.<java.net.URL: java.lang.String path>":[1],"sdaReg85":[28],"1093675688.<java.net.URL: java.lang.String query>":[1],"sdaReg88":[29],"sdaReg89":[29],"1093675688.<java.net.URL: java.lang.String userInfo>":[1],"sdaReg39":[13],"sdaReg38":[12],"sdaReg37":[11],"sdaReg92":[0],"sdaReg32":[9],"sdaReg31":[9],"sdaReg36":[10],"sdaReg35":[10],"sdaReg34":[10],"sdaReg9":[2, 3],"sdaReg6":[2, 3, 4],"1093271080":[1],"sdaReg5":[2, 3],"sdaReg27":[0],"sdaReg29":[8],"sdaReg3":[0],"sdaReg2":[1],"sdaReg1":[0],"sdaReg21":[6],"sdaReg0":[2],"sdaReg20":[6],"sdaReg23":[6],"sdaReg22":[6],"sdaReg25":[0],"sdaReg24":[6, 7]},"colorToColor":{"0":[30],"1":[0, 6],"2":[0, 16, 19, 2, 3, 21, 23, 14],"3":[0, 16, 19, 2, 3, 21, 23, 14],"6":[0],"7":[0],"10":[11],"11":[0],"12":[0],"15":[16],"17":[0],"18":[19],"20":[21],"22":[23],"24":[0]},"colorToLabel":{"0":"this","1":"arg#1","2":"arg#2","30":"return"}}}

Generated Model
	this->return
	arg#2->this
	arg#2->return
	arg#1->this
	arg#1->return

