Scanning method <java.net.URL: void <init>(java.net.URL,java.lang.String)>

All seen event types: BinaryOperationRecord, SimpleAssignmentRecord, SwitchRecord, MethodReturnRecord, MethodCallRecord, LoadInstanceRecord, MethodStartRecord, MethodEndRecord, IfRecord, NewObjectRecord, StoreInstanceRecord, 
Ignored event types: SwitchRecord, IfRecord, 

JSON Encoded Analysis Data (for visualization):{"heapEdges":[{"step":0,"from":"1093477080","to":"sdaReg4","type":"create","field":"<java.net.URL: int port>"},{"step":1,"from":"sdaReg0","to":"sdaReg5","type":"model"},{"step":2,"from":"sdaReg5","to":"sdaReg6","type":"model"},{"step":3,"from":"1093477080","to":"sdaReg7","type":"create","field":"<java.net.URL: java.lang.String protocol>"},{"step":4,"from":"1093675688","to":"1093675688.<java.net.URL: java.lang.String protocol>","type":"load","field":"<java.net.URL: java.lang.String protocol>"},{"step":5,"from":"1093675688","to":"1093675688.<java.net.URL: java.lang.String host>","type":"load","field":"<java.net.URL: java.lang.String host>"},{"step":6,"from":"1093675688","to":"1093675688.<java.net.URL: int port>","type":"load","field":"<java.net.URL: int port>"},{"step":7,"from":"1093675688","to":"1093675688.<java.net.URL: java.lang.String authority>","type":"load","field":"<java.net.URL: java.lang.String authority>"},{"step":8,"from":"1093675688","to":"1093675688.<java.net.URL: java.lang.String userInfo>","type":"load","field":"<java.net.URL: java.lang.String userInfo>"},{"step":9,"from":"1093675688","to":"1093675688.<java.net.URL: java.lang.String path>","type":"load","field":"<java.net.URL: java.lang.String path>"},{"step":10,"from":"1093675688","to":"1093675688.<java.net.URL: java.lang.String query>","type":"load","field":"<java.net.URL: java.lang.String query>"},{"step":11,"from":"1093675688","to":"1093675688.<java.net.URL: java.lang.String ref>","type":"load","field":"<java.net.URL: java.lang.String ref>"},{"step":12,"from":"1093675688.<java.net.URL: java.lang.String query>","to":"sdaReg19","type":"model"},{"step":13,"from":"sdaReg18","to":"1094125456","type":"model"},{"step":14,"from":"sdaReg18","to":"1094125456","type":"model"},{"step":15,"from":"1093675688.<java.net.URL: java.lang.String query>","to":"1094125456","type":"model"},{"step":16,"from":"1093675688.<java.net.URL: java.lang.String query>","to":"1094125456","type":"model"},{"step":17,"from":"1094125456","to":"sdaReg24","type":"model"},{"step":18,"from":"1093675688.<java.net.URL: java.lang.String protocol>","to":"1093477080","type":"store","field":"<java.net.URL: java.lang.String protocol>"},{"step":19,"from":"1093675688.<java.net.URL: java.lang.String host>","to":"1093477080","type":"store","field":"<java.net.URL: java.lang.String host>"},{"step":20,"from":"sdaReg24","to":"1093477080","type":"store","field":"<java.net.URL: java.lang.String file>"},{"step":21,"from":"1093675688.<java.net.URL: int port>","to":"1093477080","type":"store","field":"<java.net.URL: int port>"},{"step":22,"from":"1093675688.<java.net.URL: java.lang.String ref>","to":"1093477080","type":"store","field":"<java.net.URL: java.lang.String ref>"},{"step":23,"from":"1093477080","to":"sdaReg26","type":"create","field":"<java.net.URL: int hashCode>"},{"step":24,"from":"sdaReg30","to":"1093477080","type":"store","field":"<java.net.URL: java.lang.String authority>"},{"step":25,"from":"1093477080","to":"sdaReg33","type":"create","field":"<java.net.URL: java.lang.String userInfo>"},{"step":26,"from":"sdaReg36","to":"sdaReg37","type":"model"},{"step":27,"from":"sdaReg37","to":"1093477080","type":"store","field":"<java.net.URL: java.lang.String query>"},{"step":28,"from":"sdaReg38","to":"1093477080","type":"store","field":"<java.net.URL: java.lang.String path>"},{"step":29,"from":"1093675688.<java.net.URL: java.lang.String authority>","to":"1093477080","type":"store","field":"<java.net.URL: java.lang.String authority>"},{"step":30,"from":"1093675688.<java.net.URL: java.lang.String userInfo>","to":"1093477080","type":"store","field":"<java.net.URL: java.lang.String userInfo>"},{"step":31,"from":"1093675688.<java.net.URL: java.lang.String path>","to":"1093477080","type":"store","field":"<java.net.URL: java.lang.String path>"},{"step":32,"from":"1093675688.<java.net.URL: java.lang.String query>","to":"1093477080","type":"store","field":"<java.net.URL: java.lang.String query>"},{"step":33,"from":"1093675688","to":"1093271080","type":"load","field":"<java.net.URL: java.net.URLStreamHandler streamHandler>"},{"step":34,"from":"1093271080","to":"1093477080","type":"store","field":"<java.net.URL: java.net.URLStreamHandler streamHandler>"},{"step":35,"from":"sdaReg5","to":"sdaReg9","type":"model"},{"step":36,"from":"sdaReg5","to":"sdaReg43","type":"model"},{"step":37,"from":"sdaReg9","to":"sdaReg5","type":"model"},{"step":38,"from":"sdaReg9","to":"sdaReg43","type":"model"},{"step":39,"from":"sdaReg5","to":"sdaReg60","type":"model"},{"step":40,"from":"sdaReg5","to":"sdaReg63","type":"model"},{"step":41,"from":"sdaReg46","to":"sdaReg64","type":"model"},{"step":42,"from":"sdaReg54","to":"sdaReg65","type":"model"},{"step":43,"from":"sdaReg54","to":"sdaReg66","type":"model"},{"step":44,"from":"sdaReg56","to":"sdaReg73","type":"model"},{"step":45,"from":"sdaReg72","to":"1093372120","type":"model"},{"step":46,"from":"sdaReg72","to":"1093372120","type":"model"},{"step":47,"from":"sdaReg56","to":"1093372120","type":"model"},{"step":48,"from":"sdaReg56","to":"1093372120","type":"model"},{"step":49,"from":"1093372120","to":"sdaReg78","type":"model"},{"step":50,"from":"sdaReg50","to":"1093477080","type":"store","field":"<java.net.URL: java.lang.String host>"},{"step":51,"from":"sdaReg78","to":"1093477080","type":"store","field":"<java.net.URL: java.lang.String file>"},{"step":52,"from":"sdaReg52","to":"1093477080","type":"store","field":"<java.net.URL: int port>"},{"step":53,"from":"sdaReg63","to":"1093477080","type":"store","field":"<java.net.URL: java.lang.String ref>"},{"step":54,"from":"1093477080","to":"sdaReg80","type":"create","field":"<java.net.URL: int hashCode>"},{"step":55,"from":"sdaReg84","to":"1093477080","type":"store","field":"<java.net.URL: java.lang.String authority>"},{"step":56,"from":"1093477080","to":"sdaReg87","type":"create","field":"<java.net.URL: java.lang.String userInfo>"},{"step":57,"from":"sdaReg90","to":"sdaReg91","type":"model"},{"step":58,"from":"sdaReg91","to":"1093477080","type":"store","field":"<java.net.URL: java.lang.String query>"},{"step":59,"from":"sdaReg92","to":"1093477080","type":"store","field":"<java.net.URL: java.lang.String path>"},{"step":60,"from":"sdaReg46","to":"1093477080","type":"store","field":"<java.net.URL: java.lang.String authority>"},{"step":61,"from":"sdaReg48","to":"1093477080","type":"store","field":"<java.net.URL: java.lang.String userInfo>"},{"step":62,"from":"sdaReg54","to":"1093477080","type":"store","field":"<java.net.URL: java.lang.String path>"},{"step":63,"from":"sdaReg56","to":"1093477080","type":"store","field":"<java.net.URL: java.lang.String query>"}],"parameters":[{"id":"1093477080","name":"this","klass":"java.net.URL"},{"id":"1093675688","name":"arg#1","klass":"java.net.URL"},{"id":"sdaReg0","name":"arg#2","klass":"string"}],"returns":[{"id":"1093477080","name":"return","klass":"java.net.URL"}],"colors":{"heapLocToColor":{"sdaReg60":[2, 3, 15],"sdaReg61":[13],"sdaReg69":[1],"sdaReg66":[19],"sdaReg67":[0],"sdaReg64":[17],"sdaReg65":[18],"sdaReg62":[2, 3],"sdaReg63":[16, 2, 3],"sdaReg13":[1],"sdaReg71":[0],"sdaReg14":[1],"sdaReg70":[0],"sdaReg11":[1],"sdaReg12":[1],"sdaReg10":[1],"1093675688.<java.net.URL: int port>":[1],"sdaReg59":[2, 3, 13],"sdaReg57":[0],"1093675688.<java.net.URL: java.lang.String authority>":[1],"sdaReg19":[1, 5],"sdaReg55":[0],"sdaReg17":[0],"sdaReg53":[0],"sdaReg18":[1],"sdaReg15":[1],"sdaReg51":[0],"sdaReg16":[1],"1093675688":[1],"sdaReg77":[21],"1093372120":[21],"sdaReg78":[21, 22],"sdaReg79":[0],"sdaReg73":[20],"sdaReg74":[21],"sdaReg75":[21],"sdaReg76":[21],"sdaReg81":[0],"sdaReg83":[23],"sdaReg49":[0],"1093675688.<java.net.URL: java.lang.String host>":[1],"sdaReg45":[0],"1093675688.<java.net.URL: java.lang.String ref>":[1],"sdaReg44":[2, 3],"sdaReg47":[0],"sdaReg41":[0],"sdaReg40":[1],"1093675688.<java.net.URL: java.lang.String protocol>":[1],"sdaReg43":[2, 3, 14],"sdaReg86":[24],"1093675688.<java.net.URL: java.lang.String path>":[1],"sdaReg85":[24],"1093675688.<java.net.URL: java.lang.String query>":[1],"sdaReg88":[25],"sdaReg89":[25],"sdaReg90":[25],"1093675688.<java.net.URL: java.lang.String userInfo>":[1],"sdaReg39":[13],"sdaReg38":[12],"sdaReg37":[11],"sdaReg93":[0],"sdaReg92":[27],"sdaReg91":[26],"sdaReg32":[9],"sdaReg31":[9],"sdaReg36":[10],"1093477080":[0],"sdaReg35":[10],"sdaReg34":[10],"sdaReg9":[2, 3],"sdaReg6":[2, 3, 4],"1093271080":[1],"1094125456":[6],"sdaReg5":[2, 3],"sdaReg27":[0],"sdaReg29":[8],"sdaReg3":[0],"sdaReg2":[1],"sdaReg1":[0],"sdaReg21":[6],"sdaReg0":[2],"sdaReg20":[6],"sdaReg23":[6],"sdaReg22":[6],"sdaReg25":[0],"sdaReg24":[6, 7]},"colorToColor":{"0":[28],"1":[0, 6],"2":[0, 2, 3, 14],"3":[0, 2, 3, 14],"6":[0],"7":[0],"10":[11],"11":[0],"12":[0],"16":[0],"21":[0],"22":[0],"25":[26],"27":[0],"26":[0]},"colorToLabel":{"0":"this","1":"arg#1","2":"arg#2","28":"return"}}}

Generated Model
	this->return
	arg#2->this
	arg#2->return
	arg#1->this
	arg#1->return

