Scanning method <java.net.URL: void <init>(java.lang.String,java.lang.String,int,java.lang.String)>

All seen event types: StoreArrayRecord, SimpleAssignmentRecord, MethodStartRecord, LoadInstanceRecord, IfRecord, NewObjectRecord, StoreInstanceRecord, LoadStaticRecord, BinaryOperationRecord, MethodCallRecord, MethodReturnRecord, ArrayLengthRecord, CastRecord, LoadArrayRecord, MethodEndRecord, 
Ignored event types: IfRecord, 

JSON Encoded Analysis Data (for visualization):{"heapEdges":[{"step":0,"from":"1093668864","to":"sdaReg6","type":"create","field":"<java.net.URL: int port>"},{"step":1,"from":"sdaReg1","to":"sdaReg7","type":"model"},{"step":2,"from":"sdaReg0","to":"1093668864","type":"store","field":"<java.net.URL: java.lang.String protocol>"},{"step":3,"from":"sdaReg1","to":"1093668864","type":"store","field":"<java.net.URL: java.lang.String host>"},{"step":4,"from":"sdaReg2","to":"1093668864","type":"store","field":"<java.net.URL: int port>"},{"step":5,"from":"sdaReg1","to":"sdaReg8","type":"model"},{"step":6,"from":"sdaReg3","to":"1093668864","type":"store","field":"<java.net.URL: java.lang.String file>"},{"step":7,"from":"1093668864","to":"sdaReg15","type":"create","field":"<java.net.URL: java.lang.String query>"},{"step":8,"from":"sdaReg16","to":"1093668864","type":"store","field":"<java.net.URL: java.lang.String path>"},{"step":9,"from":"static.<java.net.URL: java.util.Hashtable streamHandlers>","to":"1084315112","type":"load","field":"<java.net.URL: java.util.Hashtable streamHandlers>"},{"step":10,"from":"1084315112","to":"1084321912","type":"load","field":"<java.util.Hashtable: java.util.Hashtable$HashtableEntry[] table>"},{"step":11,"from":"1093437632","to":"1093262728","type":"model"},{"step":12,"from":"1093668864","to":"1093681040","type":"create","field":"<java.net.URL: java.net.URLStreamHandler streamHandler>"},{"step":13,"from":"static.<java.net.URL: java.util.Hashtable streamHandlers>","to":"1084315112","type":"load","field":"<java.net.URL: java.util.Hashtable streamHandlers>"},{"step":14,"from":"1084315112","to":"1084321912","type":"load","field":"<java.util.Hashtable: java.util.Hashtable$HashtableEntry[] table>"},{"step":15,"from":"1084315112","to":"1084315112.<java.util.Hashtable: int modCount>","type":"load","field":"<java.util.Hashtable: int modCount>"},{"step":16,"from":"sdaReg61","to":"1084315112","type":"store","field":"<java.util.Hashtable: int modCount>"},{"step":17,"from":"1084315112","to":"1084315112.<java.util.Hashtable: int size>","type":"load","field":"<java.util.Hashtable: int size>"},{"step":18,"from":"sdaReg62","to":"1084315112","type":"store","field":"<java.util.Hashtable: int size>"},{"step":19,"from":"1084315112","to":"1084315112.<java.util.Hashtable: int threshold>","type":"load","field":"<java.util.Hashtable: int threshold>"},{"step":20,"from":"1084321368","to":"1093691264","type":"store","field":"<java.util.Hashtable$HashtableEntry: java.lang.Object key>"},{"step":21,"from":"1093681040","to":"1093691264","type":"store","field":"<java.util.Hashtable$HashtableEntry: java.lang.Object value>"},{"step":22,"from":"sdaReg56","to":"1093691264","type":"store","field":"<java.util.Hashtable$HashtableEntry: int hash>"},{"step":23,"from":"1084321912","to":"1093691264","type":"create","field":"arrayIdx_int:1"}],"parameters":[{"id":"1093668864","name":"this","klass":"java.net.URL"},{"id":"sdaReg0","name":"arg#1","klass":"string"},{"id":"sdaReg1","name":"arg#2","klass":"string"},{"id":"sdaReg2","name":"arg#3","klass":"int"},{"id":"sdaReg3","name":"arg#4","klass":"string"}],"returns":[{"id":"1093668864","name":"return","klass":"java.net.URL"}],"colors":{"heapLocToColor":{"sdaReg61":[10],"1084315112.<java.util.Hashtable: int modCount>":[10],"sdaReg68":[21],"1084315112.<java.util.Hashtable: int threshold>":[10],"sdaReg69":[0],"sdaReg67":[21],"sdaReg65":[19],"sdaReg62":[10],"sdaReg63":[21],"sdaReg13":[9],"sdaReg14":[9],"sdaReg12":[8],"sdaReg10":[0],"sdaReg59":[20],"1093681040":[19],"sdaReg56":[20],"sdaReg55":[20],"sdaReg54":[20],"sdaReg17":[0],"sdaReg53":[20],"sdaReg18":[10],"sdaReg52":[20],"sdaReg51":[20],"sdaReg50":[20],"1084315112.<java.util.Hashtable: int size>":[10],"1084321912":[10],"sdaReg49":[20],"sdaReg48":[20],"sdaReg45":[10],"sdaReg44":[19],"sdaReg47":[19],"sdaReg41":[19],"sdaReg40":[19],"1084315112":[10],"sdaReg43":[19],"sdaReg42":[19],"static.<java.net.URL: java.util.Hashtable streamHandlers>":[10],"sdaReg39":[18],"1093691264":[21],"1084315112.<java.util.Hashtable: java.util.Hashtable$HashtableEntry[] table>":[10],"sdaReg38":[17],"sdaReg37":[16],"sdaReg31":[11],"1093262728":[14, 15],"1093668864":[0],"sdaReg36":[14, 15],"sdaReg35":[14],"sdaReg34":[13],"sdaReg8":[2, 6],"sdaReg9":[7],"sdaReg7":[2, 5],"sdaReg4":[0],"sdaReg5":[0],"1093437632":[14],"sdaReg27":[11],"sdaReg26":[11],"sdaReg28":[11],"sdaReg3":[4],"sdaReg2":[3],"sdaReg21":[11],"sdaReg1":[2],"sdaReg20":[11],"sdaReg0":[1],"sdaReg23":[11],"static.<java.net.URL: java.net.URLStreamHandlerFactory streamHandlerFactory>":[12],"sdaReg22":[11],"sdaReg25":[11],"sdaReg24":[11]},"colorToColor":{"0":[22],"1":[0],"19":[0, 21],"2":[0],"3":[0],"21":[10],"4":[0],"20":[21],"10":[10]},"colorToLabel":{"0":"this","1":"arg#1","2":"arg#2","3":"arg#3","4":"arg#4","10":"<java.net.URL: java.util.Hashtable streamHandlers>","12":"<java.net.URL: java.net.URLStreamHandlerFactory streamHandlerFactory>","22":"return"}}}

Generated Model
	this->return
	arg#4->this
	arg#4->return
	arg#3->this
	arg#3->return
	arg#2->this
	arg#2->return
	arg#1->this
	arg#1->return

