Scanning method <android.location.Location: void distanceBetween(double,double,double,double,float[])>

All seen event types: BinaryOperationRecord, NegationRecord, StoreArrayRecord, SimpleAssignmentRecord, MethodReturnRecord, MethodCallRecord, CastRecord, MethodStartRecord, ArrayLengthRecord, MethodEndRecord, IfRecord, 
Ignored event types: NegationRecord, IfRecord, 

JSON Encoded Analysis Data (for visualization):{"heapEdges":[{"step":0,"from":"sdaReg7","to":"sdaReg23","type":"model"},{"step":1,"from":"sdaReg24","to":"sdaReg25","type":"model"},{"step":2,"from":"sdaReg8","to":"sdaReg27","type":"model"},{"step":3,"from":"sdaReg28","to":"sdaReg29","type":"model"},{"step":4,"from":"sdaReg25","to":"sdaReg30","type":"model"},{"step":5,"from":"sdaReg29","to":"sdaReg31","type":"model"},{"step":6,"from":"sdaReg25","to":"sdaReg32","type":"model"},{"step":7,"from":"sdaReg29","to":"sdaReg33","type":"model"},{"step":8,"from":"sdaReg44","to":"sdaReg47","type":"model"},{"step":9,"from":"sdaReg44","to":"sdaReg48","type":"model"},{"step":10,"from":"sdaReg56","to":"sdaReg57","type":"model"},{"step":11,"from":"sdaReg59","to":"sdaReg60","type":"model"},{"step":12,"from":"sdaReg57","to":"sdaReg60","type":"model"},{"step":13,"from":"sdaReg127","to":"sdaReg128","type":"model"},{"step":14,"from":"sdaReg44","to":"sdaReg130","type":"model"},{"step":15,"from":"sdaReg44","to":"sdaReg131","type":"model"},{"step":16,"from":"sdaReg56","to":"sdaReg132","type":"model"},{"step":17,"from":"sdaReg59","to":"sdaReg133","type":"model"},{"step":18,"from":"sdaReg132","to":"sdaReg133","type":"model"},{"step":19,"from":"sdaReg127","to":"sdaReg134","type":"model"},{"step":20,"from":"sdaReg44","to":"sdaReg135","type":"model"},{"step":21,"from":"sdaReg44","to":"sdaReg136","type":"model"},{"step":22,"from":"sdaReg56","to":"sdaReg137","type":"model"},{"step":23,"from":"sdaReg59","to":"sdaReg138","type":"model"},{"step":24,"from":"sdaReg137","to":"sdaReg138","type":"model"},{"step":25,"from":"sdaReg127","to":"sdaReg139","type":"model"},{"step":26,"from":"sdaReg44","to":"sdaReg140","type":"model"},{"step":27,"from":"sdaReg44","to":"sdaReg141","type":"model"},{"step":28,"from":"sdaReg56","to":"sdaReg142","type":"model"},{"step":29,"from":"sdaReg59","to":"sdaReg143","type":"model"},{"step":30,"from":"sdaReg142","to":"sdaReg143","type":"model"},{"step":31,"from":"sdaReg127","to":"sdaReg144","type":"model"},{"step":32,"from":"sdaReg44","to":"sdaReg145","type":"model"},{"step":33,"from":"sdaReg44","to":"sdaReg146","type":"model"},{"step":34,"from":"sdaReg56","to":"sdaReg147","type":"model"},{"step":35,"from":"sdaReg59","to":"sdaReg148","type":"model"},{"step":36,"from":"sdaReg147","to":"sdaReg148","type":"model"},{"step":37,"from":"sdaReg127","to":"sdaReg149","type":"model"},{"step":38,"from":"sdaReg44","to":"sdaReg150","type":"model"},{"step":39,"from":"sdaReg44","to":"sdaReg151","type":"model"},{"step":40,"from":"sdaReg56","to":"sdaReg152","type":"model"},{"step":41,"from":"sdaReg59","to":"sdaReg153","type":"model"},{"step":42,"from":"sdaReg152","to":"sdaReg153","type":"model"},{"step":43,"from":"sdaReg127","to":"sdaReg154","type":"model"},{"step":44,"from":"sdaReg44","to":"sdaReg155","type":"model"},{"step":45,"from":"sdaReg44","to":"sdaReg156","type":"model"},{"step":46,"from":"sdaReg56","to":"sdaReg157","type":"model"},{"step":47,"from":"sdaReg59","to":"sdaReg158","type":"model"},{"step":48,"from":"sdaReg157","to":"sdaReg158","type":"model"},{"step":49,"from":"sdaReg127","to":"sdaReg159","type":"model"},{"step":50,"from":"sdaReg44","to":"sdaReg160","type":"model"},{"step":51,"from":"sdaReg44","to":"sdaReg161","type":"model"},{"step":52,"from":"sdaReg56","to":"sdaReg162","type":"model"},{"step":53,"from":"sdaReg59","to":"sdaReg163","type":"model"},{"step":54,"from":"sdaReg162","to":"sdaReg163","type":"model"},{"step":55,"from":"sdaReg127","to":"sdaReg164","type":"model"},{"step":56,"from":"sdaReg44","to":"sdaReg165","type":"model"},{"step":57,"from":"sdaReg44","to":"sdaReg166","type":"model"},{"step":58,"from":"sdaReg56","to":"sdaReg167","type":"model"},{"step":59,"from":"sdaReg59","to":"sdaReg168","type":"model"},{"step":60,"from":"sdaReg167","to":"sdaReg168","type":"model"},{"step":61,"from":"sdaReg127","to":"sdaReg169","type":"model"},{"step":62,"from":"sdaReg44","to":"sdaReg170","type":"model"},{"step":63,"from":"sdaReg44","to":"sdaReg171","type":"model"},{"step":64,"from":"sdaReg56","to":"sdaReg172","type":"model"},{"step":65,"from":"sdaReg59","to":"sdaReg173","type":"model"},{"step":66,"from":"sdaReg172","to":"sdaReg173","type":"model"},{"step":67,"from":"sdaReg127","to":"sdaReg174","type":"model"},{"step":68,"from":"sdaReg44","to":"sdaReg175","type":"model"},{"step":69,"from":"sdaReg44","to":"sdaReg176","type":"model"},{"step":70,"from":"sdaReg56","to":"sdaReg177","type":"model"},{"step":71,"from":"sdaReg59","to":"sdaReg178","type":"model"},{"step":72,"from":"sdaReg177","to":"sdaReg178","type":"model"},{"step":73,"from":"sdaReg127","to":"sdaReg179","type":"model"},{"step":74,"from":"sdaReg44","to":"sdaReg180","type":"model"},{"step":75,"from":"sdaReg44","to":"sdaReg181","type":"model"},{"step":76,"from":"sdaReg56","to":"sdaReg182","type":"model"},{"step":77,"from":"sdaReg59","to":"sdaReg183","type":"model"},{"step":78,"from":"sdaReg182","to":"sdaReg183","type":"model"},{"step":79,"from":"sdaReg127","to":"sdaReg184","type":"model"},{"step":80,"from":"sdaReg44","to":"sdaReg185","type":"model"},{"step":81,"from":"sdaReg44","to":"sdaReg186","type":"model"},{"step":82,"from":"sdaReg56","to":"sdaReg187","type":"model"},{"step":83,"from":"sdaReg59","to":"sdaReg188","type":"model"},{"step":84,"from":"sdaReg187","to":"sdaReg188","type":"model"},{"step":85,"from":"sdaReg127","to":"sdaReg189","type":"model"},{"step":86,"from":"sdaReg44","to":"sdaReg190","type":"model"},{"step":87,"from":"sdaReg44","to":"sdaReg191","type":"model"},{"step":88,"from":"sdaReg56","to":"sdaReg192","type":"model"},{"step":89,"from":"sdaReg59","to":"sdaReg193","type":"model"},{"step":90,"from":"sdaReg192","to":"sdaReg193","type":"model"},{"step":91,"from":"sdaReg127","to":"sdaReg194","type":"model"},{"step":92,"from":"sdaReg44","to":"sdaReg195","type":"model"},{"step":93,"from":"sdaReg44","to":"sdaReg196","type":"model"},{"step":94,"from":"sdaReg56","to":"sdaReg197","type":"model"},{"step":95,"from":"sdaReg59","to":"sdaReg198","type":"model"},{"step":96,"from":"sdaReg197","to":"sdaReg198","type":"model"},{"step":97,"from":"sdaReg127","to":"sdaReg199","type":"model"},{"step":98,"from":"sdaReg44","to":"sdaReg200","type":"model"},{"step":99,"from":"sdaReg44","to":"sdaReg201","type":"model"},{"step":100,"from":"sdaReg56","to":"sdaReg202","type":"model"},{"step":101,"from":"sdaReg59","to":"sdaReg203","type":"model"},{"step":102,"from":"sdaReg202","to":"sdaReg203","type":"model"},{"step":103,"from":"sdaReg127","to":"sdaReg204","type":"model"},{"step":104,"from":"sdaReg44","to":"sdaReg205","type":"model"},{"step":105,"from":"sdaReg44","to":"sdaReg206","type":"model"},{"step":106,"from":"sdaReg56","to":"sdaReg207","type":"model"},{"step":107,"from":"sdaReg59","to":"sdaReg208","type":"model"},{"step":108,"from":"sdaReg207","to":"sdaReg208","type":"model"},{"step":109,"from":"sdaReg127","to":"sdaReg209","type":"model"},{"step":110,"from":"sdaReg44","to":"sdaReg210","type":"model"},{"step":111,"from":"sdaReg44","to":"sdaReg211","type":"model"},{"step":112,"from":"sdaReg56","to":"sdaReg212","type":"model"},{"step":113,"from":"sdaReg59","to":"sdaReg213","type":"model"},{"step":114,"from":"sdaReg212","to":"sdaReg213","type":"model"},{"step":115,"from":"sdaReg127","to":"sdaReg214","type":"model"},{"step":116,"from":"sdaReg44","to":"sdaReg215","type":"model"},{"step":117,"from":"sdaReg44","to":"sdaReg216","type":"model"},{"step":118,"from":"sdaReg56","to":"sdaReg217","type":"model"},{"step":119,"from":"sdaReg59","to":"sdaReg218","type":"model"},{"step":120,"from":"sdaReg217","to":"sdaReg218","type":"model"},{"step":121,"from":"sdaReg127","to":"sdaReg219","type":"model"},{"step":122,"from":"sdaReg44","to":"sdaReg220","type":"model"},{"step":123,"from":"sdaReg44","to":"sdaReg221","type":"model"},{"step":124,"from":"sdaReg56","to":"sdaReg222","type":"model"},{"step":125,"from":"sdaReg59","to":"sdaReg223","type":"model"},{"step":126,"from":"sdaReg222","to":"sdaReg223","type":"model"},{"step":127,"from":"sdaReg127","to":"sdaReg224","type":"model"},{"step":128,"from":"sdaReg228","to":"1093983696","type":"store","field":"arrayIdx_int:0"},{"step":129,"from":"sdaReg234","to":"sdaReg235","type":"model"},{"step":130,"from":"sdaReg230","to":"sdaReg235","type":"model"},{"step":131,"from":"sdaReg239","to":"1093983696","type":"store","field":"arrayIdx_int:1"},{"step":132,"from":"sdaReg245","to":"sdaReg246","type":"model"},{"step":133,"from":"sdaReg241","to":"sdaReg246","type":"model"},{"step":134,"from":"sdaReg250","to":"1093983696","type":"store","field":"arrayIdx_int:2"}],"parameters":[{"id":"sdaReg0","name":"arg#0","klass":"double"},{"id":"sdaReg1","name":"arg#1","klass":"double"},{"id":"sdaReg2","name":"arg#2","klass":"double"},{"id":"sdaReg3","name":"arg#3","klass":"double"},{"id":"1093983696","name":"arg#4","klass":"float[]"}],"returns":[{"id":null,"name":"return","klass":null}],"colors":{"heapLocToColor":{"sdaReg191":[79],"sdaReg190":[78],"sdaReg193":[81],"sdaReg192":[80],"sdaReg199":[87],"sdaReg198":[86],"sdaReg195":[83],"sdaReg194":[82],"sdaReg197":[85],"sdaReg196":[84],"sdaReg10":[3],"sdaReg171":[59],"sdaReg170":[58],"sdaReg173":[61],"sdaReg172":[60],"sdaReg175":[63],"sdaReg174":[62],"sdaReg177":[65],"sdaReg176":[64],"sdaReg179":[67],"sdaReg178":[66],"sdaReg182":[70],"sdaReg181":[69],"sdaReg180":[68],"sdaReg186":[74],"sdaReg185":[73],"sdaReg184":[72],"sdaReg183":[71],"sdaReg189":[77],"sdaReg188":[76],"sdaReg187":[75],"sdaReg60":[16],"sdaReg61":[35, 100, 70, 65, 110, 40, 105, 15, 45, 75, 85, 50, 55, 80, 20, 25, 95, 90, 30, 60],"sdaReg59":[68, 103, 33, 98, 38, 9, 43, 108, 78, 10, 11, 12, 73, 13, 18, 48, 83, 23, 53, 93, 58, 63, 88, 28],"sdaReg58":[68, 103, 33, 98, 38, 9, 43, 108, 78, 10, 73, 13, 18, 48, 83, 23, 53, 93, 58, 63, 88, 28],"sdaReg57":[15],"sdaReg56":[68, 69, 64, 9, 78, 10, 79, 11, 12, 73, 13, 74, 14, 84, 19, 18, 83, 23, 93, 24, 94, 89, 29, 88, 28, 34, 103, 33, 98, 38, 99, 39, 43, 108, 109, 104, 44, 49, 48, 54, 53, 59, 58, 63],"sdaReg55":[68, 103, 33, 98, 38, 9, 43, 108, 78, 10, 11, 12, 73, 13, 18, 48, 83, 23, 53, 93, 58, 63, 88, 28],"sdaReg54":[34, 69, 64, 99, 39, 10, 109, 79, 104, 74, 14, 44, 84, 19, 49, 54, 59, 24, 94, 89, 29],"sdaReg53":[68, 103, 33, 98, 38, 9, 43, 108, 78, 10, 11, 12, 73, 13, 18, 48, 83, 23, 53, 93, 58, 63, 88, 28],"sdaReg52":[68, 103, 33, 98, 38, 43, 108, 78, 10, 11, 73, 13, 18, 48, 83, 23, 53, 93, 58, 63, 88, 28],"sdaReg51":[10, 11],"sdaReg50":[9, 12],"sdaReg49":[34, 69, 64, 99, 39, 10, 109, 79, 104, 74, 14, 44, 84, 19, 49, 54, 59, 24, 94, 89, 29],"sdaReg48":[14],"sdaReg44":[1, 3, 9, 10, 11, 12, 13, 15, 16, 18, 21, 20, 23, 25, 26, 28, 31, 30, 35, 33, 38, 36, 43, 40, 41, 46, 45, 51, 50, 48, 55, 53, 58, 56, 63, 61, 60, 68, 70, 71, 65, 66, 76, 78, 73, 75, 85, 86, 81, 80, 83, 93, 95, 88, 91, 90, 103, 100, 101, 98, 96, 110, 111, 108, 106, 105],"sdaReg47":[13],"sdaReg46":[1, 3, 9, 10, 11, 12, 13, 15, 16, 18, 21, 20, 23, 25, 26, 28, 31, 30, 35, 33, 38, 36, 43, 40, 41, 46, 45, 51, 50, 48, 55, 53, 58, 56, 63, 61, 60, 68, 70, 71, 65, 66, 76, 78, 73, 75, 85, 86, 81, 80, 83, 93, 95, 88, 91, 90, 103, 100, 101, 98, 96, 106, 105],"sdaReg200":[88],"sdaReg201":[89],"sdaReg205":[93],"sdaReg204":[92],"sdaReg203":[91],"sdaReg37":[68, 70, 65, 9, 78, 10, 11, 12, 73, 13, 75, 15, 85, 18, 80, 20, 83, 23, 93, 25, 95, 88, 28, 90, 30, 103, 35, 100, 33, 98, 38, 110, 43, 108, 40, 105, 45, 50, 48, 55, 53, 58, 63, 60],"sdaReg202":[90],"sdaReg209":[97],"sdaReg208":[96],"sdaReg207":[95],"sdaReg206":[94],"sdaReg32":[11],"sdaReg31":[10],"sdaReg30":[9],"sdaReg35":[11, 12],"sdaReg34":[9, 10],"sdaReg33":[12],"sdaReg8":[2],"sdaReg9":[1],"sdaReg7":[0],"sdaReg5":[4],"sdaReg27":[7],"sdaReg29":[8],"sdaReg28":[7],"sdaReg3":[3],"sdaReg2":[2],"sdaReg1":[1],"sdaReg0":[0],"sdaReg20":[1, 3],"sdaReg23":[5],"sdaReg25":[6],"sdaReg24":[5],"sdaReg125":[9, 10, 11, 12, 13, 15, 16, 18, 21, 20, 23, 25, 26, 28, 31, 30, 35, 33, 38, 36, 43, 40, 41, 46, 45, 51, 50, 48, 55, 53, 58, 56, 63, 61, 60, 68, 70, 71, 65, 66, 76, 78, 73, 75, 85, 86, 81, 80, 83, 93, 95, 88, 91, 90, 103, 100, 101, 98, 96, 110, 111, 108, 106, 105],"sdaReg126":[1, 3, 9, 10, 11, 12, 13, 15, 16, 18, 21, 20, 23, 25, 26, 28, 31, 30, 35, 33, 38, 36, 43, 40, 41, 46, 45, 51, 50, 48, 55, 53, 58, 56, 63, 61, 60, 68, 70, 71, 65, 66, 76, 78, 73, 75, 85, 86, 81, 80, 83, 93, 95, 88, 91, 90, 103, 100, 101, 98, 96, 110, 111, 108, 106, 105],"sdaReg127":[1, 3, 9, 10, 11, 12, 13, 15, 16, 18, 21, 20, 23, 25, 26, 28, 31, 30, 35, 33, 38, 36, 43, 40, 41, 46, 45, 51, 50, 48, 55, 53, 58, 56, 63, 61, 60, 68, 70, 71, 65, 66, 76, 78, 73, 75, 85, 86, 81, 80, 83, 93, 95, 88, 91, 90, 103, 100, 101, 98, 96, 110, 111, 108, 106, 105],"sdaReg128":[17],"sdaReg129":[102, 32, 97, 37, 67, 42, 77, 72, 107, 47, 17, 87, 112, 82, 22, 52, 92, 27, 57, 62],"sdaReg68":[11, 12],"sdaReg228":[68, 70, 65, 9, 10, 78, 11, 12, 13, 73, 15, 75, 85, 18, 80, 20, 83, 23, 93, 25, 95, 88, 28, 30, 90, 35, 103, 100, 33, 38, 98, 110, 43, 111, 40, 108, 45, 105, 50, 48, 55, 53, 58, 63, 60],"sdaReg69":[68, 103, 33, 98, 38, 9, 43, 108, 78, 10, 11, 12, 73, 13, 18, 48, 83, 23, 53, 93, 58, 63, 88, 28],"sdaReg67":[11, 12],"sdaReg224":[112],"sdaReg226":[68, 70, 65, 9, 10, 78, 11, 12, 13, 73, 15, 75, 85, 18, 80, 20, 83, 23, 93, 25, 95, 88, 28, 30, 90, 35, 103, 100, 33, 38, 98, 110, 43, 111, 40, 108, 45, 105, 50, 48, 55, 53, 58, 63, 60],"sdaReg227":[68, 70, 65, 9, 78, 10, 11, 12, 73, 13, 75, 15, 85, 18, 80, 20, 83, 23, 93, 25, 95, 88, 28, 30, 90, 103, 35, 100, 33, 98, 38, 110, 111, 43, 108, 40, 105, 45, 50, 48, 55, 53, 58, 63, 60],"sdaReg221":[109],"sdaReg220":[108],"sdaReg70":[68, 103, 33, 98, 38, 9, 43, 108, 78, 10, 11, 12, 73, 13, 18, 48, 83, 23, 53, 93, 58, 63, 88, 28],"sdaReg223":[111],"sdaReg222":[110],"sdaReg120":[68, 103, 33, 98, 38, 9, 43, 108, 78, 10, 11, 12, 73, 13, 18, 48, 83, 23, 53, 93, 58, 63, 88, 28],"sdaReg122":[68, 103, 33, 98, 38, 9, 43, 108, 78, 10, 11, 12, 73, 13, 18, 48, 83, 23, 53, 93, 58, 63, 88, 28],"sdaReg121":[68, 103, 33, 98, 38, 9, 43, 108, 78, 10, 11, 12, 73, 13, 18, 48, 83, 23, 53, 93, 58, 63, 88, 28],"sdaReg124":[9, 10, 11, 12, 13, 15, 16, 18, 21, 20, 23, 25, 26, 28, 31, 30, 35, 33, 38, 36, 43, 40, 41, 46, 45, 51, 50, 48, 55, 53, 58, 56, 63, 61, 60, 68, 70, 71, 65, 66, 76, 78, 73, 75, 85, 86, 81, 80, 83, 93, 95, 88, 91, 90, 103, 100, 101, 98, 96, 110, 111, 108, 106, 105],"sdaReg123":[68, 70, 65, 9, 78, 10, 11, 12, 73, 13, 75, 15, 85, 18, 80, 20, 83, 23, 93, 25, 95, 88, 28, 90, 30, 103, 35, 100, 33, 98, 38, 110, 43, 108, 40, 105, 45, 50, 48, 55, 53, 58, 63, 60],"sdaReg116":[35, 100, 70, 65, 110, 40, 105, 15, 45, 75, 85, 50, 55, 80, 20, 25, 95, 90, 30, 60],"sdaReg117":[68, 103, 33, 98, 38, 9, 43, 108, 78, 10, 11, 12, 73, 13, 18, 48, 83, 23, 53, 93, 58, 63, 88, 28],"sdaReg118":[68, 103, 33, 98, 38, 9, 43, 108, 78, 10, 11, 12, 73, 13, 18, 48, 83, 23, 53, 93, 58, 63, 88, 28],"sdaReg119":[68, 103, 33, 98, 38, 9, 43, 108, 78, 10, 11, 12, 73, 13, 18, 48, 83, 23, 53, 93, 58, 63, 88, 28],"sdaReg219":[107],"sdaReg217":[105],"sdaReg218":[106],"sdaReg215":[103],"sdaReg216":[104],"sdaReg213":[101],"sdaReg214":[102],"sdaReg212":[100],"sdaReg211":[99],"sdaReg210":[98],"sdaReg112":[68, 70, 65, 9, 78, 10, 11, 12, 73, 13, 75, 15, 85, 18, 80, 20, 83, 23, 93, 25, 95, 88, 28, 90, 30, 103, 35, 100, 33, 98, 38, 110, 43, 108, 40, 105, 45, 50, 48, 55, 53, 58, 63, 60],"sdaReg111":[68, 70, 65, 9, 78, 10, 11, 12, 73, 13, 75, 15, 85, 18, 80, 20, 83, 23, 93, 25, 95, 88, 28, 90, 30, 103, 35, 100, 33, 98, 38, 110, 43, 108, 40, 105, 45, 50, 48, 55, 53, 58, 63, 60],"sdaReg110":[68, 70, 65, 9, 78, 10, 11, 12, 73, 13, 75, 15, 85, 18, 80, 20, 83, 23, 93, 25, 95, 88, 28, 90, 30, 103, 35, 100, 33, 98, 38, 110, 43, 108, 40, 105, 45, 50, 48, 55, 53, 58, 63, 60],"sdaReg107":[68, 103, 33, 98, 38, 9, 43, 108, 78, 10, 11, 12, 73, 13, 18, 48, 83, 23, 53, 93, 58, 63, 88, 28],"sdaReg108":[68, 103, 33, 98, 38, 9, 43, 108, 78, 10, 11, 12, 73, 13, 18, 48, 83, 23, 53, 93, 58, 63, 88, 28],"sdaReg109":[68, 70, 65, 9, 78, 10, 11, 12, 73, 13, 75, 15, 85, 18, 80, 20, 83, 23, 93, 25, 95, 88, 28, 90, 30, 103, 35, 100, 33, 98, 38, 110, 43, 108, 40, 105, 45, 50, 48, 55, 53, 58, 63, 60],"sdaReg103":[35, 100, 70, 65, 110, 40, 105, 15, 45, 75, 85, 50, 55, 80, 20, 25, 95, 90, 30, 60],"sdaReg104":[35, 100, 70, 65, 110, 40, 105, 15, 45, 75, 85, 50, 55, 80, 20, 25, 95, 90, 30, 60],"sdaReg105":[35, 100, 70, 65, 110, 40, 105, 15, 45, 75, 85, 50, 55, 80, 20, 25, 95, 90, 30, 60],"sdaReg106":[68, 70, 65, 9, 78, 10, 11, 12, 73, 13, 75, 15, 85, 18, 80, 20, 83, 23, 93, 25, 95, 88, 28, 90, 30, 103, 35, 100, 33, 98, 38, 110, 43, 108, 40, 105, 45, 50, 48, 55, 53, 58, 63, 60],"sdaReg246":[114],"sdaReg247":[114],"sdaReg248":[114],"sdaReg249":[114],"sdaReg241":[9, 109],"sdaReg243":[9, 12],"sdaReg242":[10],"sdaReg245":[9, 108, 10, 12],"sdaReg244":[9, 108, 12],"sdaReg100":[68, 103, 33, 98, 38, 9, 43, 108, 78, 10, 11, 12, 73, 13, 18, 48, 83, 23, 53, 93, 58, 63, 88, 28],"sdaReg102":[68, 103, 33, 98, 38, 9, 43, 108, 78, 10, 11, 12, 73, 13, 18, 48, 83, 23, 53, 93, 58, 63, 88, 28],"sdaReg95":[68, 103, 33, 98, 38, 9, 43, 108, 78, 10, 11, 12, 73, 13, 18, 48, 83, 23, 53, 93, 58, 63, 88, 28],"sdaReg237":[113],"sdaReg96":[35, 100, 70, 65, 110, 40, 105, 15, 45, 75, 85, 50, 55, 80, 20, 25, 95, 90, 30, 60],"sdaReg238":[113],"sdaReg235":[113],"sdaReg98":[68, 103, 33, 98, 38, 9, 43, 108, 78, 10, 11, 12, 73, 13, 18, 48, 83, 23, 53, 93, 58, 63, 88, 28],"sdaReg236":[113],"sdaReg99":[68, 103, 33, 98, 38, 9, 43, 108, 78, 10, 11, 12, 73, 13, 18, 48, 83, 23, 53, 93, 58, 63, 88, 28],"sdaReg239":[113],"sdaReg230":[10, 109],"sdaReg234":[9, 10, 108, 11, 12],"sdaReg233":[108, 10, 11],"sdaReg232":[10, 11],"sdaReg231":[9, 12],"sdaReg169":[57],"sdaReg161":[49],"sdaReg162":[50],"sdaReg163":[51],"sdaReg164":[52],"sdaReg165":[53],"sdaReg166":[54],"sdaReg167":[55],"sdaReg168":[56],"sdaReg160":[48],"sdaReg159":[47],"sdaReg158":[46],"sdaReg152":[40],"sdaReg153":[41],"sdaReg150":[38],"sdaReg151":[39],"sdaReg156":[44],"sdaReg157":[45],"sdaReg154":[42],"sdaReg155":[43],"sdaReg250":[114],"1093983696":[4],"sdaReg148":[36],"sdaReg147":[35],"sdaReg149":[37],"sdaReg143":[31],"sdaReg144":[32],"sdaReg145":[33],"sdaReg146":[34],"sdaReg140":[28],"sdaReg141":[29],"sdaReg142":[30],"sdaReg139":[27],"sdaReg138":[26],"sdaReg137":[25],"sdaReg136":[24],"sdaReg134":[22],"sdaReg135":[23],"sdaReg132":[20],"sdaReg133":[21],"sdaReg130":[18],"sdaReg131":[19]},"colorToColor":{"0":[5],"1":[13, 14, 17, 19, 18, 23, 22, 24, 27, 29, 28, 34, 32, 33, 38, 39, 37, 42, 43, 47, 44, 49, 48, 54, 53, 52, 59, 58, 57, 63, 62, 68, 69, 64, 67, 77, 78, 79, 72, 73, 74, 84, 87, 83, 82, 93, 92, 94, 89, 88, 102, 103, 98, 99, 97, 108, 109, 107, 104, 112],"2":[7],"3":[13, 14, 17, 19, 18, 23, 22, 24, 27, 29, 28, 34, 32, 33, 38, 39, 37, 42, 43, 47, 44, 49, 48, 54, 53, 52, 59, 58, 57, 63, 62, 68, 69, 64, 67, 77, 78, 79, 72, 73, 74, 84, 87, 83, 82, 93, 92, 94, 89, 88, 102, 103, 98, 99, 97, 108, 109, 107, 104, 112],"5":[6],"6":[9, 11],"7":[8],"8":[10, 12],"9":[4, 15, 17, 16, 19, 18, 21, 20, 23, 22, 25, 24, 27, 26, 29, 28, 31, 30, 34, 35, 32, 33, 38, 39, 36, 37, 42, 43, 40, 41, 46, 47, 44, 45, 51, 50, 49, 48, 55, 54, 53, 52, 59, 58, 57, 56, 63, 62, 61, 60, 68, 69, 70, 71, 64, 65, 66, 67, 76, 77, 78, 79, 72, 73, 74, 75, 85, 84, 87, 86, 81, 80, 83, 82, 93, 92, 95, 94, 89, 88, 91, 90, 102, 103, 100, 101, 98, 99, 96, 97, 110, 111, 108, 109, 106, 107, 104, 105, 114, 113, 112],"10":[4, 15, 17, 16, 19, 18, 21, 20, 23, 22, 25, 24, 27, 26, 29, 28, 31, 30, 34, 35, 32, 33, 38, 39, 36, 37, 42, 43, 40, 41, 46, 47, 44, 45, 51, 50, 49, 48, 55, 54, 53, 52, 59, 58, 57, 56, 63, 62, 61, 60, 68, 69, 70, 71, 64, 65, 66, 67, 76, 77, 78, 79, 72, 73, 74, 75, 85, 84, 87, 86, 81, 80, 83, 82, 93, 92, 95, 94, 89, 88, 91, 90, 102, 103, 100, 101, 98, 99, 96, 97, 110, 111, 108, 109, 106, 107, 104, 105, 114, 113, 112],"11":[4, 15, 17, 16, 19, 18, 21, 20, 23, 22, 25, 24, 27, 26, 29, 28, 31, 30, 34, 35, 32, 33, 38, 39, 36, 37, 42, 43, 40, 41, 46, 47, 44, 45, 51, 50, 49, 48, 55, 54, 53, 52, 59, 58, 57, 56, 63, 62, 61, 60, 68, 69, 70, 71, 64, 65, 66, 67, 76, 77, 78, 79, 72, 73, 74, 75, 85, 84, 87, 86, 81, 80, 83, 82, 93, 92, 95, 94, 89, 88, 91, 90, 102, 103, 100, 101, 98, 99, 96, 97, 110, 111, 108, 109, 106, 107, 104, 105, 113, 112],"12":[4, 15, 17, 16, 19, 18, 21, 20, 23, 22, 25, 24, 27, 26, 29, 28, 31, 30, 34, 35, 32, 33, 38, 39, 36, 37, 42, 43, 40, 41, 46, 47, 44, 45, 51, 50, 49, 48, 55, 54, 53, 52, 59, 58, 57, 56, 63, 62, 61, 60, 68, 69, 70, 71, 64, 65, 66, 67, 76, 77, 78, 79, 72, 73, 74, 75, 85, 84, 87, 86, 81, 80, 83, 82, 93, 92, 95, 94, 89, 88, 91, 90, 102, 103, 100, 101, 98, 99, 96, 97, 110, 111, 108, 109, 106, 107, 104, 105, 114, 113, 112],"13":[4, 15, 17, 16, 19, 18, 21, 20, 23, 22, 25, 24, 27, 26, 29, 28, 31, 30, 34, 35, 32, 33, 38, 39, 36, 37, 42, 43, 40, 41, 46, 47, 44, 45, 51, 50, 49, 48, 55, 54, 53, 52, 59, 58, 57, 56, 63, 62, 61, 60, 68, 69, 70, 71, 64, 65, 66, 67, 76, 77, 78, 79, 72, 73, 74, 75, 85, 84, 87, 86, 81, 80, 83, 82, 93, 92, 95, 94, 89, 88, 91, 90, 102, 103, 100, 101, 98, 99, 96, 97, 110, 111, 108, 109, 106, 107, 104, 105, 112],"14":[35, 100, 70, 65, 110, 40, 105, 15, 45, 75, 85, 50, 55, 80, 20, 25, 95, 90, 30, 60],"15":[4, 17, 16, 19, 18, 23, 22, 24, 27, 29, 28, 34, 32, 33, 38, 39, 37, 42, 43, 47, 44, 49, 48, 54, 53, 52, 59, 58, 57, 63, 62, 68, 69, 64, 67, 77, 78, 79, 72, 73, 74, 84, 87, 83, 82, 93, 92, 94, 89, 88, 102, 103, 98, 99, 97, 108, 109, 107, 104, 112],"16":[17, 19, 18, 23, 22, 24, 27, 29, 28, 34, 32, 33, 38, 39, 37, 42, 43, 47, 44, 49, 48, 54, 53, 52, 59, 58, 57, 63, 62, 68, 69, 64, 67, 77, 78, 79, 72, 73, 74, 84, 87, 83, 82, 93, 92, 94, 89, 88, 102, 103, 98, 99, 97, 108, 109, 107, 104, 112],"19":[35, 100, 70, 65, 110, 40, 105, 45, 75, 85, 50, 55, 20, 80, 25, 95, 90, 30, 60],"18":[4, 21, 20, 23, 22, 25, 24, 27, 26, 29, 28, 31, 30, 34, 35, 32, 33, 38, 39, 36, 37, 42, 43, 40, 41, 46, 47, 44, 45, 51, 50, 49, 48, 55, 54, 53, 52, 59, 58, 57, 56, 63, 62, 61, 60, 68, 69, 70, 71, 64, 65, 66, 67, 76, 77, 78, 79, 72, 73, 74, 75, 85, 84, 87, 86, 81, 80, 83, 82, 93, 92, 95, 94, 89, 88, 91, 90, 102, 103, 100, 101, 98, 99, 96, 97, 110, 111, 108, 109, 106, 107, 104, 105, 112],"21":[23, 22, 24, 27, 29, 28, 34, 32, 33, 38, 39, 37, 42, 43, 47, 44, 49, 48, 54, 53, 52, 59, 58, 57, 63, 62, 68, 69, 64, 67, 77, 78, 79, 72, 73, 74, 84, 87, 83, 82, 93, 92, 94, 89, 88, 102, 103, 98, 99, 97, 108, 109, 107, 104, 112],"20":[4, 21, 23, 22, 24, 27, 29, 28, 34, 32, 33, 38, 39, 37, 42, 43, 47, 44, 49, 48, 54, 53, 52, 59, 58, 57, 63, 62, 68, 69, 64, 67, 77, 78, 79, 72, 73, 74, 84, 87, 83, 82, 93, 92, 94, 89, 88, 102, 103, 98, 99, 97, 108, 109, 107, 104, 112],"23":[4, 25, 27, 26, 29, 28, 31, 30, 34, 35, 32, 33, 38, 39, 36, 37, 42, 43, 40, 41, 46, 47, 44, 45, 51, 50, 49, 48, 55, 54, 53, 52, 59, 58, 57, 56, 63, 62, 61, 60, 68, 69, 70, 71, 64, 65, 66, 67, 76, 77, 78, 79, 72, 73, 74, 75, 85, 84, 87, 86, 81, 80, 83, 82, 93, 92, 95, 94, 89, 88, 91, 90, 102, 103, 100, 101, 98, 99, 96, 97, 110, 111, 108, 109, 106, 107, 104, 105, 112],"25":[4, 27, 26, 29, 28, 34, 32, 33, 38, 39, 37, 42, 43, 47, 44, 49, 48, 54, 53, 52, 59, 58, 57, 63, 62, 68, 69, 64, 67, 77, 78, 79, 72, 73, 74, 84, 87, 83, 82, 93, 92, 94, 89, 88, 102, 103, 98, 99, 97, 108, 109, 107, 104, 112],"24":[35, 100, 70, 65, 110, 40, 105, 45, 75, 85, 50, 55, 80, 25, 95, 90, 30, 60],"26":[27, 29, 28, 34, 32, 33, 38, 39, 37, 42, 43, 47, 44, 49, 48, 54, 53, 52, 59, 58, 57, 63, 62, 68, 69, 64, 67, 77, 78, 79, 72, 73, 74, 84, 87, 83, 82, 93, 92, 94, 89, 88, 102, 103, 98, 99, 97, 108, 109, 107, 104, 112],"29":[35, 100, 70, 65, 110, 40, 105, 45, 75, 85, 50, 55, 80, 95, 30, 60, 90],"28":[4, 31, 30, 34, 35, 32, 33, 38, 39, 36, 37, 42, 43, 40, 41, 46, 47, 44, 45, 51, 50, 49, 48, 55, 54, 53, 52, 59, 58, 57, 56, 63, 62, 61, 60, 68, 69, 70, 71, 64, 65, 66, 67, 76, 77, 78, 79, 72, 73, 74, 75, 85, 84, 87, 86, 81, 80, 83, 82, 93, 92, 95, 94, 89, 88, 91, 90, 102, 103, 100, 101, 98, 99, 96, 97, 110, 111, 108, 109, 106, 107, 104, 105, 112],"31":[34, 32, 33, 38, 39, 37, 42, 43, 47, 44, 49, 48, 54, 53, 52, 59, 58, 57, 63, 62, 68, 69, 64, 67, 77, 78, 79, 72, 73, 74, 84, 87, 83, 82, 93, 92, 94, 89, 88, 102, 103, 98, 99, 97, 108, 109, 107, 104, 112],"30":[4, 31, 34, 32, 33, 38, 39, 37, 42, 43, 47, 44, 49, 48, 54, 53, 52, 59, 58, 57, 63, 62, 68, 69, 64, 67, 77, 78, 79, 72, 73, 74, 84, 87, 83, 82, 93, 92, 94, 89, 88, 102, 103, 98, 99, 97, 108, 109, 107, 104, 112],"34":[35, 100, 70, 65, 110, 40, 105, 45, 75, 85, 50, 55, 80, 95, 60, 90],"35":[68, 69, 4, 64, 67, 77, 78, 79, 72, 73, 74, 84, 87, 83, 82, 93, 92, 94, 89, 88, 102, 103, 98, 38, 99, 39, 36, 97, 37, 42, 43, 108, 109, 107, 47, 104, 44, 49, 48, 54, 53, 112, 52, 59, 58, 57, 63, 62],"33":[4, 35, 38, 39, 36, 37, 42, 43, 40, 41, 46, 47, 44, 45, 51, 50, 49, 48, 55, 54, 53, 52, 59, 58, 57, 56, 63, 62, 61, 60, 68, 69, 70, 71, 64, 65, 66, 67, 76, 77, 78, 79, 72, 73, 74, 75, 85, 84, 87, 86, 81, 80, 83, 82, 93, 92, 95, 94, 89, 88, 91, 90, 102, 103, 100, 101, 98, 99, 96, 97, 110, 111, 108, 109, 106, 107, 104, 105, 112],"38":[4, 42, 43, 40, 41, 46, 47, 44, 45, 51, 50, 49, 48, 55, 54, 53, 52, 59, 58, 57, 56, 63, 62, 61, 60, 68, 69, 70, 71, 64, 65, 66, 67, 76, 77, 78, 79, 72, 73, 74, 75, 85, 84, 87, 86, 81, 80, 83, 82, 93, 92, 95, 94, 89, 88, 91, 90, 102, 103, 100, 101, 98, 99, 96, 97, 110, 111, 108, 109, 106, 107, 104, 105, 112],"39":[70, 100, 65, 110, 40, 105, 45, 75, 85, 50, 55, 80, 95, 60, 90],"36":[68, 69, 64, 67, 77, 78, 79, 72, 73, 74, 84, 87, 83, 82, 93, 92, 94, 89, 88, 102, 103, 98, 38, 99, 39, 97, 37, 42, 43, 108, 109, 107, 47, 104, 44, 49, 48, 54, 53, 112, 52, 59, 58, 57, 63, 62],"43":[4, 46, 47, 45, 51, 50, 49, 48, 55, 54, 53, 52, 59, 58, 57, 56, 63, 62, 61, 60, 68, 69, 70, 71, 64, 65, 66, 67, 76, 77, 78, 79, 72, 73, 74, 75, 85, 84, 87, 86, 81, 80, 83, 82, 93, 92, 95, 94, 89, 88, 91, 90, 102, 103, 100, 101, 98, 99, 96, 97, 110, 111, 108, 109, 106, 107, 104, 105, 112],"40":[68, 69, 4, 64, 67, 77, 78, 79, 72, 73, 74, 84, 87, 83, 82, 93, 92, 94, 89, 88, 102, 103, 98, 99, 97, 42, 43, 108, 109, 41, 107, 47, 104, 44, 49, 48, 54, 53, 112, 52, 59, 58, 57, 63, 62],"41":[68, 69, 64, 67, 77, 78, 79, 72, 73, 74, 84, 87, 83, 82, 93, 92, 94, 89, 88, 102, 103, 98, 99, 97, 42, 43, 108, 109, 107, 47, 104, 44, 49, 48, 54, 53, 112, 52, 59, 58, 57, 63, 62],"46":[68, 69, 64, 67, 77, 78, 79, 72, 73, 74, 84, 87, 83, 82, 93, 92, 94, 89, 88, 102, 103, 98, 99, 97, 108, 109, 107, 47, 104, 49, 48, 54, 53, 112, 52, 59, 58, 57, 63, 62],"44":[70, 100, 65, 110, 45, 75, 105, 85, 50, 55, 80, 95, 60, 90],"45":[68, 69, 4, 64, 67, 77, 78, 79, 72, 73, 74, 84, 87, 83, 82, 93, 92, 94, 89, 88, 102, 103, 98, 99, 97, 108, 109, 46, 107, 47, 104, 49, 48, 54, 53, 112, 52, 59, 58, 57, 63, 62],"51":[68, 69, 64, 67, 77, 78, 79, 72, 73, 74, 84, 87, 83, 82, 93, 92, 94, 89, 88, 102, 103, 98, 99, 97, 108, 109, 107, 104, 54, 53, 112, 52, 59, 58, 57, 63, 62],"50":[68, 69, 4, 64, 67, 77, 78, 79, 72, 73, 74, 84, 87, 83, 82, 93, 92, 94, 89, 88, 102, 103, 98, 99, 97, 108, 109, 107, 104, 51, 54, 53, 112, 52, 59, 58, 57, 63, 62],"49":[70, 100, 65, 110, 75, 105, 85, 50, 55, 80, 95, 60, 90],"48":[4, 51, 50, 55, 54, 53, 52, 59, 58, 57, 56, 63, 62, 61, 60, 68, 69, 70, 71, 64, 65, 66, 67, 76, 77, 78, 79, 72, 73, 74, 75, 85, 84, 87, 86, 81, 80, 83, 82, 93, 92, 95, 94, 89, 88, 91, 90, 102, 103, 100, 101, 98, 99, 96, 97, 110, 111, 108, 109, 106, 107, 104, 105, 112],"55":[68, 69, 4, 64, 67, 77, 78, 79, 72, 73, 74, 84, 87, 83, 82, 93, 92, 94, 89, 88, 102, 103, 98, 99, 97, 108, 109, 107, 104, 112, 59, 58, 57, 56, 63, 62],"54":[85, 100, 70, 55, 80, 65, 110, 95, 105, 90, 75, 60],"53":[4, 55, 59, 58, 57, 56, 63, 62, 61, 60, 68, 69, 70, 71, 64, 65, 66, 67, 76, 77, 78, 79, 72, 73, 74, 75, 85, 84, 87, 86, 81, 80, 83, 82, 93, 92, 95, 94, 89, 88, 91, 90, 102, 103, 100, 101, 98, 99, 96, 97, 110, 111, 108, 109, 106, 107, 104, 105, 112],"59":[85, 100, 70, 80, 65, 110, 95, 105, 90, 75, 60],"58":[4, 63, 62, 61, 60, 68, 69, 70, 71, 64, 65, 66, 67, 76, 77, 78, 79, 72, 73, 74, 75, 85, 84, 87, 86, 81, 80, 83, 82, 93, 92, 95, 94, 89, 88, 91, 90, 102, 103, 100, 101, 98, 99, 96, 97, 110, 111, 108, 109, 106, 107, 104, 105, 112],"56":[68, 69, 64, 67, 77, 78, 79, 72, 73, 74, 84, 87, 83, 82, 93, 92, 94, 89, 88, 102, 103, 98, 99, 97, 108, 109, 107, 104, 112, 59, 58, 57, 63, 62],"63":[4, 68, 69, 70, 71, 65, 66, 67, 76, 77, 78, 79, 72, 73, 74, 75, 85, 84, 87, 86, 81, 80, 83, 82, 93, 92, 95, 94, 89, 88, 91, 90, 102, 103, 100, 101, 98, 99, 96, 97, 110, 111, 108, 109, 106, 107, 104, 105, 112],"61":[68, 69, 64, 67, 77, 78, 79, 72, 73, 74, 84, 87, 83, 82, 93, 92, 94, 89, 88, 102, 103, 98, 99, 97, 108, 109, 107, 104, 112, 63, 62],"60":[68, 69, 4, 64, 67, 77, 78, 79, 72, 73, 74, 84, 87, 83, 82, 93, 92, 94, 89, 88, 102, 103, 98, 99, 97, 108, 109, 107, 104, 112, 63, 62, 61],"68":[70, 71, 4, 76, 77, 78, 79, 72, 73, 74, 75, 85, 84, 87, 86, 81, 80, 83, 82, 93, 92, 95, 94, 89, 88, 91, 90, 102, 103, 100, 101, 98, 99, 96, 97, 110, 111, 108, 109, 106, 107, 104, 105, 112],"69":[85, 100, 70, 80, 110, 95, 105, 90, 75],"70":[71, 4, 77, 78, 79, 72, 73, 74, 84, 87, 83, 82, 93, 92, 94, 89, 88, 102, 103, 98, 99, 97, 108, 109, 107, 104, 112],"71":[77, 78, 79, 72, 73, 74, 84, 87, 83, 82, 93, 92, 94, 89, 88, 102, 103, 98, 99, 97, 108, 109, 107, 104, 112],"64":[85, 100, 70, 80, 65, 110, 95, 105, 90, 75],"65":[68, 69, 4, 66, 67, 77, 78, 79, 72, 73, 74, 84, 87, 83, 82, 93, 92, 94, 89, 88, 102, 103, 98, 99, 97, 108, 109, 107, 104, 112],"66":[68, 69, 67, 77, 78, 79, 72, 73, 74, 84, 87, 83, 82, 93, 92, 94, 89, 88, 102, 103, 98, 99, 97, 108, 109, 107, 104, 112],"76":[102, 103, 98, 99, 97, 77, 108, 78, 109, 79, 107, 104, 84, 87, 83, 112, 82, 93, 92, 94, 89, 88],"78":[4, 85, 84, 87, 86, 81, 80, 83, 82, 93, 92, 95, 94, 89, 88, 91, 90, 102, 103, 100, 101, 98, 99, 96, 97, 110, 111, 108, 109, 106, 107, 104, 105, 112],"79":[85, 100, 80, 110, 95, 105, 90],"73":[4, 76, 77, 78, 79, 75, 85, 84, 87, 86, 81, 80, 83, 82, 93, 92, 95, 94, 89, 88, 91, 90, 102, 103, 100, 101, 98, 99, 96, 97, 110, 111, 108, 109, 106, 107, 104, 105, 112],"74":[85, 100, 80, 110, 95, 105, 90, 75],"75":[102, 103, 4, 98, 99, 97, 76, 77, 108, 78, 109, 79, 107, 104, 84, 87, 83, 112, 82, 93, 92, 94, 89, 88],"85":[102, 103, 4, 98, 99, 97, 108, 109, 107, 104, 87, 86, 112, 93, 92, 94, 89, 88],"84":[85, 100, 110, 95, 105, 90],"86":[102, 103, 98, 99, 97, 108, 109, 107, 104, 87, 112, 93, 92, 94, 89, 88],"81":[102, 103, 98, 99, 97, 108, 109, 107, 104, 84, 87, 83, 112, 82, 93, 92, 94, 89, 88],"80":[102, 103, 4, 98, 99, 97, 108, 109, 107, 104, 84, 87, 81, 83, 112, 82, 93, 92, 94, 89, 88],"83":[4, 85, 87, 86, 93, 92, 95, 94, 89, 88, 91, 90, 102, 103, 100, 101, 98, 99, 96, 97, 110, 111, 108, 109, 106, 107, 104, 105, 112],"93":[102, 103, 100, 101, 4, 98, 99, 96, 97, 110, 111, 108, 109, 106, 107, 104, 105, 112, 95],"95":[102, 103, 4, 98, 99, 96, 112, 97, 108, 109, 107, 104],"94":[100, 110, 95, 105],"89":[100, 110, 95, 105, 90],"88":[102, 103, 100, 101, 4, 98, 99, 96, 97, 110, 111, 108, 109, 106, 107, 104, 105, 112, 93, 92, 95, 94, 91, 90],"91":[102, 103, 98, 99, 97, 108, 109, 107, 104, 112, 93, 92, 94],"90":[102, 103, 4, 98, 99, 97, 108, 109, 107, 104, 112, 93, 92, 94, 91],"103":[4, 112, 110, 111, 108, 109, 106, 107, 105],"100":[102, 103, 101, 4, 112, 108, 109, 107, 104],"101":[102, 103, 112, 108, 109, 107, 104],"98":[102, 103, 100, 101, 4, 110, 111, 108, 109, 106, 107, 104, 105, 112],"99":[100, 110, 105],"96":[102, 103, 98, 99, 112, 97, 108, 109, 107, 104],"110":[4, 112, 111],"111":[4, 112],"108":[4, 114, 113, 112, 110, 111],"109":[114, 113, 110],"106":[112, 108, 109, 107],"104":[110, 105],"105":[4, 112, 108, 109, 106, 107],"114":[4],"113":[4]},"colorToLabel":{"0":"arg#0","1":"arg#1","2":"arg#2","3":"arg#3","4":"arg#4","115":"return"}}}

Generated Model
	arg#3->arg#4
	arg#2->arg#4
	arg#1->arg#4
	arg#0->arg#4

