Scanning method <java.util.Vector: java.lang.Object clone()>

All seen event types: MethodReturnRecord, MethodCallRecord, LoadInstanceRecord, CastRecord, StoreInstanceRecord, 
Ignored event types: 

JSON Encoded Analysis Data (for visualization):{"heapEdges":[{"step":0,"from":"1093400816","to":"1093838640","type":"model"},{"step":1,"from":"1093400816","to":"1093400120","type":"load","field":"<java.util.Vector: java.lang.Object[] elementData>"},{"step":2,"from":"1093400120","to":"1093838672","type":"model"},{"step":3,"from":"1093838640","to":"1093838672","type":"create","field":"<java.util.Vector: java.lang.Object[] elementData>"}],"parameters":[{"id":"1093400816","name":"this","klass":"java.util.Vector"}],"returns":[{"id":"1093838640","name":"return","klass":"java.lang.Object"}],"colors":{"heapLocToColor":{"1093400120":[0],"1093838672":[0, 2],"sdaReg3":[0, 2],"sdaReg2":[0, 2],"1093400816":[0],"sdaReg1":[0, 1],"sdaReg0":[0, 1],"1093838640":[0, 1]},"colorToColor":{"0":[0, 1, 3],"1":[3],"2":[0, 1]},"colorToLabel":{"0":"this","3":"return"}}}

Generated Model
	this->return

