Scanning method <java.util.HashMap: void putAll(java.util.Map)>

All seen event types: BinaryOperationRecord, SimpleAssignmentRecord, MethodReturnRecord, MethodCallRecord, ArrayLengthRecord, LoadInstanceRecord, MethodStartRecord, LoadArrayRecord, IfRecord, MethodEndRecord, StoreInstanceRecord, NewObjectRecord, 
Ignored event types: IfRecord, 

JSON Encoded Analysis Data (for visualization):{"heapEdges":[{"step":0,"from":"1093551440","to":"1093551440.<java.util.HashMap: int size>","type":"load","field":"<java.util.HashMap: int size>"},{"step":1,"from":"1093551536","to":"1094139096","type":"load","field":"<java.util.HashMap: java.util.HashMap$HashMapEntry[] table>"},{"step":2,"from":"1093551440","to":"1093333352","type":"store","field":"<java.util.HashMap$EntrySet: java.util.HashMap this$0>"},{"step":3,"from":"1093551440","to":"1093333352","type":"create","field":"<java.util.HashMap: java.util.Set entrySet>"},{"step":4,"from":"1093551440","to":"1094139168","type":"store","field":"<java.util.HashMap$EntryIterator: java.util.HashMap this$0>"},{"step":5,"from":"1093551440","to":"1094139168","type":"store","field":"<java.util.HashMap$HashIterator: java.util.HashMap this$0>"},{"step":6,"from":"1093551440","to":"1093551440.<java.util.HashMap: int modCount>","type":"load","field":"<java.util.HashMap: int modCount>"},{"step":7,"from":"1093551440.<java.util.HashMap: int modCount>","to":"1094139168","type":"store","field":"<java.util.HashMap$HashIterator: int expectedModCount>"},{"step":8,"from":"1093551440","to":"1083997920","type":"load","field":"<java.util.HashMap: java.util.HashMap$HashMapEntry[] table>"},{"step":9,"from":"1094139168","to":"1094139168.<java.util.HashMap$HashIterator: int nextIndex>","type":"load","field":"<java.util.HashMap$HashIterator: int nextIndex>"},{"step":10,"from":"1094139168","to":"1094139168.<java.util.HashMap$HashIterator: int nextIndex>","type":"load","field":"<java.util.HashMap$HashIterator: int nextIndex>"},{"step":11,"from":"sdaReg46","to":"1094139168","type":"store","field":"<java.util.HashMap$HashIterator: int nextIndex>"},{"step":12,"from":"sdaReg46","to":"1094139168","type":"store","field":"<java.util.HashMap$HashIterator: int nextIndex>"}],"parameters":[{"id":"1093551536","name":"this","klass":"java.util.HashMap"},{"id":"1093551440","name":"arg#1","klass":"java.util.Map"}],"returns":[{"id":null,"name":"return","klass":null}],"colors":{"heapLocToColor":{"1094139096":[0],"1093551440.<java.util.HashMap: int modCount>":[1],"1093551440":[1],"1093551536":[0],"sdaReg13":[1],"sdaReg14":[1],"sdaReg11":[1],"sdaReg12":[1],"sdaReg10":[1],"1083997920":[1],"sdaReg19":[0],"sdaReg54":[3],"sdaReg17":[1],"sdaReg53":[3],"sdaReg52":[3],"sdaReg15":[1],"sdaReg51":[3],"sdaReg16":[1],"1094139168.<java.util.HashMap$HashIterator: int nextIndex>":[3],"sdaReg50":[3],"1094139168":[3],"sdaReg49":[3],"sdaReg46":[3],"sdaReg41":[3],"sdaReg40":[1],"sdaReg43":[3],"sdaReg42":[1],"sdaReg39":[3],"sdaReg38":[1],"sdaReg37":[3],"sdaReg32":[2],"sdaReg31":[2],"sdaReg30":[2],"sdaReg36":[1],"sdaReg35":[2],"sdaReg34":[2],"1093333352":[2],"sdaReg33":[2],"sdaReg8":[1],"sdaReg9":[1],"sdaReg6":[1],"sdaReg7":[1],"sdaReg4":[1],"sdaReg5":[1],"sdaReg27":[2],"sdaReg26":[2],"sdaReg29":[2],"sdaReg28":[2],"sdaReg3":[1],"sdaReg2":[1],"sdaReg21":[1],"sdaReg1":[0],"sdaReg20":[1],"sdaReg0":[1],"sdaReg23":[1],"sdaReg22":[2],"sdaReg25":[1],"1093551440.<java.util.HashMap: int size>":[1],"sdaReg24":[2]},"colorToColor":{"1":[2, 3],"2":[1],"3":[3]},"colorToLabel":{"0":"this","1":"arg#1","4":"return"}}}

Generated Model

