Scanning method <java.net.ResponseCache: void setDefault(java.net.ResponseCache)>

All seen event types: StoreStaticRecord, 
Ignored event types: 

JSON Encoded Analysis Data (for visualization):{"heapEdges":[],"parameters":[{"id":"0","name":"arg#0","klass":"java.net.ResponseCache"}],"returns":[{"id":null,"name":"return","klass":null}],"colors":{"heapLocToColor":{"0":[0],"static.<java.net.ResponseCache: java.net.ResponseCache defaultResponseCache>":[1]},"colorToColor":{},"colorToLabel":{"0":"arg#0","1":"<java.net.ResponseCache: java.net.ResponseCache defaultResponseCache>","2":"return"}}}

Generated Model

