Scanning method <java.util.Properties: java.lang.Object setProperty(java.lang.String,java.lang.String)>

All seen event types: BinaryOperationRecord, SimpleAssignmentRecord, MethodReturnRecord, MethodCallRecord, ArrayLengthRecord, LoadInstanceRecord, MethodStartRecord, LoadArrayRecord, MethodEndRecord, IfRecord, StoreInstanceRecord, 
Ignored event types: IfRecord, 

JSON Encoded Analysis Data (for visualization):{"heapEdges":[{"step":0,"from":"1083979984","to":"1083986248","type":"load","field":"<java.util.Hashtable: java.util.Hashtable$HashtableEntry[] table>"},{"step":1,"from":"1083986248","to":"1083987208","type":"load","field":"arrayIdx_int:19"},{"step":2,"from":"1083987208","to":"1083987208.<java.util.Hashtable$HashtableEntry: int hash>","type":"load","field":"<java.util.Hashtable$HashtableEntry: int hash>"},{"step":3,"from":"1083987208","to":"1083986000","type":"load","field":"<java.util.Hashtable$HashtableEntry: java.util.Hashtable$HashtableEntry next>"},{"step":4,"from":"1083986000","to":"1083986000.<java.util.Hashtable$HashtableEntry: int hash>","type":"load","field":"<java.util.Hashtable$HashtableEntry: int hash>"},{"step":5,"from":"1083986000","to":"1083983080","type":"load","field":"<java.util.Hashtable$HashtableEntry: java.util.Hashtable$HashtableEntry next>"},{"step":6,"from":"1083983080","to":"1083983080.<java.util.Hashtable$HashtableEntry: int hash>","type":"load","field":"<java.util.Hashtable$HashtableEntry: int hash>"},{"step":7,"from":"1083983080","to":"1083982848","type":"load","field":"<java.util.Hashtable$HashtableEntry: java.lang.Object key>"},{"step":8,"from":"1083983080","to":"1093558712","type":"load","field":"<java.util.Hashtable$HashtableEntry: java.lang.Object value>"},{"step":9,"from":"1093558712","to":"1083983080","type":"store","field":"<java.util.Hashtable$HashtableEntry: java.lang.Object value>"}],"parameters":[{"id":"1083979984","name":"this","klass":"java.util.Properties"},{"id":"sdaReg0","name":"arg#1","klass":"string"},{"id":"sdaReg1","name":"arg#2","klass":"string"}],"returns":[{"id":"1093558712","name":"return","klass":"java.lang.Object"}],"colors":{"heapLocToColor":{"1083983080.<java.util.Hashtable$HashtableEntry: int hash>":[0],"1083987208":[0],"1083986000":[0],"sdaReg14":[3],"sdaReg11":[3],"sdaReg10":[3],"1083987208.<java.util.Hashtable$HashtableEntry: int hash>":[0],"sdaReg17":[0],"1083986000.<java.util.Hashtable$HashtableEntry: int hash>":[0],"sdaReg16":[4],"1083983080":[0],"sdaReg8":[3],"sdaReg9":[3],"sdaReg6":[3],"sdaReg7":[3],"sdaReg4":[3],"sdaReg5":[3],"1093558712":[0],"1083982848":[0],"1083986248":[0],"sdaReg3":[3],"sdaReg2":[0],"sdaReg1":[2],"sdaReg0":[1],"1083979984":[0]},"colorToColor":{"0":[0, 5]},"colorToLabel":{"0":"this","1":"arg#1","2":"arg#2","5":"return"}}}

Generated Model
	this->return

