Scanning method <java.util.Formatter$FormatToken: char getConversionType()>

All seen event types: LoadInstanceRecord, 
Ignored event types: 

JSON Encoded Analysis Data (for visualization):{"heapEdges":[{"step":0,"from":"1093426272","to":"1093426272.<java.util.Formatter$FormatToken: char conversionType>","type":"load","field":"<java.util.Formatter$FormatToken: char conversionType>"}],"parameters":[{"id":"1093426272","name":"this","klass":"java.util.Formatter$FormatToken"}],"returns":[{"id":"1093426272.<java.util.Formatter$FormatToken: char conversionType>","name":"return","klass":"char"}],"colors":{"heapLocToColor":{"1093426272.<java.util.Formatter$FormatToken: char conversionType>":[0],"1093426272":[0]},"colorToColor":{"0":[1]},"colorToLabel":{"0":"this","1":"return"}}}

Generated Model
	this->return

