Scanning method <java.io.ObjectInputStream: void <init>(java.io.InputStream)>

All seen event types: MethodStartRecord, LoadInstanceRecord, IfRecord, NewObjectRecord, StoreInstanceRecord, InstanceOfRecord, LoadStaticRecord, NewArrayRecord, MethodCallRecord, MethodReturnRecord, ArrayLengthRecord, CastRecord, MethodEndRecord, 
Ignored event types: IfRecord, 

JSON Encoded Analysis Data (for visualization):{"heapEdges":[{"step":0,"from":"static.<libcore.util.EmptyArray: byte[] BYTE>","to":"1083993968","type":"load","field":"<libcore.util.EmptyArray: byte[] BYTE>"},{"step":1,"from":"1093544464","to":"sdaReg8","type":"create","field":"<java.io.ByteArrayInputStream: int mark>"},{"step":2,"from":"1083993968","to":"1093544464","type":"store","field":"<java.io.ByteArrayInputStream: byte[] buf>"},{"step":3,"from":"sdaReg9","to":"1093544464","type":"store","field":"<java.io.ByteArrayInputStream: int count>"},{"step":4,"from":"1093542336","to":"1093544464","type":"create","field":"<java.io.ObjectInputStream: java.io.InputStream emptyStream>"},{"step":5,"from":"1093544464","to":"1093542336","type":"store","field":"<java.io.ObjectInputStream: java.io.InputStream primitiveData>"},{"step":6,"from":"1093542336","to":"sdaReg11","type":"create","field":"<java.io.ObjectInputStream: boolean mustResolve>"},{"step":7,"from":"1093542336","to":"sdaReg12","type":"create","field":"<java.io.ObjectInputStream: int descriptorHandle>"},{"step":8,"from":"static.<java.util.HashMap: java.util.Map$Entry[] EMPTY_TABLE>","to":"1083997920","type":"load","field":"<java.util.HashMap: java.util.Map$Entry[] EMPTY_TABLE>"},{"step":9,"from":"1083997920","to":"1093544496","type":"store","field":"<java.util.HashMap: java.util.HashMap$HashMapEntry[] table>"},{"step":10,"from":"1093544496","to":"sdaReg19","type":"create","field":"<java.util.HashMap: int threshold>"},{"step":11,"from":"1093542336","to":"1093544496","type":"create","field":"<java.io.ObjectInputStream: java.util.HashMap cachedSuperclasses>"},{"step":12,"from":"1093542536","to":"1093544552","type":"store","field":"<java.io.FilterInputStream: java.io.InputStream in>"},{"step":13,"from":"1093544552","to":"1093544576","type":"create","field":"<java.io.DataInputStream: byte[] scratch>"},{"step":14,"from":"1093542336","to":"1093544552","type":"create","field":"<java.io.ObjectInputStream: java.io.DataInputStream input>"},{"step":15,"from":"1093542336","to":"1093544608","type":"store","field":"<java.io.FilterInputStream: java.io.InputStream in>"},{"step":16,"from":"1093544608","to":"1093419104","type":"create","field":"<java.io.DataInputStream: byte[] scratch>"},{"step":17,"from":"1093542336","to":"1093544608","type":"create","field":"<java.io.ObjectInputStream: java.io.DataInputStream primitiveTypes>"},{"step":18,"from":"1093542336","to":"sdaReg40","type":"create","field":"<java.io.ObjectInputStream: boolean enableResolve>"},{"step":19,"from":"1093542336","to":"sdaReg41","type":"create","field":"<java.io.ObjectInputStream: boolean subclassOverridingImplementation>"},{"step":20,"from":"static.<libcore.util.EmptyArray: java.lang.Object[] OBJECT>","to":"1083994088","type":"load","field":"<libcore.util.EmptyArray: java.lang.Object[] OBJECT>"},{"step":21,"from":"1083994088","to":"1093419136","type":"store","field":"<java.util.ArrayList: java.lang.Object[] array>"},{"step":22,"from":"1093542336","to":"1093419136","type":"create","field":"<java.io.ObjectInputStream: java.util.ArrayList objectsRead>"},{"step":23,"from":"1093542336","to":"sdaReg51","type":"create","field":"<java.io.ObjectInputStream: int nextHandle>"},{"step":24,"from":"1093544464","to":"1093542336","type":"store","field":"<java.io.ObjectInputStream: java.io.InputStream primitiveData>"},{"step":25,"from":"1093542336","to":"sdaReg52","type":"create","field":"<java.io.ObjectInputStream: boolean hasPushbackTC>"},{"step":26,"from":"1093542336","to":"sdaReg53","type":"create","field":"<java.io.ObjectInputStream: byte pushbackTC>"},{"step":27,"from":"1093542336","to":"sdaReg54","type":"create","field":"<java.io.ObjectInputStream: int nestedLevels>"},{"step":28,"from":"1093544552","to":"1093542336","type":"store","field":"<java.io.ObjectInputStream: java.io.InputStream primitiveData>"},{"step":29,"from":"1093542536","to":"1093544576","type":"model"},{"step":30,"from":"static.<java.nio.ByteOrder: java.nio.ByteOrder BIG_ENDIAN>","to":"1084339448","type":"load","field":"<java.nio.ByteOrder: java.nio.ByteOrder BIG_ENDIAN>"},{"step":31,"from":"1093544576","to":"sdaReg57","type":"model"},{"step":32,"from":"1093542536","to":"1093544576","type":"model"},{"step":33,"from":"static.<java.nio.ByteOrder: java.nio.ByteOrder BIG_ENDIAN>","to":"1084339448","type":"load","field":"<java.nio.ByteOrder: java.nio.ByteOrder BIG_ENDIAN>"},{"step":34,"from":"1093544576","to":"sdaReg59","type":"model"},{"step":35,"from":"1093544464","to":"1093542336","type":"store","field":"<java.io.ObjectInputStream: java.io.InputStream primitiveData>"}],"parameters":[{"id":"1093542336","name":"this","klass":"java.io.ObjectInputStream"},{"id":"1093542536","name":"arg#1","klass":"java.io.InputStream"}],"returns":[{"id":"1093542336","name":"return","klass":"java.io.ObjectInputStream"}],"colors":{"heapLocToColor":{"1093419136":[10],"1093544576":[7],"static.<libcore.util.EmptyArray: java.lang.Object[] OBJECT>":[11],"1093544464":[2],"sdaReg13":[4],"sdaReg14":[4],"sdaReg10":[2],"sdaReg59":[14],"sdaReg58":[6],"sdaReg57":[13],"sdaReg56":[6],"1083997920":[5],"sdaReg55":[0],"static.<java.nio.ByteOrder: java.nio.ByteOrder BIG_ENDIAN>":[12],"sdaReg17":[5],"1093542336":[0],"sdaReg18":[5],"sdaReg15":[4],"sdaReg16":[4],"sdaReg50":[10],"static.<libcore.util.EmptyArray: byte[] BYTE>":[3],"1093542536":[1],"1083994088":[11],"sdaReg49":[10],"sdaReg48":[10],"sdaReg45":[10],"sdaReg44":[10],"sdaReg47":[10],"1083993968":[3],"sdaReg46":[10],"sdaReg43":[0],"sdaReg42":[0],"1093544552":[6],"sdaReg39":[8],"sdaReg38":[8],"sdaReg37":[8],"sdaReg32":[0],"sdaReg31":[8],"static.<java.util.HashMap: java.util.Map$Entry[] EMPTY_TABLE>":[5],"sdaReg30":[6],"1093419104":[9],"sdaReg36":[8],"sdaReg35":[8],"sdaReg34":[0],"sdaReg33":[8],"1093544608":[8],"sdaReg6":[2],"sdaReg7":[2],"sdaReg4":[3],"sdaReg5":[2],"1093544496":[4],"sdaReg27":[6],"sdaReg26":[6],"sdaReg29":[6],"sdaReg28":[6],"1084339448":[12],"sdaReg3":[2],"sdaReg2":[0],"sdaReg1":[0],"sdaReg20":[4],"sdaReg0":[0],"sdaReg23":[1],"sdaReg22":[6],"sdaReg25":[1],"sdaReg24":[6]},"colorToColor":{"0":[8, 15],"1":[6, 7],"2":[0],"3":[2],"4":[0],"5":[4],"6":[0],"7":[6, 13, 14],"8":[0],"9":[8],"10":[0],"11":[10]},"colorToLabel":{"0":"this","1":"arg#1","3":"<libcore.util.EmptyArray: byte[] BYTE>","5":"<java.util.HashMap: java.util.Map$Entry[] EMPTY_TABLE>","11":"<libcore.util.EmptyArray: java.lang.Object[] OBJECT>","12":"<java.nio.ByteOrder: java.nio.ByteOrder BIG_ENDIAN>","15":"return"}}}

Generated Model
	this->return
	arg#1->this
	arg#1->return

