Scanning method <java.util.Formatter$FormatSpecifierParser: java.util.Formatter$FormatToken parseConversionType(java.util.Formatter$FormatToken)>

All seen event types: BinaryOperationRecord, MethodReturnRecord, MethodCallRecord, LoadInstanceRecord, MethodStartRecord, MethodEndRecord, IfRecord, StoreInstanceRecord, 
Ignored event types: IfRecord, 

JSON Encoded Analysis Data (for visualization):{"heapEdges":[{"step":0,"from":"1093279936","to":"1093279936.<java.util.Formatter$FormatSpecifierParser: int i>","type":"load","field":"<java.util.Formatter$FormatSpecifierParser: int i>"},{"step":1,"from":"1093279936","to":"1093279936.<java.util.Formatter$FormatSpecifierParser: int length>","type":"load","field":"<java.util.Formatter$FormatSpecifierParser: int length>"},{"step":2,"from":"1093279936","to":"1093279936.<java.util.Formatter$FormatSpecifierParser: java.lang.String format>","type":"load","field":"<java.util.Formatter$FormatSpecifierParser: java.lang.String format>"},{"step":3,"from":"1093279936","to":"1093279936.<java.util.Formatter$FormatSpecifierParser: int i>","type":"load","field":"<java.util.Formatter$FormatSpecifierParser: int i>"},{"step":4,"from":"sdaReg1","to":"1093279936","type":"store","field":"<java.util.Formatter$FormatSpecifierParser: int i>"},{"step":5,"from":"1093279936.<java.util.Formatter$FormatSpecifierParser: java.lang.String format>","to":"sdaReg2","type":"model"},{"step":6,"from":"sdaReg2","to":"1093287032","type":"store","field":"<java.util.Formatter$FormatToken: char conversionType>"}],"parameters":[{"id":"1093279936","name":"this","klass":"java.util.Formatter$FormatSpecifierParser"},{"id":"1093287032","name":"arg#1","klass":"java.util.Formatter$FormatToken"}],"returns":[{"id":"1093287032","name":"return","klass":"java.util.Formatter$FormatToken"}],"colors":{"heapLocToColor":{"1093287032":[1],"1093279936.<java.util.Formatter$FormatSpecifierParser: java.lang.String format>":[0],"sdaReg3":[1],"sdaReg2":[0, 2],"1093279936":[0],"sdaReg1":[0],"1093279936.<java.util.Formatter$FormatSpecifierParser: int i>":[0],"sdaReg0":[0],"1093279936.<java.util.Formatter$FormatSpecifierParser: int length>":[0]},"colorToColor":{"0":[0, 1],"1":[3],"2":[1]},"colorToLabel":{"0":"this","1":"arg#1","3":"return"}}}

Generated Model
	this->return
	this->arg#1
	arg#1->return

