Scanning method <android.os.Message: android.os.Message obtain(android.os.Handler,int,int,int,java.lang.Object)>

All seen event types: SimpleAssignmentRecord, ExitMonitorRecord, MethodStartRecord, LoadInstanceRecord, IfRecord, StoreInstanceRecord, LoadStaticRecord, BinaryOperationRecord, StoreStaticRecord, MethodCallRecord, MethodReturnRecord, EnterMonitorRecord, MethodEndRecord, 
Ignored event types: ExitMonitorRecord, EnterMonitorRecord, IfRecord, 

JSON Encoded Analysis Data (for visualization):{"heapEdges":[{"step":0,"from":"static.<android.os.Message: java.lang.Object sPoolSync>","to":"1085010160","type":"load","field":"<android.os.Message: java.lang.Object sPoolSync>"},{"step":1,"from":"static.<android.os.Message: android.os.Message sPool>","to":"1093479120","type":"load","field":"<android.os.Message: android.os.Message sPool>"},{"step":2,"from":"static.<android.os.Message: android.os.Message sPool>","to":"1093479120","type":"load","field":"<android.os.Message: android.os.Message sPool>"},{"step":3,"from":"1093479120","to":"sdaReg4","type":"create","field":"<android.os.Message: android.os.Message next>"},{"step":4,"from":"static.<android.os.Message: int sPoolSize>","to":"static.<android.os.Message: int sPoolSize>","type":"load","field":"<android.os.Message: int sPoolSize>"},{"step":5,"from":"sdaReg5","to":"static.<android.os.Message: int sPoolSize>","type":"store","field":"<android.os.Message: int sPoolSize>"},{"step":6,"from":"1093577048","to":"1093479120","type":"store","field":"<android.os.Message: android.os.Handler target>"},{"step":7,"from":"sdaReg0","to":"1093479120","type":"store","field":"<android.os.Message: int what>"},{"step":8,"from":"sdaReg1","to":"1093479120","type":"store","field":"<android.os.Message: int arg1>"},{"step":9,"from":"sdaReg2","to":"1093479120","type":"store","field":"<android.os.Message: int arg2>"},{"step":10,"from":"1093613312","to":"1093479120","type":"store","field":"<android.os.Message: java.lang.Object obj>"}],"parameters":[{"id":"1093577048","name":"arg#0","klass":"android.os.Handler"},{"id":"sdaReg0","name":"arg#1","klass":"int"},{"id":"sdaReg1","name":"arg#2","klass":"int"},{"id":"sdaReg2","name":"arg#3","klass":"int"},{"id":"1093613312","name":"arg#4","klass":"java.lang.Object"}],"returns":[{"id":"1093479120","name":"return","klass":"android.os.Message"}],"colors":{"heapLocToColor":{"1085010160":[5],"sdaReg6":[6],"sdaReg5":[7],"static.<android.os.Message: java.lang.Object sPoolSync>":[5],"static.<android.os.Message: android.os.Message sPool>":[6],"static.<android.os.Message: int sPoolSize>":[7],"1093613312":[4],"1093479120":[6],"sdaReg3":[5],"sdaReg2":[3],"sdaReg1":[2],"sdaReg0":[1],"1093577048":[0]},"colorToColor":{"0":[6],"1":[6],"2":[6],"3":[6],"4":[6],"6":[8],"7":[7]},"colorToLabel":{"0":"arg#0","1":"arg#1","2":"arg#2","3":"arg#3","4":"arg#4","5":"<android.os.Message: java.lang.Object sPoolSync>","6":"<android.os.Message: android.os.Message sPool>","7":"<android.os.Message: int sPoolSize>","8":"return"}}}

Generated Model
	arg#4->return
	arg#4-><android.os.Message: android.os.Message sPool>
	arg#3->return
	arg#3-><android.os.Message: android.os.Message sPool>
	arg#2->return
	arg#2-><android.os.Message: android.os.Message sPool>
	arg#1->return
	arg#1-><android.os.Message: android.os.Message sPool>
	arg#0->return
	arg#0-><android.os.Message: android.os.Message sPool>

