Scanning method <java.io.InputStreamReader: int read()>

All seen event types: StoreArrayRecord, SimpleAssignmentRecord, ExitMonitorRecord, LoadInstanceRecord, MethodStartRecord, IfRecord, NewObjectRecord, StoreInstanceRecord, LoadStaticRecord, NewArrayRecord, BinaryOperationRecord, MethodCallRecord, MethodReturnRecord, EnterMonitorRecord, ArrayLengthRecord, LoadArrayRecord, MethodEndRecord, 
Ignored event types: ExitMonitorRecord, EnterMonitorRecord, IfRecord, 

JSON Encoded Analysis Data (for visualization):{"heapEdges":[{"step":0,"from":"1093652160","to":"1093651256","type":"load","field":"<java.io.Reader: java.lang.Object lock>"},{"step":1,"from":"1093652160","to":"1093651256","type":"load","field":"<java.io.InputStreamReader: java.io.InputStream in>"},{"step":2,"from":"1093652160","to":"1093651256","type":"load","field":"<java.io.Reader: java.lang.Object lock>"},{"step":3,"from":"1093652160","to":"1093651256","type":"load","field":"<java.io.InputStreamReader: java.io.InputStream in>"},{"step":4,"from":"1093577008","to":"sdaReg29","type":"create","field":"<java.nio.Buffer: int mark>"},{"step":5,"from":"1093577008","to":"sdaReg30","type":"create","field":"<java.nio.Buffer: int position>"},{"step":6,"from":"1093577008","to":"sdaReg27","type":"create","field":"<java.nio.Buffer: int _elementSizeShift>"},{"step":7,"from":"sdaReg21","to":"1093577008","type":"store","field":"<java.nio.Buffer: int limit>"},{"step":8,"from":"sdaReg21","to":"1093577008","type":"store","field":"<java.nio.Buffer: int capacity>"},{"step":9,"from":"1093577008","to":"1093489096","type":"create","field":"<java.nio.CharArrayBuffer: char[] backingArray>"},{"step":10,"from":"1093577008","to":"sdaReg24","type":"create","field":"<java.nio.CharArrayBuffer: int offset>"},{"step":11,"from":"1093577008","to":"sdaReg5","type":"create","field":"<java.nio.Buffer: int position>"},{"step":12,"from":"sdaReg37","to":"1093577008","type":"store","field":"<java.nio.Buffer: int limit>"},{"step":13,"from":"static.<java.nio.charset.CoderResult: java.nio.charset.CoderResult UNDERFLOW>","to":"1084215096","type":"load","field":"<java.nio.charset.CoderResult: java.nio.charset.CoderResult UNDERFLOW>"},{"step":14,"from":"1093652160","to":"1093652256","type":"load","field":"<java.io.InputStreamReader: java.nio.ByteBuffer bytes>"},{"step":15,"from":"1093652256","to":"1093652256.<java.nio.Buffer: int position>","type":"load","field":"<java.nio.Buffer: int position>"},{"step":16,"from":"1093652256","to":"1093652256.<java.nio.Buffer: int limit>","type":"load","field":"<java.nio.Buffer: int limit>"},{"step":17,"from":"1093652160","to":"1093670896","type":"load","field":"<java.io.InputStreamReader: java.nio.charset.CharsetDecoder decoder>"},{"step":18,"from":"1093652160","to":"1093652256","type":"load","field":"<java.io.InputStreamReader: java.nio.ByteBuffer bytes>"},{"step":19,"from":"1093670896","to":"1093670896.<java.nio.charset.CharsetDecoder: int status>","type":"load","field":"<java.nio.charset.CharsetDecoder: int status>"},{"step":20,"from":"1093670896","to":"1093670896.<java.nio.charset.CharsetDecoder: int status>","type":"load","field":"<java.nio.charset.CharsetDecoder: int status>"},{"step":21,"from":"1093652256","to":"1093652256.<java.nio.Buffer: int position>","type":"load","field":"<java.nio.Buffer: int position>"},{"step":22,"from":"1093652256","to":"1093652256.<java.nio.Buffer: int limit>","type":"load","field":"<java.nio.Buffer: int limit>"},{"step":23,"from":"1093670896","to":"1093671048","type":"load","field":"<java.nio.charset.CharsetDecoderICU: int[] data>"},{"step":24,"from":"1093652256","to":"1093652312","type":"load","field":"<java.nio.HeapByteBuffer: byte[] backingArray>"},{"step":25,"from":"1093652312","to":"1093670896","type":"store","field":"<java.nio.charset.CharsetDecoderICU: byte[] input>"},{"step":26,"from":"1093652256","to":"1093652256.<java.nio.HeapByteBuffer: int offset>","type":"load","field":"<java.nio.HeapByteBuffer: int offset>"},{"step":27,"from":"1093652256","to":"1093652256.<java.nio.Buffer: int limit>","type":"load","field":"<java.nio.Buffer: int limit>"},{"step":28,"from":"sdaReg68","to":"1093670896","type":"store","field":"<java.nio.charset.CharsetDecoderICU: int inEnd>"},{"step":29,"from":"1093652256","to":"1093652256.<java.nio.HeapByteBuffer: int offset>","type":"load","field":"<java.nio.HeapByteBuffer: int offset>"},{"step":30,"from":"1093652256","to":"1093652256.<java.nio.Buffer: int position>","type":"load","field":"<java.nio.Buffer: int position>"},{"step":31,"from":"sdaReg72","to":"1093671048","type":"store","field":"arrayIdx_int:0"},{"step":32,"from":"1093670896","to":"1093671048","type":"load","field":"<java.nio.charset.CharsetDecoderICU: int[] data>"},{"step":33,"from":"1093489096","to":"1093670896","type":"store","field":"<java.nio.charset.CharsetDecoderICU: char[] output>"},{"step":34,"from":"sdaReg87","to":"1093670896","type":"store","field":"<java.nio.charset.CharsetDecoderICU: int outEnd>"},{"step":35,"from":"sdaReg93","to":"1093671048","type":"store","field":"arrayIdx_int:1"},{"step":36,"from":"1093670896","to":"1093670896.<java.nio.charset.CharsetDecoderICU: long converterHandle>","type":"load","field":"<java.nio.charset.CharsetDecoderICU: long converterHandle>"},{"step":37,"from":"1093670896","to":"1093671048","type":"load","field":"<java.nio.charset.CharsetDecoderICU: int[] data>"},{"step":38,"from":"1093652312","to":"1093489096","type":"model"},{"step":39,"from":"sdaReg94","to":"1093670896","type":"store","field":"<java.nio.charset.CharsetDecoderICU: int ec>"},{"step":40,"from":"static.<java.nio.charset.CoderResult: java.nio.charset.CoderResult OVERFLOW>","to":"1084347232","type":"load","field":"<java.nio.charset.CoderResult: java.nio.charset.CoderResult OVERFLOW>"},{"step":41,"from":"1093652256","to":"1093652256.<java.nio.Buffer: int position>","type":"load","field":"<java.nio.Buffer: int position>"},{"step":42,"from":"1093670896","to":"1093671048","type":"load","field":"<java.nio.charset.CharsetDecoderICU: int[] data>"},{"step":43,"from":"1093652256","to":"1093652256.<java.nio.Buffer: int limit>","type":"load","field":"<java.nio.Buffer: int limit>"},{"step":44,"from":"sdaReg98","to":"1093652256","type":"store","field":"<java.nio.Buffer: int position>"},{"step":45,"from":"1093652256","to":"1093652256.<java.nio.Buffer: int mark>","type":"load","field":"<java.nio.Buffer: int mark>"},{"step":46,"from":"1093670896","to":"sdaReg101","type":"create","field":"<java.nio.charset.CharsetDecoderICU: byte[] input>"},{"step":47,"from":"1093670896","to":"1093671048","type":"load","field":"<java.nio.charset.CharsetDecoderICU: int[] data>"},{"step":48,"from":"sdaReg113","to":"1093577008","type":"store","field":"<java.nio.Buffer: int position>"},{"step":49,"from":"1093670896","to":"sdaReg116","type":"create","field":"<java.nio.charset.CharsetDecoderICU: char[] output>"},{"step":50,"from":"1084347232","to":"1084347232.<java.nio.charset.CoderResult: int type>","type":"load","field":"<java.nio.charset.CoderResult: int type>"},{"step":51,"from":"1084347232","to":"1084347232.<java.nio.charset.CoderResult: int type>","type":"load","field":"<java.nio.charset.CoderResult: int type>"},{"step":52,"from":"1084347232","to":"1084347232.<java.nio.charset.CoderResult: int type>","type":"load","field":"<java.nio.charset.CoderResult: int type>"},{"step":53,"from":"static.<java.nio.charset.CoderResult: java.nio.charset.CoderResult UNDERFLOW>","to":"1084215096","type":"load","field":"<java.nio.charset.CoderResult: java.nio.charset.CoderResult UNDERFLOW>"},{"step":54,"from":"1084347232","to":"1084347232.<java.nio.charset.CoderResult: int type>","type":"load","field":"<java.nio.charset.CoderResult: int type>"},{"step":55,"from":"1084347232","to":"1084347232.<java.nio.charset.CoderResult: int type>","type":"load","field":"<java.nio.charset.CoderResult: int type>"},{"step":56,"from":"1093489096","to":"1093489096.arrayIdx_int:0","type":"load","field":"arrayIdx_int:0"}],"parameters":[{"id":"1093652160","name":"this","klass":"java.io.InputStreamReader"}],"returns":[{"id":"1093489096.arrayIdx_int:0","name":"return","klass":"int"}],"colors":{"heapLocToColor":{"sdaReg125":[5],"sdaReg127":[5],"sdaReg129":[2],"sdaReg68":[0],"sdaReg69":[0],"sdaReg66":[0],"sdaReg67":[0],"sdaReg64":[0],"sdaReg65":[0],"sdaReg62":[0],"sdaReg63":[0],"sdaReg13":[1],"sdaReg72":[0],"sdaReg71":[0],"sdaReg70":[0],"sdaReg120":[5],"sdaReg19":[2],"sdaReg122":[5],"sdaReg17":[2],"sdaReg18":[1],"sdaReg123":[5],"sdaReg117":[5],"1093652256.<java.nio.Buffer: int limit>":[0],"1093577008":[2],"sdaReg114":[2],"sdaReg115":[2],"sdaReg118":[5],"static.<java.nio.charset.CoderResult: java.nio.charset.CoderResult OVERFLOW>":[5],"sdaReg78":[2],"sdaReg79":[2],"1084347232.<java.nio.charset.CoderResult: int type>":[5],"sdaReg73":[0],"sdaReg74":[2],"sdaReg75":[2],"sdaReg76":[2],"sdaReg81":[1],"sdaReg80":[1],"sdaReg83":[2],"sdaReg82":[2],"1084215096":[3],"1093670896.<java.nio.charset.CharsetDecoderICU: int[] data>":[0],"sdaReg111":[2],"sdaReg110":[2],"sdaReg107":[2],"1093652160.<java.io.Reader: java.lang.Object lock>":[0],"sdaReg103":[2],"sdaReg104":[2],"sdaReg105":[2],"sdaReg85":[2],"sdaReg88":[2],"sdaReg89":[2],"1093652256.<java.nio.Buffer: int position>":[0],"sdaReg94":[4],"1093671048":[0],"sdaReg91":[2],"sdaReg100":[0],"1093489096.arrayIdx_int:0":[1],"1093652256":[0],"sdaReg102":[0],"1093670896.<java.nio.charset.CharsetDecoder: int status>":[0],"sdaReg95":[0],"sdaReg96":[0],"sdaReg97":[0],"sdaReg98":[0],"sdaReg99":[0],"1093652312":[0],"1093652160.<java.io.InputStreamReader: java.nio.ByteBuffer bytes>":[0],"1093652256.<java.nio.HeapByteBuffer: int offset>":[0],"sdaReg61":[0],"1084347232":[5],"1093670896.<java.nio.charset.CharsetDecoderICU: long converterHandle>":[0],"sdaReg59":[0],"sdaReg58":[0],"sdaReg57":[0],"sdaReg56":[0],"sdaReg54":[0],"sdaReg53":[2],"sdaReg52":[0],"sdaReg51":[0],"1093489096":[1],"1093652160.<java.io.InputStreamReader: java.io.InputStream in>":[0],"sdaReg45":[0],"sdaReg47":[2],"sdaReg46":[0],"sdaReg43":[2],"static.<java.nio.charset.CoderResult: java.nio.charset.CoderResult UNDERFLOW>":[3],"sdaReg39":[0],"sdaReg38":[2],"sdaReg32":[2],"sdaReg31":[2],"sdaReg36":[2],"sdaReg35":[2],"sdaReg34":[2],"sdaReg33":[2],"sdaReg8":[0],"1093651256":[0],"sdaReg7":[0],"sdaReg4":[1],"1093670896":[0],"1093652160":[0],"1093652256.<java.nio.Buffer: int mark>":[0],"sdaReg26":[2],"sdaReg132":[2],"sdaReg28":[2],"sdaReg3":[0],"sdaReg1":[0],"sdaReg20":[1],"sdaReg23":[1],"sdaReg22":[2],"sdaReg25":[2]},"colorToColor":{"0":[0, 1],"1":[0, 2, 6],"4":[0]},"colorToLabel":{"0":"this","3":"<java.nio.charset.CoderResult: java.nio.charset.CoderResult UNDERFLOW>","5":"<java.nio.charset.CoderResult: java.nio.charset.CoderResult OVERFLOW>","6":"return"}}}

Generated Model
	this->return

