Scanning method <java.io.PrintWriter: java.io.PrintWriter append(char)>

All seen event types: MethodReturnRecord, MethodCallRecord, 
Ignored event types: 

JSON Encoded Analysis Data (for visualization):{"heapEdges":[{"step":0,"from":"1093668272","to":"sdaReg0","type":"model"},{"step":1,"from":"sdaReg0","to":"1093668272","type":"model"}],"parameters":[{"id":"1093668272","name":"this","klass":"java.io.PrintWriter"},{"id":"sdaReg0","name":"arg#1","klass":"char"}],"returns":[{"id":"1093668272","name":"return","klass":"java.io.PrintWriter"}],"colors":{"heapLocToColor":{"1093668272":[0],"sdaReg0":[0, 1]},"colorToColor":{"0":[0, 2],"1":[0]},"colorToLabel":{"0":"this","1":"arg#1","2":"return"}}}

Generated Model
	this->return
	arg#1->this
	arg#1->return

