Scanning method <java.util.ArrayList$ArrayListIterator: boolean hasNext()>

All seen event types: SimpleAssignmentRecord, LoadInstanceRecord, IfRecord, 
Ignored event types: IfRecord, 

JSON Encoded Analysis Data (for visualization):{"heapEdges":[{"step":0,"from":"1093394488","to":"1093394488.<java.util.ArrayList$ArrayListIterator: int remaining>","type":"load","field":"<java.util.ArrayList$ArrayListIterator: int remaining>"}],"parameters":[{"id":"1093394488","name":"this","klass":"java.util.ArrayList$ArrayListIterator"}],"returns":[{"id":"sdaReg0","name":"return","klass":"boolean"}],"colors":{"heapLocToColor":{"1093394488.<java.util.ArrayList$ArrayListIterator: int remaining>":[0],"1093394488":[0]},"colorToColor":{},"colorToLabel":{"0":"this","1":"return"}}}

Generated Model

