Scanning method <java.net.InetAddress: boolean equals(java.lang.Object)>

All seen event types: MethodReturnRecord, MethodCallRecord, ArrayLengthRecord, MethodStartRecord, CastRecord, LoadInstanceRecord, MethodEndRecord, IfRecord, InstanceOfRecord, 
Ignored event types: IfRecord, 

JSON Encoded Analysis Data (for visualization):{"heapEdges":[{"step":0,"from":"1093443632","to":"1093443672","type":"load","field":"<java.net.InetAddress: byte[] ipaddress>"},{"step":1,"from":"1093507816","to":"1093494784","type":"load","field":"<java.net.InetAddress: byte[] ipaddress>"}],"parameters":[{"id":"1093443632","name":"this","klass":"java.net.InetAddress"},{"id":"1093507816","name":"arg#1","klass":"java.lang.Object"}],"returns":[{"id":"sdaReg6","name":"return","klass":"boolean"}],"colors":{"heapLocToColor":{"1093494784":[1],"1093443632":[0],"1093443672":[0],"sdaReg3":[1],"sdaReg2":[0],"1093507816":[1]},"colorToColor":{},"colorToLabel":{"0":"this","1":"arg#1","2":"return"}}}

Generated Model

