Scanning method <tests.support.Support_ListTest: void <init>(java.lang.String,java.util.List)>

All seen event types: MethodReturnRecord, MethodCallRecord, MethodStartRecord, MethodEndRecord, StoreInstanceRecord, 
Ignored event types: 

JSON Encoded Analysis Data (for visualization):{"heapEdges":[{"step":0,"from":"sdaReg0","to":"1095431776","type":"store","field":"<junit.framework.TestCase: java.lang.String fName>"},{"step":1,"from":"1095431800","to":"1095431776","type":"store","field":"<tests.support.Support_ListTest: java.util.List list>"}],"parameters":[{"id":"1095431776","name":"this","klass":"tests.support.Support_ListTest"},{"id":"sdaReg0","name":"arg#1","klass":"string"},{"id":"1095431800","name":"arg#2","klass":"java.util.List"}],"returns":[{"id":"1095431776","name":"return","klass":"tests.support.Support_ListTest"}],"colors":{"heapLocToColor":{"1095431800":[2],"sdaReg4":[0],"1095431776":[0],"sdaReg5":[0],"sdaReg3":[0],"sdaReg2":[0],"sdaReg1":[0],"sdaReg0":[1]},"colorToColor":{"0":[3],"1":[0],"2":[0]},"colorToLabel":{"0":"this","1":"arg#1","2":"arg#2","3":"return"}}}

Generated Model
	this->return
	arg#2->this
	arg#2->return
	arg#1->this
	arg#1->return

