Scanning method <java.io.PrintWriter: java.io.PrintWriter append(java.lang.CharSequence,int,int)>

All seen event types: SimpleAssignmentRecord, ExitMonitorRecord, MethodStartRecord, LoadInstanceRecord, IfRecord, NewObjectRecord, StoreInstanceRecord, BinaryOperationRecord, MethodCallRecord, MethodReturnRecord, EnterMonitorRecord, ArrayLengthRecord, MethodEndRecord, 
Ignored event types: ExitMonitorRecord, EnterMonitorRecord, IfRecord, 

JSON Encoded Analysis Data (for visualization):{"heapEdges":[{"step":0,"from":"1093404656","to":"1093617288","type":"model"},{"step":1,"from":"1093617288","to":"sdaReg3","type":"model"},{"step":2,"from":"sdaReg3","to":"sdaReg8","type":"model"},{"step":3,"from":"sdaReg8","to":"1093660056","type":"model"},{"step":4,"from":"1093485048","to":"1093485080","type":"load","field":"<java.io.Writer: java.lang.Object lock>"},{"step":5,"from":"1093485048","to":"1093485080","type":"load","field":"<java.io.PrintWriter: java.io.Writer out>"},{"step":6,"from":"1093485048","to":"1093485080","type":"load","field":"<java.io.PrintWriter: java.io.Writer out>"},{"step":7,"from":"1093485080","to":"1093305120","type":"load","field":"<java.io.Writer: java.lang.Object lock>"},{"step":8,"from":"1093485080","to":"1093497328","type":"load","field":"<java.io.OutputStreamWriter: java.nio.charset.CharsetEncoder encoder>"},{"step":9,"from":"1093660080","to":"sdaReg42","type":"create","field":"<java.nio.Buffer: int mark>"},{"step":10,"from":"1093660080","to":"sdaReg43","type":"create","field":"<java.nio.Buffer: int position>"},{"step":11,"from":"1093660080","to":"sdaReg40","type":"create","field":"<java.nio.Buffer: int _elementSizeShift>"},{"step":12,"from":"sdaReg34","to":"1093660080","type":"store","field":"<java.nio.Buffer: int limit>"},{"step":13,"from":"sdaReg34","to":"1093660080","type":"store","field":"<java.nio.Buffer: int capacity>"},{"step":14,"from":"1093660080","to":"1093660056","type":"create","field":"<java.nio.CharArrayBuffer: char[] backingArray>"},{"step":15,"from":"1093660080","to":"sdaReg37","type":"create","field":"<java.nio.CharArrayBuffer: int offset>"},{"step":16,"from":"1093660080","to":"sdaReg15","type":"create","field":"<java.nio.Buffer: int position>"},{"step":17,"from":"sdaReg50","to":"1093660080","type":"store","field":"<java.nio.Buffer: int limit>"},{"step":18,"from":"1093485080","to":"1093497328","type":"load","field":"<java.io.OutputStreamWriter: java.nio.charset.CharsetEncoder encoder>"},{"step":19,"from":"1093485080","to":"1093485112","type":"load","field":"<java.io.OutputStreamWriter: java.nio.ByteBuffer bytes>"},{"step":20,"from":"1093497328","to":"1093660080","type":"model"},{"step":21,"from":"1093497328","to":"1093485112","type":"model"},{"step":22,"from":"1093497328","to":"1084215096","type":"model"},{"step":23,"from":"1093660080","to":"1093497328","type":"model"},{"step":24,"from":"1093660080","to":"1093485112","type":"model"},{"step":25,"from":"1093660080","to":"1084215096","type":"model"},{"step":26,"from":"1093485112","to":"1093497328","type":"model"},{"step":27,"from":"1093485112","to":"1093660080","type":"model"},{"step":28,"from":"1093485112","to":"1084215096","type":"model"},{"step":29,"from":"1084215096","to":"1084215096.<java.nio.charset.CoderResult: int type>","type":"load","field":"<java.nio.charset.CoderResult: int type>"},{"step":30,"from":"1084215096","to":"1084215096.<java.nio.charset.CoderResult: int type>","type":"load","field":"<java.nio.charset.CoderResult: int type>"},{"step":31,"from":"1084215096","to":"1084215096.<java.nio.charset.CoderResult: int type>","type":"load","field":"<java.nio.charset.CoderResult: int type>"}],"parameters":[{"id":"1093485048","name":"this","klass":"java.io.PrintWriter"},{"id":"1093404656","name":"arg#1","klass":"java.lang.CharSequence"},{"id":"sdaReg0","name":"arg#2","klass":"int"},{"id":"sdaReg1","name":"arg#3","klass":"int"}],"returns":[{"id":"1093485048","name":"return","klass":"java.io.PrintWriter"}],"colors":{"heapLocToColor":{"1093485112":[0],"1093485080":[0],"sdaReg13":[0],"sdaReg14":[1, 4, 5, 7, 8],"sdaReg11":[1, 4, 5, 7, 8],"sdaReg10":[0],"sdaReg57":[0, 10],"sdaReg19":[0],"sdaReg55":[0, 10],"sdaReg54":[0, 10],"sdaReg17":[1, 4, 5, 7, 8],"sdaReg53":[9],"sdaReg52":[0],"sdaReg16":[0],"sdaReg51":[9],"1093660056":[1, 4, 5, 7, 8],"sdaReg49":[9],"sdaReg48":[9],"1084215096":[0, 10],"1093617288":[1, 4],"sdaReg45":[9],"1093485048":[0],"sdaReg44":[9],"sdaReg47":[9],"sdaReg46":[9],"sdaReg41":[9],"1093485080.<java.io.OutputStreamWriter: java.nio.charset.CharsetEncoder encoder>":[0],"1093305120":[0],"1093660080":[0, 9],"1093485048.<java.io.PrintWriter: java.io.Writer out>":[0],"1093497328":[0],"sdaReg39":[9],"sdaReg38":[9],"sdaReg32":[9],"sdaReg31":[1, 4, 5, 7, 8],"sdaReg30":[9],"1084215096.<java.nio.charset.CoderResult: int type>":[0, 10],"sdaReg36":[1, 4, 5, 7, 8],"sdaReg35":[9],"sdaReg33":[1, 4, 5, 7, 8],"sdaReg8":[1, 4, 5, 7],"sdaReg9":[1, 4, 5, 7, 8],"sdaReg7":[6],"sdaReg4":[6],"sdaReg5":[0],"1093404656":[1],"sdaReg26":[1, 4, 5, 7, 8],"sdaReg3":[1, 4, 5],"sdaReg2":[1, 4],"sdaReg1":[3],"sdaReg20":[1, 4, 5, 7, 8],"sdaReg0":[2],"sdaReg22":[0]},"colorToColor":{"0":[0, 9, 10, 11],"1":[9],"4":[9],"5":[9],"7":[9],"8":[9],"9":[0, 10]},"colorToLabel":{"0":"this","1":"arg#1","2":"arg#2","3":"arg#3","11":"return"}}}

Generated Model
	this->return
	arg#1->this
	arg#1->return

