Scanning method <android.os.Message: java.lang.Runnable getCallback()>

All seen event types: LoadInstanceRecord, 
Ignored event types: 

JSON Encoded Analysis Data (for visualization):{"heapEdges":[],"parameters":[{"id":"1093532416","name":"this","klass":"android.os.Message"}],"returns":[{"id":"0","name":"return","klass":"java.lang.Runnable"}],"colors":{"heapLocToColor":{"1093532416":[0]},"colorToColor":{},"colorToLabel":{"0":"this","1":"return"}}}

Generated Model

