Scanning method <java.net.URL: void <init>(java.lang.String,java.lang.String,int,java.lang.String,java.net.URLStreamHandler)>

All seen event types: StoreArrayRecord, SimpleAssignmentRecord, MethodStartRecord, LoadInstanceRecord, IfRecord, NewObjectRecord, StoreInstanceRecord, LoadStaticRecord, BinaryOperationRecord, MethodCallRecord, MethodReturnRecord, ArrayLengthRecord, CastRecord, LoadArrayRecord, MethodEndRecord, 
Ignored event types: IfRecord, 

JSON Encoded Analysis Data (for visualization):{"heapEdges":[{"step":0,"from":"1093676584","to":"sdaReg5","type":"create","field":"<java.net.URL: int port>"},{"step":1,"from":"sdaReg1","to":"sdaReg6","type":"model"},{"step":2,"from":"sdaReg0","to":"1093676584","type":"store","field":"<java.net.URL: java.lang.String protocol>"},{"step":3,"from":"sdaReg1","to":"1093676584","type":"store","field":"<java.net.URL: java.lang.String host>"},{"step":4,"from":"sdaReg2","to":"1093676584","type":"store","field":"<java.net.URL: int port>"},{"step":5,"from":"sdaReg1","to":"sdaReg7","type":"model"},{"step":6,"from":"sdaReg3","to":"sdaReg8","type":"model"},{"step":7,"from":"sdaReg3","to":"1093676584","type":"store","field":"<java.net.URL: java.lang.String file>"},{"step":8,"from":"sdaReg13","to":"1093676584","type":"store","field":"<java.net.URL: java.lang.String authority>"},{"step":9,"from":"1093676584","to":"sdaReg16","type":"create","field":"<java.net.URL: java.lang.String query>"},{"step":10,"from":"sdaReg17","to":"1093676584","type":"store","field":"<java.net.URL: java.lang.String path>"},{"step":11,"from":"static.<java.net.URL: java.util.Hashtable streamHandlers>","to":"1084315112","type":"load","field":"<java.net.URL: java.util.Hashtable streamHandlers>"},{"step":12,"from":"1084315112","to":"1084321912","type":"load","field":"<java.util.Hashtable: java.util.Hashtable$HashtableEntry[] table>"},{"step":13,"from":"1093485520","to":"1093291176","type":"model"},{"step":14,"from":"1093676584","to":"1093291320","type":"create","field":"<java.net.URL: java.net.URLStreamHandler streamHandler>"},{"step":15,"from":"static.<java.net.URL: java.util.Hashtable streamHandlers>","to":"1084315112","type":"load","field":"<java.net.URL: java.util.Hashtable streamHandlers>"},{"step":16,"from":"1084315112","to":"1084321912","type":"load","field":"<java.util.Hashtable: java.util.Hashtable$HashtableEntry[] table>"},{"step":17,"from":"1084315112","to":"1084315112.<java.util.Hashtable: int modCount>","type":"load","field":"<java.util.Hashtable: int modCount>"},{"step":18,"from":"sdaReg62","to":"1084315112","type":"store","field":"<java.util.Hashtable: int modCount>"},{"step":19,"from":"1084315112","to":"1084315112.<java.util.Hashtable: int size>","type":"load","field":"<java.util.Hashtable: int size>"},{"step":20,"from":"sdaReg63","to":"1084315112","type":"store","field":"<java.util.Hashtable: int size>"},{"step":21,"from":"1084315112","to":"1084315112.<java.util.Hashtable: int threshold>","type":"load","field":"<java.util.Hashtable: int threshold>"},{"step":22,"from":"1084321368","to":"1093311368","type":"store","field":"<java.util.Hashtable$HashtableEntry: java.lang.Object key>"},{"step":23,"from":"1093291320","to":"1093311368","type":"store","field":"<java.util.Hashtable$HashtableEntry: java.lang.Object value>"},{"step":24,"from":"sdaReg57","to":"1093311368","type":"store","field":"<java.util.Hashtable$HashtableEntry: int hash>"},{"step":25,"from":"1084321912","to":"1093311368","type":"create","field":"arrayIdx_int:1"}],"parameters":[{"id":"1093676584","name":"this","klass":"java.net.URL"},{"id":"sdaReg0","name":"arg#1","klass":"string"},{"id":"sdaReg1","name":"arg#2","klass":"string"},{"id":"sdaReg2","name":"arg#3","klass":"int"},{"id":"sdaReg3","name":"arg#4","klass":"string"},{"id":"0","name":"arg#5","klass":"java.net.URLStreamHandler"}],"returns":[{"id":"1093676584","name":"return","klass":"java.net.URL"}],"colors":{"heapLocToColor":{"sdaReg60":[22],"1084315112.<java.util.Hashtable: int modCount>":[12],"sdaReg68":[23],"1084315112.<java.util.Hashtable: int threshold>":[12],"sdaReg69":[23],"sdaReg66":[21],"1093485520":[16],"sdaReg67":[5],"sdaReg64":[23],"sdaReg62":[12],"sdaReg63":[12],"sdaReg14":[11],"sdaReg12":[10],"sdaReg10":[0],"sdaReg57":[22],"sdaReg56":[22],"sdaReg19":[12],"sdaReg55":[22],"sdaReg54":[22],"sdaReg53":[22],"sdaReg18":[0],"sdaReg52":[22],"sdaReg15":[11],"sdaReg51":[22],"sdaReg50":[22],"1084315112.<java.util.Hashtable: int size>":[12],"1084321912":[12],"0":[5],"sdaReg49":[22],"sdaReg48":[21],"sdaReg45":[21],"sdaReg44":[21],"sdaReg46":[12],"sdaReg41":[21],"sdaReg40":[20],"1084315112":[12],"sdaReg43":[21],"sdaReg42":[21],"static.<java.net.URL: java.util.Hashtable streamHandlers>":[12],"1093311368":[23],"1093291320":[21],"sdaReg39":[19],"1084315112.<java.util.Hashtable: java.util.Hashtable$HashtableEntry[] table>":[12],"sdaReg38":[18],"sdaReg37":[17, 16],"sdaReg32":[13],"sdaReg36":[16],"1093676584":[0],"sdaReg35":[15],"sdaReg34":[5],"sdaReg33":[5],"sdaReg8":[4, 8],"sdaReg9":[9],"sdaReg6":[2, 6],"sdaReg7":[2, 7],"sdaReg4":[0],"1093291176":[17, 16],"sdaReg27":[13],"sdaReg26":[13],"sdaReg29":[13],"sdaReg28":[13],"sdaReg3":[4],"sdaReg2":[3],"sdaReg21":[13],"sdaReg1":[2],"sdaReg0":[1],"sdaReg23":[13],"static.<java.net.URL: java.net.URLStreamHandlerFactory streamHandlerFactory>":[14],"sdaReg22":[13],"sdaReg25":[13],"sdaReg24":[13]},"colorToColor":{"0":[24],"1":[0],"2":[0],"3":[0],"21":[0, 23],"4":[0],"23":[12],"22":[23],"12":[12]},"colorToLabel":{"0":"this","1":"arg#1","2":"arg#2","3":"arg#3","4":"arg#4","5":"arg#5","12":"<java.net.URL: java.util.Hashtable streamHandlers>","14":"<java.net.URL: java.net.URLStreamHandlerFactory streamHandlerFactory>","24":"return"}}}

Generated Model
	this->return
	arg#4->this
	arg#4->return
	arg#3->this
	arg#3->return
	arg#2->this
	arg#2->return
	arg#1->this
	arg#1->return

