Scanning method <java.net.URL: void <init>(java.lang.String,java.lang.String,int,java.lang.String,java.net.URLStreamHandler)>

All seen event types: SimpleAssignmentRecord, MethodStartRecord, LoadInstanceRecord, IfRecord, StoreInstanceRecord, LoadStaticRecord, BinaryOperationRecord, MethodCallRecord, MethodReturnRecord, ArrayLengthRecord, CastRecord, LoadArrayRecord, MethodEndRecord, 
Ignored event types: IfRecord, 

JSON Encoded Analysis Data (for visualization):{"heapEdges":[{"step":0,"from":"1093677176","to":"sdaReg5","type":"create","field":"<java.net.URL: int port>"},{"step":1,"from":"sdaReg1","to":"sdaReg6","type":"model"},{"step":2,"from":"sdaReg0","to":"1093677176","type":"store","field":"<java.net.URL: java.lang.String protocol>"},{"step":3,"from":"sdaReg1","to":"1093677176","type":"store","field":"<java.net.URL: java.lang.String host>"},{"step":4,"from":"sdaReg2","to":"1093677176","type":"store","field":"<java.net.URL: int port>"},{"step":5,"from":"sdaReg1","to":"sdaReg7","type":"model"},{"step":6,"from":"sdaReg3","to":"sdaReg8","type":"model"},{"step":7,"from":"sdaReg3","to":"1093677176","type":"store","field":"<java.net.URL: java.lang.String file>"},{"step":8,"from":"sdaReg13","to":"1093677176","type":"store","field":"<java.net.URL: java.lang.String authority>"},{"step":9,"from":"1093677176","to":"sdaReg16","type":"create","field":"<java.net.URL: java.lang.String query>"},{"step":10,"from":"sdaReg17","to":"1093677176","type":"store","field":"<java.net.URL: java.lang.String path>"},{"step":11,"from":"static.<java.net.URL: java.util.Hashtable streamHandlers>","to":"1084315112","type":"load","field":"<java.net.URL: java.util.Hashtable streamHandlers>"},{"step":12,"from":"1084315112","to":"1084321912","type":"load","field":"<java.util.Hashtable: java.util.Hashtable$HashtableEntry[] table>"},{"step":13,"from":"1084321912","to":"1093311368","type":"load","field":"arrayIdx_int:1"},{"step":14,"from":"1093311368","to":"1084321368","type":"load","field":"<java.util.Hashtable$HashtableEntry: java.lang.Object key>"},{"step":15,"from":"1093311368","to":"1093291320","type":"load","field":"<java.util.Hashtable$HashtableEntry: java.lang.Object value>"},{"step":16,"from":"1093291320","to":"1093677176","type":"store","field":"<java.net.URL: java.net.URLStreamHandler streamHandler>"}],"parameters":[{"id":"1093677176","name":"this","klass":"java.net.URL"},{"id":"sdaReg0","name":"arg#1","klass":"string"},{"id":"sdaReg1","name":"arg#2","klass":"string"},{"id":"sdaReg2","name":"arg#3","klass":"int"},{"id":"sdaReg3","name":"arg#4","klass":"string"},{"id":"0","name":"arg#5","klass":"java.net.URLStreamHandler"}],"returns":[{"id":"1093677176","name":"return","klass":"java.net.URL"}],"colors":{"heapLocToColor":{"static.<java.net.URL: java.util.Hashtable streamHandlers>":[12],"1093311368":[12],"1093677176":[0],"1093291320":[12],"sdaReg14":[11],"1084321368":[12],"sdaReg12":[10],"sdaReg10":[0],"sdaReg32":[13],"sdaReg19":[12],"sdaReg18":[0],"sdaReg34":[12],"sdaReg15":[11],"sdaReg33":[12],"sdaReg8":[4, 8],"sdaReg9":[9],"sdaReg6":[2, 6],"sdaReg7":[2, 7],"sdaReg4":[0],"sdaReg27":[13],"1084321912":[12],"sdaReg26":[13],"sdaReg29":[13],"sdaReg28":[13],"0":[5],"sdaReg3":[4],"sdaReg2":[3],"sdaReg1":[2],"sdaReg21":[13],"sdaReg0":[1],"sdaReg23":[13],"sdaReg22":[13],"1084315112":[12],"sdaReg25":[13],"sdaReg24":[13]},"colorToColor":{"0":[14],"1":[0],"2":[0],"3":[0],"4":[0],"12":[0]},"colorToLabel":{"0":"this","1":"arg#1","2":"arg#2","3":"arg#3","4":"arg#4","5":"arg#5","12":"<java.net.URL: java.util.Hashtable streamHandlers>","14":"return"}}}

Generated Model
	this->return
	arg#4->this
	arg#4->return
	arg#3->this
	arg#3->return
	arg#2->this
	arg#2->return
	arg#1->this
	arg#1->return

