Scanning method <java.io.ByteArrayInputStream: int available()>

All seen event types: BinaryOperationRecord, LoadInstanceRecord, 
Ignored event types: 

JSON Encoded Analysis Data (for visualization):{"heapEdges":[{"step":0,"from":"1093708360","to":"1093708360.<java.io.ByteArrayInputStream: int count>","type":"load","field":"<java.io.ByteArrayInputStream: int count>"},{"step":1,"from":"1093708360","to":"1093708360.<java.io.ByteArrayInputStream: int pos>","type":"load","field":"<java.io.ByteArrayInputStream: int pos>"}],"parameters":[{"id":"1093708360","name":"this","klass":"java.io.ByteArrayInputStream"}],"returns":[{"id":"sdaReg0","name":"return","klass":"int"}],"colors":{"heapLocToColor":{"1093708360.<java.io.ByteArrayInputStream: int count>":[0],"sdaReg0":[0],"1093708360":[0],"1093708360.<java.io.ByteArrayInputStream: int pos>":[0]},"colorToColor":{"0":[1]},"colorToLabel":{"0":"this","1":"return"}}}

Generated Model
	this->return

