Scanning method <android.location.Location: double getAltitude()>

All seen event types: LoadInstanceRecord, 
Ignored event types: 

JSON Encoded Analysis Data (for visualization):{"heapEdges":[{"step":0,"from":"1094013224","to":"1094013224.<android.location.Location: double mAltitude>","type":"load","field":"<android.location.Location: double mAltitude>"}],"parameters":[{"id":"1094013224","name":"this","klass":"android.location.Location"}],"returns":[{"id":"1094013224.<android.location.Location: double mAltitude>","name":"return","klass":"double"}],"colors":{"heapLocToColor":{"1094013224.<android.location.Location: double mAltitude>":[0],"1094013224":[0]},"colorToColor":{"0":[1]},"colorToLabel":{"0":"this","1":"return"}}}

Generated Model
	this->return

