Scanning method <java.io.BufferedWriter: boolean isClosed()>

All seen event types: SimpleAssignmentRecord, LoadInstanceRecord, IfRecord, 
Ignored event types: IfRecord, 

JSON Encoded Analysis Data (for visualization):{"heapEdges":[{"step":0,"from":"1093649360","to":"1093604872","type":"load","field":"<java.io.BufferedWriter: java.io.Writer out>"}],"parameters":[{"id":"1093649360","name":"this","klass":"java.io.BufferedWriter"}],"returns":[{"id":"sdaReg0","name":"return","klass":"boolean"}],"colors":{"heapLocToColor":{"1093649360":[0],"1093604872":[0]},"colorToColor":{},"colorToLabel":{"0":"this","1":"return"}}}

Generated Model

