Scanning method <java.util.ArrayList: java.lang.Object[] toArray()>

All seen event types: NewArrayRecord, MethodReturnRecord, MethodCallRecord, LoadInstanceRecord, 
Ignored event types: 

JSON Encoded Analysis Data (for visualization):{"heapEdges":[{"step":0,"from":"1093667248","to":"1093667248.<java.util.ArrayList: int size>","type":"load","field":"<java.util.ArrayList: int size>"},{"step":1,"from":"1093667248","to":"1093682152","type":"load","field":"<java.util.ArrayList: java.lang.Object[] array>"},{"step":2,"from":"1093682152","to":"1093682224","type":"model"}],"parameters":[{"id":"1093667248","name":"this","klass":"java.util.ArrayList"}],"returns":[{"id":"1093682224","name":"return","klass":"java.lang.Object[]"}],"colors":{"heapLocToColor":{"1093667248.<java.util.ArrayList: int size>":[0],"1093682224":[1],"1093682152":[0],"1093667248":[0]},"colorToColor":{"0":[1],"1":[2]},"colorToLabel":{"0":"this","2":"return"}}}

Generated Model
	this->return

