Scanning method <java.util.ArrayList: java.lang.Object[] toArray()>

All seen event types: NewArrayRecord, MethodReturnRecord, MethodCallRecord, LoadInstanceRecord, 
Ignored event types: 

JSON Encoded Analysis Data (for visualization):{"heapEdges":[{"step":0,"from":"1094275720","to":"1094275720.<java.util.ArrayList: int size>","type":"load","field":"<java.util.ArrayList: int size>"},{"step":1,"from":"1094275720","to":"1093414760","type":"load","field":"<java.util.ArrayList: java.lang.Object[] array>"},{"step":2,"from":"1093414760","to":"1093418752","type":"model"}],"parameters":[{"id":"1094275720","name":"this","klass":"java.util.ArrayList"}],"returns":[{"id":"1093418752","name":"return","klass":"java.lang.Object[]"}],"colors":{"heapLocToColor":{"1093414760":[0],"1093418752":[1],"1094275720.<java.util.ArrayList: int size>":[0],"1094275720":[0]},"colorToColor":{"0":[1],"1":[2]},"colorToLabel":{"0":"this","2":"return"}}}

Generated Model
	this->return

