Scanning method <java.io.PrintWriter: java.lang.Appendable append(java.lang.CharSequence,int,int)>

All seen event types: SimpleAssignmentRecord, ExitMonitorRecord, MethodStartRecord, LoadInstanceRecord, IfRecord, NewObjectRecord, StoreInstanceRecord, BinaryOperationRecord, MethodCallRecord, MethodReturnRecord, EnterMonitorRecord, ArrayLengthRecord, MethodEndRecord, 
Ignored event types: ExitMonitorRecord, EnterMonitorRecord, IfRecord, 

JSON Encoded Analysis Data (for visualization):{"heapEdges":[{"step":0,"from":"1093675456","to":"sdaReg5","type":"model"},{"step":1,"from":"sdaReg5","to":"sdaReg10","type":"model"},{"step":2,"from":"sdaReg10","to":"1093410888","type":"model"},{"step":3,"from":"1093610048","to":"1093610080","type":"load","field":"<java.io.Writer: java.lang.Object lock>"},{"step":4,"from":"1093610048","to":"1093610080","type":"load","field":"<java.io.PrintWriter: java.io.Writer out>"},{"step":5,"from":"1093610048","to":"1093610080","type":"load","field":"<java.io.PrintWriter: java.io.Writer out>"},{"step":6,"from":"1093610080","to":"1093609872","type":"load","field":"<java.io.Writer: java.lang.Object lock>"},{"step":7,"from":"1093610080","to":"1093628896","type":"load","field":"<java.io.OutputStreamWriter: java.nio.charset.CharsetEncoder encoder>"},{"step":8,"from":"1093291160","to":"sdaReg44","type":"create","field":"<java.nio.Buffer: int mark>"},{"step":9,"from":"1093291160","to":"sdaReg45","type":"create","field":"<java.nio.Buffer: int position>"},{"step":10,"from":"1093291160","to":"sdaReg42","type":"create","field":"<java.nio.Buffer: int _elementSizeShift>"},{"step":11,"from":"sdaReg36","to":"1093291160","type":"store","field":"<java.nio.Buffer: int limit>"},{"step":12,"from":"sdaReg36","to":"1093291160","type":"store","field":"<java.nio.Buffer: int capacity>"},{"step":13,"from":"1093291160","to":"1093410888","type":"create","field":"<java.nio.CharArrayBuffer: char[] backingArray>"},{"step":14,"from":"1093291160","to":"sdaReg39","type":"create","field":"<java.nio.CharArrayBuffer: int offset>"},{"step":15,"from":"1093291160","to":"sdaReg17","type":"create","field":"<java.nio.Buffer: int position>"},{"step":16,"from":"sdaReg52","to":"1093291160","type":"store","field":"<java.nio.Buffer: int limit>"},{"step":17,"from":"1093610080","to":"1093628896","type":"load","field":"<java.io.OutputStreamWriter: java.nio.charset.CharsetEncoder encoder>"},{"step":18,"from":"1093610080","to":"1093610112","type":"load","field":"<java.io.OutputStreamWriter: java.nio.ByteBuffer bytes>"},{"step":19,"from":"1093628896","to":"1093291160","type":"model"},{"step":20,"from":"1093628896","to":"1093610112","type":"model"},{"step":21,"from":"1093628896","to":"1084215096","type":"model"},{"step":22,"from":"1093291160","to":"1093628896","type":"model"},{"step":23,"from":"1093291160","to":"1093610112","type":"model"},{"step":24,"from":"1093291160","to":"1084215096","type":"model"},{"step":25,"from":"1093610112","to":"1093628896","type":"model"},{"step":26,"from":"1093610112","to":"1093291160","type":"model"},{"step":27,"from":"1093610112","to":"1084215096","type":"model"},{"step":28,"from":"1084215096","to":"1084215096.<java.nio.charset.CoderResult: int type>","type":"load","field":"<java.nio.charset.CoderResult: int type>"},{"step":29,"from":"1084215096","to":"1084215096.<java.nio.charset.CoderResult: int type>","type":"load","field":"<java.nio.charset.CoderResult: int type>"},{"step":30,"from":"1084215096","to":"1084215096.<java.nio.charset.CoderResult: int type>","type":"load","field":"<java.nio.charset.CoderResult: int type>"}],"parameters":[{"id":"1093610048","name":"this","klass":"java.io.PrintWriter"},{"id":"1093675456","name":"arg#1","klass":"java.lang.CharSequence"},{"id":"sdaReg0","name":"arg#2","klass":"int"},{"id":"sdaReg1","name":"arg#3","klass":"int"}],"returns":[{"id":"1093610048","name":"return","klass":"java.lang.Appendable"}],"colors":{"heapLocToColor":{"1093610048":[0],"sdaReg61":[0],"1093628896":[0],"sdaReg13":[1, 4, 6, 7],"sdaReg11":[1, 4, 6, 7],"sdaReg12":[0],"1093675456":[1],"1093610112":[0],"sdaReg10":[1, 4, 6],"sdaReg59":[0, 9],"1093610080.<java.io.OutputStreamWriter: java.nio.charset.CharsetEncoder encoder>":[0],"sdaReg57":[0, 9],"sdaReg56":[0, 9],"sdaReg19":[1, 4, 6, 7],"sdaReg55":[8],"1093610080":[0],"sdaReg54":[0],"sdaReg18":[0],"sdaReg53":[8],"sdaReg15":[0],"sdaReg16":[1, 4, 6, 7],"sdaReg51":[8],"sdaReg50":[8],"sdaReg49":[8],"sdaReg48":[8],"1084215096":[0, 9],"sdaReg47":[8],"sdaReg46":[8],"1093609872":[0],"sdaReg41":[8],"1093410888":[1, 4, 6, 7],"sdaReg40":[8],"sdaReg43":[8],"1093610048.<java.io.PrintWriter: java.io.Writer out>":[0],"1093291160":[0, 8],"sdaReg38":[1, 4, 6, 7],"sdaReg37":[8],"sdaReg32":[8],"1084215096.<java.nio.charset.CoderResult: int type>":[0, 9],"sdaReg35":[1, 4, 6, 7],"sdaReg34":[8],"sdaReg33":[1, 4, 6, 7],"sdaReg9":[5],"sdaReg6":[5],"sdaReg7":[0],"sdaReg4":[1],"sdaReg5":[1, 4],"sdaReg28":[1, 4, 6, 7],"sdaReg3":[1],"sdaReg2":[0],"sdaReg21":[0],"sdaReg1":[3],"sdaReg0":[2],"sdaReg22":[1, 4, 6, 7],"sdaReg24":[0]},"colorToColor":{"0":[0, 8, 9, 10],"1":[8],"4":[8],"6":[8],"7":[8],"8":[0, 9]},"colorToLabel":{"0":"this","1":"arg#1","2":"arg#2","3":"arg#3","10":"return"}}}

Generated Model
	this->return
	arg#1->this
	arg#1->return

