Scanning method <java.util.HashMap$HashIterator: void <init>(java.util.HashMap)>

All seen event types: MethodReturnRecord, MethodCallRecord, LoadInstanceRecord, IfRecord, StoreInstanceRecord, 
Ignored event types: IfRecord, 

JSON Encoded Analysis Data (for visualization):{"heapEdges":[{"step":0,"from":"1094039048","to":"1094205360","type":"store","field":"<java.util.HashMap$HashIterator: java.util.HashMap this$0>"},{"step":1,"from":"1094039048","to":"1094039104","type":"load","field":"<java.util.HashMap: java.util.HashMap$HashMapEntry entryForNullKey>"},{"step":2,"from":"1094039104","to":"1094205360","type":"store","field":"<java.util.HashMap$HashIterator: java.util.HashMap$HashMapEntry nextEntry>"},{"step":3,"from":"1094039048","to":"1094039048.<java.util.HashMap: int modCount>","type":"load","field":"<java.util.HashMap: int modCount>"},{"step":4,"from":"1094039048.<java.util.HashMap: int modCount>","to":"1094205360","type":"store","field":"<java.util.HashMap$HashIterator: int expectedModCount>"}],"parameters":[{"id":"1094205360","name":"this","klass":"java.util.HashMap$HashIterator"},{"id":"1094039048","name":"arg#1","klass":"java.util.HashMap"}],"returns":[{"id":"1094205360","name":"return","klass":"java.util.HashMap$HashIterator"}],"colors":{"heapLocToColor":{"1094205360":[0],"1094039104":[1],"1094039048":[1],"sdaReg0":[0],"1094039048.<java.util.HashMap: int modCount>":[1]},"colorToColor":{"0":[2],"1":[0]},"colorToLabel":{"0":"this","1":"arg#1","2":"return"}}}

Generated Model
	this->return
	arg#1->this
	arg#1->return

