Scanning method <java.io.BufferedReader: void <init>(java.io.Reader,int)>

All seen event types: NewArrayRecord, MethodReturnRecord, MethodCallRecord, MethodStartRecord, MethodEndRecord, IfRecord, StoreInstanceRecord, 
Ignored event types: IfRecord, 

JSON Encoded Analysis Data (for visualization):{"heapEdges":[{"step":0,"from":"1093517736","to":"1093264600","type":"store","field":"<java.io.Reader: java.lang.Object lock>"},{"step":1,"from":"1093264600","to":"sdaReg5","type":"create","field":"<java.io.BufferedReader: int mark>"},{"step":2,"from":"1093264600","to":"sdaReg6","type":"create","field":"<java.io.BufferedReader: int markLimit>"},{"step":3,"from":"1093517736","to":"1093264600","type":"store","field":"<java.io.BufferedReader: java.io.Reader in>"},{"step":4,"from":"1093264600","to":"1094240960","type":"create","field":"<java.io.BufferedReader: char[] buf>"}],"parameters":[{"id":"1093264600","name":"this","klass":"java.io.BufferedReader"},{"id":"1093517736","name":"arg#1","klass":"java.io.Reader"},{"id":"sdaReg0","name":"arg#2","klass":"int"}],"returns":[{"id":"1093264600","name":"return","klass":"java.io.BufferedReader"}],"colors":{"heapLocToColor":{"1093264600":[0],"1093517736":[1],"sdaReg4":[0],"sdaReg3":[0],"sdaReg2":[1],"sdaReg1":[0],"sdaReg0":[2],"1094240960":[3]},"colorToColor":{"0":[4],"1":[0],"3":[0]},"colorToLabel":{"0":"this","1":"arg#1","2":"arg#2","4":"return"}}}

Generated Model
	this->return
	arg#1->this
	arg#1->return

