Scanning method <android.text.Html: android.text.Spanned fromHtml(java.lang.String)>

All seen event types: StoreArrayRecord, SimpleAssignmentRecord, MethodStartRecord, LoadInstanceRecord, IfRecord, InstanceOfRecord, NewObjectRecord, StoreInstanceRecord, NewArrayRecord, LoadStaticRecord, BinaryOperationRecord, MethodCallRecord, MethodReturnRecord, CastRecord, ArrayLengthRecord, LoadArrayRecord, MethodEndRecord, 
Ignored event types: IfRecord, 

JSON Encoded Analysis Data (for visualization):{"heapEdges":[{"step":0,"from":"1093484808","to":"1093484808","type":"create","field":"<org.ccil.cowan.tagsoup.Parser: org.xml.sax.ContentHandler theContentHandler>"},{"step":1,"from":"1093484808","to":"1093484808","type":"store","field":"<org.ccil.cowan.tagsoup.Parser: org.xml.sax.ext.LexicalHandler theLexicalHandler>"},{"step":2,"from":"1093484808","to":"1093484808","type":"store","field":"<org.ccil.cowan.tagsoup.Parser: org.xml.sax.DTDHandler theDTDHandler>"},{"step":3,"from":"1093484808","to":"1093484808","type":"store","field":"<org.ccil.cowan.tagsoup.Parser: org.xml.sax.ErrorHandler theErrorHandler>"},{"step":4,"from":"1093484808","to":"1093484808","type":"store","field":"<org.ccil.cowan.tagsoup.Parser: org.xml.sax.EntityResolver theEntityResolver>"},{"step":5,"from":"static.<org.ccil.cowan.tagsoup.Parser: boolean DEFAULT_NAMESPACES>","to":"static.<org.ccil.cowan.tagsoup.Parser: boolean DEFAULT_NAMESPACES>","type":"load","field":"<org.ccil.cowan.tagsoup.Parser: boolean DEFAULT_NAMESPACES>"},{"step":6,"from":"static.<org.ccil.cowan.tagsoup.Parser: boolean DEFAULT_NAMESPACES>","to":"1093484808","type":"store","field":"<org.ccil.cowan.tagsoup.Parser: boolean namespaces>"},{"step":7,"from":"static.<org.ccil.cowan.tagsoup.Parser: boolean DEFAULT_IGNORE_BOGONS>","to":"static.<org.ccil.cowan.tagsoup.Parser: boolean DEFAULT_IGNORE_BOGONS>","type":"load","field":"<org.ccil.cowan.tagsoup.Parser: boolean DEFAULT_IGNORE_BOGONS>"},{"step":8,"from":"static.<org.ccil.cowan.tagsoup.Parser: boolean DEFAULT_IGNORE_BOGONS>","to":"1093484808","type":"store","field":"<org.ccil.cowan.tagsoup.Parser: boolean ignoreBogons>"},{"step":9,"from":"static.<org.ccil.cowan.tagsoup.Parser: boolean DEFAULT_BOGONS_EMPTY>","to":"static.<org.ccil.cowan.tagsoup.Parser: boolean DEFAULT_BOGONS_EMPTY>","type":"load","field":"<org.ccil.cowan.tagsoup.Parser: boolean DEFAULT_BOGONS_EMPTY>"},{"step":10,"from":"static.<org.ccil.cowan.tagsoup.Parser: boolean DEFAULT_BOGONS_EMPTY>","to":"1093484808","type":"store","field":"<org.ccil.cowan.tagsoup.Parser: boolean bogonsEmpty>"},{"step":11,"from":"static.<org.ccil.cowan.tagsoup.Parser: boolean DEFAULT_ROOT_BOGONS>","to":"static.<org.ccil.cowan.tagsoup.Parser: boolean DEFAULT_ROOT_BOGONS>","type":"load","field":"<org.ccil.cowan.tagsoup.Parser: boolean DEFAULT_ROOT_BOGONS>"},{"step":12,"from":"static.<org.ccil.cowan.tagsoup.Parser: boolean DEFAULT_ROOT_BOGONS>","to":"1093484808","type":"store","field":"<org.ccil.cowan.tagsoup.Parser: boolean rootBogons>"},{"step":13,"from":"static.<org.ccil.cowan.tagsoup.Parser: boolean DEFAULT_DEFAULT_ATTRIBUTES>","to":"static.<org.ccil.cowan.tagsoup.Parser: boolean DEFAULT_DEFAULT_ATTRIBUTES>","type":"load","field":"<org.ccil.cowan.tagsoup.Parser: boolean DEFAULT_DEFAULT_ATTRIBUTES>"},{"step":14,"from":"static.<org.ccil.cowan.tagsoup.Parser: boolean DEFAULT_DEFAULT_ATTRIBUTES>","to":"1093484808","type":"store","field":"<org.ccil.cowan.tagsoup.Parser: boolean defaultAttributes>"},{"step":15,"from":"static.<org.ccil.cowan.tagsoup.Parser: boolean DEFAULT_TRANSLATE_COLONS>","to":"static.<org.ccil.cowan.tagsoup.Parser: boolean DEFAULT_TRANSLATE_COLONS>","type":"load","field":"<org.ccil.cowan.tagsoup.Parser: boolean DEFAULT_TRANSLATE_COLONS>"},{"step":16,"from":"static.<org.ccil.cowan.tagsoup.Parser: boolean DEFAULT_TRANSLATE_COLONS>","to":"1093484808","type":"store","field":"<org.ccil.cowan.tagsoup.Parser: boolean translateColons>"},{"step":17,"from":"static.<org.ccil.cowan.tagsoup.Parser: boolean DEFAULT_RESTART_ELEMENTS>","to":"static.<org.ccil.cowan.tagsoup.Parser: boolean DEFAULT_RESTART_ELEMENTS>","type":"load","field":"<org.ccil.cowan.tagsoup.Parser: boolean DEFAULT_RESTART_ELEMENTS>"},{"step":18,"from":"static.<org.ccil.cowan.tagsoup.Parser: boolean DEFAULT_RESTART_ELEMENTS>","to":"1093484808","type":"store","field":"<org.ccil.cowan.tagsoup.Parser: boolean restartElements>"},{"step":19,"from":"static.<org.ccil.cowan.tagsoup.Parser: boolean DEFAULT_IGNORABLE_WHITESPACE>","to":"static.<org.ccil.cowan.tagsoup.Parser: boolean DEFAULT_IGNORABLE_WHITESPACE>","type":"load","field":"<org.ccil.cowan.tagsoup.Parser: boolean DEFAULT_IGNORABLE_WHITESPACE>"},{"step":20,"from":"static.<org.ccil.cowan.tagsoup.Parser: boolean DEFAULT_IGNORABLE_WHITESPACE>","to":"1093484808","type":"store","field":"<org.ccil.cowan.tagsoup.Parser: boolean ignorableWhitespace>"},{"step":21,"from":"static.<org.ccil.cowan.tagsoup.Parser: boolean DEFAULT_CDATA_ELEMENTS>","to":"static.<org.ccil.cowan.tagsoup.Parser: boolean DEFAULT_CDATA_ELEMENTS>","type":"load","field":"<org.ccil.cowan.tagsoup.Parser: boolean DEFAULT_CDATA_ELEMENTS>"},{"step":22,"from":"static.<org.ccil.cowan.tagsoup.Parser: boolean DEFAULT_CDATA_ELEMENTS>","to":"1093484808","type":"store","field":"<org.ccil.cowan.tagsoup.Parser: boolean CDATAElements>"},{"step":23,"from":"static.<java.util.HashMap: java.util.Map$Entry[] EMPTY_TABLE>","to":"1083997920","type":"load","field":"<java.util.HashMap: java.util.Map$Entry[] EMPTY_TABLE>"},{"step":24,"from":"1083997920","to":"1093484944","type":"store","field":"<java.util.HashMap: java.util.HashMap$HashMapEntry[] table>"},{"step":25,"from":"1093484944","to":"sdaReg11","type":"create","field":"<java.util.HashMap: int threshold>"},{"step":26,"from":"1093484808","to":"1093484944","type":"create","field":"<org.ccil.cowan.tagsoup.Parser: java.util.HashMap theFeatures>"},{"step":27,"from":"static.<org.ccil.cowan.tagsoup.Parser: boolean DEFAULT_NAMESPACES>","to":"static.<org.ccil.cowan.tagsoup.Parser: boolean DEFAULT_NAMESPACES>","type":"load","field":"<org.ccil.cowan.tagsoup.Parser: boolean DEFAULT_NAMESPACES>"},{"step":28,"from":"static.<java.lang.Boolean: java.lang.Boolean TRUE>","to":"1085835192","type":"load","field":"<java.lang.Boolean: java.lang.Boolean TRUE>"},{"step":29,"from":"1093484944","to":"1093484944.<java.util.HashMap: int modCount>","type":"load","field":"<java.util.HashMap: int modCount>"},{"step":30,"from":"sdaReg29","to":"1093484944","type":"store","field":"<java.util.HashMap: int modCount>"},{"step":31,"from":"1093484944","to":"1093484944.<java.util.HashMap: int size>","type":"load","field":"<java.util.HashMap: int size>"},{"step":32,"from":"sdaReg30","to":"1093484944","type":"store","field":"<java.util.HashMap: int size>"},{"step":33,"from":"1093484944","to":"1093485064","type":"create","field":"<java.util.HashMap: java.util.HashMap$HashMapEntry[] table>"},{"step":34,"from":"sdaReg38","to":"1093484944","type":"store","field":"<java.util.HashMap: int threshold>"},{"step":35,"from":"1093482344","to":"1093485104","type":"store","field":"<java.util.HashMap$HashMapEntry: java.lang.Object key>"},{"step":36,"from":"1085835192","to":"1093485104","type":"store","field":"<java.util.HashMap$HashMapEntry: java.lang.Object value>"},{"step":37,"from":"sdaReg25","to":"1093485104","type":"store","field":"<java.util.HashMap$HashMapEntry: int hash>"},{"step":38,"from":"1093485064","to":"1093485104","type":"create","field":"arrayIdx_int:3"},{"step":39,"from":"static.<java.lang.Boolean: java.lang.Boolean FALSE>","to":"1085835208","type":"load","field":"<java.lang.Boolean: java.lang.Boolean FALSE>"},{"step":40,"from":"sdaReg68","to":"1093484944","type":"store","field":"<java.util.HashMap: int modCount>"},{"step":41,"from":"sdaReg69","to":"1093484944","type":"store","field":"<java.util.HashMap: int size>"},{"step":42,"from":"1093482200","to":"1093485208","type":"store","field":"<java.util.HashMap$HashMapEntry: java.lang.Object key>"},{"step":43,"from":"1085835208","to":"1093485208","type":"store","field":"<java.util.HashMap$HashMapEntry: java.lang.Object value>"},{"step":44,"from":"sdaReg64","to":"1093485208","type":"store","field":"<java.util.HashMap$HashMapEntry: int hash>"},{"step":45,"from":"1093485064","to":"1093485208","type":"create","field":"arrayIdx_int:0"},{"step":46,"from":"static.<java.lang.Boolean: java.lang.Boolean FALSE>","to":"1085835208","type":"load","field":"<java.lang.Boolean: java.lang.Boolean FALSE>"},{"step":47,"from":"sdaReg94","to":"1093484944","type":"store","field":"<java.util.HashMap: int modCount>"},{"step":48,"from":"sdaReg95","to":"1093484944","type":"store","field":"<java.util.HashMap: int size>"},{"step":49,"from":"1093479576","to":"1093623464","type":"store","field":"<java.util.HashMap$HashMapEntry: java.lang.Object key>"},{"step":50,"from":"1085835208","to":"1093623464","type":"store","field":"<java.util.HashMap$HashMapEntry: java.lang.Object value>"},{"step":51,"from":"sdaReg90","to":"1093623464","type":"store","field":"<java.util.HashMap$HashMapEntry: int hash>"},{"step":52,"from":"1093485064","to":"1093623464","type":"create","field":"arrayIdx_int:1"},{"step":53,"from":"static.<java.lang.Boolean: java.lang.Boolean FALSE>","to":"1085835208","type":"load","field":"<java.lang.Boolean: java.lang.Boolean FALSE>"},{"step":54,"from":"sdaReg120","to":"1093484944","type":"store","field":"<java.util.HashMap: int modCount>"},{"step":55,"from":"sdaReg121","to":"1093484944","type":"store","field":"<java.util.HashMap: int size>"},{"step":56,"from":"1093479736","to":"1093627208","type":"store","field":"<java.util.HashMap$HashMapEntry: java.lang.Object key>"},{"step":57,"from":"1085835208","to":"1093627208","type":"store","field":"<java.util.HashMap$HashMapEntry: java.lang.Object value>"},{"step":58,"from":"sdaReg116","to":"1093627208","type":"store","field":"<java.util.HashMap$HashMapEntry: int hash>"},{"step":59,"from":"1093485208","to":"1093627208","type":"store","field":"<java.util.HashMap$HashMapEntry: java.util.HashMap$HashMapEntry next>"},{"step":60,"from":"1093485064","to":"1093627208","type":"create","field":"arrayIdx_int:0"},{"step":61,"from":"static.<java.lang.Boolean: java.lang.Boolean FALSE>","to":"1085835208","type":"load","field":"<java.lang.Boolean: java.lang.Boolean FALSE>"},{"step":62,"from":"sdaReg146","to":"1093484944","type":"store","field":"<java.util.HashMap: int modCount>"},{"step":63,"from":"sdaReg147","to":"1093484944","type":"store","field":"<java.util.HashMap: int size>"},{"step":64,"from":"1093484944","to":"1093627304","type":"create","field":"<java.util.HashMap: java.util.HashMap$HashMapEntry[] table>"},{"step":65,"from":"sdaReg155","to":"1093484944","type":"store","field":"<java.util.HashMap: int threshold>"},{"step":66,"from":"1093627208","to":"1093627304","type":"store","field":"arrayIdx_int:4"},{"step":67,"from":"1093623464","to":"1093627304","type":"store","field":"arrayIdx_int:5"},{"step":68,"from":"1093485104","to":"1093627304","type":"store","field":"arrayIdx_int:3"},{"step":69,"from":"1093480256","to":"1093627360","type":"store","field":"<java.util.HashMap$HashMapEntry: java.lang.Object key>"},{"step":70,"from":"1085835208","to":"1093627360","type":"store","field":"<java.util.HashMap$HashMapEntry: java.lang.Object value>"},{"step":71,"from":"sdaReg142","to":"1093627360","type":"store","field":"<java.util.HashMap$HashMapEntry: int hash>"},{"step":72,"from":"1093627304","to":"1093627360","type":"create","field":"arrayIdx_int:6"},{"step":73,"from":"static.<java.lang.Boolean: java.lang.Boolean FALSE>","to":"1085835208","type":"load","field":"<java.lang.Boolean: java.lang.Boolean FALSE>"},{"step":74,"from":"sdaReg190","to":"1093484944","type":"store","field":"<java.util.HashMap: int modCount>"},{"step":75,"from":"sdaReg191","to":"1093484944","type":"store","field":"<java.util.HashMap: int size>"},{"step":76,"from":"1093480392","to":"1093627480","type":"store","field":"<java.util.HashMap$HashMapEntry: java.lang.Object key>"},{"step":77,"from":"1085835208","to":"1093627480","type":"store","field":"<java.util.HashMap$HashMapEntry: java.lang.Object value>"},{"step":78,"from":"sdaReg186","to":"1093627480","type":"store","field":"<java.util.HashMap$HashMapEntry: int hash>"},{"step":79,"from":"1093627360","to":"1093627480","type":"store","field":"<java.util.HashMap$HashMapEntry: java.util.HashMap$HashMapEntry next>"},{"step":80,"from":"1093627304","to":"1093627480","type":"create","field":"arrayIdx_int:6"},{"step":81,"from":"static.<java.lang.Boolean: java.lang.Boolean TRUE>","to":"1085835192","type":"load","field":"<java.lang.Boolean: java.lang.Boolean TRUE>"},{"step":82,"from":"sdaReg216","to":"1093484944","type":"store","field":"<java.util.HashMap: int modCount>"},{"step":83,"from":"sdaReg217","to":"1093484944","type":"store","field":"<java.util.HashMap: int size>"},{"step":84,"from":"1093482472","to":"1093627584","type":"store","field":"<java.util.HashMap$HashMapEntry: java.lang.Object key>"},{"step":85,"from":"1085835192","to":"1093627584","type":"store","field":"<java.util.HashMap$HashMapEntry: java.lang.Object value>"},{"step":86,"from":"sdaReg212","to":"1093627584","type":"store","field":"<java.util.HashMap$HashMapEntry: int hash>"},{"step":87,"from":"1093627304","to":"1093627584","type":"create","field":"arrayIdx_int:7"},{"step":88,"from":"static.<java.lang.Boolean: java.lang.Boolean TRUE>","to":"1085835192","type":"load","field":"<java.lang.Boolean: java.lang.Boolean TRUE>"},{"step":89,"from":"sdaReg242","to":"1093484944","type":"store","field":"<java.util.HashMap: int modCount>"},{"step":90,"from":"sdaReg243","to":"1093484944","type":"store","field":"<java.util.HashMap: int size>"},{"step":91,"from":"1093484944","to":"1093580696","type":"create","field":"<java.util.HashMap: java.util.HashMap$HashMapEntry[] table>"},{"step":92,"from":"sdaReg251","to":"1093484944","type":"store","field":"<java.util.HashMap: int threshold>"},{"step":93,"from":"1093485104","to":"1093580696","type":"store","field":"arrayIdx_int:11"},{"step":94,"from":"1093627208","to":"1093580696","type":"store","field":"arrayIdx_int:4"},{"step":95,"from":"1093623464","to":"1093580696","type":"store","field":"arrayIdx_int:5"},{"step":96,"from":"1093627480","to":"1093580696","type":"store","field":"arrayIdx_int:14"},{"step":97,"from":"1093627584","to":"1093580696","type":"store","field":"arrayIdx_int:15"},{"step":98,"from":"1093483280","to":"1093580784","type":"store","field":"<java.util.HashMap$HashMapEntry: java.lang.Object key>"},{"step":99,"from":"1085835192","to":"1093580784","type":"store","field":"<java.util.HashMap$HashMapEntry: java.lang.Object value>"},{"step":100,"from":"sdaReg238","to":"1093580784","type":"store","field":"<java.util.HashMap$HashMapEntry: int hash>"},{"step":101,"from":"1093580696","to":"1093580784","type":"create","field":"arrayIdx_int:2"},{"step":102,"from":"static.<java.lang.Boolean: java.lang.Boolean FALSE>","to":"1085835208","type":"load","field":"<java.lang.Boolean: java.lang.Boolean FALSE>"},{"step":103,"from":"sdaReg286","to":"1093484944","type":"store","field":"<java.util.HashMap: int modCount>"},{"step":104,"from":"sdaReg287","to":"1093484944","type":"store","field":"<java.util.HashMap: int size>"},{"step":105,"from":"1093483768","to":"1093783520","type":"store","field":"<java.util.HashMap$HashMapEntry: java.lang.Object key>"},{"step":106,"from":"1085835208","to":"1093783520","type":"store","field":"<java.util.HashMap$HashMapEntry: java.lang.Object value>"},{"step":107,"from":"sdaReg282","to":"1093783520","type":"store","field":"<java.util.HashMap$HashMapEntry: int hash>"},{"step":108,"from":"1093580696","to":"1093783520","type":"create","field":"arrayIdx_int:12"},{"step":109,"from":"static.<java.lang.Boolean: java.lang.Boolean FALSE>","to":"1085835208","type":"load","field":"<java.lang.Boolean: java.lang.Boolean FALSE>"},{"step":110,"from":"sdaReg312","to":"1093484944","type":"store","field":"<java.util.HashMap: int modCount>"},{"step":111,"from":"sdaReg313","to":"1093484944","type":"store","field":"<java.util.HashMap: int size>"},{"step":112,"from":"1093484064","to":"1093783616","type":"store","field":"<java.util.HashMap$HashMapEntry: java.lang.Object key>"},{"step":113,"from":"1085835208","to":"1093783616","type":"store","field":"<java.util.HashMap$HashMapEntry: java.lang.Object value>"},{"step":114,"from":"sdaReg308","to":"1093783616","type":"store","field":"<java.util.HashMap$HashMapEntry: int hash>"},{"step":115,"from":"1093580696","to":"1093783616","type":"create","field":"arrayIdx_int:10"},{"step":116,"from":"static.<java.lang.Boolean: java.lang.Boolean FALSE>","to":"1085835208","type":"load","field":"<java.lang.Boolean: java.lang.Boolean FALSE>"},{"step":117,"from":"sdaReg338","to":"1093484944","type":"store","field":"<java.util.HashMap: int modCount>"},{"step":118,"from":"sdaReg339","to":"1093484944","type":"store","field":"<java.util.HashMap: int size>"},{"step":119,"from":"1093483912","to":"1093783720","type":"store","field":"<java.util.HashMap$HashMapEntry: java.lang.Object key>"},{"step":120,"from":"1085835208","to":"1093783720","type":"store","field":"<java.util.HashMap$HashMapEntry: java.lang.Object value>"},{"step":121,"from":"sdaReg334","to":"1093783720","type":"store","field":"<java.util.HashMap$HashMapEntry: int hash>"},{"step":122,"from":"1093580696","to":"1093783720","type":"create","field":"arrayIdx_int:13"},{"step":123,"from":"static.<java.lang.Boolean: java.lang.Boolean FALSE>","to":"1085835208","type":"load","field":"<java.lang.Boolean: java.lang.Boolean FALSE>"},{"step":124,"from":"sdaReg364","to":"1093484944","type":"store","field":"<java.util.HashMap: int modCount>"},{"step":125,"from":"sdaReg365","to":"1093484944","type":"store","field":"<java.util.HashMap: int size>"},{"step":126,"from":"1093484200","to":"1093783816","type":"store","field":"<java.util.HashMap$HashMapEntry: java.lang.Object key>"},{"step":127,"from":"1085835208","to":"1093783816","type":"store","field":"<java.util.HashMap$HashMapEntry: java.lang.Object value>"},{"step":128,"from":"sdaReg360","to":"1093783816","type":"store","field":"<java.util.HashMap$HashMapEntry: int hash>"},{"step":129,"from":"1093627584","to":"1093783816","type":"store","field":"<java.util.HashMap$HashMapEntry: java.util.HashMap$HashMapEntry next>"},{"step":130,"from":"1093580696","to":"1093783816","type":"create","field":"arrayIdx_int:15"},{"step":131,"from":"static.<java.lang.Boolean: java.lang.Boolean FALSE>","to":"1085835208","type":"load","field":"<java.lang.Boolean: java.lang.Boolean FALSE>"},{"step":132,"from":"sdaReg390","to":"1093484944","type":"store","field":"<java.util.HashMap: int modCount>"},{"step":133,"from":"sdaReg391","to":"1093484944","type":"store","field":"<java.util.HashMap: int size>"},{"step":134,"from":"1093484328","to":"1093785776","type":"store","field":"<java.util.HashMap$HashMapEntry: java.lang.Object key>"},{"step":135,"from":"1085835208","to":"1093785776","type":"store","field":"<java.util.HashMap$HashMapEntry: java.lang.Object value>"},{"step":136,"from":"sdaReg386","to":"1093785776","type":"store","field":"<java.util.HashMap$HashMapEntry: int hash>"},{"step":137,"from":"1093783720","to":"1093785776","type":"store","field":"<java.util.HashMap$HashMapEntry: java.util.HashMap$HashMapEntry next>"},{"step":138,"from":"1093580696","to":"1093785776","type":"create","field":"arrayIdx_int:13"},{"step":139,"from":"static.<java.lang.Boolean: java.lang.Boolean FALSE>","to":"1085835208","type":"load","field":"<java.lang.Boolean: java.lang.Boolean FALSE>"},{"step":140,"from":"1085835208","to":"1093785776","type":"store","field":"<java.util.HashMap$HashMapEntry: java.lang.Object value>"},{"step":141,"from":"static.<java.lang.Boolean: java.lang.Boolean FALSE>","to":"1085835208","type":"load","field":"<java.lang.Boolean: java.lang.Boolean FALSE>"},{"step":142,"from":"sdaReg434","to":"1093484944","type":"store","field":"<java.util.HashMap: int modCount>"},{"step":143,"from":"sdaReg435","to":"1093484944","type":"store","field":"<java.util.HashMap: int size>"},{"step":144,"from":"1093484944","to":"1093785936","type":"create","field":"<java.util.HashMap: java.util.HashMap$HashMapEntry[] table>"},{"step":145,"from":"sdaReg443","to":"1093484944","type":"store","field":"<java.util.HashMap: int threshold>"},{"step":146,"from":"1093580784","to":"1093785936","type":"store","field":"arrayIdx_int:2"},{"step":147,"from":"1093627208","to":"1093785936","type":"store","field":"arrayIdx_int:4"},{"step":148,"from":"1093485208","to":"1093785936","type":"store","field":"arrayIdx_int:20"},{"step":149,"from":"1093627208","to":"sdaReg452","type":"create","field":"<java.util.HashMap$HashMapEntry: java.util.HashMap$HashMapEntry next>"},{"step":150,"from":"1093623464","to":"1093785936","type":"store","field":"arrayIdx_int:21"},{"step":151,"from":"1093783616","to":"1093785936","type":"store","field":"arrayIdx_int:10"},{"step":152,"from":"1093485104","to":"1093785936","type":"store","field":"arrayIdx_int:11"},{"step":153,"from":"1093783520","to":"1093785936","type":"store","field":"arrayIdx_int:28"},{"step":154,"from":"1093785776","to":"1093785936","type":"store","field":"arrayIdx_int:13"},{"step":155,"from":"1093627480","to":"1093785936","type":"store","field":"arrayIdx_int:30"},{"step":156,"from":"1093627360","to":"1093785936","type":"store","field":"arrayIdx_int:14"},{"step":157,"from":"1093627480","to":"sdaReg453","type":"create","field":"<java.util.HashMap$HashMapEntry: java.util.HashMap$HashMapEntry next>"},{"step":158,"from":"1093783816","to":"1093785936","type":"store","field":"arrayIdx_int:31"},{"step":159,"from":"1093627584","to":"1093785936","type":"store","field":"arrayIdx_int:15"},{"step":160,"from":"1093783816","to":"sdaReg454","type":"create","field":"<java.util.HashMap$HashMapEntry: java.util.HashMap$HashMapEntry next>"},{"step":161,"from":"1093478928","to":"1093900424","type":"store","field":"<java.util.HashMap$HashMapEntry: java.lang.Object key>"},{"step":162,"from":"1085835208","to":"1093900424","type":"store","field":"<java.util.HashMap$HashMapEntry: java.lang.Object value>"},{"step":163,"from":"sdaReg430","to":"1093900424","type":"store","field":"<java.util.HashMap$HashMapEntry: int hash>"},{"step":164,"from":"1093785936","to":"1093900424","type":"create","field":"arrayIdx_int:9"},{"step":165,"from":"static.<org.ccil.cowan.tagsoup.Parser: boolean DEFAULT_IGNORE_BOGONS>","to":"static.<org.ccil.cowan.tagsoup.Parser: boolean DEFAULT_IGNORE_BOGONS>","type":"load","field":"<org.ccil.cowan.tagsoup.Parser: boolean DEFAULT_IGNORE_BOGONS>"},{"step":166,"from":"static.<java.lang.Boolean: java.lang.Boolean FALSE>","to":"1085835208","type":"load","field":"<java.lang.Boolean: java.lang.Boolean FALSE>"},{"step":167,"from":"sdaReg483","to":"1093484944","type":"store","field":"<java.util.HashMap: int modCount>"},{"step":168,"from":"sdaReg484","to":"1093484944","type":"store","field":"<java.util.HashMap: int size>"},{"step":169,"from":"1093480088","to":"1093900456","type":"store","field":"<java.util.HashMap$HashMapEntry: java.lang.Object key>"},{"step":170,"from":"1085835208","to":"1093900456","type":"store","field":"<java.util.HashMap$HashMapEntry: java.lang.Object value>"},{"step":171,"from":"sdaReg479","to":"1093900456","type":"store","field":"<java.util.HashMap$HashMapEntry: int hash>"},{"step":172,"from":"1093785936","to":"1093900456","type":"create","field":"arrayIdx_int:29"},{"step":173,"from":"static.<org.ccil.cowan.tagsoup.Parser: boolean DEFAULT_BOGONS_EMPTY>","to":"static.<org.ccil.cowan.tagsoup.Parser: boolean DEFAULT_BOGONS_EMPTY>","type":"load","field":"<org.ccil.cowan.tagsoup.Parser: boolean DEFAULT_BOGONS_EMPTY>"},{"step":174,"from":"static.<java.lang.Boolean: java.lang.Boolean FALSE>","to":"1085835208","type":"load","field":"<java.lang.Boolean: java.lang.Boolean FALSE>"},{"step":175,"from":"sdaReg510","to":"1093484944","type":"store","field":"<java.util.HashMap: int modCount>"},{"step":176,"from":"sdaReg511","to":"1093484944","type":"store","field":"<java.util.HashMap: int size>"},{"step":177,"from":"1093479232","to":"1093902496","type":"store","field":"<java.util.HashMap$HashMapEntry: java.lang.Object key>"},{"step":178,"from":"1085835208","to":"1093902496","type":"store","field":"<java.util.HashMap$HashMapEntry: java.lang.Object value>"},{"step":179,"from":"sdaReg506","to":"1093902496","type":"store","field":"<java.util.HashMap$HashMapEntry: int hash>"},{"step":180,"from":"1093785936","to":"1093902496","type":"create","field":"arrayIdx_int:7"},{"step":181,"from":"static.<org.ccil.cowan.tagsoup.Parser: boolean DEFAULT_ROOT_BOGONS>","to":"static.<org.ccil.cowan.tagsoup.Parser: boolean DEFAULT_ROOT_BOGONS>","type":"load","field":"<org.ccil.cowan.tagsoup.Parser: boolean DEFAULT_ROOT_BOGONS>"},{"step":182,"from":"static.<java.lang.Boolean: java.lang.Boolean TRUE>","to":"1085835192","type":"load","field":"<java.lang.Boolean: java.lang.Boolean TRUE>"},{"step":183,"from":"sdaReg537","to":"1093484944","type":"store","field":"<java.util.HashMap: int modCount>"},{"step":184,"from":"sdaReg538","to":"1093484944","type":"store","field":"<java.util.HashMap: int size>"},{"step":185,"from":"1093482792","to":"1093902608","type":"store","field":"<java.util.HashMap$HashMapEntry: java.lang.Object key>"},{"step":186,"from":"1085835192","to":"1093902608","type":"store","field":"<java.util.HashMap$HashMapEntry: java.lang.Object value>"},{"step":187,"from":"sdaReg533","to":"1093902608","type":"store","field":"<java.util.HashMap$HashMapEntry: int hash>"},{"step":188,"from":"1093580784","to":"1093902608","type":"store","field":"<java.util.HashMap$HashMapEntry: java.util.HashMap$HashMapEntry next>"},{"step":189,"from":"1093785936","to":"1093902608","type":"create","field":"arrayIdx_int:2"},{"step":190,"from":"static.<org.ccil.cowan.tagsoup.Parser: boolean DEFAULT_DEFAULT_ATTRIBUTES>","to":"static.<org.ccil.cowan.tagsoup.Parser: boolean DEFAULT_DEFAULT_ATTRIBUTES>","type":"load","field":"<org.ccil.cowan.tagsoup.Parser: boolean DEFAULT_DEFAULT_ATTRIBUTES>"},{"step":191,"from":"static.<java.lang.Boolean: java.lang.Boolean TRUE>","to":"1085835192","type":"load","field":"<java.lang.Boolean: java.lang.Boolean TRUE>"},{"step":192,"from":"sdaReg564","to":"1093484944","type":"store","field":"<java.util.HashMap: int modCount>"},{"step":193,"from":"sdaReg565","to":"1093484944","type":"store","field":"<java.util.HashMap: int size>"},{"step":194,"from":"1093479400","to":"1093777896","type":"store","field":"<java.util.HashMap$HashMapEntry: java.lang.Object key>"},{"step":195,"from":"1085835192","to":"1093777896","type":"store","field":"<java.util.HashMap$HashMapEntry: java.lang.Object value>"},{"step":196,"from":"sdaReg560","to":"1093777896","type":"store","field":"<java.util.HashMap$HashMapEntry: int hash>"},{"step":197,"from":"1093785936","to":"1093777896","type":"create","field":"arrayIdx_int:24"},{"step":198,"from":"static.<org.ccil.cowan.tagsoup.Parser: boolean DEFAULT_TRANSLATE_COLONS>","to":"static.<org.ccil.cowan.tagsoup.Parser: boolean DEFAULT_TRANSLATE_COLONS>","type":"load","field":"<org.ccil.cowan.tagsoup.Parser: boolean DEFAULT_TRANSLATE_COLONS>"},{"step":199,"from":"static.<java.lang.Boolean: java.lang.Boolean FALSE>","to":"1085835208","type":"load","field":"<java.lang.Boolean: java.lang.Boolean FALSE>"},{"step":200,"from":"sdaReg591","to":"1093484944","type":"store","field":"<java.util.HashMap: int modCount>"},{"step":201,"from":"sdaReg592","to":"1093484944","type":"store","field":"<java.util.HashMap: int size>"},{"step":202,"from":"1093483424","to":"1093778016","type":"store","field":"<java.util.HashMap$HashMapEntry: java.lang.Object key>"},{"step":203,"from":"1085835208","to":"1093778016","type":"store","field":"<java.util.HashMap$HashMapEntry: java.lang.Object value>"},{"step":204,"from":"sdaReg587","to":"1093778016","type":"store","field":"<java.util.HashMap$HashMapEntry: int hash>"},{"step":205,"from":"1093623464","to":"1093778016","type":"store","field":"<java.util.HashMap$HashMapEntry: java.util.HashMap$HashMapEntry next>"},{"step":206,"from":"1093785936","to":"1093778016","type":"create","field":"arrayIdx_int:21"},{"step":207,"from":"static.<org.ccil.cowan.tagsoup.Parser: boolean DEFAULT_RESTART_ELEMENTS>","to":"static.<org.ccil.cowan.tagsoup.Parser: boolean DEFAULT_RESTART_ELEMENTS>","type":"load","field":"<org.ccil.cowan.tagsoup.Parser: boolean DEFAULT_RESTART_ELEMENTS>"},{"step":208,"from":"static.<java.lang.Boolean: java.lang.Boolean TRUE>","to":"1085835192","type":"load","field":"<java.lang.Boolean: java.lang.Boolean TRUE>"},{"step":209,"from":"sdaReg618","to":"1093484944","type":"store","field":"<java.util.HashMap: int modCount>"},{"step":210,"from":"sdaReg619","to":"1093484944","type":"store","field":"<java.util.HashMap: int size>"},{"step":211,"from":"1093482616","to":"1093778136","type":"store","field":"<java.util.HashMap$HashMapEntry: java.lang.Object key>"},{"step":212,"from":"1085835192","to":"1093778136","type":"store","field":"<java.util.HashMap$HashMapEntry: java.lang.Object value>"},{"step":213,"from":"sdaReg614","to":"1093778136","type":"store","field":"<java.util.HashMap$HashMapEntry: int hash>"},{"step":214,"from":"1093785936","to":"1093778136","type":"create","field":"arrayIdx_int:23"},{"step":215,"from":"static.<org.ccil.cowan.tagsoup.Parser: boolean DEFAULT_IGNORABLE_WHITESPACE>","to":"static.<org.ccil.cowan.tagsoup.Parser: boolean DEFAULT_IGNORABLE_WHITESPACE>","type":"load","field":"<org.ccil.cowan.tagsoup.Parser: boolean DEFAULT_IGNORABLE_WHITESPACE>"},{"step":216,"from":"static.<java.lang.Boolean: java.lang.Boolean FALSE>","to":"1085835208","type":"load","field":"<java.lang.Boolean: java.lang.Boolean FALSE>"},{"step":217,"from":"sdaReg645","to":"1093484944","type":"store","field":"<java.util.HashMap: int modCount>"},{"step":218,"from":"sdaReg646","to":"1093484944","type":"store","field":"<java.util.HashMap: int size>"},{"step":219,"from":"1093479904","to":"1093732888","type":"store","field":"<java.util.HashMap$HashMapEntry: java.lang.Object key>"},{"step":220,"from":"1085835208","to":"1093732888","type":"store","field":"<java.util.HashMap$HashMapEntry: java.lang.Object value>"},{"step":221,"from":"sdaReg641","to":"1093732888","type":"store","field":"<java.util.HashMap$HashMapEntry: int hash>"},{"step":222,"from":"1093902608","to":"1093732888","type":"store","field":"<java.util.HashMap$HashMapEntry: java.util.HashMap$HashMapEntry next>"},{"step":223,"from":"1093785936","to":"1093732888","type":"create","field":"arrayIdx_int:2"},{"step":224,"from":"static.<org.ccil.cowan.tagsoup.Parser: boolean DEFAULT_CDATA_ELEMENTS>","to":"static.<org.ccil.cowan.tagsoup.Parser: boolean DEFAULT_CDATA_ELEMENTS>","type":"load","field":"<org.ccil.cowan.tagsoup.Parser: boolean DEFAULT_CDATA_ELEMENTS>"},{"step":225,"from":"static.<java.lang.Boolean: java.lang.Boolean TRUE>","to":"1085835192","type":"load","field":"<java.lang.Boolean: java.lang.Boolean TRUE>"},{"step":226,"from":"sdaReg672","to":"1093484944","type":"store","field":"<java.util.HashMap: int modCount>"},{"step":227,"from":"sdaReg673","to":"1093484944","type":"store","field":"<java.util.HashMap: int size>"},{"step":228,"from":"1093478760","to":"1093733000","type":"store","field":"<java.util.HashMap$HashMapEntry: java.lang.Object key>"},{"step":229,"from":"1085835192","to":"1093733000","type":"store","field":"<java.util.HashMap$HashMapEntry: java.lang.Object value>"},{"step":230,"from":"sdaReg668","to":"1093733000","type":"store","field":"<java.util.HashMap$HashMapEntry: int hash>"},{"step":231,"from":"1093785936","to":"1093733000","type":"create","field":"arrayIdx_int:1"},{"step":232,"from":"1093484808","to":"sdaReg683","type":"create","field":"<org.ccil.cowan.tagsoup.Parser: org.ccil.cowan.tagsoup.Element theNewElement>"},{"step":233,"from":"1093484808","to":"sdaReg684","type":"create","field":"<org.ccil.cowan.tagsoup.Parser: java.lang.String theAttributeName>"},{"step":234,"from":"1093484808","to":"sdaReg685","type":"create","field":"<org.ccil.cowan.tagsoup.Parser: boolean theDoctypeIsPresent>"},{"step":235,"from":"1093484808","to":"sdaReg686","type":"create","field":"<org.ccil.cowan.tagsoup.Parser: java.lang.String theDoctypePublicId>"},{"step":236,"from":"1093484808","to":"sdaReg687","type":"create","field":"<org.ccil.cowan.tagsoup.Parser: java.lang.String theDoctypeSystemId>"},{"step":237,"from":"1093484808","to":"sdaReg688","type":"create","field":"<org.ccil.cowan.tagsoup.Parser: java.lang.String theDoctypeName>"},{"step":238,"from":"1093484808","to":"sdaReg689","type":"create","field":"<org.ccil.cowan.tagsoup.Parser: java.lang.String thePITarget>"},{"step":239,"from":"1093484808","to":"sdaReg690","type":"create","field":"<org.ccil.cowan.tagsoup.Parser: org.ccil.cowan.tagsoup.Element theStack>"},{"step":240,"from":"1093484808","to":"sdaReg691","type":"create","field":"<org.ccil.cowan.tagsoup.Parser: org.ccil.cowan.tagsoup.Element theSaved>"},{"step":241,"from":"1093484808","to":"sdaReg692","type":"create","field":"<org.ccil.cowan.tagsoup.Parser: org.ccil.cowan.tagsoup.Element thePCDATA>"},{"step":242,"from":"1093484808","to":"sdaReg693","type":"create","field":"<org.ccil.cowan.tagsoup.Parser: int theEntity>"},{"step":243,"from":"1093484808","to":"sdaReg694","type":"create","field":"<org.ccil.cowan.tagsoup.Parser: boolean virginStack>"},{"step":244,"from":"1093484808","to":"1093733032","type":"create","field":"<org.ccil.cowan.tagsoup.Parser: char[] theCommentBuffer>"},{"step":245,"from":"static.<android.text.Html$HtmlParser: org.ccil.cowan.tagsoup.HTMLSchema schema>","to":"1085096528","type":"load","field":"<android.text.Html$HtmlParser: org.ccil.cowan.tagsoup.HTMLSchema schema>"},{"step":246,"from":"1085096528","to":"1093484808","type":"store","field":"<org.ccil.cowan.tagsoup.Parser: org.ccil.cowan.tagsoup.Schema theSchema>"},{"step":247,"from":"sdaReg0","to":"1093510680","type":"store","field":"<android.text.HtmlToSpannedConverter: java.lang.String mSource>"},{"step":248,"from":"static.<android.text.SpannableStringBuilder: android.text.InputFilter[] NO_FILTERS>","to":"1085328680","type":"load","field":"<android.text.SpannableStringBuilder: android.text.InputFilter[] NO_FILTERS>"},{"step":249,"from":"1085328680","to":"1093880800","type":"store","field":"<android.text.SpannableStringBuilder: android.text.InputFilter[] mFilters>"},{"step":250,"from":"1093880800","to":"1093918736","type":"create","field":"<android.text.SpannableStringBuilder: char[] mText>"},{"step":251,"from":"sdaReg719","to":"1093880800","type":"store","field":"<android.text.SpannableStringBuilder: int mGapStart>"},{"step":252,"from":"sdaReg728","to":"1093880800","type":"store","field":"<android.text.SpannableStringBuilder: int mGapLength>"},{"step":253,"from":"1083981616","to":"1083912376","type":"model"},{"step":254,"from":"sdaReg733","to":"1093918736","type":"model"},{"step":255,"from":"1093880800","to":"sdaReg734","type":"create","field":"<android.text.SpannableStringBuilder: int mSpanCount>"},{"step":256,"from":"1093880800","to":"1093595472","type":"create","field":"<android.text.SpannableStringBuilder: java.lang.Object[] mSpans>"},{"step":257,"from":"1093880800","to":"1093578936","type":"create","field":"<android.text.SpannableStringBuilder: int[] mSpanStarts>"},{"step":258,"from":"1093880800","to":"1093911920","type":"create","field":"<android.text.SpannableStringBuilder: int[] mSpanEnds>"},{"step":259,"from":"1093880800","to":"1093779392","type":"create","field":"<android.text.SpannableStringBuilder: int[] mSpanFlags>"},{"step":260,"from":"1093510680","to":"1093880800","type":"create","field":"<android.text.HtmlToSpannedConverter: android.text.SpannableStringBuilder mSpannableStringBuilder>"},{"step":261,"from":"1093484808","to":"1093510680","type":"store","field":"<android.text.HtmlToSpannedConverter: org.xml.sax.XMLReader mReader>"},{"step":262,"from":"1093484808","to":"1093510680","type":"create","field":"<org.ccil.cowan.tagsoup.Parser: org.xml.sax.ContentHandler theContentHandler>"},{"step":263,"from":"1093833456","to":"1093833456","type":"create","field":"<java.io.Reader: java.lang.Object lock>"},{"step":264,"from":"1093833456","to":"sdaReg758","type":"create","field":"<java.io.StringReader: int markpos>"},{"step":265,"from":"sdaReg754","to":"1093833456","type":"store","field":"<java.io.StringReader: java.lang.String str>"},{"step":266,"from":"sdaReg759","to":"1093833456","type":"store","field":"<java.io.StringReader: int count>"},{"step":267,"from":"1093833456","to":"1093833424","type":"store","field":"<org.xml.sax.InputSource: java.io.Reader characterStream>"},{"step":268,"from":"1093484808","to":"1093439328","type":"create","field":"<org.ccil.cowan.tagsoup.Parser: org.ccil.cowan.tagsoup.Scanner theScanner>"},{"step":269,"from":"1093484808","to":"1093846376","type":"store","field":"<org.ccil.cowan.tagsoup.Parser$1: org.ccil.cowan.tagsoup.Parser this$0>"},{"step":270,"from":"1093484808","to":"1093846376","type":"create","field":"<org.ccil.cowan.tagsoup.Parser: org.ccil.cowan.tagsoup.AutoDetector theAutoDetector>"},{"step":271,"from":"1085096528","to":"1084913208","type":"load","field":"<org.ccil.cowan.tagsoup.Schema: java.util.HashMap theElementTypes>"},{"step":272,"from":"sdaReg776","to":"sdaReg777","type":"model"},{"step":273,"from":"1084913208","to":"1085325888","type":"load","field":"<java.util.HashMap: java.util.HashMap$HashMapEntry[] table>"},{"step":274,"from":"1085325888","to":"1085000544","type":"load","field":"arrayIdx_int:19"},{"step":275,"from":"1085000544","to":"1085033016","type":"load","field":"<java.util.HashMap$HashMapEntry: java.lang.Object key>"},{"step":276,"from":"1085000544","to":"1084842864","type":"load","field":"<java.util.HashMap$HashMapEntry: java.lang.Object value>"},{"step":277,"from":"1084842864","to":"1093528384","type":"store","field":"<org.ccil.cowan.tagsoup.Element: org.ccil.cowan.tagsoup.ElementType theType>"},{"step":278,"from":"1084842864","to":"1085042048","type":"load","field":"<org.ccil.cowan.tagsoup.ElementType: org.ccil.cowan.tagsoup.AttributesImpl theAtts>"},{"step":279,"from":"1085042048","to":"1093841768","type":"model"},{"step":280,"from":"1093528384","to":"1093841768","type":"create","field":"<org.ccil.cowan.tagsoup.Element: org.ccil.cowan.tagsoup.AttributesImpl theAtts>"},{"step":281,"from":"1093528384","to":"sdaReg802","type":"create","field":"<org.ccil.cowan.tagsoup.Element: org.ccil.cowan.tagsoup.Element theNext>"},{"step":282,"from":"1093528384","to":"sdaReg803","type":"create","field":"<org.ccil.cowan.tagsoup.Element: boolean preclosed>"},{"step":283,"from":"1093484808","to":"1093528384","type":"create","field":"<org.ccil.cowan.tagsoup.Parser: org.ccil.cowan.tagsoup.Element theStack>"},{"step":284,"from":"1085096528","to":"1084913208","type":"load","field":"<org.ccil.cowan.tagsoup.Schema: java.util.HashMap theElementTypes>"},{"step":285,"from":"sdaReg806","to":"sdaReg807","type":"model"},{"step":286,"from":"1084913208","to":"1085325888","type":"load","field":"<java.util.HashMap: java.util.HashMap$HashMapEntry[] table>"},{"step":287,"from":"1085325888","to":"1085146552","type":"load","field":"arrayIdx_int:58"},{"step":288,"from":"1085146552","to":"1085146432","type":"load","field":"<java.util.HashMap$HashMapEntry: java.lang.Object key>"},{"step":289,"from":"1085146552","to":"1085146552.<java.util.HashMap$HashMapEntry: int hash>","type":"load","field":"<java.util.HashMap$HashMapEntry: int hash>"},{"step":290,"from":"1085146552","to":"1085035312","type":"load","field":"<java.util.HashMap$HashMapEntry: java.util.HashMap$HashMapEntry next>"},{"step":291,"from":"1085035312","to":"1085036328","type":"load","field":"<java.util.HashMap$HashMapEntry: java.lang.Object key>"},{"step":292,"from":"1085035312","to":"1084842648","type":"load","field":"<java.util.HashMap$HashMapEntry: java.lang.Object value>"},{"step":293,"from":"1084842648","to":"1093528576","type":"store","field":"<org.ccil.cowan.tagsoup.Element: org.ccil.cowan.tagsoup.ElementType theType>"},{"step":294,"from":"1084842648","to":"1085030992","type":"load","field":"<org.ccil.cowan.tagsoup.ElementType: org.ccil.cowan.tagsoup.AttributesImpl theAtts>"},{"step":295,"from":"1085030992","to":"1093845360","type":"model"},{"step":296,"from":"1093528576","to":"1093845360","type":"create","field":"<org.ccil.cowan.tagsoup.Element: org.ccil.cowan.tagsoup.AttributesImpl theAtts>"},{"step":297,"from":"1093528576","to":"sdaReg832","type":"create","field":"<org.ccil.cowan.tagsoup.Element: org.ccil.cowan.tagsoup.Element theNext>"},{"step":298,"from":"1093528576","to":"sdaReg833","type":"create","field":"<org.ccil.cowan.tagsoup.Element: boolean preclosed>"},{"step":299,"from":"1093484808","to":"1093528576","type":"create","field":"<org.ccil.cowan.tagsoup.Parser: org.ccil.cowan.tagsoup.Element thePCDATA>"},{"step":300,"from":"1093484808","to":"sdaReg835","type":"create","field":"<org.ccil.cowan.tagsoup.Parser: org.ccil.cowan.tagsoup.Element theNewElement>"},{"step":301,"from":"1093484808","to":"sdaReg836","type":"create","field":"<org.ccil.cowan.tagsoup.Parser: java.lang.String theAttributeName>"},{"step":302,"from":"1093484808","to":"sdaReg837","type":"create","field":"<org.ccil.cowan.tagsoup.Parser: java.lang.String thePITarget>"},{"step":303,"from":"1093484808","to":"sdaReg838","type":"create","field":"<org.ccil.cowan.tagsoup.Parser: org.ccil.cowan.tagsoup.Element theSaved>"},{"step":304,"from":"1093484808","to":"sdaReg839","type":"create","field":"<org.ccil.cowan.tagsoup.Parser: int theEntity>"},{"step":305,"from":"1093484808","to":"sdaReg840","type":"create","field":"<org.ccil.cowan.tagsoup.Parser: boolean virginStack>"},{"step":306,"from":"sdaReg841","to":"1093484808","type":"store","field":"<org.ccil.cowan.tagsoup.Parser: java.lang.String theDoctypeSystemId>"},{"step":307,"from":"sdaReg841","to":"1093484808","type":"store","field":"<org.ccil.cowan.tagsoup.Parser: java.lang.String theDoctypePublicId>"},{"step":308,"from":"sdaReg841","to":"1093484808","type":"store","field":"<org.ccil.cowan.tagsoup.Parser: java.lang.String theDoctypeName>"},{"step":309,"from":"1093833424","to":"1093833424.<org.xml.sax.InputSource: java.lang.String encoding>","type":"load","field":"<org.xml.sax.InputSource: java.lang.String encoding>"},{"step":310,"from":"1093833424","to":"1093833424.<org.xml.sax.InputSource: java.lang.String publicId>","type":"load","field":"<org.xml.sax.InputSource: java.lang.String publicId>"},{"step":311,"from":"1093833424","to":"1093833424.<org.xml.sax.InputSource: java.lang.String systemId>","type":"load","field":"<org.xml.sax.InputSource: java.lang.String systemId>"},{"step":312,"from":"1093833424","to":"1093833424.<org.xml.sax.InputSource: java.lang.String publicId>","type":"load","field":"<org.xml.sax.InputSource: java.lang.String publicId>"},{"step":313,"from":"1093833424","to":"1093833424.<org.xml.sax.InputSource: java.lang.String systemId>","type":"load","field":"<org.xml.sax.InputSource: java.lang.String systemId>"},{"step":314,"from":"1093439328","to":"1093833424.<org.xml.sax.InputSource: java.lang.String publicId>","type":"model"},{"step":315,"from":"1093439328","to":"1093833424.<org.xml.sax.InputSource: java.lang.String systemId>","type":"model"},{"step":316,"from":"1093833424.<org.xml.sax.InputSource: java.lang.String publicId>","to":"1093439328","type":"model"},{"step":317,"from":"1093833424.<org.xml.sax.InputSource: java.lang.String publicId>","to":"1093833424.<org.xml.sax.InputSource: java.lang.String systemId>","type":"model"},{"step":318,"from":"1093833424.<org.xml.sax.InputSource: java.lang.String systemId>","to":"1093439328","type":"model"},{"step":319,"from":"1093833424.<org.xml.sax.InputSource: java.lang.String systemId>","to":"1093833424.<org.xml.sax.InputSource: java.lang.String publicId>","type":"model"},{"step":320,"from":"1093439328","to":"1093510680","type":"model"},{"step":321,"from":"1085096528","to":"1085096528.<org.ccil.cowan.tagsoup.Schema: java.lang.String theURI>","type":"load","field":"<org.ccil.cowan.tagsoup.Schema: java.lang.String theURI>"},{"step":322,"from":"1085096528","to":"1085096528.<org.ccil.cowan.tagsoup.Schema: java.lang.String thePrefix>","type":"load","field":"<org.ccil.cowan.tagsoup.Schema: java.lang.String thePrefix>"},{"step":323,"from":"1085096528","to":"1085096528.<org.ccil.cowan.tagsoup.Schema: java.lang.String theURI>","type":"load","field":"<org.ccil.cowan.tagsoup.Schema: java.lang.String theURI>"},{"step":324,"from":"1093439328","to":"1093833456","type":"model"},{"step":325,"from":"1093439328","to":"1093484808","type":"model"},{"step":326,"from":"1093833456","to":"1093439328","type":"model"},{"step":327,"from":"1093833456","to":"1093484808","type":"model"},{"step":328,"from":"1093484808","to":"1093439328","type":"model"},{"step":329,"from":"1093484808","to":"1093833456","type":"model"},{"step":330,"from":"1084659448","to":"sdaReg871","type":"model"},{"step":331,"from":"static.<com.android.internal.util.ArrayUtils: java.lang.Object[] sCache>","to":"1084375760","type":"load","field":"<com.android.internal.util.ArrayUtils: java.lang.Object[] sCache>"},{"step":332,"from":"1084375760","to":"1085268040","type":"load","field":"arrayIdx_int:42"},{"step":333,"from":"1085268040","to":"1084833288","type":"model"},{"step":334,"from":"1084833288","to":"1084659448","type":"model"}],"parameters":[{"id":"sdaReg0","name":"arg#0","klass":"string"}],"returns":[{"id":"1093880800","name":"return","klass":"android.text.Spanned"}],"colors":{"heapLocToColor":{"sdaReg293":[17],"sdaReg296":[35],"sdaReg192":[11],"sdaReg295":[35],"sdaReg576":[11],"sdaReg297":[11],"1093902496":[52],"sdaReg579":[57],"sdaReg578":[17],"sdaReg299":[17],"sdaReg199":[28],"sdaReg198":[26],"sdaReg195":[28],"sdaReg290":[17],"sdaReg194":[17],"1093580696":[32],"sdaReg197":[17],"sdaReg291":[35],"1085000544":[66],"sdaReg573":[56],"sdaReg574":[56],"sdaReg575":[17],"1093785776":[43],"sdaReg571":[13],"1085835208":[17],"1093580784":[33],"sdaReg587":[57],"sdaReg585":[57],"sdaReg586":[57],"sdaReg583":[57],"sdaReg584":[57],"sdaReg581":[57],"sdaReg582":[57],"sdaReg580":[57],"sdaReg599":[21],"sdaReg598":[17],"static.<org.ccil.cowan.tagsoup.Parser: boolean DEFAULT_IGNORE_BOGONS>":[3],"sdaReg171":[17],"sdaReg173":[26],"sdaReg175":[11],"sdaReg174":[26],"sdaReg698":[1],"sdaReg177":[17],"sdaReg697":[66],"sdaReg179":[27],"sdaReg178":[27],"static.<org.ccil.cowan.tagsoup.Parser: boolean DEFAULT_BOGONS_EMPTY>":[4],"sdaReg695":[1],"sdaReg696":[1],"sdaReg590":[57],"1093627584":[30],"1093627304":[25],"static.<java.util.HashMap: java.util.Map$Entry[] EMPTY_TABLE>":[12],"sdaReg593":[11],"sdaReg595":[17],"sdaReg596":[58],"sdaReg182":[27],"sdaReg181":[27],"sdaReg180":[27],"sdaReg186":[27],"sdaReg185":[27],"sdaReg184":[27],"sdaReg183":[27],"sdaReg189":[27],"1093485064":[15],"static.<org.ccil.cowan.tagsoup.Parser: boolean DEFAULT_DEFAULT_ATTRIBUTES>":[6],"1093484944.<java.util.HashMap: int modCount>":[11],"1083997920":[12],"static.<java.lang.Boolean: java.lang.Boolean FALSE>":[17],"1093510680":[70],"static.<android.text.Html$HtmlParser: org.ccil.cowan.tagsoup.HTMLSchema schema>":[66],"1084913208.<java.util.HashMap: java.util.HashMap$HashMapEntry[] table>":[66],"1084833288":[96, 95],"1093841768":[88],"1093484944":[11],"1093785936":[47],"1093484944.<java.util.HashMap: int size>":[11],"1085035312":[66],"1083912376":[75],"1085146552.<java.util.HashMap$HashMapEntry: int hash>":[66],"sdaReg630":[11],"sdaReg778":[66],"sdaReg779":[87],"sdaReg67":[18],"sdaReg64":[18],"sdaReg777":[86],"sdaReg774":[84],"sdaReg62":[18],"sdaReg775":[66],"sdaReg63":[18],"sdaReg773":[84],"sdaReg72":[17],"sdaReg772":[1],"sdaReg771":[84],"sdaReg70":[11],"sdaReg770":[83],"sdaReg639":[61],"1093578936":[77],"sdaReg634":[61],"sdaReg633":[61],"sdaReg632":[17],"sdaReg638":[61],"sdaReg637":[61],"sdaReg636":[61],"sdaReg635":[61],"1085096528.<org.ccil.cowan.tagsoup.Schema: java.util.HashMap theElementTypes>":[66],"sdaReg640":[61],"1093485104":[16],"sdaReg641":[61],"sdaReg77":[19],"sdaReg78":[19],"sdaReg79":[11],"sdaReg785":[87],"sdaReg73":[19],"sdaReg786":[87],"sdaReg787":[87],"sdaReg75":[17],"sdaReg782":[87],"sdaReg81":[17],"sdaReg504":[51],"sdaReg781":[87],"sdaReg503":[51],"sdaReg784":[87],"sdaReg83":[20],"sdaReg506":[51],"sdaReg783":[87],"sdaReg82":[20],"sdaReg505":[51],"sdaReg500":[51],"sdaReg780":[87],"sdaReg502":[51],"sdaReg501":[51],"sdaReg644":[61],"sdaReg647":[11],"sdaReg649":[17],"sdaReg509":[51],"static.<org.ccil.cowan.tagsoup.Parser: boolean DEFAULT_TRANSLATE_COLONS>":[7],"static.<com.android.internal.util.ArrayUtils: java.lang.Object[] sCache>":[95],"sdaReg798":[85],"sdaReg86":[20],"1093833424.<org.xml.sax.InputSource: java.lang.String systemId>":[80, 83],"sdaReg799":[66],"sdaReg87":[20],"sdaReg796":[66],"sdaReg84":[20],"sdaReg85":[20],"1085146552":[66],"sdaReg88":[20],"sdaReg89":[20],"sdaReg791":[66],"sdaReg90":[20],"sdaReg790":[87],"1093484808":[1, 83],"sdaReg512":[11],"sdaReg795":[85],"sdaReg517":[17],"sdaReg794":[66],"sdaReg93":[20],"sdaReg793":[66],"sdaReg515":[52],"sdaReg792":[66],"sdaReg617":[59],"sdaReg514":[17],"sdaReg614":[59],"sdaReg519":[52],"sdaReg613":[59],"sdaReg612":[59],"sdaReg611":[59],"sdaReg610":[59],"1085036328":[66],"1093627208":[23],"sdaReg96":[11],"sdaReg98":[17],"sdaReg99":[21],"1085033016":[66],"sdaReg520":[52],"sdaReg522":[11],"sdaReg521":[13],"sdaReg524":[13],"sdaReg629":[17],"sdaReg526":[53],"sdaReg628":[60],"sdaReg525":[53],"sdaReg528":[53],"sdaReg527":[53],"1093595472":[76],"sdaReg625":[13],"sdaReg529":[53],"sdaReg627":[60],"sdaReg620":[11],"sdaReg623":[60],"sdaReg622":[13],"sdaReg531":[53],"sdaReg530":[53],"sdaReg732":[75],"sdaReg730":[74],"sdaReg876":[96, 97, 95],"sdaReg875":[96, 95],"sdaReg874":[94],"1085096528":[66],"sdaReg873":[94],"sdaReg674":[11],"sdaReg879":[95],"sdaReg671":[63],"sdaReg677":[64],"sdaReg676":[13],"sdaReg871":[94],"sdaReg872":[94],"sdaReg679":[13],"static.<java.lang.Boolean: java.lang.Boolean TRUE>":[13],"sdaReg539":[11],"sdaReg536":[53],"sdaReg532":[53],"sdaReg533":[53],"sdaReg746":[71],"sdaReg745":[71],"sdaReg748":[70],"sdaReg542":[54],"sdaReg747":[70],"sdaReg541":[13],"sdaReg744":[71],"1093880800":[71],"sdaReg884":[71],"sdaReg681":[64],"static.<org.ccil.cowan.tagsoup.Parser: boolean DEFAULT_IGNORABLE_WHITESPACE>":[9],"sdaReg749":[70],"sdaReg682":[64],"sdaReg880":[95],"sdaReg883":[71],"sdaReg547":[54],"sdaReg548":[13],"sdaReg549":[11],"sdaReg544":[13],"sdaReg545":[33],"sdaReg546":[54],"sdaReg755":[81],"sdaReg753":[81],"sdaReg752":[70],"sdaReg759":[82],"1093918736":[74],"sdaReg553":[55],"sdaReg552":[55],"sdaReg757":[81],"sdaReg551":[13],"sdaReg859":[66],"sdaReg756":[81],"sdaReg858":[66],"sdaReg652":[17],"sdaReg857":[93],"sdaReg856":[66],"sdaReg650":[62],"1093623464":[21],"sdaReg853":[80],"sdaReg852":[80],"sdaReg851":[81],"sdaReg659":[13],"sdaReg850":[80],"sdaReg657":[11],"sdaReg655":[62],"sdaReg656":[13],"sdaReg653":[54],"sdaReg654":[62],"sdaReg556":[55],"sdaReg557":[55],"sdaReg554":[55],"sdaReg555":[55],"sdaReg750":[1],"sdaReg751":[70],"sdaReg558":[55],"sdaReg559":[55],"sdaReg764":[80],"sdaReg763":[80],"sdaReg766":[80],"sdaReg560":[55],"sdaReg765":[81],"sdaReg768":[80],"sdaReg767":[1],"sdaReg769":[1],"sdaReg563":[55],"sdaReg661":[63],"sdaReg660":[63],"sdaReg663":[63],"sdaReg662":[63],"sdaReg863":[71],"sdaReg668":[63],"sdaReg860":[71],"1093528384":[85],"static.<org.ccil.cowan.tagsoup.Parser: boolean DEFAULT_RESTART_ELEMENTS>":[8],"sdaReg664":[63],"sdaReg665":[63],"sdaReg666":[63],"sdaReg667":[63],"sdaReg566":[11],"sdaReg568":[13],"sdaReg569":[56],"sdaReg760":[81],"sdaReg761":[80],"sdaReg762":[81],"sdaReg429":[46],"sdaReg428":[46],"sdaReg427":[46],"sdaReg426":[46],"sdaReg425":[46],"sdaReg424":[46],"sdaReg423":[46],"sdaReg422":[46],"sdaReg326":[38],"static.<org.ccil.cowan.tagsoup.Parser: boolean DEFAULT_CDATA_ELEMENTS>":[10],"sdaReg325":[17],"sdaReg323":[11],"sdaReg329":[38],"sdaReg328":[38],"sdaReg327":[38],"sdaReg828":[89],"sdaReg13":[13],"sdaReg829":[66],"sdaReg14":[11],"sdaReg826":[66],"sdaReg12":[11],"sdaReg321":[37],"sdaReg10":[12],"sdaReg322":[37],"sdaReg820":[91],"sdaReg821":[66],"sdaReg421":[17],"sdaReg19":[14],"sdaReg824":[66],"sdaReg17":[14],"1093783520":[35],"sdaReg825":[89],"sdaReg18":[14],"sdaReg822":[66],"sdaReg823":[66],"sdaReg16":[13],"sdaReg416":[45],"sdaReg415":[44],"sdaReg418":[43],"1093783616":[37],"sdaReg417":[11],"sdaReg412":[44],"sdaReg411":[44],"static.<android.text.SpannableStringBuilder: android.text.InputFilter[] NO_FILTERS>":[73],"sdaReg314":[11],"sdaReg317":[37],"sdaReg316":[17],"sdaReg419":[11],"sdaReg319":[17],"sdaReg815":[91],"1093783720":[39],"sdaReg816":[91],"sdaReg817":[91],"1085268040":[95],"sdaReg311":[36],"sdaReg810":[91],"sdaReg410":[44],"sdaReg811":[91],"1093783816":[41],"sdaReg812":[91],"1085096528.<org.ccil.cowan.tagsoup.Schema: java.lang.String thePrefix>":[66],"sdaReg813":[91],"sdaReg814":[91],"sdaReg444":[47],"sdaReg308":[36],"sdaReg307":[36],"sdaReg306":[36],"1093911920":[78],"1085328680":[73],"sdaReg305":[36],"sdaReg304":[36],"sdaReg303":[36],"sdaReg302":[36],"sdaReg301":[36],"sdaReg300":[36],"sdaReg848":[80],"sdaReg849":[80],"sdaReg846":[80],"1093779392":[79],"sdaReg844":[80],"sdaReg845":[81],"sdaReg842":[1],"sdaReg843":[80],"1093777896":[56],"1093485208":[19],"sdaReg433":[46],"sdaReg436":[11],"sdaReg439":[11],"1085030992":[66],"sdaReg834":[89],"sdaReg830":[66],"sdaReg430":[46],"sdaReg831":[92],"1085325888":[66],"sdaReg60":[18],"sdaReg61":[18],"sdaReg721":[72],"sdaReg720":[72],"sdaReg728":[72],"sdaReg59":[18],"sdaReg58":[18],"sdaReg57":[18],"sdaReg56":[18],"sdaReg55":[17],"sdaReg53":[11],"sdaReg52":[16],"sdaReg51":[16],"sdaReg712":[71],"sdaReg714":[72],"sdaReg715":[71],"sdaReg710":[70],"sdaReg711":[71],"sdaReg718":[71],"sdaReg719":[72],"1093833424.<org.xml.sax.InputSource: java.lang.String publicId>":[80, 83],"1093733000":[64],"sdaReg49":[13],"1093778016":[58],"1084659448":[96, 97, 95],"sdaReg44":[11],"1093846376":[84],"sdaReg47":[16],"sdaReg46":[13],"sdaReg41":[15],"sdaReg700":[66],"sdaReg408":[44],"sdaReg409":[44],"1085042048":[66],"sdaReg703":[69],"sdaReg608":[59],"sdaReg609":[59],"sdaReg701":[67],"sdaReg606":[59],"sdaReg702":[68],"sdaReg607":[59],"sdaReg605":[13],"sdaReg403":[17],"sdaReg705":[66],"sdaReg602":[13],"sdaReg400":[43],"sdaReg706":[70],"sdaReg603":[11],"sdaReg401":[11],"sdaReg600":[58],"sdaReg200":[28],"sdaReg406":[44],"sdaReg601":[58],"sdaReg201":[11],"sdaReg407":[44],"sdaReg709":[1],"sdaReg404":[44],"sdaReg405":[44],"sdaReg205":[29],"sdaReg204":[29],"sdaReg39":[15],"sdaReg801":[88],"sdaReg203":[13],"sdaReg800":[66],"sdaReg209":[29],"sdaReg208":[29],"sdaReg207":[29],"sdaReg206":[29],"sdaReg31":[11],"sdaReg809":[91],"sdaReg30":[11],"sdaReg808":[66],"sdaReg807":[90],"sdaReg805":[66],"sdaReg34":[11],"sdaReg804":[85],"sdaReg8":[11],"sdaReg9":[12],"sdaReg6":[11],"sdaReg7":[11],"sdaReg4":[1],"sdaReg5":[11],"1085146432":[66],"1084913208":[66],"sdaReg29":[11],"sdaReg28":[14],"sdaReg3":[1],"sdaReg2":[1],"sdaReg21":[14],"sdaReg1":[1],"sdaReg20":[14],"sdaReg0":[0],"1093778136":[60],"sdaReg23":[14],"sdaReg22":[14],"sdaReg25":[14],"sdaReg24":[14],"sdaReg125":[23],"sdaReg127":[17],"sdaReg128":[19],"sdaReg129":[23],"sdaReg229":[13],"1093528576":[89],"sdaReg225":[30],"1093733032":[65],"sdaReg226":[30],"sdaReg227":[11],"sdaReg221":[30],"sdaReg220":[13],"sdaReg223":[13],"sdaReg122":[11],"sdaReg124":[17],"sdaReg116":[22],"sdaReg394":[17],"sdaReg395":[43],"sdaReg490":[17],"sdaReg114":[22],"sdaReg392":[11],"sdaReg115":[22],"sdaReg398":[39],"sdaReg399":[43],"sdaReg119":[22],"sdaReg397":[17],"sdaReg497":[17],"1093902608":[54],"sdaReg498":[51],"sdaReg495":[11],"sdaReg218":[11],"sdaReg215":[29],"sdaReg493":[50],"sdaReg494":[17],"sdaReg492":[50],"sdaReg212":[29],"sdaReg211":[29],"1093732888":[62],"sdaReg210":[29],"1093627360":[26],"sdaReg499":[51],"1084842864":[66],"sdaReg113":[22],"sdaReg112":[22],"sdaReg111":[22],"sdaReg110":[22],"sdaReg107":[17],"sdaReg385":[42],"sdaReg108":[22],"sdaReg386":[42],"sdaReg109":[22],"sdaReg103":[21],"sdaReg381":[42],"sdaReg104":[21],"sdaReg382":[42],"sdaReg105":[11],"sdaReg383":[42],"sdaReg384":[42],"sdaReg247":[11],"sdaReg380":[42],"sdaReg241":[31],"sdaReg244":[11],"sdaReg101":[17],"sdaReg389":[42],"sdaReg377":[17],"sdaReg374":[41],"sdaReg375":[11],"sdaReg372":[30],"sdaReg373":[41],"sdaReg371":[17],"sdaReg237":[31],"sdaReg238":[31],"sdaReg235":[31],"sdaReg236":[31],"sdaReg230":[31],"sdaReg234":[31],"sdaReg233":[31],"sdaReg232":[31],"sdaReg231":[31],"1093627480":[28],"sdaReg379":[42],"sdaReg378":[42],"sdaReg463":[17],"sdaReg465":[48],"sdaReg269":[33],"1093833424.<org.xml.sax.InputSource: java.lang.String encoding>":[80],"sdaReg461":[48],"sdaReg460":[17],"sdaReg360":[40],"sdaReg169":[26],"static.<org.ccil.cowan.tagsoup.Parser: boolean DEFAULT_NAMESPACES>":[2],"sdaReg363":[40],"sdaReg366":[11],"sdaReg368":[17],"sdaReg163":[25],"sdaReg369":[41],"sdaReg166":[11],"sdaReg168":[17],"sdaReg264":[13],"sdaReg265":[33],"sdaReg267":[13],"sdaReg466":[48],"sdaReg467":[17],"sdaReg262":[11],"sdaReg468":[11],"1093833456":[81, 83],"sdaReg259":[32],"sdaReg351":[17],"sdaReg355":[40],"1093439328":[83],"1085835192":[13],"sdaReg354":[40],"sdaReg353":[40],"sdaReg352":[40],"sdaReg358":[40],"sdaReg359":[40],"sdaReg356":[40],"sdaReg151":[11],"sdaReg357":[40],"sdaReg156":[25],"1093900424":[48],"sdaReg252":[32],"sdaReg458":[11],"sdaReg455":[47],"1093845360":[92],"sdaReg482":[49],"sdaReg485":[11],"sdaReg487":[17],"1085096528.<org.ccil.cowan.tagsoup.Schema: java.lang.String theURI>":[66],"sdaReg342":[17],"sdaReg343":[39],"sdaReg148":[11],"sdaReg340":[11],"sdaReg349":[11],"sdaReg145":[24],"1084375760":[95],"sdaReg345":[17],"sdaReg140":[24],"sdaReg141":[24],"sdaReg280":[34],"sdaReg347":[39],"sdaReg142":[24],"sdaReg281":[34],"sdaReg348":[39],"sdaReg282":[34],"sdaReg488":[50],"sdaReg285":[34],"sdaReg288":[11],"1093900456":[50],"sdaReg472":[49],"sdaReg471":[49],"sdaReg470":[17],"sdaReg279":[34],"sdaReg476":[49],"sdaReg475":[49],"sdaReg474":[49],"sdaReg473":[49],"sdaReg333":[38],"sdaReg332":[38],"sdaReg331":[38],"1084842648":[66],"sdaReg330":[38],"sdaReg139":[24],"sdaReg138":[24],"sdaReg137":[24],"sdaReg136":[24],"sdaReg134":[24],"sdaReg135":[24],"sdaReg133":[17],"sdaReg130":[23],"sdaReg131":[11],"static.<org.ccil.cowan.tagsoup.Parser: boolean DEFAULT_ROOT_BOGONS>":[5],"sdaReg270":[33],"sdaReg337":[38],"sdaReg334":[38],"1093833424":[80],"sdaReg273":[17],"sdaReg479":[49],"sdaReg274":[34],"sdaReg271":[11],"sdaReg477":[49],"sdaReg478":[49],"sdaReg277":[34],"sdaReg278":[34],"sdaReg275":[34],"sdaReg276":[34]},"colorToColor":{"0":[70],"1":[84, 1, 70, 81, 83],"2":[1],"3":[1],"4":[1],"5":[1],"6":[1],"7":[1],"8":[1],"9":[1],"10":[1],"11":[1, 11],"12":[11],"13":[16, 33, 64, 54, 56, 60, 30],"14":[16],"15":[11],"17":[35, 39, 37, 43, 41, 50, 19, 48, 21, 23, 52, 58, 26, 62, 28],"16":[32, 25, 47, 15],"19":[23, 47, 15],"18":[19],"21":[32, 25, 58, 47, 15],"20":[21],"23":[32, 25, 47, 15],"22":[23],"25":[11],"24":[26],"27":[28],"26":[25, 47, 28],"29":[30],"28":[32, 25, 47],"31":[33],"30":[32, 25, 41, 47],"34":[35],"35":[32, 47],"32":[11],"33":[32, 54, 47],"38":[39],"39":[32, 43],"36":[37],"37":[32, 47],"42":[43],"43":[32, 47],"40":[41],"41":[32, 47],"46":[48],"47":[11],"51":[52],"50":[47],"49":[50],"48":[47],"55":[56],"54":[62, 47],"53":[54],"52":[47],"59":[60],"58":[47],"57":[58],"56":[47],"63":[64],"62":[47],"61":[62],"60":[47],"70":[1],"71":[70, 98],"64":[47],"65":[1],"66":[85, 1, 92, 89, 88],"76":[71],"77":[71],"78":[71],"79":[71],"72":[71],"73":[71],"74":[71],"85":[1],"84":[1],"81":[1, 81, 80, 83],"80":[80, 83],"83":[1, 70, 81, 80, 83],"82":[81],"92":[89],"89":[1],"88":[85]},"colorToLabel":{"0":"arg#0","2":"<org.ccil.cowan.tagsoup.Parser: boolean DEFAULT_NAMESPACES>","3":"<org.ccil.cowan.tagsoup.Parser: boolean DEFAULT_IGNORE_BOGONS>","4":"<org.ccil.cowan.tagsoup.Parser: boolean DEFAULT_BOGONS_EMPTY>","5":"<org.ccil.cowan.tagsoup.Parser: boolean DEFAULT_ROOT_BOGONS>","6":"<org.ccil.cowan.tagsoup.Parser: boolean DEFAULT_DEFAULT_ATTRIBUTES>","7":"<org.ccil.cowan.tagsoup.Parser: boolean DEFAULT_TRANSLATE_COLONS>","8":"<org.ccil.cowan.tagsoup.Parser: boolean DEFAULT_RESTART_ELEMENTS>","9":"<org.ccil.cowan.tagsoup.Parser: boolean DEFAULT_IGNORABLE_WHITESPACE>","10":"<org.ccil.cowan.tagsoup.Parser: boolean DEFAULT_CDATA_ELEMENTS>","12":"<java.util.HashMap: java.util.Map$Entry[] EMPTY_TABLE>","13":"<java.lang.Boolean: java.lang.Boolean TRUE>","17":"<java.lang.Boolean: java.lang.Boolean FALSE>","66":"<android.text.Html$HtmlParser: org.ccil.cowan.tagsoup.HTMLSchema schema>","73":"<android.text.SpannableStringBuilder: android.text.InputFilter[] NO_FILTERS>","95":"<com.android.internal.util.ArrayUtils: java.lang.Object[] sCache>","98":"return"}}}

Generated Model

