Scanning method <java.util.LinkedList: boolean add(java.lang.Object)>

All seen event types: BinaryOperationRecord, SimpleAssignmentRecord, MethodReturnRecord, MethodCallRecord, LoadInstanceRecord, MethodStartRecord, MethodEndRecord, StoreInstanceRecord, NewObjectRecord, 
Ignored event types: 

JSON Encoded Analysis Data (for visualization):{"heapEdges":[{"step":0,"from":"1093352304","to":"1093353672","type":"load","field":"<java.util.LinkedList: java.util.LinkedList$Link voidLink>"},{"step":1,"from":"1093353672","to":"1093561800","type":"load","field":"<java.util.LinkedList$Link: java.util.LinkedList$Link previous>"},{"step":2,"from":"1093352304","to":"1093353672","type":"load","field":"<java.util.LinkedList: java.util.LinkedList$Link voidLink>"},{"step":3,"from":"1093561800","to":"1093316808","type":"store","field":"<java.util.LinkedList$Link: java.util.LinkedList$Link previous>"},{"step":4,"from":"1093353672","to":"1093316808","type":"store","field":"<java.util.LinkedList$Link: java.util.LinkedList$Link next>"},{"step":5,"from":"1093352304","to":"1093353672","type":"load","field":"<java.util.LinkedList: java.util.LinkedList$Link voidLink>"},{"step":6,"from":"1093353672","to":"1093316808","type":"create","field":"<java.util.LinkedList$Link: java.util.LinkedList$Link previous>"},{"step":7,"from":"1093316808","to":"1093561800","type":"store","field":"<java.util.LinkedList$Link: java.util.LinkedList$Link next>"},{"step":8,"from":"1093352304","to":"1093352304.<java.util.LinkedList: int size>","type":"load","field":"<java.util.LinkedList: int size>"},{"step":9,"from":"sdaReg9","to":"1093352304","type":"store","field":"<java.util.LinkedList: int size>"},{"step":10,"from":"1093352304","to":"1093352304.<java.util.AbstractList: int modCount>","type":"load","field":"<java.util.AbstractList: int modCount>"},{"step":11,"from":"sdaReg10","to":"1093352304","type":"store","field":"<java.util.AbstractList: int modCount>"}],"parameters":[{"id":"1093352304","name":"this","klass":"java.util.LinkedList"},{"id":"0","name":"arg#1","klass":"java.lang.Object"}],"returns":[{"id":"sdaReg11","name":"return","klass":"boolean"}],"colors":{"heapLocToColor":{"1093352304.<java.util.AbstractList: int modCount>":[0],"1093352304":[0],"sdaReg8":[2],"sdaReg9":[0],"1093561800":[0],"sdaReg6":[2],"sdaReg7":[2],"1093352304.<java.util.LinkedList: int size>":[0],"sdaReg4":[0],"sdaReg5":[0],"1093353672":[0],"0":[1],"1093316808":[2],"sdaReg10":[0],"1093352304.<java.util.LinkedList: java.util.LinkedList$Link voidLink>":[0],"sdaReg3":[1],"sdaReg2":[2],"sdaReg1":[1],"sdaReg0":[0]},"colorToColor":{"0":[0, 2],"2":[0]},"colorToLabel":{"0":"this","1":"arg#1","3":"return"}}}

Generated Model

