Scanning method <java.io.ObjectInputStream: java.io.ObjectStreamClass readClassDesc()>

All seen event types: StoreArrayRecord, SimpleAssignmentRecord, MethodStartRecord, LoadInstanceRecord, IfRecord, NewObjectRecord, StoreInstanceRecord, BinaryOperationRecord, MethodCallRecord, MethodReturnRecord, SwitchRecord, ArrayLengthRecord, CastRecord, LoadArrayRecord, MethodEndRecord, 
Ignored event types: SwitchRecord, IfRecord, 

JSON Encoded Analysis Data (for visualization):{"heapEdges":[{"step":0,"from":"1093467432","to":"1093467432.<java.io.ObjectInputStream: boolean hasPushbackTC>","type":"load","field":"<java.io.ObjectInputStream: boolean hasPushbackTC>"},{"step":1,"from":"1093467432","to":"1093497528","type":"load","field":"<java.io.ObjectInputStream: java.io.DataInputStream input>"},{"step":2,"from":"1093497528","to":"1093266320","type":"load","field":"<java.io.FilterInputStream: java.io.InputStream in>"},{"step":3,"from":"1093266320","to":"1093266320.<java.io.PipedInputStream: boolean isConnected>","type":"load","field":"<java.io.PipedInputStream: boolean isConnected>"},{"step":4,"from":"1093266320","to":"1093271696","type":"load","field":"<java.io.PipedInputStream: byte[] buffer>"},{"step":5,"from":"1093266320","to":"1093451856","type":"create","field":"<java.io.PipedInputStream: java.lang.Thread lastReader>"},{"step":6,"from":"1093266320","to":"1093266320.<java.io.PipedInputStream: int in>","type":"load","field":"<java.io.PipedInputStream: int in>"},{"step":7,"from":"1093266320","to":"1093271696","type":"load","field":"<java.io.PipedInputStream: byte[] buffer>"},{"step":8,"from":"1093266320","to":"1093266320.<java.io.PipedInputStream: int out>","type":"load","field":"<java.io.PipedInputStream: int out>"},{"step":9,"from":"sdaReg5","to":"1093266320","type":"store","field":"<java.io.PipedInputStream: int out>"},{"step":10,"from":"1093271696","to":"1093271696.arrayIdx_int:1","type":"load","field":"arrayIdx_int:1"},{"step":11,"from":"1093266320","to":"1093271696","type":"load","field":"<java.io.PipedInputStream: byte[] buffer>"},{"step":12,"from":"1093266320","to":"1093266320.<java.io.PipedInputStream: int in>","type":"load","field":"<java.io.PipedInputStream: int in>"},{"step":13,"from":"sdaReg8","to":"1093467432","type":"store","field":"<java.io.ObjectInputStream: byte pushbackTC>"},{"step":14,"from":"1093467432","to":"1093497528","type":"load","field":"<java.io.ObjectInputStream: java.io.DataInputStream input>"},{"step":15,"from":"1093497528","to":"1093467432","type":"store","field":"<java.io.ObjectInputStream: java.io.InputStream primitiveData>"},{"step":16,"from":"1093467432","to":"1093467432.<java.io.ObjectInputStream: int descriptorHandle>","type":"load","field":"<java.io.ObjectInputStream: int descriptorHandle>"},{"step":17,"from":"1093467432","to":"1093467432.<java.io.ObjectInputStream: int nextHandle>","type":"load","field":"<java.io.ObjectInputStream: int nextHandle>"},{"step":18,"from":"sdaReg13","to":"1093467432","type":"store","field":"<java.io.ObjectInputStream: int nextHandle>"},{"step":19,"from":"1093467432.<java.io.ObjectInputStream: int nextHandle>","to":"1093467432","type":"store","field":"<java.io.ObjectInputStream: int descriptorHandle>"},{"step":20,"from":"1093467432","to":"1093438208","type":"model"},{"step":21,"from":"1093467432","to":"1093668752","type":"load","field":"<java.io.ObjectInputStream: java.util.ArrayList objectsRead>"},{"step":22,"from":"1093668752","to":"1093668752.<java.util.ArrayList: int size>","type":"load","field":"<java.util.ArrayList: int size>"},{"step":23,"from":"1093467432","to":"1093668752","type":"load","field":"<java.io.ObjectInputStream: java.util.ArrayList objectsRead>"},{"step":24,"from":"1093668752","to":"1093583760","type":"load","field":"<java.util.ArrayList: java.lang.Object[] array>"},{"step":25,"from":"1093668752","to":"1093668752.<java.util.ArrayList: int size>","type":"load","field":"<java.util.ArrayList: int size>"},{"step":26,"from":"1093583760","to":"1094521560","type":"load","field":"arrayIdx_int:0"},{"step":27,"from":"1093583760","to":"1093438208","type":"create","field":"arrayIdx_int:0"},{"step":28,"from":"1093467432.<java.io.ObjectInputStream: int descriptorHandle>","to":"1093467432","type":"store","field":"<java.io.ObjectInputStream: int descriptorHandle>"},{"step":29,"from":"1093467432","to":"1093666648","type":"load","field":"<java.io.ObjectInputStream: java.io.InputStream emptyStream>"},{"step":30,"from":"1093666648","to":"1093467432","type":"store","field":"<java.io.ObjectInputStream: java.io.InputStream primitiveData>"},{"step":31,"from":"1093438208","to":"1093316416","type":"model"},{"step":32,"from":"1093438208","to":"1093316416","type":"model"},{"step":33,"from":"1093316416","to":"1093438208","type":"model"},{"step":34,"from":"1093438208","to":"1093316416","type":"model"},{"step":35,"from":"1093316416","to":"1093438208","type":"model"},{"step":36,"from":"1093438208","to":"sdaReg30","type":"model"},{"step":37,"from":"1093438208","to":"sdaReg31","type":"model"},{"step":38,"from":"1093438208","to":"sdaReg33","type":"model"},{"step":39,"from":"sdaReg33","to":"sdaReg34","type":"model"},{"step":40,"from":"sdaReg33","to":"sdaReg37","type":"model"},{"step":41,"from":"sdaReg33","to":"sdaReg38","type":"model"},{"step":42,"from":"sdaReg37","to":"sdaReg33","type":"model"},{"step":43,"from":"sdaReg37","to":"sdaReg38","type":"model"},{"step":44,"from":"1093438208","to":"sdaReg39","type":"model"},{"step":45,"from":"sdaReg39","to":"sdaReg40","type":"model"},{"step":46,"from":"sdaReg39","to":"sdaReg43","type":"model"},{"step":47,"from":"sdaReg39","to":"sdaReg44","type":"model"},{"step":48,"from":"sdaReg43","to":"sdaReg39","type":"model"},{"step":49,"from":"sdaReg43","to":"sdaReg44","type":"model"},{"step":50,"from":"1093438208","to":"1093281424","type":"model"},{"step":51,"from":"1093438208","to":"1093316416","type":"model"},{"step":52,"from":"1093438208","to":"1093316416","type":"model"},{"step":53,"from":"1093316416","to":"1093277648","type":"model"},{"step":54,"from":"1093281424","to":"1093281448","type":"load","field":"arrayIdx_int:0"},{"step":55,"from":"1093281448","to":"1093281448.<java.io.ObjectStreamField: java.lang.String typeString>","type":"load","field":"<java.io.ObjectStreamField: java.lang.String typeString>"},{"step":56,"from":"1093281448","to":"1093281448.<java.io.ObjectStreamField: java.lang.String typeString>","type":"load","field":"<java.io.ObjectStreamField: java.lang.String typeString>"},{"step":57,"from":"1093281448","to":"1093281448.<java.io.ObjectStreamField: java.lang.String typeString>","type":"load","field":"<java.io.ObjectStreamField: java.lang.String typeString>"},{"step":58,"from":"1093281448.<java.io.ObjectStreamField: java.lang.String typeString>","to":"sdaReg59","type":"model"},{"step":59,"from":"sdaReg59","to":"sdaReg60","type":"model"},{"step":60,"from":"sdaReg59","to":"sdaReg63","type":"model"},{"step":61,"from":"sdaReg63","to":"1093277648","type":"model"},{"step":62,"from":"sdaReg63","to":"1083912376","type":"model"},{"step":63,"from":"1093277648","to":"sdaReg63","type":"model"},{"step":64,"from":"1093277648","to":"1083912376","type":"model"},{"step":65,"from":"1083912376","to":"1083999984","type":"model"},{"step":66,"from":"1093294072","to":"1083912376","type":"model"},{"step":67,"from":"1083912376","to":"1093294072","type":"model"},{"step":68,"from":"1083912376","to":"1093294072","type":"model"},{"step":69,"from":"1093281448","to":"1093294072","type":"create","field":"<java.io.ObjectStreamField: java.lang.Object type>"},{"step":70,"from":"1093467432","to":"1093666648","type":"load","field":"<java.io.ObjectInputStream: java.io.InputStream emptyStream>"},{"step":71,"from":"1093666648","to":"1093467432","type":"store","field":"<java.io.ObjectInputStream: java.io.InputStream primitiveData>"},{"step":72,"from":"1093467432","to":"1093467432.<java.io.ObjectInputStream: boolean mustResolve>","type":"load","field":"<java.io.ObjectInputStream: boolean mustResolve>"},{"step":73,"from":"1093467432","to":"sdaReg69","type":"create","field":"<java.io.ObjectInputStream: boolean mustResolve>"},{"step":74,"from":"1093467432","to":"1093467432.<java.io.ObjectInputStream: boolean hasPushbackTC>","type":"load","field":"<java.io.ObjectInputStream: boolean hasPushbackTC>"},{"step":75,"from":"1093467432","to":"1093497528","type":"load","field":"<java.io.ObjectInputStream: java.io.DataInputStream input>"},{"step":76,"from":"1093497528","to":"1093266320","type":"load","field":"<java.io.FilterInputStream: java.io.InputStream in>"},{"step":77,"from":"1093266320","to":"1093266320.<java.io.PipedInputStream: boolean isConnected>","type":"load","field":"<java.io.PipedInputStream: boolean isConnected>"},{"step":78,"from":"1093266320","to":"1093271696","type":"load","field":"<java.io.PipedInputStream: byte[] buffer>"},{"step":79,"from":"1093451856","to":"1093266320","type":"store","field":"<java.io.PipedInputStream: java.lang.Thread lastReader>"},{"step":80,"from":"1093266320","to":"1093266320.<java.io.PipedInputStream: int in>","type":"load","field":"<java.io.PipedInputStream: int in>"},{"step":81,"from":"1093266320","to":"1093271696","type":"load","field":"<java.io.PipedInputStream: byte[] buffer>"},{"step":82,"from":"sdaReg75","to":"1093266320","type":"store","field":"<java.io.PipedInputStream: int out>"},{"step":83,"from":"1093271696","to":"1093271696.arrayIdx_int:103","type":"load","field":"arrayIdx_int:103"},{"step":84,"from":"1093266320","to":"1093271696","type":"load","field":"<java.io.PipedInputStream: byte[] buffer>"},{"step":85,"from":"1093266320","to":"1093266320.<java.io.PipedInputStream: int in>","type":"load","field":"<java.io.PipedInputStream: int in>"},{"step":86,"from":"sdaReg78","to":"1093467432","type":"store","field":"<java.io.ObjectInputStream: byte pushbackTC>"},{"step":87,"from":"1093467432.<java.io.ObjectInputStream: boolean mustResolve>","to":"1093467432","type":"store","field":"<java.io.ObjectInputStream: boolean mustResolve>"},{"step":88,"from":"1093467432","to":"1093467432.<java.io.ObjectInputStream: boolean hasPushbackTC>","type":"load","field":"<java.io.ObjectInputStream: boolean hasPushbackTC>"},{"step":89,"from":"1093467432","to":"1093497528","type":"load","field":"<java.io.ObjectInputStream: java.io.DataInputStream input>"},{"step":90,"from":"1093497528","to":"1093266320","type":"load","field":"<java.io.FilterInputStream: java.io.InputStream in>"},{"step":91,"from":"1093266320","to":"1093266320.<java.io.PipedInputStream: boolean isConnected>","type":"load","field":"<java.io.PipedInputStream: boolean isConnected>"},{"step":92,"from":"1093266320","to":"1093271696","type":"load","field":"<java.io.PipedInputStream: byte[] buffer>"},{"step":93,"from":"1093451856","to":"1093266320","type":"store","field":"<java.io.PipedInputStream: java.lang.Thread lastReader>"},{"step":94,"from":"1093266320","to":"1093266320.<java.io.PipedInputStream: int in>","type":"load","field":"<java.io.PipedInputStream: int in>"},{"step":95,"from":"1093266320","to":"1093271696","type":"load","field":"<java.io.PipedInputStream: byte[] buffer>"},{"step":96,"from":"sdaReg86","to":"1093266320","type":"store","field":"<java.io.PipedInputStream: int out>"},{"step":97,"from":"1093271696","to":"1093271696.arrayIdx_int:104","type":"load","field":"arrayIdx_int:104"},{"step":98,"from":"1093266320","to":"1093271696","type":"load","field":"<java.io.PipedInputStream: byte[] buffer>"},{"step":99,"from":"1093266320","to":"1093266320.<java.io.PipedInputStream: int in>","type":"load","field":"<java.io.PipedInputStream: int in>"},{"step":100,"from":"sdaReg89","to":"1093467432","type":"store","field":"<java.io.ObjectInputStream: byte pushbackTC>"}],"parameters":[{"id":"1093467432","name":"this","klass":"java.io.ObjectInputStream"}],"returns":[{"id":"1093438208","name":"return","klass":"java.io.ObjectStreamClass"}],"colors":{"heapLocToColor":{"sdaReg68":[0],"sdaReg67":[24],"1093277648":[0, 16, 2, 3],"sdaReg64":[22],"sdaReg65":[23, 22],"sdaReg62":[20],"sdaReg63":[0, 2, 18, 21, 15],"sdaReg13":[0],"sdaReg72":[0],"sdaReg14":[0, 2],"sdaReg71":[0],"sdaReg70":[0],"sdaReg12":[0],"sdaReg10":[0],"sdaReg19":[0],"1093467432.<java.io.ObjectInputStream: boolean mustResolve>":[0],"sdaReg15":[0],"sdaReg16":[0, 2],"1093281448.<java.io.ObjectStreamField: java.lang.String typeString>":[0, 2, 15],"1093467432.<java.io.ObjectInputStream: int nextHandle>":[0],"sdaReg78":[0],"sdaReg73":[1],"sdaReg76":[0],"sdaReg81":[0],"sdaReg80":[0],"sdaReg83":[0],"sdaReg82":[0],"1093497528.<java.io.FilterInputStream: java.io.InputStream in>":[0],"1093467432.<java.io.ObjectInputStream: int descriptorHandle>":[0],"1093266320.<java.io.PipedInputStream: byte[] buffer>":[0],"1093467432.<java.io.ObjectInputStream: java.io.DataInputStream input>":[0],"sdaReg87":[0],"sdaReg84":[1],"sdaReg89":[0],"sdaReg94":[25],"1093497528":[0],"sdaReg92":[0, 2],"1094521560":[0],"1093271696.arrayIdx_int:103":[0],"1093271696.arrayIdx_int:104":[0],"sdaReg95":[0, 2],"1093271696":[0],"sdaReg60":[0, 2, 19, 18, 15],"sdaReg61":[20],"1093294072":[24],"1093467432.<java.io.ObjectInputStream: java.util.ArrayList objectsRead>":[0],"1093266320.<java.io.PipedInputStream: boolean isConnected>":[0],"1093281448":[0, 2, 15],"sdaReg59":[0, 2, 18, 15],"sdaReg58":[17],"sdaReg57":[0, 16, 2, 3],"sdaReg56":[0, 2, 15],"1093438208":[0, 2],"sdaReg53":[0, 2, 15],"sdaReg52":[0, 16, 2, 3],"sdaReg51":[0, 16, 2, 3],"sdaReg50":[0, 2, 3],"1093451856":[1],"1093266320":[0],"1093266320.<java.io.PipedInputStream: int in>":[0],"sdaReg49":[0, 2, 3],"sdaReg48":[0, 2, 15],"sdaReg45":[14],"1093271696.arrayIdx_int:1":[0],"sdaReg44":[0, 2, 10, 13],"sdaReg47":[0, 2, 15],"1093666648":[0],"sdaReg46":[0, 2, 15],"sdaReg41":[12],"sdaReg40":[0, 2, 10, 11],"sdaReg43":[0, 2, 10, 11],"sdaReg42":[12],"1093467432.<java.io.ObjectInputStream: boolean hasPushbackTC>":[0],"sdaReg39":[0, 2, 10],"1093281424":[0, 2, 15],"sdaReg38":[0, 2, 6, 9],"sdaReg37":[0, 2, 6, 7],"1093266320.<java.io.PipedInputStream: int out>":[0],"sdaReg32":[0, 2, 4, 5],"sdaReg31":[0, 2, 5],"1083999984":[23, 22],"sdaReg30":[0, 2, 4],"sdaReg36":[8],"sdaReg35":[8],"sdaReg34":[0, 2, 6, 7],"sdaReg33":[0, 2, 6],"sdaReg8":[0],"sdaReg6":[0],"1093668752.<java.util.ArrayList: int size>":[0],"sdaReg5":[0],"1093583760":[0],"sdaReg27":[0, 2],"1093668752":[0],"sdaReg26":[0],"sdaReg29":[0, 2],"sdaReg28":[0, 2, 3],"sdaReg3":[1],"sdaReg2":[0],"1093467432":[0],"sdaReg21":[0, 2],"sdaReg1":[0],"1093467432.<java.io.ObjectInputStream: java.io.InputStream emptyStream>":[0],"1093316416":[0, 2, 3],"sdaReg20":[0],"sdaReg0":[0],"1083912376":[22, 24],"sdaReg23":[0, 2],"sdaReg22":[0],"sdaReg25":[0, 2, 3],"sdaReg24":[0, 2, 3]},"colorToColor":{"0":[0, 2, 3, 6, 9, 10, 13, 15, 16, 18, 21, 22, 26],"1":[0],"2":[0, 2, 3, 6, 9, 10, 13, 15, 16, 18, 21, 22, 26],"3":[0, 2, 18, 21, 22, 15],"6":[0, 2, 6, 9],"7":[0, 2, 6, 9],"10":[0, 2, 10, 13],"11":[0, 2, 10, 13],"15":[0, 16, 2, 3, 22],"16":[0, 2, 18, 21, 22, 15],"18":[0, 16, 2, 3, 22],"21":[0, 16, 2, 3, 22],"22":[24],"24":[0, 2, 24, 15]},"colorToLabel":{"0":"this","26":"return"}}}

Generated Model
	this->return

