Scanning method <java.io.PrintWriter: void print(java.lang.String)>

All seen event types: SimpleAssignmentRecord, ExitMonitorRecord, MethodReturnRecord, MethodCallRecord, EnterMonitorRecord, LoadInstanceRecord, ArrayLengthRecord, MethodStartRecord, MethodEndRecord, IfRecord, StoreInstanceRecord, 
Ignored event types: ExitMonitorRecord, EnterMonitorRecord, IfRecord, 

JSON Encoded Analysis Data (for visualization):{"heapEdges":[{"step":0,"from":"sdaReg1","to":"1093668992","type":"model"},{"step":1,"from":"1093593168","to":"1093593200","type":"load","field":"<java.io.Writer: java.lang.Object lock>"},{"step":2,"from":"1093593168","to":"1093593200","type":"load","field":"<java.io.Writer: java.lang.Object lock>"},{"step":3,"from":"1093593168","to":"sdaReg15","type":"create","field":"<java.io.PrintWriter: boolean ioError>"}],"parameters":[{"id":"1093593168","name":"this","klass":"java.io.PrintWriter"},{"id":"sdaReg0","name":"arg#1","klass":"string"}],"returns":[{"id":null,"name":"return","klass":null}],"colors":{"heapLocToColor":{"1093593168":[0],"sdaReg8":[1, 2],"sdaReg7":[0],"1093668992":[1, 2],"sdaReg4":[0],"sdaReg5":[1, 2],"sdaReg13":[0],"sdaReg14":[0],"sdaReg11":[1, 2],"sdaReg10":[0],"1093593200":[0],"sdaReg3":[1, 2],"sdaReg2":[0],"sdaReg1":[1],"sdaReg0":[1],"1093593168.<java.io.Writer: java.lang.Object lock>":[0]},"colorToColor":{},"colorToLabel":{"0":"this","1":"arg#1","3":"return"}}}

Generated Model

