Scanning method <java.util.TreeMap$Node: java.util.TreeMap$Node first()>

All seen event types: SimpleAssignmentRecord, LoadInstanceRecord, IfRecord, 
Ignored event types: IfRecord, 

JSON Encoded Analysis Data (for visualization):{"heapEdges":[{"step":0,"from":"1096599536","to":"1096599912","type":"load","field":"<java.util.TreeMap$Node: java.util.TreeMap$Node left>"}],"parameters":[{"id":"1096599536","name":"this","klass":"java.util.TreeMap$Node"}],"returns":[{"id":"1096599912","name":"return","klass":"java.util.TreeMap$Node"}],"colors":{"heapLocToColor":{"1096599536":[0],"1096599912":[0]},"colorToColor":{"0":[1]},"colorToLabel":{"0":"this","1":"return"}}}

Generated Model
	this->return

