Scanning method <java.util.TreeMap$Node: java.util.TreeMap$Node first()>

All seen event types: SimpleAssignmentRecord, LoadInstanceRecord, IfRecord, 
Ignored event types: IfRecord, 

JSON Encoded Analysis Data (for visualization):{"heapEdges":[{"step":0,"from":"1096093824","to":"1094410912","type":"load","field":"<java.util.TreeMap$Node: java.util.TreeMap$Node left>"},{"step":1,"from":"1094410912","to":"1094410752","type":"load","field":"<java.util.TreeMap$Node: java.util.TreeMap$Node left>"},{"step":2,"from":"1094410752","to":"1094259496","type":"load","field":"<java.util.TreeMap$Node: java.util.TreeMap$Node left>"},{"step":3,"from":"1094259496","to":"1094259456","type":"load","field":"<java.util.TreeMap$Node: java.util.TreeMap$Node left>"}],"parameters":[{"id":"1096093824","name":"this","klass":"java.util.TreeMap$Node"}],"returns":[{"id":"1094259456","name":"return","klass":"java.util.TreeMap$Node"}],"colors":{"heapLocToColor":{"1094410912":[0],"1096093824":[0],"1094259496":[0],"1094410752":[0],"1094259456":[0]},"colorToColor":{"0":[1]},"colorToLabel":{"0":"this","1":"return"}}}

Generated Model
	this->return

