Scanning method <java.util.TreeMap$Node: java.util.TreeMap$Node first()>

All seen event types: SimpleAssignmentRecord, LoadInstanceRecord, IfRecord, 
Ignored event types: IfRecord, 

JSON Encoded Analysis Data (for visualization):{"heapEdges":[],"parameters":[{"id":"1099725352","name":"this","klass":"java.util.TreeMap$Node"}],"returns":[{"id":"1099725352","name":"return","klass":"java.util.TreeMap$Node"}],"colors":{"heapLocToColor":{"1099725352":[0]},"colorToColor":{"0":[1]},"colorToLabel":{"0":"this","1":"return"}}}

Generated Model
	this->return

