Scanning method <java.util.AbstractList$SimpleListIterator: boolean hasNext()>

All seen event types: BinaryOperationRecord, SimpleAssignmentRecord, MethodReturnRecord, MethodCallRecord, ArrayLengthRecord, MethodStartRecord, LoadInstanceRecord, IfRecord, MethodEndRecord, 
Ignored event types: IfRecord, 

JSON Encoded Analysis Data (for visualization):{"heapEdges":[{"step":0,"from":"1093647952","to":"1093647952.<java.util.AbstractList$SimpleListIterator: int pos>","type":"load","field":"<java.util.AbstractList$SimpleListIterator: int pos>"},{"step":1,"from":"1093647952","to":"1093626224","type":"load","field":"<java.util.AbstractList$SimpleListIterator: java.util.AbstractList this$0>"},{"step":2,"from":"1093626224","to":"1093626160","type":"load","field":"<java.util.Arrays$ArrayList: java.lang.Object[] a>"}],"parameters":[{"id":"1093647952","name":"this","klass":"java.util.AbstractList$SimpleListIterator"}],"returns":[{"id":"sdaReg3","name":"return","klass":"boolean"}],"colors":{"heapLocToColor":{"1093626224":[0],"1093626160":[0],"sdaReg1":[0],"sdaReg0":[0],"1093647952":[0],"1093647952.<java.util.AbstractList$SimpleListIterator: int pos>":[0]},"colorToColor":{},"colorToLabel":{"0":"this","1":"return"}}}

Generated Model

