Scanning method <java.util.TreeMap: void rebalance(java.util.TreeMap$Node,boolean)>

All seen event types: LoadStaticRecord, BinaryOperationRecord, SimpleAssignmentRecord, MethodReturnRecord, MethodCallRecord, MethodStartRecord, LoadInstanceRecord, MethodEndRecord, IfRecord, StoreInstanceRecord, 
Ignored event types: IfRecord, 

JSON Encoded Analysis Data (for visualization):{"heapEdges":[{"step":0,"from":"1094612008","to":"1094908296","type":"load","field":"<java.util.TreeMap$Node: java.util.TreeMap$Node right>"},{"step":1,"from":"1094908296","to":"1094908296.<java.util.TreeMap$Node: int height>","type":"load","field":"<java.util.TreeMap$Node: int height>"},{"step":2,"from":"static.<java.util.TreeMap: boolean $assertionsDisabled>","to":"static.<java.util.TreeMap: boolean $assertionsDisabled>","type":"load","field":"<java.util.TreeMap: boolean $assertionsDisabled>"},{"step":3,"from":"sdaReg3","to":"sdaReg4","type":"model"},{"step":4,"from":"sdaReg3","to":"sdaReg6","type":"model"},{"step":5,"from":"sdaReg4","to":"sdaReg3","type":"model"},{"step":6,"from":"sdaReg4","to":"sdaReg6","type":"model"},{"step":7,"from":"sdaReg7","to":"1094612008","type":"store","field":"<java.util.TreeMap$Node: int height>"},{"step":8,"from":"1094612008","to":"1093938576","type":"load","field":"<java.util.TreeMap$Node: java.util.TreeMap$Node parent>"},{"step":9,"from":"1093938576","to":"1093917224","type":"load","field":"<java.util.TreeMap$Node: java.util.TreeMap$Node left>"},{"step":10,"from":"1093938576","to":"1094612008","type":"load","field":"<java.util.TreeMap$Node: java.util.TreeMap$Node right>"},{"step":11,"from":"1093917224","to":"1093917224.<java.util.TreeMap$Node: int height>","type":"load","field":"<java.util.TreeMap$Node: int height>"},{"step":12,"from":"static.<java.util.TreeMap: boolean $assertionsDisabled>","to":"static.<java.util.TreeMap: boolean $assertionsDisabled>","type":"load","field":"<java.util.TreeMap: boolean $assertionsDisabled>"},{"step":13,"from":"sdaReg3","to":"sdaReg4","type":"model"},{"step":14,"from":"sdaReg3","to":"sdaReg8","type":"model"},{"step":15,"from":"sdaReg4","to":"sdaReg3","type":"model"},{"step":16,"from":"sdaReg4","to":"sdaReg8","type":"model"},{"step":17,"from":"sdaReg7","to":"1093938576","type":"store","field":"<java.util.TreeMap$Node: int height>"},{"step":18,"from":"1093938576","to":"1097993720","type":"load","field":"<java.util.TreeMap$Node: java.util.TreeMap$Node parent>"},{"step":19,"from":"1097993720","to":"1095117736","type":"load","field":"<java.util.TreeMap$Node: java.util.TreeMap$Node left>"},{"step":20,"from":"1097993720","to":"1093938576","type":"load","field":"<java.util.TreeMap$Node: java.util.TreeMap$Node right>"},{"step":21,"from":"1095117736","to":"1095117736.<java.util.TreeMap$Node: int height>","type":"load","field":"<java.util.TreeMap$Node: int height>"},{"step":22,"from":"1093938576","to":"1093917224","type":"load","field":"<java.util.TreeMap$Node: java.util.TreeMap$Node left>"},{"step":23,"from":"1093938576","to":"1094612008","type":"load","field":"<java.util.TreeMap$Node: java.util.TreeMap$Node right>"},{"step":24,"from":"1093917224","to":"1093917224.<java.util.TreeMap$Node: int height>","type":"load","field":"<java.util.TreeMap$Node: int height>"},{"step":25,"from":"1097993720","to":"1095117736","type":"load","field":"<java.util.TreeMap$Node: java.util.TreeMap$Node left>"},{"step":26,"from":"1097993720","to":"1093938576","type":"load","field":"<java.util.TreeMap$Node: java.util.TreeMap$Node right>"},{"step":27,"from":"1093938576","to":"1093917224","type":"load","field":"<java.util.TreeMap$Node: java.util.TreeMap$Node left>"},{"step":28,"from":"1093938576","to":"1094612008","type":"load","field":"<java.util.TreeMap$Node: java.util.TreeMap$Node right>"},{"step":29,"from":"1093917224","to":"1097993720","type":"store","field":"<java.util.TreeMap$Node: java.util.TreeMap$Node right>"},{"step":30,"from":"1097993720","to":"1093917224","type":"store","field":"<java.util.TreeMap$Node: java.util.TreeMap$Node parent>"},{"step":31,"from":"1097993720","to":"1093229472","type":"load","field":"<java.util.TreeMap$Node: java.util.TreeMap$Node parent>"},{"step":32,"from":"1097993720","to":"sdaReg17","type":"create","field":"<java.util.TreeMap$Node: java.util.TreeMap$Node parent>"},{"step":33,"from":"1093229472","to":"1093938576","type":"store","field":"<java.util.TreeMap$Node: java.util.TreeMap$Node parent>"},{"step":34,"from":"1093229472","to":"1097169872","type":"load","field":"<java.util.TreeMap$Node: java.util.TreeMap$Node left>"},{"step":35,"from":"static.<java.util.TreeMap: boolean $assertionsDisabled>","to":"static.<java.util.TreeMap: boolean $assertionsDisabled>","type":"load","field":"<java.util.TreeMap: boolean $assertionsDisabled>"},{"step":36,"from":"1093938576","to":"1093229472","type":"store","field":"<java.util.TreeMap$Node: java.util.TreeMap$Node right>"},{"step":37,"from":"1097993720","to":"1093938576","type":"store","field":"<java.util.TreeMap$Node: java.util.TreeMap$Node left>"},{"step":38,"from":"1093938576","to":"1097993720","type":"store","field":"<java.util.TreeMap$Node: java.util.TreeMap$Node parent>"},{"step":39,"from":"1095117736","to":"1095117736.<java.util.TreeMap$Node: int height>","type":"load","field":"<java.util.TreeMap$Node: int height>"},{"step":40,"from":"1093917224","to":"1093917224.<java.util.TreeMap$Node: int height>","type":"load","field":"<java.util.TreeMap$Node: int height>"},{"step":41,"from":"1095117736.<java.util.TreeMap$Node: int height>","to":"1093917224.<java.util.TreeMap$Node: int height>","type":"model"},{"step":42,"from":"1095117736.<java.util.TreeMap$Node: int height>","to":"sdaReg18","type":"model"},{"step":43,"from":"1093917224.<java.util.TreeMap$Node: int height>","to":"1095117736.<java.util.TreeMap$Node: int height>","type":"model"},{"step":44,"from":"1093917224.<java.util.TreeMap$Node: int height>","to":"sdaReg18","type":"model"},{"step":45,"from":"sdaReg19","to":"1097993720","type":"store","field":"<java.util.TreeMap$Node: int height>"},{"step":46,"from":"sdaReg21","to":"1093938576","type":"store","field":"<java.util.TreeMap$Node: int height>"}],"parameters":[{"id":"1093233072","name":"this","klass":"java.util.TreeMap"},{"id":"1094612008","name":"arg#1","klass":"java.util.TreeMap$Node"},{"id":"sdaReg0","name":"arg#2","klass":"boolean"}],"returns":[{"id":null,"name":"return","klass":null}],"colors":{"heapLocToColor":{"1094908296.<java.util.TreeMap$Node: int height>":[1],"1095117736.<java.util.TreeMap$Node: int height>":[1],"1093917224.<java.util.TreeMap$Node: int height>":[1],"sdaReg13":[1],"sdaReg14":[0],"1093938576.<java.util.TreeMap$Node: java.util.TreeMap$Node left>":[1],"sdaReg11":[1],"sdaReg12":[0],"sdaReg10":[1],"sdaReg19":[6],"1097169872":[1],"sdaReg18":[6],"sdaReg15":[1],"sdaReg16":[1],"sdaReg8":[5],"1094612008":[1],"sdaReg6":[4],"sdaReg7":[4, 5],"1097993720":[1],"sdaReg4":[1],"sdaReg5":[1],"1095117736":[1],"1093233072":[0],"1094908296":[1],"1093938576":[1],"1093938576.<java.util.TreeMap$Node: java.util.TreeMap$Node right>":[1],"static.<java.util.TreeMap: boolean $assertionsDisabled>":[3],"1097993720.<java.util.TreeMap$Node: java.util.TreeMap$Node left>":[1],"sdaReg3":[1],"sdaReg21":[7],"1093229472":[1],"1097993720.<java.util.TreeMap$Node: java.util.TreeMap$Node right>":[1],"sdaReg20":[7],"1093917224":[1],"sdaReg0":[2]},"colorToColor":{"1":[1, 4, 5, 6],"4":[1],"5":[1],"6":[1],"7":[1]},"colorToLabel":{"0":"this","1":"arg#1","2":"arg#2","3":"<java.util.TreeMap: boolean $assertionsDisabled>","8":"return"}}}

Generated Model

