Scanning method <java.nio.CharBuffer: java.nio.CharBuffer append(java.lang.CharSequence,int,int)>

All seen event types: MethodReturnRecord, MethodCallRecord, IfRecord, 
Ignored event types: IfRecord, 

JSON Encoded Analysis Data (for visualization):{"heapEdges":[{"step":0,"from":"1093467520","to":"1095511888","type":"model"}],"parameters":[{"id":"1095511768","name":"this","klass":"java.nio.CharBuffer"},{"id":"1093467520","name":"arg#1","klass":"java.lang.CharSequence"},{"id":"sdaReg0","name":"arg#2","klass":"int"},{"id":"sdaReg1","name":"arg#3","klass":"int"}],"returns":[{"id":"1095511768","name":"return","klass":"java.nio.CharBuffer"}],"colors":{"heapLocToColor":{"1095511888":[1, 4],"sdaReg3":[5],"1093467520":[1],"sdaReg2":[1, 4],"sdaReg1":[3],"sdaReg0":[2],"1095511768":[0]},"colorToColor":{"0":[6]},"colorToLabel":{"0":"this","1":"arg#1","2":"arg#2","3":"arg#3","6":"return"}}}

Generated Model
	this->return

