Scanning method <android.location.Address: void setCountryName(java.lang.String)>

All seen event types: StoreInstanceRecord, 
Ignored event types: 

JSON Encoded Analysis Data (for visualization):{"heapEdges":[{"step":0,"from":"sdaReg0","to":"1093898008","type":"store","field":"<android.location.Address: java.lang.String mCountryName>"}],"parameters":[{"id":"1093898008","name":"this","klass":"android.location.Address"},{"id":"sdaReg0","name":"arg#1","klass":"string"}],"returns":[{"id":null,"name":"return","klass":null}],"colors":{"heapLocToColor":{"sdaReg0":[1],"1093898008":[0]},"colorToColor":{"1":[0]},"colorToLabel":{"0":"this","1":"arg#1","2":"return"}}}

Generated Model
	arg#1->this

