Scanning method <java.util.TreeMap$MapIterator: void <init>(java.util.TreeMap,java.util.TreeMap$Node)>

All seen event types: MethodReturnRecord, MethodCallRecord, LoadInstanceRecord, StoreInstanceRecord, 
Ignored event types: 

JSON Encoded Analysis Data (for visualization):{"heapEdges":[{"step":0,"from":"1093562192","to":"1093633992","type":"store","field":"<java.util.TreeMap$MapIterator: java.util.TreeMap this$0>"},{"step":1,"from":"1093562192","to":"1093562192.<java.util.TreeMap: int modCount>","type":"load","field":"<java.util.TreeMap: int modCount>"},{"step":2,"from":"1093562192.<java.util.TreeMap: int modCount>","to":"1093633992","type":"store","field":"<java.util.TreeMap$MapIterator: int expectedModCount>"}],"parameters":[{"id":"1093633992","name":"this","klass":"java.util.TreeMap$MapIterator"},{"id":"1093562192","name":"arg#1","klass":"java.util.TreeMap"},{"id":"0","name":"arg#2","klass":"java.util.TreeMap$Node"}],"returns":[{"id":"1093633992","name":"return","klass":"java.util.TreeMap$MapIterator"}],"colors":{"heapLocToColor":{"0":[2],"1093562192":[1],"1093633992":[0],"1093562192.<java.util.TreeMap: int modCount>":[1],"sdaReg0":[0]},"colorToColor":{"0":[3],"1":[0]},"colorToLabel":{"0":"this","1":"arg#1","2":"arg#2","3":"return"}}}

Generated Model
	this->return
	arg#1->this
	arg#1->return

