Scanning method <java.util.AbstractMap: void putAll(java.util.Map)>

All seen event types: BinaryOperationRecord, SimpleAssignmentRecord, MethodReturnRecord, MethodCallRecord, ArrayLengthRecord, LoadInstanceRecord, MethodStartRecord, LoadArrayRecord, MethodEndRecord, IfRecord, StoreInstanceRecord, NewObjectRecord, 
Ignored event types: IfRecord, 

JSON Encoded Analysis Data (for visualization):{"heapEdges":[{"step":0,"from":"1093578512","to":"1093420928","type":"store","field":"<java.util.HashMap$EntrySet: java.util.HashMap this$0>"},{"step":1,"from":"1093578512","to":"1093420928","type":"create","field":"<java.util.HashMap: java.util.Set entrySet>"},{"step":2,"from":"1093578512","to":"1093388136","type":"store","field":"<java.util.HashMap$EntryIterator: java.util.HashMap this$0>"},{"step":3,"from":"1093578512","to":"1093388136","type":"store","field":"<java.util.HashMap$HashIterator: java.util.HashMap this$0>"},{"step":4,"from":"1093578512","to":"1093578512.<java.util.HashMap: int modCount>","type":"load","field":"<java.util.HashMap: int modCount>"},{"step":5,"from":"1093578512.<java.util.HashMap: int modCount>","to":"1093388136","type":"store","field":"<java.util.HashMap$HashIterator: int expectedModCount>"},{"step":6,"from":"1093578512","to":"1083997920","type":"load","field":"<java.util.HashMap: java.util.HashMap$HashMapEntry[] table>"},{"step":7,"from":"1093388136","to":"1093388136.<java.util.HashMap$HashIterator: int nextIndex>","type":"load","field":"<java.util.HashMap$HashIterator: int nextIndex>"},{"step":8,"from":"1093388136","to":"1093388136.<java.util.HashMap$HashIterator: int nextIndex>","type":"load","field":"<java.util.HashMap$HashIterator: int nextIndex>"},{"step":9,"from":"sdaReg25","to":"1093388136","type":"store","field":"<java.util.HashMap$HashIterator: int nextIndex>"},{"step":10,"from":"sdaReg25","to":"1093388136","type":"store","field":"<java.util.HashMap$HashIterator: int nextIndex>"}],"parameters":[{"id":"1093578608","name":"this","klass":"java.util.AbstractMap"},{"id":"1093578512","name":"arg#1","klass":"java.util.Map"}],"returns":[{"id":null,"name":"return","klass":null}],"colors":{"heapLocToColor":{"1093578512.<java.util.HashMap: int modCount>":[1],"1093578512":[1],"sdaReg13":[2],"1093388136":[3],"sdaReg14":[2],"sdaReg11":[2],"sdaReg12":[2],"sdaReg10":[2],"1093388136.<java.util.HashMap$HashIterator: int nextIndex>":[3],"sdaReg32":[3],"sdaReg31":[3],"sdaReg30":[3],"1083997920":[1],"sdaReg19":[1],"sdaReg17":[1],"sdaReg18":[3],"sdaReg15":[1],"sdaReg33":[3],"sdaReg16":[3],"sdaReg8":[2],"sdaReg9":[2],"1093420928":[2],"sdaReg6":[2],"sdaReg7":[2],"sdaReg4":[1],"sdaReg5":[2],"1093578608":[0],"sdaReg29":[3],"sdaReg28":[3],"sdaReg3":[2],"sdaReg2":[1],"sdaReg21":[1],"sdaReg1":[2],"sdaReg0":[1],"sdaReg20":[3],"sdaReg22":[3],"sdaReg25":[3]},"colorToColor":{"1":[2, 3],"2":[1],"3":[3]},"colorToLabel":{"0":"this","1":"arg#1","4":"return"}}}

Generated Model

