Scanning method <java.util.HashMap: java.util.HashMap$HashMapEntry constructorNewEntry(java.lang.Object,java.lang.Object,int,java.util.HashMap$HashMapEntry)>

All seen event types: MethodReturnRecord, MethodCallRecord, MethodStartRecord, MethodEndRecord, StoreInstanceRecord, NewObjectRecord, 
Ignored event types: 

JSON Encoded Analysis Data (for visualization):{"heapEdges":[{"step":0,"from":"1084320408","to":"1093280840","type":"store","field":"<java.util.HashMap$HashMapEntry: java.lang.Object key>"},{"step":1,"from":"1093567072","to":"1093280840","type":"store","field":"<java.util.HashMap$HashMapEntry: java.lang.Object value>"},{"step":2,"from":"sdaReg0","to":"1093280840","type":"store","field":"<java.util.HashMap$HashMapEntry: int hash>"}],"parameters":[{"id":"1093264040","name":"this","klass":"java.util.HashMap"},{"id":"1084320408","name":"arg#1","klass":"java.lang.Object"},{"id":"1093567072","name":"arg#2","klass":"java.lang.Object"},{"id":"sdaReg0","name":"arg#3","klass":"int"},{"id":"0","name":"arg#4","klass":"java.util.HashMap$HashMapEntry"}],"returns":[{"id":"1093280840","name":"return","klass":"java.util.HashMap$HashMapEntry"}],"colors":{"heapLocToColor":{"0":[4],"sdaReg6":[5],"1093280840":[5],"1084320408":[1],"sdaReg4":[4],"1093567072":[2],"1093264040":[0],"sdaReg5":[5],"sdaReg3":[2],"sdaReg2":[1],"sdaReg1":[5],"sdaReg0":[3]},"colorToColor":{"1":[5],"2":[5],"3":[5],"5":[6]},"colorToLabel":{"0":"this","1":"arg#1","2":"arg#2","3":"arg#3","4":"arg#4","6":"return"}}}

Generated Model
	arg#3->return
	arg#2->return
	arg#1->return

