Scanning method <android.location.Location: boolean access$302(android.location.Location,boolean)>

All seen event types: StoreInstanceRecord, 
Ignored event types: 

JSON Encoded Analysis Data (for visualization):{"heapEdges":[{"step":0,"from":"sdaReg0","to":"1094087408","type":"store","field":"<android.location.Location: boolean mHasAltitude>"}],"parameters":[{"id":"1094087408","name":"arg#0","klass":"android.location.Location"},{"id":"sdaReg0","name":"arg#1","klass":"boolean"}],"returns":[{"id":"sdaReg0","name":"return","klass":"boolean"}],"colors":{"heapLocToColor":{"1094087408":[0],"sdaReg0":[1]},"colorToColor":{"1":[0, 2]},"colorToLabel":{"0":"arg#0","1":"arg#1","2":"return"}}}

Generated Model
	arg#1->return
	arg#1->arg#0

