Scanning method <android.text.Html: void withinHtml(java.lang.StringBuilder,android.text.Spanned)>

All seen event types: StoreArrayRecord, SimpleAssignmentRecord, MethodStartRecord, LoadInstanceRecord, IfRecord, InstanceOfRecord, LoadStaticRecord, BinaryOperationRecord, MethodCallRecord, MethodReturnRecord, CastRecord, ArrayLengthRecord, LoadArrayRecord, MethodEndRecord, 
Ignored event types: IfRecord, 

JSON Encoded Analysis Data (for visualization):{"heapEdges":[{"step":0,"from":"1094557032","to":"1094557032.<android.text.SpannableStringInternal: java.lang.String mText>","type":"load","field":"<android.text.SpannableStringInternal: java.lang.String mText>"},{"step":1,"from":"1094557032","to":"1094557032.<android.text.SpannableStringInternal: java.lang.String mText>","type":"load","field":"<android.text.SpannableStringInternal: java.lang.String mText>"},{"step":2,"from":"1094557032","to":"1094557032.<android.text.SpannableStringInternal: int mSpanCount>","type":"load","field":"<android.text.SpannableStringInternal: int mSpanCount>"},{"step":3,"from":"1094557032","to":"1094287216","type":"load","field":"<android.text.SpannableStringInternal: java.lang.Object[] mSpans>"},{"step":4,"from":"1094557032","to":"1094509816","type":"load","field":"<android.text.SpannableStringInternal: int[] mSpanData>"},{"step":5,"from":"1094509816","to":"1094509816.arrayIdx_int:0","type":"load","field":"arrayIdx_int:0"},{"step":6,"from":"1094509816","to":"1094509816.arrayIdx_int:1","type":"load","field":"arrayIdx_int:1"},{"step":7,"from":"1094287216","to":"1093959696","type":"load","field":"arrayIdx_int:0"},{"step":8,"from":"1094287216","to":"1093959696","type":"load","field":"arrayIdx_int:0"},{"step":9,"from":"1094557032","to":"1094557032.<android.text.SpannableStringInternal: int mSpanCount>","type":"load","field":"<android.text.SpannableStringInternal: int mSpanCount>"},{"step":10,"from":"1094557032","to":"1094287216","type":"load","field":"<android.text.SpannableStringInternal: java.lang.Object[] mSpans>"},{"step":11,"from":"1094557032","to":"1094509816","type":"load","field":"<android.text.SpannableStringInternal: int[] mSpanData>"},{"step":12,"from":"1094287216","to":"1093959696","type":"load","field":"arrayIdx_int:0"},{"step":13,"from":"1084659448","to":"sdaReg26","type":"model"},{"step":14,"from":"static.<com.android.internal.util.ArrayUtils: java.lang.Object[] sCache>","to":"1084375760","type":"load","field":"<com.android.internal.util.ArrayUtils: java.lang.Object[] sCache>"},{"step":15,"from":"1084375760","to":"1085268040","type":"load","field":"arrayIdx_int:42"},{"step":16,"from":"1085268040","to":"1084833288","type":"model"},{"step":17,"from":"1084833288","to":"1084659448","type":"model"},{"step":18,"from":"1094557032","to":"1094557032.<android.text.SpannableStringInternal: int mSpanCount>","type":"load","field":"<android.text.SpannableStringInternal: int mSpanCount>"},{"step":19,"from":"1094557032","to":"1094287216","type":"load","field":"<android.text.SpannableStringInternal: java.lang.Object[] mSpans>"},{"step":20,"from":"1094557032","to":"1094509816","type":"load","field":"<android.text.SpannableStringInternal: int[] mSpanData>"},{"step":21,"from":"1094509816","to":"1094509816.arrayIdx_int:0","type":"load","field":"arrayIdx_int:0"},{"step":22,"from":"1094509816","to":"1094509816.arrayIdx_int:1","type":"load","field":"arrayIdx_int:1"},{"step":23,"from":"1094287216","to":"1093959696","type":"load","field":"arrayIdx_int:0"},{"step":24,"from":"1094287216","to":"1093959696","type":"load","field":"arrayIdx_int:0"},{"step":25,"from":"1094557032","to":"1094557032.<android.text.SpannableStringInternal: int mSpanCount>","type":"load","field":"<android.text.SpannableStringInternal: int mSpanCount>"},{"step":26,"from":"1094557032","to":"1094287216","type":"load","field":"<android.text.SpannableStringInternal: java.lang.Object[] mSpans>"},{"step":27,"from":"1094557032","to":"1094509816","type":"load","field":"<android.text.SpannableStringInternal: int[] mSpanData>"},{"step":28,"from":"1094287216","to":"1093959696","type":"load","field":"arrayIdx_int:0"},{"step":29,"from":"1084853880","to":"sdaReg67","type":"model"},{"step":30,"from":"static.<com.android.internal.util.ArrayUtils: java.lang.Object[] sCache>","to":"1084375760","type":"load","field":"<com.android.internal.util.ArrayUtils: java.lang.Object[] sCache>"},{"step":31,"from":"1084375760","to":"1093997824","type":"load","field":"arrayIdx_int:37"},{"step":32,"from":"1093997824","to":"1093576184","type":"model"},{"step":33,"from":"1093576184","to":"1084853880","type":"model"},{"step":34,"from":"1094557032","to":"1094557032.<android.text.SpannableStringInternal: int mSpanCount>","type":"load","field":"<android.text.SpannableStringInternal: int mSpanCount>"},{"step":35,"from":"1094557032","to":"1094287216","type":"load","field":"<android.text.SpannableStringInternal: java.lang.Object[] mSpans>"},{"step":36,"from":"1094557032","to":"1094509816","type":"load","field":"<android.text.SpannableStringInternal: int[] mSpanData>"},{"step":37,"from":"1094509816","to":"1094509816.arrayIdx_int:0","type":"load","field":"arrayIdx_int:0"},{"step":38,"from":"1094509816","to":"1094509816.arrayIdx_int:1","type":"load","field":"arrayIdx_int:1"},{"step":39,"from":"1094287216","to":"1093959696","type":"load","field":"arrayIdx_int:0"},{"step":40,"from":"1094557032","to":"1094557032.<android.text.SpannableStringInternal: int mSpanCount>","type":"load","field":"<android.text.SpannableStringInternal: int mSpanCount>"},{"step":41,"from":"1094557032","to":"1094287216","type":"load","field":"<android.text.SpannableStringInternal: java.lang.Object[] mSpans>"},{"step":42,"from":"1094557032","to":"1094509816","type":"load","field":"<android.text.SpannableStringInternal: int[] mSpanData>"},{"step":43,"from":"1094287216","to":"1093959696","type":"load","field":"arrayIdx_int:0"},{"step":44,"from":"1094509816","to":"1094509816.arrayIdx_int:0","type":"load","field":"arrayIdx_int:0"},{"step":45,"from":"1094509816","to":"1094509816.arrayIdx_int:1","type":"load","field":"arrayIdx_int:1"},{"step":46,"from":"1084661656","to":"sdaReg119","type":"model"},{"step":47,"from":"static.<com.android.internal.util.ArrayUtils: java.lang.Object[] sCache>","to":"1084375760","type":"load","field":"<com.android.internal.util.ArrayUtils: java.lang.Object[] sCache>"},{"step":48,"from":"1084375760","to":"1093550768","type":"load","field":"arrayIdx_int:26"},{"step":49,"from":"1093550768","to":"1085374624","type":"model"},{"step":50,"from":"1085374624","to":"1084661656","type":"model"},{"step":51,"from":"1094557032","to":"1094557032.<android.text.SpannableStringInternal: java.lang.String mText>","type":"load","field":"<android.text.SpannableStringInternal: java.lang.String mText>"},{"step":52,"from":"1094557032.<android.text.SpannableStringInternal: java.lang.String mText>","to":"sdaReg138","type":"model"},{"step":53,"from":"sdaReg138","to":"1093780576","type":"model"},{"step":54,"from":"1094557032","to":"1094557032.<android.text.SpannableStringInternal: java.lang.String mText>","type":"load","field":"<android.text.SpannableStringInternal: java.lang.String mText>"},{"step":55,"from":"1094557032.<android.text.SpannableStringInternal: java.lang.String mText>","to":"sdaReg140","type":"model"},{"step":56,"from":"sdaReg140","to":"1093780576","type":"model"},{"step":57,"from":"1094557032","to":"1094557032.<android.text.SpannableStringInternal: java.lang.String mText>","type":"load","field":"<android.text.SpannableStringInternal: java.lang.String mText>"},{"step":58,"from":"1094557032.<android.text.SpannableStringInternal: java.lang.String mText>","to":"sdaReg142","type":"model"},{"step":59,"from":"sdaReg142","to":"1093780576","type":"model"},{"step":60,"from":"1094557032","to":"1094557032.<android.text.SpannableStringInternal: java.lang.String mText>","type":"load","field":"<android.text.SpannableStringInternal: java.lang.String mText>"},{"step":61,"from":"1094557032.<android.text.SpannableStringInternal: java.lang.String mText>","to":"sdaReg144","type":"model"},{"step":62,"from":"sdaReg144","to":"1093780576","type":"model"},{"step":63,"from":"1094557032","to":"1094557032.<android.text.SpannableStringInternal: java.lang.String mText>","type":"load","field":"<android.text.SpannableStringInternal: java.lang.String mText>"},{"step":64,"from":"1094557032.<android.text.SpannableStringInternal: java.lang.String mText>","to":"sdaReg146","type":"model"},{"step":65,"from":"sdaReg146","to":"1093780576","type":"model"},{"step":66,"from":"1094557032","to":"1094557032.<android.text.SpannableStringInternal: java.lang.String mText>","type":"load","field":"<android.text.SpannableStringInternal: java.lang.String mText>"},{"step":67,"from":"1094557032.<android.text.SpannableStringInternal: java.lang.String mText>","to":"sdaReg148","type":"model"},{"step":68,"from":"1094557032","to":"1094557032.<android.text.SpannableStringInternal: int mSpanCount>","type":"load","field":"<android.text.SpannableStringInternal: int mSpanCount>"},{"step":69,"from":"1094557032","to":"1094287216","type":"load","field":"<android.text.SpannableStringInternal: java.lang.Object[] mSpans>"},{"step":70,"from":"1094557032","to":"1094509816","type":"load","field":"<android.text.SpannableStringInternal: int[] mSpanData>"},{"step":71,"from":"1094509816","to":"1094509816.arrayIdx_int:0","type":"load","field":"arrayIdx_int:0"},{"step":72,"from":"1094509816","to":"1094509816.arrayIdx_int:1","type":"load","field":"arrayIdx_int:1"},{"step":73,"from":"1094287216","to":"1093959696","type":"load","field":"arrayIdx_int:0"},{"step":74,"from":"1094557032","to":"1094557032.<android.text.SpannableStringInternal: int mSpanCount>","type":"load","field":"<android.text.SpannableStringInternal: int mSpanCount>"},{"step":75,"from":"1094557032","to":"1094287216","type":"load","field":"<android.text.SpannableStringInternal: java.lang.Object[] mSpans>"},{"step":76,"from":"1094557032","to":"1094509816","type":"load","field":"<android.text.SpannableStringInternal: int[] mSpanData>"},{"step":77,"from":"1094287216","to":"1093959696","type":"load","field":"arrayIdx_int:0"},{"step":78,"from":"1094509816","to":"1094509816.arrayIdx_int:0","type":"load","field":"arrayIdx_int:0"},{"step":79,"from":"1094509816","to":"1094509816.arrayIdx_int:1","type":"load","field":"arrayIdx_int:1"},{"step":80,"from":"1094287216","to":"1093959696","type":"load","field":"arrayIdx_int:0"},{"step":81,"from":"1093959696","to":"1094200240","type":"store","field":"arrayIdx_int:0"},{"step":82,"from":"1094557032","to":"1094557032.<android.text.SpannableStringInternal: java.lang.String mText>","type":"load","field":"<android.text.SpannableStringInternal: java.lang.String mText>"},{"step":83,"from":"1094557032.<android.text.SpannableStringInternal: java.lang.String mText>","to":"sdaReg197","type":"model"},{"step":84,"from":"sdaReg197","to":"1093780576","type":"model"},{"step":85,"from":"1094557032","to":"1094557032.<android.text.SpannableStringInternal: java.lang.String mText>","type":"load","field":"<android.text.SpannableStringInternal: java.lang.String mText>"},{"step":86,"from":"1094557032.<android.text.SpannableStringInternal: java.lang.String mText>","to":"sdaReg199","type":"model"},{"step":87,"from":"sdaReg199","to":"1093780576","type":"model"},{"step":88,"from":"1094557032","to":"1094557032.<android.text.SpannableStringInternal: java.lang.String mText>","type":"load","field":"<android.text.SpannableStringInternal: java.lang.String mText>"},{"step":89,"from":"1094557032.<android.text.SpannableStringInternal: java.lang.String mText>","to":"sdaReg201","type":"model"},{"step":90,"from":"sdaReg201","to":"1093780576","type":"model"},{"step":91,"from":"1094557032","to":"1094557032.<android.text.SpannableStringInternal: java.lang.String mText>","type":"load","field":"<android.text.SpannableStringInternal: java.lang.String mText>"},{"step":92,"from":"1094557032.<android.text.SpannableStringInternal: java.lang.String mText>","to":"sdaReg203","type":"model"},{"step":93,"from":"sdaReg203","to":"1093780576","type":"model"},{"step":94,"from":"1094557032","to":"1094557032.<android.text.SpannableStringInternal: java.lang.String mText>","type":"load","field":"<android.text.SpannableStringInternal: java.lang.String mText>"},{"step":95,"from":"1094557032.<android.text.SpannableStringInternal: java.lang.String mText>","to":"sdaReg205","type":"model"},{"step":96,"from":"sdaReg205","to":"1093780576","type":"model"},{"step":97,"from":"1094557032","to":"1094557032.<android.text.SpannableStringInternal: java.lang.String mText>","type":"load","field":"<android.text.SpannableStringInternal: java.lang.String mText>"},{"step":98,"from":"1094557032.<android.text.SpannableStringInternal: java.lang.String mText>","to":"sdaReg207","type":"model"},{"step":99,"from":"sdaReg207","to":"1093780576","type":"model"},{"step":100,"from":"1094557032","to":"1094557032.<android.text.SpannableStringInternal: java.lang.String mText>","type":"load","field":"<android.text.SpannableStringInternal: java.lang.String mText>"},{"step":101,"from":"1094557032.<android.text.SpannableStringInternal: java.lang.String mText>","to":"sdaReg209","type":"model"},{"step":102,"from":"sdaReg209","to":"1093780576","type":"model"},{"step":103,"from":"1094557032","to":"1094557032.<android.text.SpannableStringInternal: java.lang.String mText>","type":"load","field":"<android.text.SpannableStringInternal: java.lang.String mText>"},{"step":104,"from":"1094557032.<android.text.SpannableStringInternal: java.lang.String mText>","to":"sdaReg211","type":"model"},{"step":105,"from":"sdaReg211","to":"1093780576","type":"model"},{"step":106,"from":"1094557032","to":"1094557032.<android.text.SpannableStringInternal: java.lang.String mText>","type":"load","field":"<android.text.SpannableStringInternal: java.lang.String mText>"},{"step":107,"from":"1094557032.<android.text.SpannableStringInternal: java.lang.String mText>","to":"sdaReg213","type":"model"},{"step":108,"from":"sdaReg213","to":"1093780576","type":"model"},{"step":109,"from":"1094557032","to":"1094557032.<android.text.SpannableStringInternal: int mSpanCount>","type":"load","field":"<android.text.SpannableStringInternal: int mSpanCount>"},{"step":110,"from":"1094557032","to":"1094287216","type":"load","field":"<android.text.SpannableStringInternal: java.lang.Object[] mSpans>"},{"step":111,"from":"1094557032","to":"1094509816","type":"load","field":"<android.text.SpannableStringInternal: int[] mSpanData>"},{"step":112,"from":"1094509816","to":"1094509816.arrayIdx_int:0","type":"load","field":"arrayIdx_int:0"},{"step":113,"from":"1094509816","to":"1094509816.arrayIdx_int:1","type":"load","field":"arrayIdx_int:1"},{"step":114,"from":"1094557032","to":"1094557032.<android.text.SpannableStringInternal: int mSpanCount>","type":"load","field":"<android.text.SpannableStringInternal: int mSpanCount>"},{"step":115,"from":"1094557032","to":"1094287216","type":"load","field":"<android.text.SpannableStringInternal: java.lang.Object[] mSpans>"},{"step":116,"from":"1094557032","to":"1094509816","type":"load","field":"<android.text.SpannableStringInternal: int[] mSpanData>"},{"step":117,"from":"1094287216","to":"1093959696","type":"load","field":"arrayIdx_int:0"},{"step":118,"from":"1094509816","to":"1094509816.arrayIdx_int:0","type":"load","field":"arrayIdx_int:0"},{"step":119,"from":"1094509816","to":"1094509816.arrayIdx_int:1","type":"load","field":"arrayIdx_int:1"},{"step":120,"from":"1084661656","to":"sdaReg247","type":"model"},{"step":121,"from":"static.<com.android.internal.util.ArrayUtils: java.lang.Object[] sCache>","to":"1084375760","type":"load","field":"<com.android.internal.util.ArrayUtils: java.lang.Object[] sCache>"},{"step":122,"from":"1084375760","to":"1093550768","type":"load","field":"arrayIdx_int:26"},{"step":123,"from":"1093550768","to":"1085374624","type":"model"},{"step":124,"from":"1085374624","to":"1084661656","type":"model"},{"step":125,"from":"1094557032","to":"1094557032.<android.text.SpannableStringInternal: java.lang.String mText>","type":"load","field":"<android.text.SpannableStringInternal: java.lang.String mText>"},{"step":126,"from":"1094557032.<android.text.SpannableStringInternal: java.lang.String mText>","to":"sdaReg264","type":"model"},{"step":127,"from":"1094557032","to":"1094557032.<android.text.SpannableStringInternal: java.lang.String mText>","type":"load","field":"<android.text.SpannableStringInternal: java.lang.String mText>"},{"step":128,"from":"1094557032.<android.text.SpannableStringInternal: java.lang.String mText>","to":"sdaReg268","type":"model"},{"step":129,"from":"1094557032","to":"1094557032.<android.text.SpannableStringInternal: java.lang.String mText>","type":"load","field":"<android.text.SpannableStringInternal: java.lang.String mText>"},{"step":130,"from":"1094557032.<android.text.SpannableStringInternal: java.lang.String mText>","to":"sdaReg270","type":"model"},{"step":131,"from":"sdaReg270","to":"1093780576","type":"model"},{"step":132,"from":"1094557032","to":"1094557032.<android.text.SpannableStringInternal: java.lang.String mText>","type":"load","field":"<android.text.SpannableStringInternal: java.lang.String mText>"},{"step":133,"from":"1094557032.<android.text.SpannableStringInternal: java.lang.String mText>","to":"sdaReg272","type":"model"},{"step":134,"from":"sdaReg272","to":"1093780576","type":"model"},{"step":135,"from":"1094557032","to":"1094557032.<android.text.SpannableStringInternal: java.lang.String mText>","type":"load","field":"<android.text.SpannableStringInternal: java.lang.String mText>"},{"step":136,"from":"1094557032.<android.text.SpannableStringInternal: java.lang.String mText>","to":"sdaReg274","type":"model"},{"step":137,"from":"sdaReg274","to":"1093780576","type":"model"},{"step":138,"from":"1094557032","to":"1094557032.<android.text.SpannableStringInternal: java.lang.String mText>","type":"load","field":"<android.text.SpannableStringInternal: java.lang.String mText>"},{"step":139,"from":"1094557032.<android.text.SpannableStringInternal: java.lang.String mText>","to":"sdaReg276","type":"model"},{"step":140,"from":"sdaReg276","to":"1093780576","type":"model"},{"step":141,"from":"1094557032","to":"1094557032.<android.text.SpannableStringInternal: java.lang.String mText>","type":"load","field":"<android.text.SpannableStringInternal: java.lang.String mText>"},{"step":142,"from":"1094557032.<android.text.SpannableStringInternal: java.lang.String mText>","to":"sdaReg278","type":"model"},{"step":143,"from":"sdaReg278","to":"1093780576","type":"model"},{"step":144,"from":"sdaReg281","to":"1093780576","type":"model"},{"step":145,"from":"1094557032","to":"1094557032.<android.text.SpannableStringInternal: java.lang.String mText>","type":"load","field":"<android.text.SpannableStringInternal: java.lang.String mText>"}],"parameters":[{"id":"1093780576","name":"arg#0","klass":"java.lang.StringBuilder"},{"id":"1094557032","name":"arg#1","klass":"android.text.Spanned"}],"returns":[{"id":null,"name":"return","klass":null}],"colors":{"heapLocToColor":{"sdaReg193":[0],"1093550768":[8],"sdaReg127":[8],"1084853880":[16, 8, 15],"sdaReg128":[8],"sdaReg129":[8],"sdaReg199":[1, 33],"sdaReg68":[14],"sdaReg198":[1],"sdaReg69":[14],"sdaReg67":[14],"sdaReg224":[1],"sdaReg195":[17, 1, 2],"sdaReg225":[21, 22, 8],"sdaReg194":[1],"sdaReg65":[13],"sdaReg226":[1],"sdaReg197":[1, 32],"sdaReg227":[21, 22, 8],"sdaReg196":[1],"sdaReg72":[16, 8, 15],"sdaReg14":[4],"sdaReg71":[8, 15],"sdaReg70":[14],"1094557032.<android.text.SpannableStringInternal: int mSpanCount>":[1],"sdaReg120":[20],"sdaReg122":[20],"sdaReg18":[1],"sdaReg121":[20],"sdaReg15":[5],"sdaReg124":[21, 22, 8],"sdaReg16":[1],"sdaReg123":[21, 8],"sdaReg119":[20],"sdaReg77":[8],"1093997824":[8],"sdaReg78":[8],"sdaReg79":[8],"sdaReg213":[1, 40],"sdaReg75":[8],"sdaReg76":[8],"sdaReg212":[1],"sdaReg211":[1, 39],"sdaReg80":[8],"sdaReg210":[1],"sdaReg83":[0],"1085268040":[8],"1094287216.arrayIdx_int:0":[1],"sdaReg113":[19],"sdaReg107":[1],"sdaReg104":[18],"sdaReg105":[1],"sdaReg170":[30],"sdaReg246":[21, 22, 8],"static.<com.android.internal.util.ArrayUtils: java.lang.Object[] sCache>":[8],"sdaReg86":[17, 2],"sdaReg247":[42],"sdaReg248":[42],"sdaReg175":[31],"sdaReg84":[1],"sdaReg85":[17, 2],"sdaReg249":[42],"sdaReg177":[31],"sdaReg176":[31],"sdaReg179":[31],"sdaReg178":[31],"sdaReg89":[17, 1, 2],"sdaReg241":[41],"sdaReg94":[17, 1, 2],"sdaReg93":[1],"sdaReg92":[0],"sdaReg180":[31],"sdaReg95":[1],"sdaReg235":[1],"sdaReg97":[1],"sdaReg236":[21, 22, 8],"1094287216":[1],"sdaReg234":[21, 22, 8],"sdaReg233":[1],"1094509816.arrayIdx_int:1":[1],"sdaReg269":[1],"sdaReg268":[1, 44],"1084375760.arrayIdx_int:26":[8],"sdaReg161":[29],"sdaReg162":[1],"sdaReg163":[21, 22, 8],"sdaReg164":[1],"sdaReg165":[21, 22, 8],"1094509816.arrayIdx_int:0":[1],"sdaReg59":[1],"sdaReg264":[1, 43],"sdaReg265":[17, 1, 2],"sdaReg57":[1],"sdaReg266":[17, 1, 2],"sdaReg56":[12],"sdaReg267":[1],"sdaReg55":[11],"sdaReg260":[0],"sdaReg261":[1],"sdaReg262":[17, 1, 2],"sdaReg263":[1],"sdaReg258":[8],"sdaReg257":[8],"1093780576":[0],"1084833288":[8, 9],"1084661656":[21, 22, 8],"sdaReg152":[1],"sdaReg153":[21, 22, 8],"sdaReg48":[1],"sdaReg154":[1],"sdaReg155":[21, 22, 8],"sdaReg45":[2],"sdaReg255":[8],"1084659448":[8, 9, 10],"sdaReg256":[8],"sdaReg44":[1],"sdaReg253":[8],"sdaReg254":[8],"sdaReg46":[1],"sdaReg251":[21, 8],"sdaReg252":[21, 22, 8],"sdaReg43":[0],"sdaReg250":[42],"1093576184":[8, 15],"1094557032.<android.text.SpannableStringInternal: java.lang.Object[] mSpans>":[1],"sdaReg200":[1],"sdaReg148":[1, 28],"sdaReg201":[34, 1],"sdaReg147":[1],"1085374624":[21, 8],"sdaReg205":[1, 36],"sdaReg143":[1],"sdaReg204":[1],"sdaReg144":[1, 26],"1094509816":[1],"sdaReg203":[1, 35],"sdaReg145":[1],"sdaReg38":[8],"sdaReg202":[1],"sdaReg146":[1, 27],"sdaReg37":[8],"1084375760":[8],"sdaReg209":[1, 38],"1094557032.<android.text.SpannableStringInternal: int[] mSpanData>":[1],"sdaReg208":[1],"sdaReg140":[1, 24],"sdaReg207":[1, 37],"sdaReg141":[1],"sdaReg206":[1],"sdaReg142":[1, 25],"sdaReg283":[8],"sdaReg31":[8, 9, 10],"sdaReg30":[8, 9],"sdaReg286":[1],"sdaReg36":[8],"sdaReg287":[50],"sdaReg35":[8],"sdaReg34":[8],"1094557032":[1],"sdaReg7":[1],"sdaReg4":[3],"sdaReg5":[1],"1093959696":[1],"sdaReg139":[1],"sdaReg138":[1, 23],"sdaReg137":[1],"sdaReg27":[7],"sdaReg134":[0],"sdaReg26":[7],"sdaReg135":[1],"sdaReg29":[7],"sdaReg28":[7],"sdaReg130":[8],"sdaReg270":[1, 45],"1094200240":[31],"sdaReg131":[8, 31],"1094557032.<android.text.SpannableStringInternal: java.lang.String mText>":[1],"sdaReg273":[1],"sdaReg3":[1],"sdaReg2":[2],"sdaReg274":[1, 47],"sdaReg271":[1],"sdaReg1":[2],"sdaReg272":[1, 46],"sdaReg0":[1],"sdaReg277":[1],"sdaReg278":[1, 49],"sdaReg275":[1],"sdaReg276":[1, 48],"sdaReg24":[6]},"colorToColor":{"34":[0],"1":[0, 31],"35":[0],"32":[0],"33":[0],"38":[0],"39":[0],"36":[0],"37":[0],"8":[42],"40":[0],"46":[0],"47":[0],"45":[0],"49":[0],"48":[0],"21":[42],"23":[0],"22":[42],"25":[0],"24":[0],"27":[0],"26":[0]},"colorToLabel":{"0":"arg#0","1":"arg#1","8":"<com.android.internal.util.ArrayUtils: java.lang.Object[] sCache>","51":"return"}}}

Generated Model
	arg#1->arg#0

