Scanning method <android.text.Html: void withinHtml(java.lang.StringBuilder,android.text.Spanned)>

All seen event types: StoreArrayRecord, SimpleAssignmentRecord, MethodStartRecord, LoadInstanceRecord, IfRecord, InstanceOfRecord, LoadStaticRecord, BinaryOperationRecord, MethodCallRecord, MethodReturnRecord, CastRecord, ArrayLengthRecord, LoadArrayRecord, MethodEndRecord, 
Ignored event types: IfRecord, 

JSON Encoded Analysis Data (for visualization):{"heapEdges":[{"step":0,"from":"1094086736","to":"1094086736.<android.text.SpannableStringInternal: java.lang.String mText>","type":"load","field":"<android.text.SpannableStringInternal: java.lang.String mText>"},{"step":1,"from":"1094086736","to":"1094086736.<android.text.SpannableStringInternal: java.lang.String mText>","type":"load","field":"<android.text.SpannableStringInternal: java.lang.String mText>"},{"step":2,"from":"1094086736","to":"1094086736.<android.text.SpannableStringInternal: int mSpanCount>","type":"load","field":"<android.text.SpannableStringInternal: int mSpanCount>"},{"step":3,"from":"1094086736","to":"1094211840","type":"load","field":"<android.text.SpannableStringInternal: java.lang.Object[] mSpans>"},{"step":4,"from":"1094086736","to":"1094211864","type":"load","field":"<android.text.SpannableStringInternal: int[] mSpanData>"},{"step":5,"from":"1094211864","to":"1094211864.arrayIdx_int:0","type":"load","field":"arrayIdx_int:0"},{"step":6,"from":"1094211864","to":"1094211864.arrayIdx_int:1","type":"load","field":"arrayIdx_int:1"},{"step":7,"from":"1094211840","to":"1093730616","type":"load","field":"arrayIdx_int:0"},{"step":8,"from":"1094086736","to":"1094086736.<android.text.SpannableStringInternal: int mSpanCount>","type":"load","field":"<android.text.SpannableStringInternal: int mSpanCount>"},{"step":9,"from":"1094086736","to":"1094211840","type":"load","field":"<android.text.SpannableStringInternal: java.lang.Object[] mSpans>"},{"step":10,"from":"1094086736","to":"1094211864","type":"load","field":"<android.text.SpannableStringInternal: int[] mSpanData>"},{"step":11,"from":"1094211840","to":"1093730616","type":"load","field":"arrayIdx_int:0"},{"step":12,"from":"1094211864","to":"1094211864.arrayIdx_int:0","type":"load","field":"arrayIdx_int:0"},{"step":13,"from":"1094211864","to":"1094211864.arrayIdx_int:1","type":"load","field":"arrayIdx_int:1"},{"step":14,"from":"1094211840","to":"1093730616","type":"load","field":"arrayIdx_int:0"},{"step":15,"from":"1093730616","to":"1093650384","type":"store","field":"arrayIdx_int:0"},{"step":16,"from":"1094086736","to":"1094086736.<android.text.SpannableStringInternal: int mSpanCount>","type":"load","field":"<android.text.SpannableStringInternal: int mSpanCount>"},{"step":17,"from":"1094086736","to":"1094211840","type":"load","field":"<android.text.SpannableStringInternal: java.lang.Object[] mSpans>"},{"step":18,"from":"1094086736","to":"1094211864","type":"load","field":"<android.text.SpannableStringInternal: int[] mSpanData>"},{"step":19,"from":"1094211864","to":"1094211864.arrayIdx_int:0","type":"load","field":"arrayIdx_int:0"},{"step":20,"from":"1094211864","to":"1094211864.arrayIdx_int:1","type":"load","field":"arrayIdx_int:1"},{"step":21,"from":"1094086736","to":"1094086736.<android.text.SpannableStringInternal: int mSpanCount>","type":"load","field":"<android.text.SpannableStringInternal: int mSpanCount>"},{"step":22,"from":"1094086736","to":"1094211840","type":"load","field":"<android.text.SpannableStringInternal: java.lang.Object[] mSpans>"},{"step":23,"from":"1094086736","to":"1094211864","type":"load","field":"<android.text.SpannableStringInternal: int[] mSpanData>"},{"step":24,"from":"1094211840","to":"1093730616","type":"load","field":"arrayIdx_int:0"},{"step":25,"from":"1094211864","to":"1094211864.arrayIdx_int:0","type":"load","field":"arrayIdx_int:0"},{"step":26,"from":"1094211864","to":"1094211864.arrayIdx_int:1","type":"load","field":"arrayIdx_int:1"},{"step":27,"from":"1094211840","to":"1093730616","type":"load","field":"arrayIdx_int:0"},{"step":28,"from":"1093730616","to":"1093494800","type":"store","field":"arrayIdx_int:0"},{"step":29,"from":"1094086736","to":"1094086736.<android.text.SpannableStringInternal: java.lang.String mText>","type":"load","field":"<android.text.SpannableStringInternal: java.lang.String mText>"},{"step":30,"from":"1094086736.<android.text.SpannableStringInternal: java.lang.String mText>","to":"sdaReg82","type":"model"},{"step":31,"from":"1094086736","to":"1094086736.<android.text.SpannableStringInternal: java.lang.String mText>","type":"load","field":"<android.text.SpannableStringInternal: java.lang.String mText>"},{"step":32,"from":"1094086736.<android.text.SpannableStringInternal: java.lang.String mText>","to":"sdaReg84","type":"model"},{"step":33,"from":"1094086736","to":"1094086736.<android.text.SpannableStringInternal: int mSpanCount>","type":"load","field":"<android.text.SpannableStringInternal: int mSpanCount>"},{"step":34,"from":"1094086736","to":"1094211840","type":"load","field":"<android.text.SpannableStringInternal: java.lang.Object[] mSpans>"},{"step":35,"from":"1094086736","to":"1094211864","type":"load","field":"<android.text.SpannableStringInternal: int[] mSpanData>"},{"step":36,"from":"1094211864","to":"1094211864.arrayIdx_int:0","type":"load","field":"arrayIdx_int:0"},{"step":37,"from":"1094211864","to":"1094211864.arrayIdx_int:1","type":"load","field":"arrayIdx_int:1"},{"step":38,"from":"1094086736","to":"1094086736.<android.text.SpannableStringInternal: int mSpanCount>","type":"load","field":"<android.text.SpannableStringInternal: int mSpanCount>"},{"step":39,"from":"1094086736","to":"1094211840","type":"load","field":"<android.text.SpannableStringInternal: java.lang.Object[] mSpans>"},{"step":40,"from":"1094086736","to":"1094211864","type":"load","field":"<android.text.SpannableStringInternal: int[] mSpanData>"},{"step":41,"from":"1094211840","to":"1093730616","type":"load","field":"arrayIdx_int:0"},{"step":42,"from":"1084661656","to":"sdaReg111","type":"model"},{"step":43,"from":"static.<com.android.internal.util.ArrayUtils: java.lang.Object[] sCache>","to":"1084375760","type":"load","field":"<com.android.internal.util.ArrayUtils: java.lang.Object[] sCache>"},{"step":44,"from":"1084375760","to":"1093765448","type":"load","field":"arrayIdx_int:26"},{"step":45,"from":"1093765448","to":"1085374624","type":"model"},{"step":46,"from":"1085374624","to":"1084661656","type":"model"},{"step":47,"from":"1094086736","to":"1094086736.<android.text.SpannableStringInternal: java.lang.String mText>","type":"load","field":"<android.text.SpannableStringInternal: java.lang.String mText>"},{"step":48,"from":"1094086736.<android.text.SpannableStringInternal: java.lang.String mText>","to":"sdaReg130","type":"model"},{"step":49,"from":"sdaReg130","to":"1093946728","type":"model"},{"step":50,"from":"1094086736","to":"1094086736.<android.text.SpannableStringInternal: java.lang.String mText>","type":"load","field":"<android.text.SpannableStringInternal: java.lang.String mText>"},{"step":51,"from":"1094086736.<android.text.SpannableStringInternal: java.lang.String mText>","to":"sdaReg132","type":"model"},{"step":52,"from":"sdaReg132","to":"1093946728","type":"model"},{"step":53,"from":"1094086736","to":"1094086736.<android.text.SpannableStringInternal: java.lang.String mText>","type":"load","field":"<android.text.SpannableStringInternal: java.lang.String mText>"},{"step":54,"from":"1094086736.<android.text.SpannableStringInternal: java.lang.String mText>","to":"sdaReg134","type":"model"},{"step":55,"from":"sdaReg134","to":"1093946728","type":"model"},{"step":56,"from":"1094086736","to":"1094086736.<android.text.SpannableStringInternal: java.lang.String mText>","type":"load","field":"<android.text.SpannableStringInternal: java.lang.String mText>"},{"step":57,"from":"1094086736.<android.text.SpannableStringInternal: java.lang.String mText>","to":"sdaReg136","type":"model"},{"step":58,"from":"sdaReg136","to":"1093946728","type":"model"},{"step":59,"from":"1094086736","to":"1094086736.<android.text.SpannableStringInternal: java.lang.String mText>","type":"load","field":"<android.text.SpannableStringInternal: java.lang.String mText>"},{"step":60,"from":"1094086736.<android.text.SpannableStringInternal: java.lang.String mText>","to":"sdaReg138","type":"model"},{"step":61,"from":"sdaReg138","to":"1093946728","type":"model"},{"step":62,"from":"sdaReg142","to":"1093946728","type":"model"},{"step":63,"from":"1094086736","to":"1094086736.<android.text.SpannableStringInternal: java.lang.String mText>","type":"load","field":"<android.text.SpannableStringInternal: java.lang.String mText>"},{"step":64,"from":"1094086736","to":"1094086736.<android.text.SpannableStringInternal: int mSpanCount>","type":"load","field":"<android.text.SpannableStringInternal: int mSpanCount>"},{"step":65,"from":"1094086736","to":"1094211840","type":"load","field":"<android.text.SpannableStringInternal: java.lang.Object[] mSpans>"},{"step":66,"from":"1094086736","to":"1094211864","type":"load","field":"<android.text.SpannableStringInternal: int[] mSpanData>"},{"step":67,"from":"1094211864","to":"1094211864.arrayIdx_int:0","type":"load","field":"arrayIdx_int:0"},{"step":68,"from":"1094211864","to":"1094211864.arrayIdx_int:1","type":"load","field":"arrayIdx_int:1"},{"step":69,"from":"1094086736","to":"1094086736.<android.text.SpannableStringInternal: int mSpanCount>","type":"load","field":"<android.text.SpannableStringInternal: int mSpanCount>"},{"step":70,"from":"1094086736","to":"1094211840","type":"load","field":"<android.text.SpannableStringInternal: java.lang.Object[] mSpans>"},{"step":71,"from":"1094086736","to":"1094211864","type":"load","field":"<android.text.SpannableStringInternal: int[] mSpanData>"},{"step":72,"from":"1094211840","to":"1093730616","type":"load","field":"arrayIdx_int:0"},{"step":73,"from":"1094211864","to":"1094211864.arrayIdx_int:0","type":"load","field":"arrayIdx_int:0"},{"step":74,"from":"1094211864","to":"1094211864.arrayIdx_int:1","type":"load","field":"arrayIdx_int:1"},{"step":75,"from":"1084659448","to":"sdaReg171","type":"model"},{"step":76,"from":"static.<com.android.internal.util.ArrayUtils: java.lang.Object[] sCache>","to":"1084375760","type":"load","field":"<com.android.internal.util.ArrayUtils: java.lang.Object[] sCache>"},{"step":77,"from":"1084375760","to":"1085268040","type":"load","field":"arrayIdx_int:42"},{"step":78,"from":"1085268040","to":"1084833288","type":"model"},{"step":79,"from":"1084833288","to":"1084659448","type":"model"},{"step":80,"from":"1094086736","to":"1094086736.<android.text.SpannableStringInternal: int mSpanCount>","type":"load","field":"<android.text.SpannableStringInternal: int mSpanCount>"},{"step":81,"from":"1094086736","to":"1094211840","type":"load","field":"<android.text.SpannableStringInternal: java.lang.Object[] mSpans>"},{"step":82,"from":"1094086736","to":"1094211864","type":"load","field":"<android.text.SpannableStringInternal: int[] mSpanData>"},{"step":83,"from":"1094211864","to":"1094211864.arrayIdx_int:0","type":"load","field":"arrayIdx_int:0"},{"step":84,"from":"1094211864","to":"1094211864.arrayIdx_int:1","type":"load","field":"arrayIdx_int:1"},{"step":85,"from":"1094086736","to":"1094086736.<android.text.SpannableStringInternal: int mSpanCount>","type":"load","field":"<android.text.SpannableStringInternal: int mSpanCount>"},{"step":86,"from":"1094086736","to":"1094211840","type":"load","field":"<android.text.SpannableStringInternal: java.lang.Object[] mSpans>"},{"step":87,"from":"1094086736","to":"1094211864","type":"load","field":"<android.text.SpannableStringInternal: int[] mSpanData>"},{"step":88,"from":"1094211840","to":"1093730616","type":"load","field":"arrayIdx_int:0"},{"step":89,"from":"1094211864","to":"1094211864.arrayIdx_int:0","type":"load","field":"arrayIdx_int:0"},{"step":90,"from":"1094211864","to":"1094211864.arrayIdx_int:1","type":"load","field":"arrayIdx_int:1"},{"step":91,"from":"1084853880","to":"sdaReg210","type":"model"},{"step":92,"from":"static.<com.android.internal.util.ArrayUtils: java.lang.Object[] sCache>","to":"1084375760","type":"load","field":"<com.android.internal.util.ArrayUtils: java.lang.Object[] sCache>"},{"step":93,"from":"static.<com.android.internal.util.ArrayUtils: java.lang.Object[] sCache>","to":"1084375760","type":"load","field":"<com.android.internal.util.ArrayUtils: java.lang.Object[] sCache>"},{"step":94,"from":"1084375760","to":"1093822784","type":"create","field":"arrayIdx_int:37"},{"step":95,"from":"1094086736","to":"1094086736.<android.text.SpannableStringInternal: int mSpanCount>","type":"load","field":"<android.text.SpannableStringInternal: int mSpanCount>"},{"step":96,"from":"1094086736","to":"1094211840","type":"load","field":"<android.text.SpannableStringInternal: java.lang.Object[] mSpans>"},{"step":97,"from":"1094086736","to":"1094211864","type":"load","field":"<android.text.SpannableStringInternal: int[] mSpanData>"},{"step":98,"from":"1094211864","to":"1094211864.arrayIdx_int:0","type":"load","field":"arrayIdx_int:0"},{"step":99,"from":"1094211864","to":"1094211864.arrayIdx_int:1","type":"load","field":"arrayIdx_int:1"},{"step":100,"from":"1094086736","to":"1094086736.<android.text.SpannableStringInternal: int mSpanCount>","type":"load","field":"<android.text.SpannableStringInternal: int mSpanCount>"},{"step":101,"from":"1094086736","to":"1094211840","type":"load","field":"<android.text.SpannableStringInternal: java.lang.Object[] mSpans>"},{"step":102,"from":"1094086736","to":"1094211864","type":"load","field":"<android.text.SpannableStringInternal: int[] mSpanData>"},{"step":103,"from":"1094211840","to":"1093730616","type":"load","field":"arrayIdx_int:0"},{"step":104,"from":"1084661656","to":"sdaReg256","type":"model"},{"step":105,"from":"static.<com.android.internal.util.ArrayUtils: java.lang.Object[] sCache>","to":"1084375760","type":"load","field":"<com.android.internal.util.ArrayUtils: java.lang.Object[] sCache>"},{"step":106,"from":"1084375760","to":"1093765448","type":"load","field":"arrayIdx_int:26"},{"step":107,"from":"1093765448","to":"1085374624","type":"model"},{"step":108,"from":"1085374624","to":"1084661656","type":"model"},{"step":109,"from":"1094086736","to":"1094086736.<android.text.SpannableStringInternal: java.lang.String mText>","type":"load","field":"<android.text.SpannableStringInternal: java.lang.String mText>"},{"step":110,"from":"1094086736.<android.text.SpannableStringInternal: java.lang.String mText>","to":"sdaReg275","type":"model"},{"step":111,"from":"sdaReg275","to":"1093946728","type":"model"},{"step":112,"from":"1094086736","to":"1094086736.<android.text.SpannableStringInternal: java.lang.String mText>","type":"load","field":"<android.text.SpannableStringInternal: java.lang.String mText>"},{"step":113,"from":"1094086736.<android.text.SpannableStringInternal: java.lang.String mText>","to":"sdaReg277","type":"model"},{"step":114,"from":"sdaReg277","to":"1093946728","type":"model"},{"step":115,"from":"1094086736","to":"1094086736.<android.text.SpannableStringInternal: java.lang.String mText>","type":"load","field":"<android.text.SpannableStringInternal: java.lang.String mText>"},{"step":116,"from":"1094086736.<android.text.SpannableStringInternal: java.lang.String mText>","to":"sdaReg279","type":"model"},{"step":117,"from":"sdaReg279","to":"1093946728","type":"model"},{"step":118,"from":"1094086736","to":"1094086736.<android.text.SpannableStringInternal: java.lang.String mText>","type":"load","field":"<android.text.SpannableStringInternal: java.lang.String mText>"},{"step":119,"from":"1094086736.<android.text.SpannableStringInternal: java.lang.String mText>","to":"sdaReg281","type":"model"},{"step":120,"from":"sdaReg281","to":"1093946728","type":"model"},{"step":121,"from":"1094086736","to":"1094086736.<android.text.SpannableStringInternal: java.lang.String mText>","type":"load","field":"<android.text.SpannableStringInternal: java.lang.String mText>"},{"step":122,"from":"1094086736.<android.text.SpannableStringInternal: java.lang.String mText>","to":"sdaReg283","type":"model"},{"step":123,"from":"sdaReg283","to":"1093946728","type":"model"},{"step":124,"from":"sdaReg287","to":"1093946728","type":"model"},{"step":125,"from":"1094086736","to":"1094086736.<android.text.SpannableStringInternal: java.lang.String mText>","type":"load","field":"<android.text.SpannableStringInternal: java.lang.String mText>"}],"parameters":[{"id":"1093946728","name":"arg#0","klass":"java.lang.StringBuilder"},{"id":"1094086736","name":"arg#1","klass":"android.text.Spanned"}],"returns":[{"id":null,"name":"return","klass":null}],"colors":{"heapLocToColor":{"sdaReg293":[38],"sdaReg126":[0],"sdaReg127":[1],"sdaReg129":[1],"sdaReg228":[1, 2, 30],"sdaReg68":[8],"sdaReg198":[1],"sdaReg69":[8],"sdaReg66":[8],"1093730616":[1],"sdaReg67":[8],"sdaReg225":[0],"sdaReg292":[1],"sdaReg226":[1],"sdaReg227":[1, 2, 30],"sdaReg196":[1],"sdaReg221":[29],"sdaReg72":[8],"sdaReg220":[29],"sdaReg71":[8],"sdaReg14":[4],"sdaReg70":[8],"sdaReg222":[29],"1093494800":[8],"sdaReg120":[14],"sdaReg17":[1],"sdaReg122":[14],"sdaReg121":[14],"1094211840":[1],"sdaReg15":[1],"sdaReg123":[14],"sdaReg116":[16, 14, 15],"sdaReg114":[13],"sdaReg115":[14, 15],"sdaReg119":[14],"sdaReg219":[29],"sdaReg77":[1],"sdaReg78":[9],"sdaReg217":[29],"sdaReg79":[9],"sdaReg218":[29],"sdaReg215":[29],"sdaReg73":[8],"sdaReg216":[29],"sdaReg213":[28],"sdaReg214":[29],"sdaReg76":[0],"sdaReg212":[28],"sdaReg81":[1],"sdaReg211":[28],"sdaReg210":[28],"sdaReg83":[1],"1085268040":[14],"sdaReg82":[1, 10],"sdaReg113":[13],"sdaReg112":[13],"sdaReg111":[13],"sdaReg109":[12],"sdaReg103":[1],"sdaReg171":[24],"sdaReg246":[1],"sdaReg173":[24],"sdaReg86":[9],"static.<com.android.internal.util.ArrayUtils: java.lang.Object[] sCache>":[14],"sdaReg247":[16, 14, 15],"sdaReg172":[24],"sdaReg248":[1],"sdaReg175":[25, 14],"sdaReg84":[1, 11],"sdaReg249":[16, 14, 15],"sdaReg174":[24],"sdaReg176":[25, 26, 14],"sdaReg179":[14],"sdaReg89":[0],"sdaReg90":[1],"sdaReg240":[16, 14, 15],"sdaReg94":[1],"sdaReg92":[1],"sdaReg91":[9],"1094211864":[1],"1093946728":[0],"sdaReg101":[1],"sdaReg182":[14],"sdaReg181":[14],"sdaReg180":[14],"sdaReg237":[1],"sdaReg186":[1, 2],"sdaReg238":[16, 14, 15],"sdaReg185":[1],"sdaReg235":[1],"sdaReg184":[0],"sdaReg236":[1, 2, 30],"sdaReg189":[1],"sdaReg239":[1],"sdaReg187":[1],"sdaReg230":[1, 2],"sdaReg234":[0],"sdaReg231":[1, 2, 30],"1094086736.<android.text.SpannableStringInternal: java.lang.String mText>":[1],"1094086736.<android.text.SpannableStringInternal: int mSpanCount>":[1],"sdaReg61":[7],"sdaReg268":[14],"1084375760.arrayIdx_int:26":[14],"1094211864.arrayIdx_int:0":[1],"1094211864.arrayIdx_int:1":[1],"sdaReg165":[23],"sdaReg264":[14],"sdaReg265":[14],"sdaReg266":[14],"sdaReg267":[14],"sdaReg55":[1],"sdaReg260":[14, 15],"sdaReg261":[16, 14, 15],"sdaReg53":[1],"sdaReg262":[14],"sdaReg263":[14],"sdaReg259":[32],"sdaReg258":[32],"sdaReg257":[32],"sdaReg159":[1],"1084833288":[25, 14],"1093765448":[14],"1084661656":[16, 14, 15],"sdaReg150":[1],"sdaReg157":[1],"sdaReg255":[16, 14, 15],"1084659448":[25, 26, 14],"sdaReg256":[32],"sdaReg44":[1],"sdaReg254":[31],"sdaReg46":[1],"sdaReg41":[0],"sdaReg43":[1, 2],"sdaReg42":[1],"1093650384":[6],"1094086736":[1],"sdaReg148":[1],"1085374624":[14, 15],"sdaReg147":[22],"sdaReg143":[8],"sdaReg204":[27],"1093822784":[29],"1084375760":[14],"sdaReg146":[1],"sdaReg280":[1],"sdaReg281":[1, 36],"sdaReg282":[1],"sdaReg32":[6],"sdaReg283":[1, 37],"sdaReg31":[6],"sdaReg30":[6],"sdaReg34":[6, 14],"sdaReg289":[29],"sdaReg33":[6],"1094211840.arrayIdx_int:0":[1],"sdaReg279":[1, 35],"sdaReg7":[1],"sdaReg4":[3],"sdaReg5":[1],"sdaReg138":[1, 21],"sdaReg137":[1],"1094086736.<android.text.SpannableStringInternal: int[] mSpanData>":[1],"sdaReg136":[1, 20],"sdaReg134":[1, 19],"sdaReg135":[1],"1094086736.<android.text.SpannableStringInternal: java.lang.Object[] mSpans>":[1],"sdaReg29":[6],"sdaReg132":[1, 18],"sdaReg28":[6],"sdaReg133":[1],"sdaReg130":[17, 1],"sdaReg131":[1],"sdaReg273":[1, 2],"sdaReg3":[1],"sdaReg274":[1],"sdaReg2":[1, 2],"sdaReg271":[0],"sdaReg1":[1, 2],"sdaReg272":[1],"sdaReg0":[1],"sdaReg277":[34, 1],"sdaReg23":[5],"sdaReg278":[1],"sdaReg275":[1, 33],"sdaReg276":[1]},"colorToColor":{"34":[0],"1":[0, 6, 8],"35":[0],"33":[0],"36":[0],"37":[0],"14":[32],"15":[32],"17":[0],"16":[32],"19":[0],"18":[0],"21":[0],"20":[0],"29":[14]},"colorToLabel":{"0":"arg#0","1":"arg#1","14":"<com.android.internal.util.ArrayUtils: java.lang.Object[] sCache>","39":"return"}}}

Generated Model
	arg#1->arg#0

