Scanning method <java.util.Vector: int size()>

All seen event types: LoadInstanceRecord, 
Ignored event types: 

JSON Encoded Analysis Data (for visualization):{"heapEdges":[{"step":0,"from":"1093345016","to":"1093345016.<java.util.Vector: int elementCount>","type":"load","field":"<java.util.Vector: int elementCount>"}],"parameters":[{"id":"1093345016","name":"this","klass":"java.util.Vector"}],"returns":[{"id":"1093345016.<java.util.Vector: int elementCount>","name":"return","klass":"int"}],"colors":{"heapLocToColor":{"1093345016":[0],"1093345016.<java.util.Vector: int elementCount>":[0]},"colorToColor":{"0":[1]},"colorToLabel":{"0":"this","1":"return"}}}

Generated Model
	this->return

