Scanning method <java.io.ObjectInputStream: void pushbackTC()>

All seen event types: StoreInstanceRecord, 
Ignored event types: 

JSON Encoded Analysis Data (for visualization):{"heapEdges":[{"step":0,"from":"1093282712","to":"sdaReg0","type":"create","field":"<java.io.ObjectInputStream: boolean hasPushbackTC>"}],"parameters":[{"id":"1093282712","name":"this","klass":"java.io.ObjectInputStream"}],"returns":[{"id":null,"name":"return","klass":null}],"colors":{"heapLocToColor":{"1093282712":[0]},"colorToColor":{},"colorToLabel":{"0":"this","1":"return"}}}

Generated Model

