Scanning method <android.location.Address: android.os.Bundle getExtras()>

All seen event types: LoadInstanceRecord, 
Ignored event types: 

JSON Encoded Analysis Data (for visualization):{"heapEdges":[],"parameters":[{"id":"1093642696","name":"this","klass":"android.location.Address"}],"returns":[{"id":"0","name":"return","klass":"android.os.Bundle"}],"colors":{"heapLocToColor":{"1093642696":[0]},"colorToColor":{},"colorToLabel":{"0":"this","1":"return"}}}

Generated Model

