Scanning method <java.io.DataInputStream: void readFully(byte[],int,int)>

All seen event types: MethodReturnRecord, MethodCallRecord, LoadInstanceRecord, 
Ignored event types: 

JSON Encoded Analysis Data (for visualization):{"heapEdges":[{"step":0,"from":"1093303808","to":"1093604600","type":"load","field":"<java.io.FilterInputStream: java.io.InputStream in>"},{"step":1,"from":"1093604600","to":"1093460968","type":"model"}],"parameters":[{"id":"1093303808","name":"this","klass":"java.io.DataInputStream"},{"id":"1093460968","name":"arg#1","klass":"byte[]"},{"id":"sdaReg0","name":"arg#2","klass":"int"},{"id":"sdaReg1","name":"arg#3","klass":"int"}],"returns":[{"id":null,"name":"return","klass":null}],"colors":{"heapLocToColor":{"1093604600":[0],"1093303808":[0],"sdaReg1":[3],"sdaReg0":[2],"1093460968":[1]},"colorToColor":{"0":[1]},"colorToLabel":{"0":"this","1":"arg#1","2":"arg#2","3":"arg#3","4":"return"}}}

Generated Model
	this->arg#1

