Scanning method <java.util.HashMap: java.util.HashMap$HashMapEntry[] doubleCapacity()>

All seen event types: SimpleAssignmentRecord, LoadInstanceRecord, MethodStartRecord, IfRecord, StoreInstanceRecord, NewArrayRecord, BinaryOperationRecord, MethodCallRecord, MethodReturnRecord, ArrayLengthRecord, CastRecord, LoadArrayRecord, MethodEndRecord, 
Ignored event types: IfRecord, 

JSON Encoded Analysis Data (for visualization):{"heapEdges":[{"step":0,"from":"1093568456","to":"1083997920","type":"load","field":"<java.util.HashMap: java.util.HashMap$HashMapEntry[] table>"},{"step":1,"from":"1093568456","to":"1093387872","type":"create","field":"<java.util.HashMap: java.util.HashMap$HashMapEntry[] table>"},{"step":2,"from":"sdaReg6","to":"1093568456","type":"store","field":"<java.util.HashMap: int threshold>"},{"step":3,"from":"1093568456","to":"1093568456.<java.util.HashMap: int size>","type":"load","field":"<java.util.HashMap: int size>"}],"parameters":[{"id":"1093568456","name":"this","klass":"java.util.HashMap"}],"returns":[{"id":"1093387872","name":"return","klass":"java.util.HashMap$HashMapEntry[]"}],"colors":{"heapLocToColor":{"1093568456.<java.util.HashMap: int size>":[0],"1093387872":[1],"sdaReg7":[1],"sdaReg2":[0],"1083997920":[0],"1093568456":[0]},"colorToColor":{"1":[0, 2]},"colorToLabel":{"0":"this","2":"return"}}}

Generated Model

