Scanning method <java.util.HashMap: java.util.Set entrySet()>

All seen event types: SimpleAssignmentRecord, LoadInstanceRecord, IfRecord, 
Ignored event types: IfRecord, 

JSON Encoded Analysis Data (for visualization):{"heapEdges":[{"step":0,"from":"1093549472","to":"1093420416","type":"load","field":"<java.util.HashMap: java.util.Set entrySet>"}],"parameters":[{"id":"1093549472","name":"this","klass":"java.util.HashMap"}],"returns":[{"id":"1093420416","name":"return","klass":"java.util.Set"}],"colors":{"heapLocToColor":{"1093420416":[0],"1093549472":[0]},"colorToColor":{"0":[1]},"colorToLabel":{"0":"this","1":"return"}}}

Generated Model
	this->return

