Scanning method <java.util.Arrays: void checkOffsetAndCount(int,int,int)>

All seen event types: BinaryOperationRecord, IfRecord, 
Ignored event types: IfRecord, 

JSON Encoded Analysis Data (for visualization):{"heapEdges":[],"parameters":[{"id":"sdaReg0","name":"arg#0","klass":"int"},{"id":"sdaReg1","name":"arg#1","klass":"int"},{"id":"sdaReg2","name":"arg#2","klass":"int"}],"returns":[{"id":null,"name":"return","klass":null}],"colors":{"heapLocToColor":{"sdaReg4":[0, 1],"sdaReg3":[1, 2],"sdaReg2":[2],"sdaReg1":[1],"sdaReg0":[0]},"colorToColor":{},"colorToLabel":{"0":"arg#0","1":"arg#1","2":"arg#2","3":"return"}}}

Generated Model

