Scanning method <java.io.DataInputStream: void <init>(java.io.InputStream)>

All seen event types: NewArrayRecord, MethodReturnRecord, MethodCallRecord, MethodStartRecord, MethodEndRecord, StoreInstanceRecord, 
Ignored event types: 

JSON Encoded Analysis Data (for visualization):{"heapEdges":[{"step":0,"from":"1093604600","to":"1093303808","type":"store","field":"<java.io.FilterInputStream: java.io.InputStream in>"},{"step":1,"from":"1093303808","to":"1093604672","type":"create","field":"<java.io.DataInputStream: byte[] scratch>"}],"parameters":[{"id":"1093303808","name":"this","klass":"java.io.DataInputStream"},{"id":"1093604600","name":"arg#1","klass":"java.io.InputStream"}],"returns":[{"id":"1093303808","name":"return","klass":"java.io.DataInputStream"}],"colors":{"heapLocToColor":{"1093604672":[2],"sdaReg4":[0],"1093604600":[1],"sdaReg5":[0],"sdaReg3":[0],"sdaReg2":[0],"1093303808":[0],"sdaReg1":[1],"sdaReg0":[0]},"colorToColor":{"0":[3],"1":[0],"2":[0]},"colorToLabel":{"0":"this","1":"arg#1","3":"return"}}}

Generated Model
	this->return
	arg#1->this
	arg#1->return

