Scanning method <android.os.Bundle: long getLong(java.lang.String,long)>

All seen event types: BinaryOperationRecord, MethodReturnRecord, MethodCallRecord, CastRecord, ArrayLengthRecord, LoadInstanceRecord, MethodStartRecord, LoadArrayRecord, MethodEndRecord, IfRecord, 
Ignored event types: IfRecord, 

JSON Encoded Analysis Data (for visualization):{"heapEdges":[{"step":0,"from":"1093608016","to":"1093753528","type":"load","field":"<android.os.Bundle: java.util.Map mMap>"},{"step":1,"from":"1093753528","to":"1093504576","type":"load","field":"<java.util.HashMap: java.util.HashMap$HashMapEntry[] table>"},{"step":2,"from":"1093504576","to":"1093504616","type":"load","field":"arrayIdx_int:2"},{"step":3,"from":"1093504616","to":"1093656688","type":"load","field":"<java.util.HashMap$HashMapEntry: java.lang.Object key>"},{"step":4,"from":"1093504616","to":"1093504616.<java.util.HashMap$HashMapEntry: int hash>","type":"load","field":"<java.util.HashMap$HashMapEntry: int hash>"},{"step":5,"from":"1093504616","to":"1093659056","type":"load","field":"<java.util.HashMap$HashMapEntry: java.lang.Object value>"},{"step":6,"from":"1093659056","to":"sdaReg19","type":"model"}],"parameters":[{"id":"1093608016","name":"this","klass":"android.os.Bundle"},{"id":"sdaReg0","name":"arg#1","klass":"string"},{"id":"sdaReg1","name":"arg#2","klass":"long"}],"returns":[{"id":"sdaReg19","name":"return","klass":"long"}],"colors":{"heapLocToColor":{"1093659056":[0],"1093504576":[0],"1093656688":[0],"sdaReg11":[3],"sdaReg12":[3],"sdaReg10":[3],"sdaReg19":[0, 5],"sdaReg17":[0],"sdaReg18":[0],"sdaReg15":[3],"sdaReg16":[4],"1093608016":[0],"sdaReg8":[3],"sdaReg9":[3],"sdaReg6":[3],"sdaReg7":[3],"sdaReg4":[3],"sdaReg5":[3],"1093504616":[0],"sdaReg3":[0],"sdaReg2":[0],"sdaReg1":[2],"1093504616.<java.util.HashMap$HashMapEntry: int hash>":[0],"sdaReg0":[1],"1093753528":[0]},"colorToColor":{"0":[6],"5":[6]},"colorToLabel":{"0":"this","1":"arg#1","2":"arg#2","6":"return"}}}

Generated Model
	this->return

