Scanning method <java.net.Authenticator: void setDefault(java.net.Authenticator)>

All seen event types: StoreStaticRecord, 
Ignored event types: 

JSON Encoded Analysis Data (for visualization):{"heapEdges":[],"parameters":[{"id":"0","name":"arg#0","klass":"java.net.Authenticator"}],"returns":[{"id":null,"name":"return","klass":null}],"colors":{"heapLocToColor":{"static.<java.net.Authenticator: java.net.Authenticator thisAuthenticator>":[1],"0":[0]},"colorToColor":{},"colorToLabel":{"0":"arg#0","1":"<java.net.Authenticator: java.net.Authenticator thisAuthenticator>","2":"return"}}}

Generated Model

