Scanning method <java.util.HashMap$HashIterator: java.util.HashMap$HashMapEntry nextEntry()>

All seen event types: LoadInstanceRecord, IfRecord, StoreInstanceRecord, 
Ignored event types: IfRecord, 

JSON Encoded Analysis Data (for visualization):{"heapEdges":[{"step":0,"from":"1093661200","to":"1093582256","type":"load","field":"<java.util.HashMap$HashIterator: java.util.HashMap this$0>"},{"step":1,"from":"1093582256","to":"1093582256.<java.util.HashMap: int modCount>","type":"load","field":"<java.util.HashMap: int modCount>"},{"step":2,"from":"1093661200","to":"1093661200.<java.util.HashMap$HashIterator: int expectedModCount>","type":"load","field":"<java.util.HashMap$HashIterator: int expectedModCount>"},{"step":3,"from":"1093661200","to":"1093639624","type":"load","field":"<java.util.HashMap$HashIterator: java.util.HashMap$HashMapEntry nextEntry>"},{"step":4,"from":"1093661200","to":"1093639624","type":"load","field":"<java.util.HashMap$HashIterator: java.util.HashMap$HashMapEntry nextEntry>"},{"step":5,"from":"1093661200","to":"1093582256","type":"load","field":"<java.util.HashMap$HashIterator: java.util.HashMap this$0>"},{"step":6,"from":"1093582256","to":"1093589448","type":"load","field":"<java.util.HashMap: java.util.HashMap$HashMapEntry[] table>"},{"step":7,"from":"1093639624","to":"1093589488","type":"load","field":"<java.util.HashMap$HashMapEntry: java.util.HashMap$HashMapEntry next>"},{"step":8,"from":"1093589488","to":"1093661200","type":"store","field":"<java.util.HashMap$HashIterator: java.util.HashMap$HashMapEntry nextEntry>"},{"step":9,"from":"1093639624","to":"1093661200","type":"store","field":"<java.util.HashMap$HashIterator: java.util.HashMap$HashMapEntry lastEntryReturned>"}],"parameters":[{"id":"1093661200","name":"this","klass":"java.util.HashMap$HashIterator"}],"returns":[{"id":"1093639624","name":"return","klass":"java.util.HashMap$HashMapEntry"}],"colors":{"heapLocToColor":{"1093582256.<java.util.HashMap: int modCount>":[0],"1093639624":[0],"1093661200.<java.util.HashMap$HashIterator: int expectedModCount>":[0],"1093589448":[0],"1093661200":[0],"1093589488":[0],"1093661200.<java.util.HashMap$HashIterator: java.util.HashMap this$0>":[0],"1093582256":[0],"1093661200.<java.util.HashMap$HashIterator: java.util.HashMap$HashMapEntry nextEntry>":[0]},"colorToColor":{"0":[0, 1]},"colorToLabel":{"0":"this","1":"return"}}}

Generated Model
	this->return

