Scanning method <android.os.Message: void copyFrom(android.os.Message)>

All seen event types: StoreArrayRecord, SimpleAssignmentRecord, LoadInstanceRecord, MethodStartRecord, IfRecord, StoreInstanceRecord, NewObjectRecord, NewArrayRecord, BinaryOperationRecord, MethodCallRecord, MethodReturnRecord, CastRecord, ArrayLengthRecord, LoadArrayRecord, MethodEndRecord, 
Ignored event types: IfRecord, 

JSON Encoded Analysis Data (for visualization):{"heapEdges":[{"step":0,"from":"1093479120","to":"1093479120.<android.os.Message: int flags>","type":"load","field":"<android.os.Message: int flags>"},{"step":1,"from":"sdaReg0","to":"1093471392","type":"store","field":"<android.os.Message: int flags>"},{"step":2,"from":"1093479120","to":"1093479120.<android.os.Message: int what>","type":"load","field":"<android.os.Message: int what>"},{"step":3,"from":"1093479120.<android.os.Message: int what>","to":"1093471392","type":"store","field":"<android.os.Message: int what>"},{"step":4,"from":"1093479120","to":"1093479120.<android.os.Message: int arg1>","type":"load","field":"<android.os.Message: int arg1>"},{"step":5,"from":"1093479120.<android.os.Message: int arg1>","to":"1093471392","type":"store","field":"<android.os.Message: int arg1>"},{"step":6,"from":"1093479120","to":"1093479120.<android.os.Message: int arg2>","type":"load","field":"<android.os.Message: int arg2>"},{"step":7,"from":"1093479120.<android.os.Message: int arg2>","to":"1093471392","type":"store","field":"<android.os.Message: int arg2>"},{"step":8,"from":"1093479120","to":"1093613312","type":"load","field":"<android.os.Message: java.lang.Object obj>"},{"step":9,"from":"1093613312","to":"1093471392","type":"store","field":"<android.os.Message: java.lang.Object obj>"},{"step":10,"from":"1093479120","to":"1093862120","type":"load","field":"<android.os.Message: android.os.Bundle data>"},{"step":11,"from":"1093479120","to":"1093862120","type":"load","field":"<android.os.Message: android.os.Bundle data>"},{"step":12,"from":"1093501384","to":"sdaReg5","type":"create","field":"<android.os.Bundle: java.util.Map mMap>"},{"step":13,"from":"1093501384","to":"sdaReg6","type":"create","field":"<android.os.Bundle: android.os.Parcel mParcelledData>"},{"step":14,"from":"1093501384","to":"sdaReg7","type":"create","field":"<android.os.Bundle: boolean mHasFds>"},{"step":15,"from":"1093501384","to":"sdaReg8","type":"create","field":"<android.os.Bundle: boolean mFdsKnown>"},{"step":16,"from":"1093501384","to":"sdaReg9","type":"create","field":"<android.os.Bundle: boolean mAllowFds>"},{"step":17,"from":"1093501384","to":"sdaReg10","type":"create","field":"<android.os.Bundle: android.os.Parcel mParcelledData>"},{"step":18,"from":"1093862120","to":"1093670440","type":"load","field":"<android.os.Bundle: java.util.Map mMap>"},{"step":19,"from":"1093862120","to":"1093670440","type":"load","field":"<android.os.Bundle: java.util.Map mMap>"},{"step":20,"from":"1093670440","to":"1093670440.<java.util.HashMap: int size>","type":"load","field":"<java.util.HashMap: int size>"},{"step":21,"from":"1093652448","to":"1093812296","type":"create","field":"<java.util.HashMap: java.util.HashMap$HashMapEntry[] table>"},{"step":22,"from":"sdaReg27","to":"1093652448","type":"store","field":"<java.util.HashMap: int threshold>"},{"step":23,"from":"1093670440","to":"1093529232","type":"store","field":"<java.util.HashMap$EntrySet: java.util.HashMap this$0>"},{"step":24,"from":"1093670440","to":"1093529232","type":"create","field":"<java.util.HashMap: java.util.Set entrySet>"},{"step":25,"from":"1093670440","to":"1093812336","type":"store","field":"<java.util.HashMap$EntryIterator: java.util.HashMap this$0>"},{"step":26,"from":"1093670440","to":"1093812336","type":"store","field":"<java.util.HashMap$HashIterator: java.util.HashMap this$0>"},{"step":27,"from":"1093670440","to":"1093670440.<java.util.HashMap: int modCount>","type":"load","field":"<java.util.HashMap: int modCount>"},{"step":28,"from":"1093670440.<java.util.HashMap: int modCount>","to":"1093812336","type":"store","field":"<java.util.HashMap$HashIterator: int expectedModCount>"},{"step":29,"from":"1093670440","to":"1093852480","type":"load","field":"<java.util.HashMap: java.util.HashMap$HashMapEntry[] table>"},{"step":30,"from":"1093812336","to":"1093812336.<java.util.HashMap$HashIterator: int nextIndex>","type":"load","field":"<java.util.HashMap$HashIterator: int nextIndex>"},{"step":31,"from":"1093812336","to":"1093812336.<java.util.HashMap$HashIterator: int nextIndex>","type":"load","field":"<java.util.HashMap$HashIterator: int nextIndex>"},{"step":32,"from":"sdaReg56","to":"1093812336","type":"store","field":"<java.util.HashMap$HashIterator: int nextIndex>"},{"step":33,"from":"1093852480","to":"1093852520","type":"load","field":"arrayIdx_int:0"},{"step":34,"from":"1093852520","to":"1093812336","type":"store","field":"<java.util.HashMap$HashIterator: java.util.HashMap$HashMapEntry nextEntry>"},{"step":35,"from":"1093670440","to":"1093670440.<java.util.HashMap: int modCount>","type":"load","field":"<java.util.HashMap: int modCount>"},{"step":36,"from":"1093670440","to":"1093852480","type":"load","field":"<java.util.HashMap: java.util.HashMap$HashMapEntry[] table>"},{"step":37,"from":"sdaReg68","to":"1093812336","type":"store","field":"<java.util.HashMap$HashIterator: int nextIndex>"},{"step":38,"from":"sdaReg68","to":"1093812336","type":"store","field":"<java.util.HashMap$HashIterator: int nextIndex>"},{"step":39,"from":"sdaReg68","to":"1093812336","type":"store","field":"<java.util.HashMap$HashIterator: int nextIndex>"},{"step":40,"from":"1093852520","to":"1093812336","type":"store","field":"<java.util.HashMap$HashIterator: java.util.HashMap$HashMapEntry lastEntryReturned>"},{"step":41,"from":"1093852520","to":"1093487960","type":"load","field":"<java.util.HashMap$HashMapEntry: java.lang.Object key>"},{"step":42,"from":"1093852520","to":"1083976976","type":"load","field":"<java.util.HashMap$HashMapEntry: java.lang.Object value>"},{"step":43,"from":"1093487960","to":"1093812376","type":"store","field":"<java.util.HashMap$HashMapEntry: java.lang.Object key>"},{"step":44,"from":"1083976976","to":"1093812376","type":"store","field":"<java.util.HashMap$HashMapEntry: java.lang.Object value>"},{"step":45,"from":"sdaReg91","to":"1093812376","type":"store","field":"<java.util.HashMap$HashMapEntry: int hash>"},{"step":46,"from":"1093812296","to":"1093812376","type":"create","field":"arrayIdx_int:0"},{"step":47,"from":"1093652448","to":"1093652448.<java.util.HashMap: int size>","type":"load","field":"<java.util.HashMap: int size>"},{"step":48,"from":"sdaReg107","to":"1093652448","type":"store","field":"<java.util.HashMap: int size>"},{"step":49,"from":"1093501384","to":"1093652448","type":"create","field":"<android.os.Bundle: java.util.Map mMap>"},{"step":50,"from":"1093862120","to":"1093862120.<android.os.Bundle: boolean mHasFds>","type":"load","field":"<android.os.Bundle: boolean mHasFds>"},{"step":51,"from":"1093862120.<android.os.Bundle: boolean mHasFds>","to":"1093501384","type":"store","field":"<android.os.Bundle: boolean mHasFds>"},{"step":52,"from":"1093862120","to":"1093862120.<android.os.Bundle: boolean mFdsKnown>","type":"load","field":"<android.os.Bundle: boolean mFdsKnown>"},{"step":53,"from":"1093862120.<android.os.Bundle: boolean mFdsKnown>","to":"1093501384","type":"store","field":"<android.os.Bundle: boolean mFdsKnown>"},{"step":54,"from":"1093862120","to":"1083999984","type":"load","field":"<android.os.Bundle: java.lang.ClassLoader mClassLoader>"},{"step":55,"from":"1083999984","to":"1093501384","type":"store","field":"<android.os.Bundle: java.lang.ClassLoader mClassLoader>"},{"step":56,"from":"1093471392","to":"1093501384","type":"create","field":"<android.os.Message: android.os.Bundle data>"}],"parameters":[{"id":"1093471392","name":"this","klass":"android.os.Message"},{"id":"1093479120","name":"arg#1","klass":"android.os.Message"}],"returns":[{"id":null,"name":"return","klass":null}],"colors":{"heapLocToColor":{"1093652448":[3],"1093812336.<java.util.HashMap$HashIterator: int nextIndex>":[6],"1093862120.<android.os.Bundle: boolean mFdsKnown>":[1],"sdaReg66":[6],"1093479120.<android.os.Message: int what>":[1],"sdaReg64":[6],"sdaReg65":[6],"sdaReg62":[6],"1093862120.<android.os.Bundle: java.util.Map mMap>":[1],"sdaReg13":[1],"sdaReg72":[1],"sdaReg14":[1],"sdaReg11":[3],"1093812376":[8],"sdaReg12":[1],"sdaReg19":[3],"sdaReg17":[1],"sdaReg18":[3],"sdaReg15":[1],"sdaReg16":[1],"1093670440.<java.util.HashMap: int modCount>":[1],"1093652448.<java.util.HashMap: int size>":[3],"sdaReg77":[1],"sdaReg78":[1],"sdaReg79":[1],"1093670440.<java.util.HashMap: int size>":[1],"sdaReg73":[1],"sdaReg74":[1],"sdaReg75":[1],"sdaReg76":[1],"1093479120":[1],"sdaReg81":[1],"sdaReg80":[3],"sdaReg83":[7],"sdaReg82":[1],"1093471392":[0],"sdaReg113":[2],"sdaReg112":[2],"sdaReg111":[2],"sdaReg110":[3],"sdaReg107":[3],"sdaReg108":[6],"1093862120.<android.os.Bundle: boolean mHasFds>":[1],"sdaReg104":[8],"sdaReg105":[8],"sdaReg106":[8],"sdaReg86":[7],"sdaReg87":[7],"sdaReg84":[7],"sdaReg85":[7],"sdaReg88":[7],"sdaReg89":[7],"1093852480":[1],"sdaReg90":[7],"sdaReg94":[7],"sdaReg91":[7],"sdaReg100":[8],"1093479120.<android.os.Message: android.os.Bundle data>":[1],"sdaReg102":[1],"1093501384":[2],"sdaReg101":[1],"1093670440.<java.util.HashMap: java.util.HashMap$HashMapEntry[] table>":[1],"sdaReg96":[3],"sdaReg97":[1],"sdaReg98":[1],"1093529232":[5],"1093862120":[1],"sdaReg60":[6],"sdaReg61":[6],"1093479120.<android.os.Message: int arg2>":[1],"sdaReg59":[6],"sdaReg58":[6],"sdaReg57":[6],"sdaReg56":[6],"sdaReg53":[6],"1093852520":[1],"sdaReg52":[1],"sdaReg51":[6],"sdaReg50":[1],"1093812336":[6],"1093613312":[1],"sdaReg49":[6],"sdaReg48":[1],"sdaReg45":[5],"sdaReg44":[5],"sdaReg47":[6],"1093479120.<android.os.Message: int arg1>":[1],"sdaReg46":[1],"1083976976":[1],"sdaReg41":[5],"sdaReg40":[5],"sdaReg43":[5],"sdaReg42":[5],"1093487960":[1],"1093812296":[4],"sdaReg39":[5],"sdaReg38":[5],"sdaReg37":[5],"sdaReg32":[5],"1083999984":[1],"sdaReg31":[1],"sdaReg30":[1],"sdaReg36":[5],"sdaReg35":[1],"sdaReg34":[5],"sdaReg33":[1],"sdaReg4":[2],"1093670440":[1],"1093479120.<android.os.Message: int flags>":[1],"sdaReg29":[3],"sdaReg28":[3],"sdaReg3":[1],"sdaReg2":[2],"sdaReg21":[3],"sdaReg1":[1],"sdaReg20":[3],"sdaReg0":[1],"sdaReg23":[3]},"colorToColor":{"1":[0, 2, 5, 6, 8],"2":[0],"3":[2, 3],"4":[3],"5":[1],"6":[6],"7":[8],"8":[4]},"colorToLabel":{"0":"this","1":"arg#1","9":"return"}}}

Generated Model
	arg#1->this

