Scanning method <java.io.PrintStream: void print(java.lang.String)>

All seen event types: MethodReturnRecord, MethodCallRecord, LoadInstanceRecord, IfRecord, 
Ignored event types: IfRecord, 

JSON Encoded Analysis Data (for visualization):{"heapEdges":[{"step":0,"from":"1093477192","to":"1093477016","type":"load","field":"<java.io.FilterOutputStream: java.io.OutputStream out>"},{"step":1,"from":"1093477192","to":"1093477192.<java.io.PrintStream: java.lang.String encoding>","type":"load","field":"<java.io.PrintStream: java.lang.String encoding>"},{"step":2,"from":"sdaReg0","to":"1093372896","type":"model"},{"step":3,"from":"1093477192","to":"1093372896","type":"model"},{"step":4,"from":"1093372896","to":"1093477192","type":"model"}],"parameters":[{"id":"1093477192","name":"this","klass":"java.io.PrintStream"},{"id":"sdaReg0","name":"arg#1","klass":"string"}],"returns":[{"id":null,"name":"return","klass":null}],"colors":{"heapLocToColor":{"1093477192":[0],"1093477192.<java.io.PrintStream: java.lang.String encoding>":[0],"sdaReg1":[1, 2],"1093372896":[0, 1, 2],"1093477016":[0],"sdaReg0":[1]},"colorToColor":{"0":[0],"1":[0],"2":[0]},"colorToLabel":{"0":"this","1":"arg#1","3":"return"}}}

Generated Model
	arg#1->this

