Scanning method <java.io.DataOutputStream: void writeLong(long)>

All seen event types: NewArrayRecord, LoadStaticRecord, BinaryOperationRecord, MethodReturnRecord, MethodCallRecord, ArrayLengthRecord, MethodStartRecord, LoadInstanceRecord, MethodEndRecord, IfRecord, StoreInstanceRecord, 
Ignored event types: IfRecord, 

JSON Encoded Analysis Data (for visualization):{"heapEdges":[{"step":0,"from":"1093710672","to":"1093710696","type":"load","field":"<java.io.DataOutputStream: byte[] scratch>"},{"step":1,"from":"static.<java.nio.ByteOrder: java.nio.ByteOrder BIG_ENDIAN>","to":"1084339448","type":"load","field":"<java.nio.ByteOrder: java.nio.ByteOrder BIG_ENDIAN>"},{"step":2,"from":"1093710696","to":"sdaReg0","type":"model"},{"step":3,"from":"1093710696","to":"1084339448","type":"model"},{"step":4,"from":"sdaReg0","to":"1093710696","type":"model"},{"step":5,"from":"sdaReg0","to":"1084339448","type":"model"},{"step":6,"from":"1084339448","to":"1093710696","type":"model"},{"step":7,"from":"1084339448","to":"sdaReg0","type":"model"},{"step":8,"from":"1093710672","to":"1093710176","type":"load","field":"<java.io.FilterOutputStream: java.io.OutputStream out>"},{"step":9,"from":"1093710672","to":"1093710696","type":"load","field":"<java.io.DataOutputStream: byte[] scratch>"},{"step":10,"from":"1093710176","to":"1093710176.<java.io.ByteArrayOutputStream: int count>","type":"load","field":"<java.io.ByteArrayOutputStream: int count>"},{"step":11,"from":"1093710176","to":"1093710200","type":"load","field":"<java.io.ByteArrayOutputStream: byte[] buf>"},{"step":12,"from":"1093710176","to":"1093710176.<java.io.ByteArrayOutputStream: int count>","type":"load","field":"<java.io.ByteArrayOutputStream: int count>"},{"step":13,"from":"1093710176","to":"1093710200","type":"load","field":"<java.io.ByteArrayOutputStream: byte[] buf>"},{"step":14,"from":"1093710176","to":"1093710176.<java.io.ByteArrayOutputStream: int count>","type":"load","field":"<java.io.ByteArrayOutputStream: int count>"},{"step":15,"from":"1093710200","to":"1093626680","type":"model"},{"step":16,"from":"1093710176","to":"1093626680","type":"create","field":"<java.io.ByteArrayOutputStream: byte[] buf>"},{"step":17,"from":"1093710176","to":"1093710176.<java.io.ByteArrayOutputStream: int count>","type":"load","field":"<java.io.ByteArrayOutputStream: int count>"},{"step":18,"from":"1093710696","to":"1093626680","type":"model"},{"step":19,"from":"1093710176","to":"1093710176.<java.io.ByteArrayOutputStream: int count>","type":"load","field":"<java.io.ByteArrayOutputStream: int count>"},{"step":20,"from":"sdaReg13","to":"1093710176","type":"store","field":"<java.io.ByteArrayOutputStream: int count>"},{"step":21,"from":"1093710672","to":"1093710672.<java.io.DataOutputStream: int written>","type":"load","field":"<java.io.DataOutputStream: int written>"},{"step":22,"from":"sdaReg14","to":"1093710672","type":"store","field":"<java.io.DataOutputStream: int written>"}],"parameters":[{"id":"1093710672","name":"this","klass":"java.io.DataOutputStream"},{"id":"sdaReg0","name":"arg#1","klass":"long"}],"returns":[{"id":null,"name":"return","klass":null}],"colors":{"heapLocToColor":{"sdaReg8":[0],"sdaReg9":[0],"1093626680":[3],"sdaReg13":[0],"sdaReg14":[0],"1093710176":[0],"sdaReg11":[0],"sdaReg12":[0],"1084339448":[2],"1093710176.<java.io.ByteArrayOutputStream: byte[] buf>":[0],"1093710672.<java.io.DataOutputStream: byte[] scratch>":[0],"sdaReg2":[0],"sdaReg1":[0],"1093710176.<java.io.ByteArrayOutputStream: int count>":[0],"1093710672.<java.io.DataOutputStream: int written>":[0],"sdaReg0":[1],"1093710672":[0],"1093710696":[0],"static.<java.nio.ByteOrder: java.nio.ByteOrder BIG_ENDIAN>":[2],"1093710200":[0]},"colorToColor":{"0":[0, 1, 2, 3],"1":[0, 2],"2":[0, 1],"3":[0]},"colorToLabel":{"0":"this","1":"arg#1","2":"<java.nio.ByteOrder: java.nio.ByteOrder BIG_ENDIAN>","4":"return"}}}

Generated Model
	this->arg#1
	this-><java.nio.ByteOrder: java.nio.ByteOrder BIG_ENDIAN>
	arg#1->this
	arg#1-><java.nio.ByteOrder: java.nio.ByteOrder BIG_ENDIAN>

