Scanning method <android.os.Bundle: void unparcel()>

All seen event types: StoreArrayRecord, SimpleAssignmentRecord, ExitMonitorRecord, LoadInstanceRecord, MethodStartRecord, IfRecord, InstanceOfRecord, NewObjectRecord, StoreInstanceRecord, NewArrayRecord, LoadStaticRecord, BinaryOperationRecord, MethodCallRecord, MethodReturnRecord, SwitchRecord, EnterMonitorRecord, ArrayLengthRecord, CastRecord, LoadArrayRecord, MethodEndRecord, 
Ignored event types: ExitMonitorRecord, SwitchRecord, EnterMonitorRecord, IfRecord, 

JSON Encoded Analysis Data (for visualization):{"heapEdges":[{"step":0,"from":"1094220976","to":"1093444976","type":"load","field":"<android.os.Bundle: android.os.Parcel mParcelledData>"},{"step":1,"from":"1094220976","to":"1093444976","type":"load","field":"<android.os.Bundle: android.os.Parcel mParcelledData>"},{"step":2,"from":"1093444976","to":"sdaReg0","type":"model"},{"step":3,"from":"static.<java.util.HashMap: java.util.Map$Entry[] EMPTY_TABLE>","to":"1083997920","type":"load","field":"<java.util.HashMap: java.util.Map$Entry[] EMPTY_TABLE>"},{"step":4,"from":"1083997920","to":"1093861576","type":"store","field":"<java.util.HashMap: java.util.HashMap$HashMapEntry[] table>"},{"step":5,"from":"1093861576","to":"sdaReg7","type":"create","field":"<java.util.HashMap: int threshold>"},{"step":6,"from":"1094220976","to":"1093861576","type":"create","field":"<android.os.Bundle: java.util.Map mMap>"},{"step":7,"from":"1094220976","to":"1093444976","type":"load","field":"<android.os.Bundle: android.os.Parcel mParcelledData>"},{"step":8,"from":"1093444976","to":"sdaReg14","type":"model"},{"step":9,"from":"1093444976","to":"sdaReg15","type":"model"},{"step":10,"from":"1093444976","to":"sdaReg19","type":"model"},{"step":11,"from":"1093444976","to":"sdaReg22","type":"model"},{"step":12,"from":"1093872120","to":"sdaReg25","type":"create","field":"<android.util.SparseArray: boolean mGarbage>"},{"step":13,"from":"1093872120","to":"1093731904","type":"create","field":"<android.util.SparseArray: int[] mKeys>"},{"step":14,"from":"1093872120","to":"1093731944","type":"create","field":"<android.util.SparseArray: java.lang.Object[] mValues>"},{"step":15,"from":"1093872120","to":"sdaReg33","type":"create","field":"<android.util.SparseArray: int mSize>"},{"step":16,"from":"1093444976","to":"sdaReg39","type":"model"},{"step":17,"from":"1093444976","to":"sdaReg42","type":"model"},{"step":18,"from":"1093444976","to":"sdaReg45","type":"model"},{"step":19,"from":"1093926144","to":"sdaReg49","type":"create","field":"<android.os.Bundle: java.util.Map mMap>"},{"step":20,"from":"1093926144","to":"sdaReg50","type":"create","field":"<android.os.Bundle: android.os.Parcel mParcelledData>"},{"step":21,"from":"1093926144","to":"sdaReg51","type":"create","field":"<android.os.Bundle: boolean mHasFds>"},{"step":22,"from":"1093926144","to":"sdaReg52","type":"create","field":"<android.os.Bundle: boolean mFdsKnown>"},{"step":23,"from":"1093926144","to":"sdaReg53","type":"create","field":"<android.os.Bundle: boolean mAllowFds>"},{"step":24,"from":"1093444976","to":"sdaReg56","type":"model"},{"step":25,"from":"1093444976","to":"sdaReg57","type":"model"},{"step":26,"from":"1093444976","to":"sdaReg58","type":"model"},{"step":27,"from":"sdaReg58","to":"1093444976","type":"model"},{"step":28,"from":"static.<android.os.Parcel: android.os.Parcel[] sOwnedPool>","to":"1084044960","type":"load","field":"<android.os.Parcel: android.os.Parcel[] sOwnedPool>"},{"step":29,"from":"1093467128","to":"sdaReg62","type":"model"},{"step":30,"from":"sdaReg62","to":"1093467128","type":"model"},{"step":31,"from":"1093467128","to":"1093444976","type":"model"},{"step":32,"from":"1093467128","to":"sdaReg57","type":"model"},{"step":33,"from":"1093467128","to":"sdaReg45","type":"model"},{"step":34,"from":"1093444976","to":"1093467128","type":"model"},{"step":35,"from":"1093444976","to":"sdaReg57","type":"model"},{"step":36,"from":"1093444976","to":"sdaReg45","type":"model"},{"step":37,"from":"sdaReg57","to":"1093467128","type":"model"},{"step":38,"from":"sdaReg57","to":"1093444976","type":"model"},{"step":39,"from":"sdaReg57","to":"sdaReg45","type":"model"},{"step":40,"from":"sdaReg45","to":"1093467128","type":"model"},{"step":41,"from":"sdaReg45","to":"1093444976","type":"model"},{"step":42,"from":"sdaReg45","to":"sdaReg57","type":"model"},{"step":43,"from":"1093926144","to":"1093467128","type":"create","field":"<android.os.Bundle: android.os.Parcel mParcelledData>"},{"step":44,"from":"1093467128","to":"sdaReg66","type":"model"},{"step":45,"from":"sdaReg66","to":"1093926144","type":"store","field":"<android.os.Bundle: boolean mHasFds>"},{"step":46,"from":"1093926144","to":"sdaReg67","type":"create","field":"<android.os.Bundle: boolean mFdsKnown>"},{"step":47,"from":"sdaReg39","to":"1093731904","type":"store","field":"arrayIdx_int:0"},{"step":48,"from":"1093731944","to":"1093926144","type":"create","field":"arrayIdx_int:0"},{"step":49,"from":"sdaReg75","to":"1093872120","type":"store","field":"<android.util.SparseArray: int mSize>"},{"step":50,"from":"1093444976","to":"sdaReg76","type":"model"},{"step":51,"from":"1093444976","to":"sdaReg79","type":"model"},{"step":52,"from":"1093444976","to":"sdaReg82","type":"model"},{"step":53,"from":"static.<android.os.Parcel: java.util.HashMap mCreators>","to":"1084045240","type":"load","field":"<android.os.Parcel: java.util.HashMap mCreators>"},{"step":54,"from":"static.<android.os.Parcel: java.util.HashMap mCreators>","to":"1084045240","type":"load","field":"<android.os.Parcel: java.util.HashMap mCreators>"},{"step":55,"from":"static.<java.util.HashMap: java.util.Map$Entry[] EMPTY_TABLE>","to":"1083997920","type":"load","field":"<java.util.HashMap: java.util.Map$Entry[] EMPTY_TABLE>"},{"step":56,"from":"1083997920","to":"1093637680","type":"store","field":"<java.util.HashMap: java.util.HashMap$HashMapEntry[] table>"},{"step":57,"from":"1093637680","to":"sdaReg95","type":"create","field":"<java.util.HashMap: int threshold>"},{"step":58,"from":"static.<android.os.Parcel: java.util.HashMap mCreators>","to":"1084045240","type":"load","field":"<android.os.Parcel: java.util.HashMap mCreators>"},{"step":59,"from":"1093984432","to":"1093637680","type":"create","field":"<java.util.HashMap$HashMapEntry: java.lang.Object value>"},{"step":60,"from":"1093984432","to":"sdaReg106","type":"create","field":"<java.util.HashMap$HashMapEntry: int hash>"},{"step":61,"from":"1084045240","to":"1093984432","type":"create","field":"<java.util.HashMap: java.util.HashMap$HashMapEntry entryForNullKey>"},{"step":62,"from":"1084045240","to":"1084045240.<java.util.HashMap: int size>","type":"load","field":"<java.util.HashMap: int size>"},{"step":63,"from":"sdaReg109","to":"1084045240","type":"store","field":"<java.util.HashMap: int size>"},{"step":64,"from":"1084045240","to":"1084045240.<java.util.HashMap: int modCount>","type":"load","field":"<java.util.HashMap: int modCount>"},{"step":65,"from":"sdaReg110","to":"1084045240","type":"store","field":"<java.util.HashMap: int modCount>"},{"step":66,"from":"sdaReg82","to":"1084308992","type":"model"},{"step":67,"from":"1084308992","to":"1093773512","type":"model"},{"step":68,"from":"1093773512","to":"1084594584","type":"model"},{"step":69,"from":"1093637680","to":"1093637680.<java.util.HashMap: int modCount>","type":"load","field":"<java.util.HashMap: int modCount>"},{"step":70,"from":"sdaReg145","to":"1093637680","type":"store","field":"<java.util.HashMap: int modCount>"},{"step":71,"from":"1093637680","to":"1093637680.<java.util.HashMap: int size>","type":"load","field":"<java.util.HashMap: int size>"},{"step":72,"from":"sdaReg146","to":"1093637680","type":"store","field":"<java.util.HashMap: int size>"},{"step":73,"from":"1093637680","to":"1093773672","type":"create","field":"<java.util.HashMap: java.util.HashMap$HashMapEntry[] table>"},{"step":74,"from":"sdaReg154","to":"1093637680","type":"store","field":"<java.util.HashMap: int threshold>"},{"step":75,"from":"1093634144","to":"1093773712","type":"store","field":"<java.util.HashMap$HashMapEntry: java.lang.Object key>"},{"step":76,"from":"1093773712","to":"1084594584","type":"create","field":"<java.util.HashMap$HashMapEntry: java.lang.Object value>"},{"step":77,"from":"sdaReg141","to":"1093773712","type":"store","field":"<java.util.HashMap$HashMapEntry: int hash>"},{"step":78,"from":"1093773672","to":"1093773712","type":"create","field":"arrayIdx_int:1"},{"step":79,"from":"1093444976","to":"sdaReg179","type":"model"},{"step":80,"from":"sdaReg181","to":"1093837584","type":"store","field":"<android.content.Intent: java.lang.String mAction>"},{"step":81,"from":"static.<android.net.Uri: android.os.Parcelable$Creator CREATOR>","to":"1085193064","type":"load","field":"<android.net.Uri: android.os.Parcelable$Creator CREATOR>"},{"step":82,"from":"1085193064","to":"1093444976","type":"model"},{"step":83,"from":"1085193064","to":"0","type":"model"},{"step":84,"from":"1093444976","to":"1085193064","type":"model"},{"step":85,"from":"1093444976","to":"0","type":"model"},{"step":86,"from":"1093444976","to":"sdaReg184","type":"model"},{"step":87,"from":"sdaReg184","to":"1093837584","type":"store","field":"<android.content.Intent: java.lang.String mType>"},{"step":88,"from":"1093444976","to":"sdaReg185","type":"model"},{"step":89,"from":"sdaReg185","to":"1093837584","type":"store","field":"<android.content.Intent: int mFlags>"},{"step":90,"from":"1093444976","to":"sdaReg186","type":"model"},{"step":91,"from":"sdaReg186","to":"1093837584","type":"store","field":"<android.content.Intent: java.lang.String mPackage>"},{"step":92,"from":"1093444976","to":"sdaReg188","type":"model"},{"step":93,"from":"1093444976","to":"sdaReg191","type":"model"},{"step":94,"from":"1093444976","to":"sdaReg192","type":"model"},{"step":95,"from":"1093837584","to":"sdaReg193","type":"create","field":"<android.content.Intent: java.util.HashSet mCategories>"},{"step":96,"from":"1093444976","to":"sdaReg194","type":"model"},{"step":97,"from":"1093444976","to":"sdaReg197","type":"model"},{"step":98,"from":"sdaReg76","to":"1093731904","type":"store","field":"arrayIdx_int:1"},{"step":99,"from":"1093731944","to":"1093837584","type":"create","field":"arrayIdx_int:1"},{"step":100,"from":"sdaReg210","to":"1093872120","type":"store","field":"<android.util.SparseArray: int mSize>"},{"step":101,"from":"1093861576","to":"1093861576.<java.util.HashMap: int modCount>","type":"load","field":"<java.util.HashMap: int modCount>"},{"step":102,"from":"sdaReg228","to":"1093861576","type":"store","field":"<java.util.HashMap: int modCount>"},{"step":103,"from":"1093861576","to":"1093861576.<java.util.HashMap: int size>","type":"load","field":"<java.util.HashMap: int size>"},{"step":104,"from":"sdaReg229","to":"1093861576","type":"store","field":"<java.util.HashMap: int size>"},{"step":105,"from":"1093861576","to":"1094172432","type":"create","field":"<java.util.HashMap: java.util.HashMap$HashMapEntry[] table>"},{"step":106,"from":"sdaReg237","to":"1093861576","type":"store","field":"<java.util.HashMap: int threshold>"},{"step":107,"from":"1093906560","to":"1094172472","type":"store","field":"<java.util.HashMap$HashMapEntry: java.lang.Object key>"},{"step":108,"from":"1094172472","to":"1093872120","type":"create","field":"<java.util.HashMap$HashMapEntry: java.lang.Object value>"},{"step":109,"from":"sdaReg224","to":"1094172472","type":"store","field":"<java.util.HashMap$HashMapEntry: int hash>"},{"step":110,"from":"1094172432","to":"1094172472","type":"create","field":"arrayIdx_int:2"},{"step":111,"from":"1094220976","to":"1093444976","type":"load","field":"<android.os.Bundle: android.os.Parcel mParcelledData>"},{"step":112,"from":"1093444976","to":"1093444976.<android.os.Parcel: int mOwnObject>","type":"load","field":"<android.os.Parcel: int mOwnObject>"},{"step":113,"from":"static.<android.os.Parcel: android.os.Parcel[] sOwnedPool>","to":"1084044960","type":"load","field":"<android.os.Parcel: android.os.Parcel[] sOwnedPool>"},{"step":114,"from":"1093444976","to":"1084044960","type":"store","field":"arrayIdx_int:0"},{"step":115,"from":"1094220976","to":"sdaReg256","type":"create","field":"<android.os.Bundle: android.os.Parcel mParcelledData>"}],"parameters":[{"id":"1094220976","name":"this","klass":"android.os.Bundle"}],"returns":[{"id":null,"name":"return","klass":null}],"colors":{"heapLocToColor":{"sdaReg191":[0, 35, 18, 41],"sdaReg190":[35, 36],"sdaReg192":[0, 35, 18, 42],"1084045240.<java.util.HashMap: int modCount>":[23],"1093926144":[14],"sdaReg199":[35, 36],"sdaReg198":[35, 36],"1093773712":[32],"sdaReg195":[0, 35, 18],"sdaReg194":[0, 35, 18, 43],"sdaReg197":[0, 35, 18, 44],"sdaReg196":[0, 35, 18],"sdaReg14":[0, 4],"1093773512":[27, 28],"sdaReg12":[0],"sdaReg10":[2],"sdaReg19":[0, 6],"sdaReg17":[0],"sdaReg15":[0, 5],"1084045240":[23],"static.<android.net.Uri: android.os.Parcelable$Creator CREATOR>":[35],"1094220976":[0],"0":[35, 36],"sdaReg171":[0, 18],"sdaReg170":[27, 29, 28],"sdaReg173":[0, 18],"sdaReg172":[27, 29, 28],"sdaReg175":[0, 18],"sdaReg174":[33],"1094220976.<android.os.Bundle: android.os.Parcel mParcelledData>":[0, 35, 18],"sdaReg177":[33],"sdaReg176":[33],"1093984432":[25],"sdaReg179":[0, 34, 18],"sdaReg178":[0, 18],"static.<java.util.HashMap: java.util.Map$Entry[] EMPTY_TABLE>":[3],"sdaReg182":[35, 36],"sdaReg180":[33],"sdaReg186":[0, 35, 18, 39],"sdaReg185":[0, 35, 18, 38],"sdaReg184":[0, 35, 18, 37],"sdaReg183":[35, 36],"sdaReg188":[0, 35, 18, 40],"sdaReg187":[0, 35, 18],"1093731944":[10],"sdaReg61":[18],"1093861576.<java.util.HashMap: int size>":[2],"sdaReg59":[17],"sdaReg58":[0, 16, 13],"sdaReg57":[0, 16, 18],"1083997920":[3],"sdaReg56":[0, 15],"sdaReg55":[0],"sdaReg54":[14],"1084045240.<java.util.HashMap: int size>":[23],"1093444976.<android.os.Parcel: int mOwnObject>":[0, 35, 18],"sdaReg48":[14],"sdaReg45":[0, 18, 13],"1093637680.<java.util.HashMap: int modCount>":[24],"sdaReg47":[0],"sdaReg46":[14],"1093861576.<java.util.HashMap: int modCount>":[2],"sdaReg40":[0],"sdaReg43":[0],"sdaReg42":[0, 12],"sdaReg200":[33],"sdaReg201":[33],"sdaReg205":[33],"sdaReg39":[0, 11],"sdaReg204":[33],"sdaReg203":[33],"sdaReg37":[8],"sdaReg202":[33],"sdaReg207":[33],"sdaReg206":[8],"sdaReg36":[0],"sdaReg35":[8],"sdaReg34":[8],"sdaReg8":[2],"sdaReg9":[0],"sdaReg6":[3],"sdaReg4":[2],"sdaReg5":[3],"sdaReg26":[0, 7],"sdaReg3":[2],"sdaReg2":[2],"sdaReg1":[2],"sdaReg20":[0],"sdaReg0":[0, 1],"sdaReg23":[8],"sdaReg22":[0, 7],"sdaReg24":[8],"sdaReg126":[27, 29, 28],"sdaReg127":[27],"sdaReg128":[27],"sdaReg129":[27, 28],"1084044960":[17],"sdaReg228":[2],"sdaReg68":[14],"sdaReg229":[2],"sdaReg69":[14],"sdaReg66":[19, 18],"sdaReg224":[45],"sdaReg64":[18],"sdaReg65":[18],"sdaReg62":[18],"sdaReg227":[45],"sdaReg63":[18],"sdaReg72":[8],"sdaReg221":[45],"sdaReg71":[14],"sdaReg220":[45],"sdaReg223":[45],"sdaReg70":[14],"sdaReg222":[45],"sdaReg120":[26],"sdaReg121":[26],"sdaReg124":[26],"sdaReg116":[26],"sdaReg117":[26],"sdaReg114":[26],"sdaReg115":[26],"sdaReg118":[26],"sdaReg119":[26],"sdaReg77":[0, 18],"sdaReg219":[45],"sdaReg79":[0, 18, 21],"sdaReg217":[45],"sdaReg218":[45],"sdaReg73":[14],"sdaReg215":[8],"sdaReg216":[45],"sdaReg213":[2],"sdaReg76":[0, 18, 20],"sdaReg212":[8],"sdaReg80":[0, 18],"sdaReg211":[8],"sdaReg83":[23],"sdaReg82":[0, 18, 22],"1094172472":[47],"sdaReg113":[26],"sdaReg112":[24],"sdaReg110":[23],"sdaReg107":[25],"sdaReg108":[25],"sdaReg109":[23],"static.<android.os.Parcel: java.util.HashMap mCreators>":[23],"sdaReg103":[24],"sdaReg104":[25],"1084594584":[27, 29, 28],"sdaReg105":[24],"sdaReg246":[47],"sdaReg248":[8],"sdaReg84":[23],"sdaReg249":[35, 36],"sdaReg88":[24],"sdaReg89":[24],"sdaReg90":[24],"sdaReg240":[46],"sdaReg243":[2],"sdaReg94":[3],"sdaReg93":[3],"sdaReg245":[8],"sdaReg92":[24],"sdaReg91":[24],"sdaReg100":[23],"sdaReg102":[23],"sdaReg101":[24],"1093637680.<java.util.HashMap: int size>":[24],"1085193064":[35],"1093861576":[2],"sdaReg238":[46],"sdaReg96":[24],"sdaReg97":[23],"1093872120":[8],"sdaReg99":[24],"sdaReg230":[2],"sdaReg233":[2],"1093637680":[24],"1093444976":[0, 35, 18],"1093773672":[31],"sdaReg162":[27, 29, 28],"sdaReg163":[32],"sdaReg165":[27, 29, 28],"sdaReg167":[32],"sdaReg168":[32],"sdaReg160":[24],"1093467128":[18],"sdaReg150":[24],"1084308992":[27],"sdaReg157":[31],"sdaReg155":[31],"sdaReg253":[17],"sdaReg254":[17],"sdaReg251":[47],"1093731904":[9],"1093837584":[33],"sdaReg252":[0, 35, 18],"sdaReg250":[47],"1094172432":[46],"static.<android.os.Parcel: android.os.Parcel[] sOwnedPool>":[17],"sdaReg147":[24],"sdaReg144":[30],"sdaReg145":[24],"sdaReg146":[24],"sdaReg140":[30],"sdaReg141":[30],"sdaReg139":[30],"sdaReg138":[30],"sdaReg137":[30],"sdaReg136":[30],"sdaReg134":[30],"sdaReg135":[30],"sdaReg132":[27, 29, 28],"sdaReg133":[30],"sdaReg130":[27, 29, 28],"sdaReg131":[24]},"colorToColor":{"0":[17, 0, 35, 16, 33, 18, 36, 9, 27, 13],"2":[0, 2],"3":[2, 24],"8":[47],"9":[8],"10":[8],"11":[9],"13":[0, 16, 18],"14":[10],"16":[0, 18, 13],"19":[14],"18":[17, 0, 35, 16, 33, 18, 36, 9, 27, 13, 14],"20":[9],"23":[23],"22":[27],"25":[23],"24":[25, 24],"27":[32],"29":[32],"28":[32],"31":[24],"30":[32],"35":[17, 35, 33, 36],"32":[31],"33":[10],"38":[33],"39":[33],"37":[33],"46":[2],"47":[46],"45":[47]},"colorToLabel":{"0":"this","3":"<java.util.HashMap: java.util.Map$Entry[] EMPTY_TABLE>","17":"<android.os.Parcel: android.os.Parcel[] sOwnedPool>","23":"<android.os.Parcel: java.util.HashMap mCreators>","35":"<android.net.Uri: android.os.Parcelable$Creator CREATOR>","48":"return"}}}

Generated Model
	this-><android.os.Parcel: java.util.HashMap mCreators>
	this-><android.os.Parcel: android.os.Parcel[] sOwnedPool>
	this-><android.net.Uri: android.os.Parcelable$Creator CREATOR>

