Scanning method <android.os.Bundle: void unparcel()>

All seen event types: StoreArrayRecord, SimpleAssignmentRecord, ExitMonitorRecord, LoadInstanceRecord, MethodStartRecord, IfRecord, InstanceOfRecord, NewObjectRecord, StoreInstanceRecord, LoadStaticRecord, NewArrayRecord, BinaryOperationRecord, MethodCallRecord, MethodReturnRecord, SwitchRecord, EnterMonitorRecord, ArrayLengthRecord, CastRecord, LoadArrayRecord, MethodEndRecord, 
Ignored event types: ExitMonitorRecord, SwitchRecord, EnterMonitorRecord, IfRecord, 

JSON Encoded Analysis Data (for visualization):{"heapEdges":[{"step":0,"from":"1093617440","to":"1093452968","type":"load","field":"<android.os.Bundle: android.os.Parcel mParcelledData>"},{"step":1,"from":"1093617440","to":"1093452968","type":"load","field":"<android.os.Bundle: android.os.Parcel mParcelledData>"},{"step":2,"from":"1093452968","to":"sdaReg0","type":"model"},{"step":3,"from":"static.<java.util.HashMap: java.util.Map$Entry[] EMPTY_TABLE>","to":"1083997920","type":"load","field":"<java.util.HashMap: java.util.Map$Entry[] EMPTY_TABLE>"},{"step":4,"from":"1083997920","to":"1094102200","type":"store","field":"<java.util.HashMap: java.util.HashMap$HashMapEntry[] table>"},{"step":5,"from":"1094102200","to":"sdaReg7","type":"create","field":"<java.util.HashMap: int threshold>"},{"step":6,"from":"1093617440","to":"1094102200","type":"create","field":"<android.os.Bundle: java.util.Map mMap>"},{"step":7,"from":"1093617440","to":"1093452968","type":"load","field":"<android.os.Bundle: android.os.Parcel mParcelledData>"},{"step":8,"from":"1093452968","to":"sdaReg14","type":"model"},{"step":9,"from":"1093452968","to":"sdaReg15","type":"model"},{"step":10,"from":"1093452968","to":"sdaReg19","type":"model"},{"step":11,"from":"1093452968","to":"sdaReg22","type":"model"},{"step":12,"from":"1093425192","to":"1094152720","type":"create","field":"<java.util.ArrayList: java.lang.Object[] array>"},{"step":13,"from":"1093452968","to":"sdaReg36","type":"model"},{"step":14,"from":"1093452968","to":"sdaReg37","type":"model"},{"step":15,"from":"1093425192","to":"1093425192.<java.util.ArrayList: int size>","type":"load","field":"<java.util.ArrayList: int size>"},{"step":16,"from":"1094175656","to":"1094152720","type":"store","field":"arrayIdx_int:0"},{"step":17,"from":"sdaReg42","to":"1093425192","type":"store","field":"<java.util.ArrayList: int size>"},{"step":18,"from":"1093425192","to":"1093425192.<java.util.AbstractList: int modCount>","type":"load","field":"<java.util.AbstractList: int modCount>"},{"step":19,"from":"sdaReg43","to":"1093425192","type":"store","field":"<java.util.AbstractList: int modCount>"},{"step":20,"from":"1093452968","to":"sdaReg47","type":"model"},{"step":21,"from":"1093452968","to":"sdaReg48","type":"model"},{"step":22,"from":"1094187480","to":"1094152720","type":"store","field":"arrayIdx_int:1"},{"step":23,"from":"sdaReg53","to":"1093425192","type":"store","field":"<java.util.ArrayList: int size>"},{"step":24,"from":"sdaReg54","to":"1093425192","type":"store","field":"<java.util.AbstractList: int modCount>"},{"step":25,"from":"1093452968","to":"sdaReg58","type":"model"},{"step":26,"from":"1093452968","to":"sdaReg59","type":"model"},{"step":27,"from":"1094209216","to":"1094152720","type":"store","field":"arrayIdx_int:2"},{"step":28,"from":"sdaReg64","to":"1093425192","type":"store","field":"<java.util.ArrayList: int size>"},{"step":29,"from":"sdaReg65","to":"1093425192","type":"store","field":"<java.util.AbstractList: int modCount>"},{"step":30,"from":"1093452968","to":"sdaReg69","type":"model"},{"step":31,"from":"static.<android.text.TextUtils: android.os.Parcelable$Creator CHAR_SEQUENCE_CREATOR>","to":"1084850936","type":"load","field":"<android.text.TextUtils: android.os.Parcelable$Creator CHAR_SEQUENCE_CREATOR>"},{"step":32,"from":"1093452968","to":"sdaReg75","type":"model"},{"step":33,"from":"1093452968","to":"sdaReg76","type":"model"},{"step":34,"from":"1094259872","to":"sdaReg84","type":"model"},{"step":35,"from":"sdaReg84","to":"1094259976","type":"store","field":"<android.text.SpannableStringInternal: java.lang.String mText>"},{"step":36,"from":"1094259976","to":"1093501208","type":"create","field":"<android.text.SpannableStringInternal: java.lang.Object[] mSpans>"},{"step":37,"from":"1094259976","to":"1093458640","type":"create","field":"<android.text.SpannableStringInternal: int[] mSpanData>"},{"step":38,"from":"1093452968","to":"sdaReg98","type":"model"},{"step":39,"from":"1093452968","to":"sdaReg104","type":"model"},{"step":40,"from":"sdaReg104","to":"1093509776","type":"store","field":"<android.text.style.ForegroundColorSpan: int mColor>"},{"step":41,"from":"1093452968","to":"sdaReg112","type":"model"},{"step":42,"from":"1093452968","to":"sdaReg113","type":"model"},{"step":43,"from":"1093452968","to":"sdaReg114","type":"model"},{"step":44,"from":"1094259976","to":"1094259976.<android.text.SpannableStringInternal: int mSpanCount>","type":"load","field":"<android.text.SpannableStringInternal: int mSpanCount>"},{"step":45,"from":"1094259976","to":"1094259976.<android.text.SpannableStringInternal: int mSpanCount>","type":"load","field":"<android.text.SpannableStringInternal: int mSpanCount>"},{"step":46,"from":"1094259976","to":"1094259976.<android.text.SpannableStringInternal: int mSpanCount>","type":"load","field":"<android.text.SpannableStringInternal: int mSpanCount>"},{"step":47,"from":"1094259976","to":"1094259976.<android.text.SpannableStringInternal: int mSpanCount>","type":"load","field":"<android.text.SpannableStringInternal: int mSpanCount>"},{"step":48,"from":"1093501208","to":"1093521384","type":"model"},{"step":49,"from":"1094259976","to":"1094259976.<android.text.SpannableStringInternal: int mSpanCount>","type":"load","field":"<android.text.SpannableStringInternal: int mSpanCount>"},{"step":50,"from":"1093458640","to":"1093686728","type":"model"},{"step":51,"from":"1094259976","to":"1093521384","type":"create","field":"<android.text.SpannableStringInternal: java.lang.Object[] mSpans>"},{"step":52,"from":"1094259976","to":"1093686728","type":"create","field":"<android.text.SpannableStringInternal: int[] mSpanData>"},{"step":53,"from":"1094259976","to":"1094259976.<android.text.SpannableStringInternal: int mSpanCount>","type":"load","field":"<android.text.SpannableStringInternal: int mSpanCount>"},{"step":54,"from":"1093521384","to":"1093509776","type":"create","field":"arrayIdx_int:0"},{"step":55,"from":"1094259976","to":"1094259976.<android.text.SpannableStringInternal: int mSpanCount>","type":"load","field":"<android.text.SpannableStringInternal: int mSpanCount>"},{"step":56,"from":"sdaReg112","to":"1093686728","type":"store","field":"arrayIdx_int:0"},{"step":57,"from":"1094259976","to":"1094259976.<android.text.SpannableStringInternal: int mSpanCount>","type":"load","field":"<android.text.SpannableStringInternal: int mSpanCount>"},{"step":58,"from":"sdaReg113","to":"1093686728","type":"store","field":"arrayIdx_int:1"},{"step":59,"from":"1094259976","to":"1094259976.<android.text.SpannableStringInternal: int mSpanCount>","type":"load","field":"<android.text.SpannableStringInternal: int mSpanCount>"},{"step":60,"from":"sdaReg114","to":"1093686728","type":"store","field":"arrayIdx_int:2"},{"step":61,"from":"1094259976","to":"1094259976.<android.text.SpannableStringInternal: int mSpanCount>","type":"load","field":"<android.text.SpannableStringInternal: int mSpanCount>"},{"step":62,"from":"sdaReg145","to":"1094259976","type":"store","field":"<android.text.SpannableStringInternal: int mSpanCount>"},{"step":63,"from":"1084365888","to":"sdaReg159","type":"model"},{"step":64,"from":"static.<com.android.internal.util.ArrayUtils: java.lang.Object[] sCache>","to":"1084375760","type":"load","field":"<com.android.internal.util.ArrayUtils: java.lang.Object[] sCache>"},{"step":65,"from":"1084375760","to":"1093924280","type":"load","field":"arrayIdx_int:66"},{"step":66,"from":"1093924280","to":"1084732504","type":"model"},{"step":67,"from":"1084732504","to":"1084365888","type":"model"},{"step":68,"from":"1093452968","to":"sdaReg174","type":"model"},{"step":69,"from":"1094152720","to":"1094259976","type":"create","field":"arrayIdx_int:3"},{"step":70,"from":"sdaReg183","to":"1093425192","type":"store","field":"<java.util.ArrayList: int size>"},{"step":71,"from":"sdaReg184","to":"1093425192","type":"store","field":"<java.util.AbstractList: int modCount>"},{"step":72,"from":"1094102200","to":"1094102200.<java.util.HashMap: int modCount>","type":"load","field":"<java.util.HashMap: int modCount>"},{"step":73,"from":"sdaReg203","to":"1094102200","type":"store","field":"<java.util.HashMap: int modCount>"},{"step":74,"from":"1094102200","to":"1094102200.<java.util.HashMap: int size>","type":"load","field":"<java.util.HashMap: int size>"},{"step":75,"from":"sdaReg204","to":"1094102200","type":"store","field":"<java.util.HashMap: int size>"},{"step":76,"from":"1094102200","to":"1094075928","type":"create","field":"<java.util.HashMap: java.util.HashMap$HashMapEntry[] table>"},{"step":77,"from":"sdaReg212","to":"1094102200","type":"store","field":"<java.util.HashMap: int threshold>"},{"step":78,"from":"1094132040","to":"1094075968","type":"store","field":"<java.util.HashMap$HashMapEntry: java.lang.Object key>"},{"step":79,"from":"1094075968","to":"1093425192","type":"create","field":"<java.util.HashMap$HashMapEntry: java.lang.Object value>"},{"step":80,"from":"sdaReg199","to":"1094075968","type":"store","field":"<java.util.HashMap$HashMapEntry: int hash>"},{"step":81,"from":"1094075928","to":"1094075968","type":"create","field":"arrayIdx_int:2"},{"step":82,"from":"1093617440","to":"1093452968","type":"load","field":"<android.os.Bundle: android.os.Parcel mParcelledData>"},{"step":83,"from":"1093452968","to":"1093452968.<android.os.Parcel: int mOwnObject>","type":"load","field":"<android.os.Parcel: int mOwnObject>"},{"step":84,"from":"static.<android.os.Parcel: android.os.Parcel[] sOwnedPool>","to":"1084044960","type":"load","field":"<android.os.Parcel: android.os.Parcel[] sOwnedPool>"},{"step":85,"from":"1093452968","to":"1084044960","type":"store","field":"arrayIdx_int:0"},{"step":86,"from":"1093617440","to":"sdaReg231","type":"create","field":"<android.os.Bundle: android.os.Parcel mParcelledData>"}],"parameters":[{"id":"1093617440","name":"this","klass":"android.os.Bundle"}],"returns":[{"id":null,"name":"return","klass":null}],"colors":{"heapLocToColor":{"sdaReg191":[41],"sdaReg125":[0, 31],"sdaReg190":[8],"sdaReg193":[41],"sdaReg127":[20],"sdaReg192":[41],"sdaReg129":[20],"1084044960":[44],"sdaReg228":[44],"sdaReg199":[41],"1093521384":[33],"sdaReg229":[44],"sdaReg198":[41],"sdaReg69":[0, 16],"sdaReg67":[0],"sdaReg195":[41],"sdaReg225":[43],"sdaReg194":[41],"sdaReg226":[43],"sdaReg197":[41],"sdaReg227":[0],"sdaReg196":[41],"sdaReg221":[43],"sdaReg72":[0],"sdaReg220":[8],"sdaReg14":[0, 4],"sdaReg71":[17],"sdaReg223":[8],"sdaReg70":[0],"1093452968":[0],"sdaReg12":[0],"sdaReg10":[2],"sdaReg120":[0, 30],"sdaReg19":[0, 6],"1094259976":[20],"sdaReg17":[0],"sdaReg121":[20],"sdaReg124":[32],"sdaReg15":[0, 5],"1093425192":[8],"sdaReg123":[20],"1093501208":[24],"sdaReg116":[27],"sdaReg117":[20],"sdaReg114":[0, 31],"sdaReg115":[20],"sdaReg118":[27],"sdaReg119":[0, 29],"sdaReg77":[20],"sdaReg78":[21],"sdaReg79":[20],"sdaReg218":[2],"sdaReg215":[42],"sdaReg73":[17],"sdaReg74":[0],"sdaReg213":[42],"sdaReg75":[0, 18],"1094102200.<java.util.HashMap: int size>":[2],"sdaReg76":[0, 19],"sdaReg83":[22],"sdaReg82":[20],"1093617440":[0],"sdaReg113":[0, 30],"sdaReg112":[0, 29],"sdaReg111":[27],"sdaReg110":[20],"sdaReg107":[20],"sdaReg108":[27],"1084850936":[17],"sdaReg109":[0],"sdaReg103":[27],"sdaReg104":[0, 28],"sdaReg171":[37],"sdaReg105":[27],"sdaReg170":[37],"sdaReg106":[0],"static.<com.android.internal.util.ArrayUtils: java.lang.Object[] sCache>":[37],"sdaReg175":[20],"sdaReg84":[23],"sdaReg174":[0, 40],"sdaReg177":[20],"sdaReg176":[20],"sdaReg179":[20],"sdaReg178":[20],"sdaReg100":[0],"static.<java.util.HashMap: java.util.Map$Entry[] EMPTY_TABLE>":[3],"sdaReg102":[27],"sdaReg101":[27],"1094152720":[9],"sdaReg181":[20],"sdaReg180":[8],"1093425192.<java.util.ArrayList: int size>":[8],"sdaReg186":[8],"sdaReg95":[20],"sdaReg96":[20],"sdaReg97":[20],"sdaReg98":[0, 26],"sdaReg99":[27],"1094075968":[43],"sdaReg188":[2],"sdaReg187":[8],"1093617440.<android.os.Bundle: android.os.Parcel mParcelledData>":[0],"sdaReg61":[8],"1093458640":[25],"sdaReg169":[37],"sdaReg161":[36],"sdaReg162":[36],"sdaReg163":[38, 37],"sdaReg164":[38, 39, 37],"sdaReg167":[37],"sdaReg168":[37],"sdaReg59":[0, 15],"sdaReg58":[0, 14],"sdaReg56":[0],"1083997920":[3],"sdaReg160":[36],"sdaReg50":[8],"1084732504":[38, 37],"1093686728":[34],"sdaReg159":[36],"1093924280":[37],"sdaReg151":[20],"sdaReg157":[35],"sdaReg48":[0, 13],"1093509776":[27],"sdaReg45":[0],"sdaReg47":[0, 12],"sdaReg43":[8],"sdaReg42":[8],"static.<android.text.TextUtils: android.os.Parcelable$Creator CHAR_SEQUENCE_CREATOR>":[17],"static.<android.os.Parcel: android.os.Parcel[] sOwnedPool>":[44],"1093452968.<android.os.Parcel: int mOwnObject>":[0],"1094102200.<java.util.HashMap: int modCount>":[2],"1084365888":[38, 39, 37],"sdaReg148":[27],"sdaReg147":[20],"sdaReg149":[20],"sdaReg205":[2],"sdaReg143":[20],"1094102200":[2],"sdaReg204":[2],"sdaReg144":[20],"sdaReg39":[8],"sdaReg203":[2],"sdaReg145":[20],"sdaReg202":[41],"1084375760":[37],"sdaReg37":[0, 11],"sdaReg208":[2],"sdaReg140":[20],"sdaReg141":[20],"sdaReg142":[20],"sdaReg32":[8],"sdaReg31":[0],"sdaReg30":[8],"sdaReg36":[0, 10],"1093425192.<java.util.AbstractList: int modCount>":[8],"sdaReg34":[0],"sdaReg8":[2],"sdaReg9":[0],"sdaReg6":[3],"sdaReg4":[2],"sdaReg5":[3],"1094075928":[42],"sdaReg139":[20],"sdaReg138":[20],"sdaReg27":[8],"sdaReg26":[8],"sdaReg29":[8],"sdaReg28":[8],"sdaReg130":[20],"1094259976.<android.text.SpannableStringInternal: int mSpanCount>":[20],"sdaReg3":[2],"sdaReg2":[2],"sdaReg1":[2],"sdaReg0":[0, 1],"sdaReg20":[0],"sdaReg23":[8],"sdaReg22":[0, 7],"sdaReg25":[8],"sdaReg24":[8]},"colorToColor":{"0":[34, 27, 44],"34":[20],"2":[0, 2],"3":[2],"33":[20],"42":[2],"8":[8, 43],"43":[42],"9":[8],"41":[43],"20":[20, 9],"23":[20],"25":[34, 20],"24":[33, 20],"27":[33],"29":[34],"28":[27],"31":[34],"30":[34]},"colorToLabel":{"0":"this","3":"<java.util.HashMap: java.util.Map$Entry[] EMPTY_TABLE>","17":"<android.text.TextUtils: android.os.Parcelable$Creator CHAR_SEQUENCE_CREATOR>","37":"<com.android.internal.util.ArrayUtils: java.lang.Object[] sCache>","44":"<android.os.Parcel: android.os.Parcel[] sOwnedPool>","45":"return"}}}

Generated Model
	this-><android.os.Parcel: android.os.Parcel[] sOwnedPool>

