Scanning method <java.io.PrintStream: void write(byte[],int,int)>

All seen event types: BinaryOperationRecord, SimpleAssignmentRecord, ExitMonitorRecord, MethodReturnRecord, MethodCallRecord, EnterMonitorRecord, LoadInstanceRecord, MethodStartRecord, ArrayLengthRecord, MethodEndRecord, IfRecord, StoreInstanceRecord, 
Ignored event types: ExitMonitorRecord, EnterMonitorRecord, IfRecord, 

JSON Encoded Analysis Data (for visualization):{"heapEdges":[{"step":0,"from":"1093477192","to":"1093477016","type":"load","field":"<java.io.FilterOutputStream: java.io.OutputStream out>"},{"step":1,"from":"1093477192","to":"1093477016","type":"load","field":"<java.io.FilterOutputStream: java.io.OutputStream out>"},{"step":2,"from":"1093477016","to":"1093477016.<java.io.ByteArrayOutputStream: int count>","type":"load","field":"<java.io.ByteArrayOutputStream: int count>"},{"step":3,"from":"1093477016","to":"1093477040","type":"load","field":"<java.io.ByteArrayOutputStream: byte[] buf>"},{"step":4,"from":"1093477016","to":"1093477040","type":"load","field":"<java.io.ByteArrayOutputStream: byte[] buf>"},{"step":5,"from":"1093477016","to":"1093477016.<java.io.ByteArrayOutputStream: int count>","type":"load","field":"<java.io.ByteArrayOutputStream: int count>"},{"step":6,"from":"1093270472","to":"1093477040","type":"model"},{"step":7,"from":"1093477016","to":"1093477016.<java.io.ByteArrayOutputStream: int count>","type":"load","field":"<java.io.ByteArrayOutputStream: int count>"},{"step":8,"from":"sdaReg14","to":"1093477016","type":"store","field":"<java.io.ByteArrayOutputStream: int count>"},{"step":9,"from":"1093477192","to":"1093477192.<java.io.PrintStream: boolean autoFlush>","type":"load","field":"<java.io.PrintStream: boolean autoFlush>"}],"parameters":[{"id":"1093477192","name":"this","klass":"java.io.PrintStream"},{"id":"1093270472","name":"arg#1","klass":"byte[]"},{"id":"sdaReg0","name":"arg#2","klass":"int"},{"id":"sdaReg1","name":"arg#3","klass":"int"}],"returns":[{"id":null,"name":"return","klass":null}],"colors":{"heapLocToColor":{"sdaReg9":[2, 3],"sdaReg6":[0],"1093477192.<java.io.FilterOutputStream: java.io.OutputStream out>":[0],"sdaReg7":[1],"sdaReg4":[2],"1093477192.<java.io.PrintStream: boolean autoFlush>":[0],"sdaReg14":[0, 3],"1093477192":[0],"sdaReg11":[0],"sdaReg12":[0, 3],"1093477016.<java.io.ByteArrayOutputStream: byte[] buf>":[0],"1093270472":[1],"sdaReg10":[2],"sdaReg3":[2, 3],"1093477016.<java.io.ByteArrayOutputStream: int count>":[0],"sdaReg1":[3],"1093477040":[0],"sdaReg0":[2],"1093477016":[0]},"colorToColor":{"0":[0],"1":[0],"3":[0]},"colorToLabel":{"0":"this","1":"arg#1","2":"arg#2","3":"arg#3","4":"return"}}}

Generated Model
	arg#3->this
	arg#1->this

