Scanning method <android.text.Html: void withinParagraph(java.lang.StringBuilder,android.text.Spanned,int,int,int,boolean)>

All seen event types: StoreArrayRecord, SimpleAssignmentRecord, MethodStartRecord, LoadInstanceRecord, IfRecord, InstanceOfRecord, LoadStaticRecord, BinaryOperationRecord, MethodCallRecord, MethodReturnRecord, CastRecord, ArrayLengthRecord, LoadArrayRecord, MethodEndRecord, 
Ignored event types: IfRecord, 

JSON Encoded Analysis Data (for visualization):{"heapEdges":[{"step":0,"from":"1093755096","to":"1093755096.<android.text.SpannableStringInternal: int mSpanCount>","type":"load","field":"<android.text.SpannableStringInternal: int mSpanCount>"},{"step":1,"from":"1093755096","to":"1093802704","type":"load","field":"<android.text.SpannableStringInternal: java.lang.Object[] mSpans>"},{"step":2,"from":"1093755096","to":"1094554136","type":"load","field":"<android.text.SpannableStringInternal: int[] mSpanData>"},{"step":3,"from":"1094554136","to":"1094554136.arrayIdx_int:0","type":"load","field":"arrayIdx_int:0"},{"step":4,"from":"1094554136","to":"1094554136.arrayIdx_int:1","type":"load","field":"arrayIdx_int:1"},{"step":5,"from":"1093802704","to":"1094287240","type":"load","field":"arrayIdx_int:0"},{"step":6,"from":"1093755096","to":"1093755096.<android.text.SpannableStringInternal: int mSpanCount>","type":"load","field":"<android.text.SpannableStringInternal: int mSpanCount>"},{"step":7,"from":"1093755096","to":"1093802704","type":"load","field":"<android.text.SpannableStringInternal: java.lang.Object[] mSpans>"},{"step":8,"from":"1093755096","to":"1094554136","type":"load","field":"<android.text.SpannableStringInternal: int[] mSpanData>"},{"step":9,"from":"1093802704","to":"1094287240","type":"load","field":"arrayIdx_int:0"},{"step":10,"from":"1094554136","to":"1094554136.arrayIdx_int:0","type":"load","field":"arrayIdx_int:0"},{"step":11,"from":"1094554136","to":"1094554136.arrayIdx_int:1","type":"load","field":"arrayIdx_int:1"},{"step":12,"from":"1084661656","to":"sdaReg29","type":"model"},{"step":13,"from":"static.<com.android.internal.util.ArrayUtils: java.lang.Object[] sCache>","to":"1084375760","type":"load","field":"<com.android.internal.util.ArrayUtils: java.lang.Object[] sCache>"},{"step":14,"from":"1084375760","to":"1093550768","type":"load","field":"arrayIdx_int:26"},{"step":15,"from":"1093550768","to":"1085374624","type":"model"},{"step":16,"from":"1085374624","to":"1084661656","type":"model"},{"step":17,"from":"1093755096","to":"1093755096.<android.text.SpannableStringInternal: java.lang.String mText>","type":"load","field":"<android.text.SpannableStringInternal: java.lang.String mText>"},{"step":18,"from":"1093755096.<android.text.SpannableStringInternal: java.lang.String mText>","to":"sdaReg48","type":"model"},{"step":19,"from":"sdaReg48","to":"1093471344","type":"model"},{"step":20,"from":"1093755096","to":"1093755096.<android.text.SpannableStringInternal: java.lang.String mText>","type":"load","field":"<android.text.SpannableStringInternal: java.lang.String mText>"},{"step":21,"from":"1093755096.<android.text.SpannableStringInternal: java.lang.String mText>","to":"sdaReg50","type":"model"},{"step":22,"from":"sdaReg50","to":"1093471344","type":"model"},{"step":23,"from":"1093755096","to":"1093755096.<android.text.SpannableStringInternal: java.lang.String mText>","type":"load","field":"<android.text.SpannableStringInternal: java.lang.String mText>"},{"step":24,"from":"1093755096.<android.text.SpannableStringInternal: java.lang.String mText>","to":"sdaReg52","type":"model"},{"step":25,"from":"sdaReg52","to":"1093471344","type":"model"},{"step":26,"from":"1093755096","to":"1093755096.<android.text.SpannableStringInternal: java.lang.String mText>","type":"load","field":"<android.text.SpannableStringInternal: java.lang.String mText>"},{"step":27,"from":"1093755096.<android.text.SpannableStringInternal: java.lang.String mText>","to":"sdaReg54","type":"model"},{"step":28,"from":"sdaReg54","to":"1093471344","type":"model"},{"step":29,"from":"1093755096","to":"1093755096.<android.text.SpannableStringInternal: java.lang.String mText>","type":"load","field":"<android.text.SpannableStringInternal: java.lang.String mText>"},{"step":30,"from":"1093755096.<android.text.SpannableStringInternal: java.lang.String mText>","to":"sdaReg56","type":"model"},{"step":31,"from":"sdaReg56","to":"1093471344","type":"model"},{"step":32,"from":"1093755096","to":"1093755096.<android.text.SpannableStringInternal: java.lang.String mText>","type":"load","field":"<android.text.SpannableStringInternal: java.lang.String mText>"},{"step":33,"from":"1093755096.<android.text.SpannableStringInternal: java.lang.String mText>","to":"sdaReg58","type":"model"},{"step":34,"from":"1093755096","to":"1093755096.<android.text.SpannableStringInternal: int mSpanCount>","type":"load","field":"<android.text.SpannableStringInternal: int mSpanCount>"},{"step":35,"from":"1093755096","to":"1093802704","type":"load","field":"<android.text.SpannableStringInternal: java.lang.Object[] mSpans>"},{"step":36,"from":"1093755096","to":"1094554136","type":"load","field":"<android.text.SpannableStringInternal: int[] mSpanData>"},{"step":37,"from":"1094554136","to":"1094554136.arrayIdx_int:0","type":"load","field":"arrayIdx_int:0"},{"step":38,"from":"1094554136","to":"1094554136.arrayIdx_int:1","type":"load","field":"arrayIdx_int:1"},{"step":39,"from":"1093802704","to":"1094287240","type":"load","field":"arrayIdx_int:0"},{"step":40,"from":"1093755096","to":"1093755096.<android.text.SpannableStringInternal: int mSpanCount>","type":"load","field":"<android.text.SpannableStringInternal: int mSpanCount>"},{"step":41,"from":"1093755096","to":"1093802704","type":"load","field":"<android.text.SpannableStringInternal: java.lang.Object[] mSpans>"},{"step":42,"from":"1093755096","to":"1094554136","type":"load","field":"<android.text.SpannableStringInternal: int[] mSpanData>"},{"step":43,"from":"1093802704","to":"1094287240","type":"load","field":"arrayIdx_int:0"},{"step":44,"from":"1094554136","to":"1094554136.arrayIdx_int:0","type":"load","field":"arrayIdx_int:0"},{"step":45,"from":"1094554136","to":"1094554136.arrayIdx_int:1","type":"load","field":"arrayIdx_int:1"},{"step":46,"from":"1093802704","to":"1094287240","type":"load","field":"arrayIdx_int:0"},{"step":47,"from":"1094287240","to":"1094618000","type":"store","field":"arrayIdx_int:0"},{"step":48,"from":"1093755096","to":"1093755096.<android.text.SpannableStringInternal: java.lang.String mText>","type":"load","field":"<android.text.SpannableStringInternal: java.lang.String mText>"},{"step":49,"from":"1093755096.<android.text.SpannableStringInternal: java.lang.String mText>","to":"sdaReg107","type":"model"},{"step":50,"from":"sdaReg107","to":"1093471344","type":"model"},{"step":51,"from":"1093755096","to":"1093755096.<android.text.SpannableStringInternal: java.lang.String mText>","type":"load","field":"<android.text.SpannableStringInternal: java.lang.String mText>"},{"step":52,"from":"1093755096.<android.text.SpannableStringInternal: java.lang.String mText>","to":"sdaReg109","type":"model"},{"step":53,"from":"sdaReg109","to":"1093471344","type":"model"},{"step":54,"from":"1093755096","to":"1093755096.<android.text.SpannableStringInternal: java.lang.String mText>","type":"load","field":"<android.text.SpannableStringInternal: java.lang.String mText>"},{"step":55,"from":"1093755096.<android.text.SpannableStringInternal: java.lang.String mText>","to":"sdaReg111","type":"model"},{"step":56,"from":"sdaReg111","to":"1093471344","type":"model"},{"step":57,"from":"1093755096","to":"1093755096.<android.text.SpannableStringInternal: java.lang.String mText>","type":"load","field":"<android.text.SpannableStringInternal: java.lang.String mText>"},{"step":58,"from":"1093755096.<android.text.SpannableStringInternal: java.lang.String mText>","to":"sdaReg113","type":"model"},{"step":59,"from":"sdaReg113","to":"1093471344","type":"model"},{"step":60,"from":"1093755096","to":"1093755096.<android.text.SpannableStringInternal: java.lang.String mText>","type":"load","field":"<android.text.SpannableStringInternal: java.lang.String mText>"},{"step":61,"from":"1093755096.<android.text.SpannableStringInternal: java.lang.String mText>","to":"sdaReg115","type":"model"},{"step":62,"from":"sdaReg115","to":"1093471344","type":"model"},{"step":63,"from":"1093755096","to":"1093755096.<android.text.SpannableStringInternal: java.lang.String mText>","type":"load","field":"<android.text.SpannableStringInternal: java.lang.String mText>"},{"step":64,"from":"1093755096.<android.text.SpannableStringInternal: java.lang.String mText>","to":"sdaReg117","type":"model"},{"step":65,"from":"sdaReg117","to":"1093471344","type":"model"},{"step":66,"from":"1093755096","to":"1093755096.<android.text.SpannableStringInternal: java.lang.String mText>","type":"load","field":"<android.text.SpannableStringInternal: java.lang.String mText>"},{"step":67,"from":"1093755096.<android.text.SpannableStringInternal: java.lang.String mText>","to":"sdaReg119","type":"model"},{"step":68,"from":"sdaReg119","to":"1093471344","type":"model"},{"step":69,"from":"1093755096","to":"1093755096.<android.text.SpannableStringInternal: java.lang.String mText>","type":"load","field":"<android.text.SpannableStringInternal: java.lang.String mText>"},{"step":70,"from":"1093755096.<android.text.SpannableStringInternal: java.lang.String mText>","to":"sdaReg121","type":"model"},{"step":71,"from":"sdaReg121","to":"1093471344","type":"model"},{"step":72,"from":"1093755096","to":"1093755096.<android.text.SpannableStringInternal: java.lang.String mText>","type":"load","field":"<android.text.SpannableStringInternal: java.lang.String mText>"},{"step":73,"from":"1093755096.<android.text.SpannableStringInternal: java.lang.String mText>","to":"sdaReg123","type":"model"},{"step":74,"from":"sdaReg123","to":"1093471344","type":"model"},{"step":75,"from":"1093755096","to":"1093755096.<android.text.SpannableStringInternal: java.lang.String mText>","type":"load","field":"<android.text.SpannableStringInternal: java.lang.String mText>"},{"step":76,"from":"1093755096.<android.text.SpannableStringInternal: java.lang.String mText>","to":"sdaReg125","type":"model"},{"step":77,"from":"sdaReg125","to":"1093471344","type":"model"},{"step":78,"from":"1093755096","to":"1093755096.<android.text.SpannableStringInternal: java.lang.String mText>","type":"load","field":"<android.text.SpannableStringInternal: java.lang.String mText>"},{"step":79,"from":"1093755096.<android.text.SpannableStringInternal: java.lang.String mText>","to":"sdaReg127","type":"model"},{"step":80,"from":"sdaReg127","to":"1093471344","type":"model"},{"step":81,"from":"1093755096","to":"1093755096.<android.text.SpannableStringInternal: int mSpanCount>","type":"load","field":"<android.text.SpannableStringInternal: int mSpanCount>"},{"step":82,"from":"1093755096","to":"1093802704","type":"load","field":"<android.text.SpannableStringInternal: java.lang.Object[] mSpans>"},{"step":83,"from":"1093755096","to":"1094554136","type":"load","field":"<android.text.SpannableStringInternal: int[] mSpanData>"},{"step":84,"from":"1094554136","to":"1094554136.arrayIdx_int:0","type":"load","field":"arrayIdx_int:0"},{"step":85,"from":"1094554136","to":"1094554136.arrayIdx_int:1","type":"load","field":"arrayIdx_int:1"},{"step":86,"from":"1093755096","to":"1093755096.<android.text.SpannableStringInternal: int mSpanCount>","type":"load","field":"<android.text.SpannableStringInternal: int mSpanCount>"},{"step":87,"from":"1093755096","to":"1093802704","type":"load","field":"<android.text.SpannableStringInternal: java.lang.Object[] mSpans>"},{"step":88,"from":"1093755096","to":"1094554136","type":"load","field":"<android.text.SpannableStringInternal: int[] mSpanData>"},{"step":89,"from":"1093802704","to":"1094287240","type":"load","field":"arrayIdx_int:0"},{"step":90,"from":"1094554136","to":"1094554136.arrayIdx_int:0","type":"load","field":"arrayIdx_int:0"},{"step":91,"from":"1094554136","to":"1094554136.arrayIdx_int:1","type":"load","field":"arrayIdx_int:1"},{"step":92,"from":"1084661656","to":"sdaReg161","type":"model"},{"step":93,"from":"static.<com.android.internal.util.ArrayUtils: java.lang.Object[] sCache>","to":"1084375760","type":"load","field":"<com.android.internal.util.ArrayUtils: java.lang.Object[] sCache>"},{"step":94,"from":"1084375760","to":"1093550768","type":"load","field":"arrayIdx_int:26"},{"step":95,"from":"1093550768","to":"1085374624","type":"model"},{"step":96,"from":"1085374624","to":"1084661656","type":"model"},{"step":97,"from":"1093755096","to":"1093755096.<android.text.SpannableStringInternal: java.lang.String mText>","type":"load","field":"<android.text.SpannableStringInternal: java.lang.String mText>"},{"step":98,"from":"1093755096.<android.text.SpannableStringInternal: java.lang.String mText>","to":"sdaReg178","type":"model"},{"step":99,"from":"1093755096","to":"1093755096.<android.text.SpannableStringInternal: java.lang.String mText>","type":"load","field":"<android.text.SpannableStringInternal: java.lang.String mText>"},{"step":100,"from":"1093755096.<android.text.SpannableStringInternal: java.lang.String mText>","to":"sdaReg182","type":"model"},{"step":101,"from":"1093755096","to":"1093755096.<android.text.SpannableStringInternal: java.lang.String mText>","type":"load","field":"<android.text.SpannableStringInternal: java.lang.String mText>"},{"step":102,"from":"1093755096.<android.text.SpannableStringInternal: java.lang.String mText>","to":"sdaReg184","type":"model"},{"step":103,"from":"sdaReg184","to":"1093471344","type":"model"},{"step":104,"from":"1093755096","to":"1093755096.<android.text.SpannableStringInternal: java.lang.String mText>","type":"load","field":"<android.text.SpannableStringInternal: java.lang.String mText>"},{"step":105,"from":"1093755096.<android.text.SpannableStringInternal: java.lang.String mText>","to":"sdaReg186","type":"model"},{"step":106,"from":"sdaReg186","to":"1093471344","type":"model"},{"step":107,"from":"1093755096","to":"1093755096.<android.text.SpannableStringInternal: java.lang.String mText>","type":"load","field":"<android.text.SpannableStringInternal: java.lang.String mText>"},{"step":108,"from":"1093755096.<android.text.SpannableStringInternal: java.lang.String mText>","to":"sdaReg188","type":"model"},{"step":109,"from":"sdaReg188","to":"1093471344","type":"model"},{"step":110,"from":"1093755096","to":"1093755096.<android.text.SpannableStringInternal: java.lang.String mText>","type":"load","field":"<android.text.SpannableStringInternal: java.lang.String mText>"},{"step":111,"from":"1093755096.<android.text.SpannableStringInternal: java.lang.String mText>","to":"sdaReg190","type":"model"},{"step":112,"from":"sdaReg190","to":"1093471344","type":"model"},{"step":113,"from":"1093755096","to":"1093755096.<android.text.SpannableStringInternal: java.lang.String mText>","type":"load","field":"<android.text.SpannableStringInternal: java.lang.String mText>"},{"step":114,"from":"1093755096.<android.text.SpannableStringInternal: java.lang.String mText>","to":"sdaReg192","type":"model"},{"step":115,"from":"sdaReg192","to":"1093471344","type":"model"},{"step":116,"from":"sdaReg195","to":"1093471344","type":"model"}],"parameters":[{"id":"1093471344","name":"arg#0","klass":"java.lang.StringBuilder"},{"id":"1093755096","name":"arg#1","klass":"android.text.Spanned"},{"id":"sdaReg0","name":"arg#2","klass":"int"},{"id":"sdaReg1","name":"arg#3","klass":"int"},{"id":"sdaReg2","name":"arg#4","klass":"int"},{"id":"sdaReg3","name":"arg#5","klass":"boolean"}],"returns":[{"id":null,"name":"return","klass":null}],"colors":{"heapLocToColor":{"sdaReg191":[1],"sdaReg125":[1, 30],"sdaReg190":[1, 39],"1093755096.<android.text.SpannableStringInternal: int[] mSpanData>":[1],"sdaReg126":[1],"1093550768":[9],"sdaReg127":[1, 31],"sdaReg192":[1, 40],"1093755096.<android.text.SpannableStringInternal: int mSpanCount>":[1],"sdaReg64":[1],"sdaReg65":[9, 10, 11],"sdaReg62":[1],"sdaReg63":[9, 10, 11],"sdaReg72":[1],"sdaReg14":[6],"sdaReg71":[18],"sdaReg120":[1],"sdaReg17":[1],"sdaReg122":[1],"sdaReg121":[1, 28],"sdaReg15":[1],"sdaReg124":[1],"sdaReg123":[1, 29],"sdaReg116":[1],"sdaReg117":[1, 26],"sdaReg114":[1],"sdaReg115":[1, 25],"sdaReg118":[1],"sdaReg119":[1, 27],"sdaReg73":[9, 10, 11],"sdaReg74":[1],"sdaReg75":[9, 10, 11],"sdaReg80":[19],"1094554136":[1],"1093755096":[1],"sdaReg113":[1, 24],"sdaReg112":[1],"sdaReg111":[1, 23],"1094287240":[1],"sdaReg110":[1],"sdaReg107":[1, 21],"sdaReg108":[1],"sdaReg109":[1, 22],"sdaReg103":[0],"sdaReg104":[1],"sdaReg171":[9],"sdaReg105":[1, 2, 3],"sdaReg170":[9],"sdaReg106":[1],"static.<com.android.internal.util.ArrayUtils: java.lang.Object[] sCache>":[9],"sdaReg86":[20],"sdaReg172":[9],"sdaReg87":[20],"sdaReg175":[1],"sdaReg174":[0],"sdaReg85":[20],"sdaReg177":[1],"sdaReg176":[1, 2, 3],"sdaReg179":[1, 2, 3],"1094554136.arrayIdx_int:0":[1],"sdaReg88":[20],"sdaReg178":[34, 1],"1094554136.arrayIdx_int:1":[1],"sdaReg89":[20],"sdaReg90":[20],"1093802704":[1],"sdaReg182":[1, 35],"sdaReg181":[1],"sdaReg180":[1, 2, 3],"sdaReg186":[1, 37],"sdaReg185":[1],"sdaReg184":[1, 36],"sdaReg183":[1],"sdaReg189":[1],"sdaReg188":[1, 38],"sdaReg187":[1],"1084375760.arrayIdx_int:26":[9],"sdaReg169":[9],"sdaReg161":[33],"sdaReg162":[33],"sdaReg163":[33],"sdaReg164":[33],"sdaReg165":[9, 10],"sdaReg166":[9, 10, 11],"sdaReg167":[9],"sdaReg168":[9],"sdaReg59":[2],"sdaReg58":[17, 1],"sdaReg57":[1],"sdaReg56":[1, 16],"sdaReg55":[1],"1093755096.<android.text.SpannableStringInternal: java.lang.String mText>":[1],"sdaReg54":[1, 15],"sdaReg53":[1],"sdaReg52":[1, 14],"sdaReg160":[9, 10, 11],"sdaReg51":[1],"sdaReg50":[1, 13],"1093802704.arrayIdx_int:0":[1],"1084661656":[9, 10, 11],"sdaReg150":[9, 10, 11],"sdaReg49":[1],"sdaReg48":[1, 12],"sdaReg155":[32],"sdaReg45":[1],"sdaReg44":[0],"sdaReg47":[1],"1094618000":[20],"sdaReg46":[2],"sdaReg41":[20, 9],"sdaReg40":[9],"sdaReg148":[9, 10, 11],"sdaReg147":[1],"1085374624":[9, 10],"sdaReg149":[1],"sdaReg39":[9],"sdaReg38":[9],"sdaReg37":[9],"1084375760":[9],"sdaReg140":[1],"sdaReg141":[9, 10, 11],"sdaReg32":[8],"sdaReg31":[8],"sdaReg30":[8],"sdaReg34":[9, 10, 11],"sdaReg33":[9, 10],"1093471344":[0],"sdaReg7":[1],"sdaReg4":[1, 2, 3],"sdaReg5":[1],"1093755096.<android.text.SpannableStringInternal: java.lang.Object[] mSpans>":[1],"sdaReg139":[9, 10, 11],"sdaReg138":[1],"sdaReg29":[8],"sdaReg3":[5],"sdaReg2":[4],"sdaReg1":[1, 3],"sdaReg0":[2],"sdaReg23":[7]},"colorToColor":{"1":[0, 20],"9":[33],"10":[33],"11":[33],"12":[0],"13":[0],"14":[0],"15":[0],"16":[0],"21":[0],"23":[0],"22":[0],"25":[0],"24":[0],"27":[0],"26":[0],"29":[0],"28":[0],"31":[0],"30":[0],"38":[0],"39":[0],"36":[0],"37":[0],"40":[0]},"colorToLabel":{"0":"arg#0","1":"arg#1","2":"arg#2","3":"arg#3","4":"arg#4","5":"arg#5","9":"<com.android.internal.util.ArrayUtils: java.lang.Object[] sCache>","41":"return"}}}

Generated Model
	arg#1->arg#0

