Scanning method <android.location.Location: void setTime(long)>

All seen event types: StoreInstanceRecord, 
Ignored event types: 

JSON Encoded Analysis Data (for visualization):{"heapEdges":[{"step":0,"from":"sdaReg0","to":"1093798944","type":"store","field":"<android.location.Location: long mTime>"}],"parameters":[{"id":"1093798944","name":"this","klass":"android.location.Location"},{"id":"sdaReg0","name":"arg#1","klass":"long"}],"returns":[{"id":null,"name":"return","klass":null}],"colors":{"heapLocToColor":{"1093798944":[0],"sdaReg0":[1]},"colorToColor":{"1":[0]},"colorToLabel":{"0":"this","1":"arg#1","2":"return"}}}

Generated Model
	arg#1->this

