Scanning method <android.os.Message: void clearForRecycle()>

All seen event types: StoreInstanceRecord, 
Ignored event types: 

JSON Encoded Analysis Data (for visualization):{"heapEdges":[{"step":0,"from":"1093472200","to":"sdaReg0","type":"create","field":"<android.os.Message: int flags>"},{"step":1,"from":"1093472200","to":"sdaReg1","type":"create","field":"<android.os.Message: int what>"},{"step":2,"from":"1093472200","to":"sdaReg2","type":"create","field":"<android.os.Message: int arg1>"},{"step":3,"from":"1093472200","to":"sdaReg3","type":"create","field":"<android.os.Message: int arg2>"},{"step":4,"from":"1093472200","to":"sdaReg4","type":"create","field":"<android.os.Message: java.lang.Object obj>"},{"step":5,"from":"1093472200","to":"sdaReg5","type":"create","field":"<android.os.Message: android.os.Messenger replyTo>"},{"step":6,"from":"1093472200","to":"sdaReg6","type":"create","field":"<android.os.Message: long when>"},{"step":7,"from":"1093472200","to":"sdaReg7","type":"create","field":"<android.os.Message: android.os.Handler target>"},{"step":8,"from":"1093472200","to":"sdaReg8","type":"create","field":"<android.os.Message: java.lang.Runnable callback>"},{"step":9,"from":"1093472200","to":"sdaReg9","type":"create","field":"<android.os.Message: android.os.Bundle data>"}],"parameters":[{"id":"1093472200","name":"this","klass":"android.os.Message"}],"returns":[{"id":null,"name":"return","klass":null}],"colors":{"heapLocToColor":{"1093472200":[0]},"colorToColor":{},"colorToLabel":{"0":"this","1":"return"}}}

Generated Model

