Scanning method <java.util.AbstractList$SimpleListIterator: java.lang.Object next()>

All seen event types: BinaryOperationRecord, MethodReturnRecord, MethodCallRecord, MethodStartRecord, LoadInstanceRecord, LoadArrayRecord, MethodEndRecord, IfRecord, StoreInstanceRecord, 
Ignored event types: IfRecord, 

JSON Encoded Analysis Data (for visualization):{"heapEdges":[{"step":0,"from":"1095037464","to":"1095037464.<java.util.AbstractList$SimpleListIterator: int expectedModCount>","type":"load","field":"<java.util.AbstractList$SimpleListIterator: int expectedModCount>"},{"step":1,"from":"1095037464","to":"1093519824","type":"load","field":"<java.util.AbstractList$SimpleListIterator: java.util.AbstractList this$0>"},{"step":2,"from":"1093519824","to":"1093519824.<java.util.AbstractList: int modCount>","type":"load","field":"<java.util.AbstractList: int modCount>"},{"step":3,"from":"1095037464","to":"1093519824","type":"load","field":"<java.util.AbstractList$SimpleListIterator: java.util.AbstractList this$0>"},{"step":4,"from":"1095037464","to":"1095037464.<java.util.AbstractList$SimpleListIterator: int pos>","type":"load","field":"<java.util.AbstractList$SimpleListIterator: int pos>"},{"step":5,"from":"1093519824","to":"1093519824.<java.util.ArrayList: int size>","type":"load","field":"<java.util.ArrayList: int size>"},{"step":6,"from":"1093519824","to":"1094129696","type":"load","field":"<java.util.ArrayList: java.lang.Object[] array>"},{"step":7,"from":"1094129696","to":"1093355656","type":"load","field":"arrayIdx_int:34"},{"step":8,"from":"1095037464","to":"1095037464.<java.util.AbstractList$SimpleListIterator: int pos>","type":"load","field":"<java.util.AbstractList$SimpleListIterator: int pos>"},{"step":9,"from":"sdaReg3","to":"1095037464","type":"store","field":"<java.util.AbstractList$SimpleListIterator: int pos>"},{"step":10,"from":"sdaReg3","to":"1095037464","type":"store","field":"<java.util.AbstractList$SimpleListIterator: int lastPosition>"}],"parameters":[{"id":"1095037464","name":"this","klass":"java.util.AbstractList$SimpleListIterator"}],"returns":[{"id":"1093355656","name":"return","klass":"java.lang.Object"}],"colors":{"heapLocToColor":{"1095037464.<java.util.AbstractList$SimpleListIterator: int pos>":[0],"1094129696":[0],"1093519824.<java.util.ArrayList: int size>":[0],"1095037464.<java.util.AbstractList$SimpleListIterator: java.util.AbstractList this$0>":[0],"1093355656":[0],"1093519824":[0],"sdaReg3":[0],"sdaReg2":[0],"sdaReg1":[0],"1095037464":[0],"sdaReg0":[0],"1095037464.<java.util.AbstractList$SimpleListIterator: int expectedModCount>":[0],"1093519824.<java.util.AbstractList: int modCount>":[0]},"colorToColor":{"0":[0, 1]},"colorToLabel":{"0":"this","1":"return"}}}

Generated Model
	this->return

