Scanning method <java.io.ObjectInputStream: java.lang.Object readObject()>

All seen event types: StoreArrayRecord, SimpleAssignmentRecord, MethodStartRecord, LoadInstanceRecord, IfRecord, NewObjectRecord, StoreInstanceRecord, NewArrayRecord, LoadStaticRecord, BinaryOperationRecord, SwitchRecord, MethodCallRecord, MethodReturnRecord, ArrayLengthRecord, CastRecord, LoadArrayRecord, MethodEndRecord, 
Ignored event types: SwitchRecord, IfRecord, 

JSON Encoded Analysis Data (for visualization):{"heapEdges":[{"step":0,"from":"1093539856","to":"1093499400","type":"load","field":"<java.io.ObjectInputStream: java.io.InputStream primitiveData>"},{"step":1,"from":"1093539856","to":"1093540056","type":"load","field":"<java.io.ObjectInputStream: java.io.DataInputStream input>"},{"step":2,"from":"1093539856","to":"1093539856.<java.io.ObjectInputStream: boolean subclassOverridingImplementation>","type":"load","field":"<java.io.ObjectInputStream: boolean subclassOverridingImplementation>"},{"step":3,"from":"1093539856","to":"1093539856.<java.io.ObjectInputStream: int nestedLevels>","type":"load","field":"<java.io.ObjectInputStream: int nestedLevels>"},{"step":4,"from":"sdaReg4","to":"1093539856","type":"store","field":"<java.io.ObjectInputStream: int nestedLevels>"},{"step":5,"from":"1093501640","to":"1085582952","type":"load","field":"arrayIdx_int:0"},{"step":6,"from":"1085582952","to":"1083999984","type":"model"},{"step":7,"from":"static.<java.io.ObjectInputStream: java.lang.ClassLoader bootstrapLoader>","to":"1083999984","type":"load","field":"<java.io.ObjectInputStream: java.lang.ClassLoader bootstrapLoader>"},{"step":8,"from":"1093501640","to":"1085582952","type":"load","field":"arrayIdx_int:1"},{"step":9,"from":"1085582952","to":"1083999984","type":"model"},{"step":10,"from":"static.<java.io.ObjectInputStream: java.lang.ClassLoader bootstrapLoader>","to":"1083999984","type":"load","field":"<java.io.ObjectInputStream: java.lang.ClassLoader bootstrapLoader>"},{"step":11,"from":"1093501640","to":"1085582952","type":"load","field":"arrayIdx_int:2"},{"step":12,"from":"1085582952","to":"1083999984","type":"model"},{"step":13,"from":"static.<java.io.ObjectInputStream: java.lang.ClassLoader bootstrapLoader>","to":"1083999984","type":"load","field":"<java.io.ObjectInputStream: java.lang.ClassLoader bootstrapLoader>"},{"step":14,"from":"1093501640","to":"1085582952","type":"load","field":"arrayIdx_int:3"},{"step":15,"from":"1085582952","to":"1083999984","type":"model"},{"step":16,"from":"static.<java.io.ObjectInputStream: java.lang.ClassLoader bootstrapLoader>","to":"1083999984","type":"load","field":"<java.io.ObjectInputStream: java.lang.ClassLoader bootstrapLoader>"},{"step":17,"from":"1093501640","to":"1085582952","type":"load","field":"arrayIdx_int:4"},{"step":18,"from":"1085582952","to":"1083999984","type":"model"},{"step":19,"from":"static.<java.io.ObjectInputStream: java.lang.ClassLoader bootstrapLoader>","to":"1083999984","type":"load","field":"<java.io.ObjectInputStream: java.lang.ClassLoader bootstrapLoader>"},{"step":20,"from":"1093501640","to":"1093339976","type":"load","field":"arrayIdx_int:5"},{"step":21,"from":"1093339976","to":"1093291176","type":"model"},{"step":22,"from":"static.<java.io.ObjectInputStream: java.lang.ClassLoader bootstrapLoader>","to":"1083999984","type":"load","field":"<java.io.ObjectInputStream: java.lang.ClassLoader bootstrapLoader>"},{"step":23,"from":"static.<java.io.ObjectInputStream: java.lang.ClassLoader systemLoader>","to":"1083999760","type":"load","field":"<java.io.ObjectInputStream: java.lang.ClassLoader systemLoader>"},{"step":24,"from":"1093539856","to":"1093291176","type":"create","field":"<java.io.ObjectInputStream: java.lang.ClassLoader callerClassLoader>"},{"step":25,"from":"1093539856","to":"1093499400","type":"load","field":"<java.io.ObjectInputStream: java.io.InputStream primitiveData>"},{"step":26,"from":"1093539856","to":"1093540056","type":"load","field":"<java.io.ObjectInputStream: java.io.DataInputStream input>"},{"step":27,"from":"1093539856","to":"1093499400","type":"load","field":"<java.io.ObjectInputStream: java.io.InputStream primitiveData>"},{"step":28,"from":"1093499400","to":"1093499400.<java.io.ByteArrayInputStream: int count>","type":"load","field":"<java.io.ByteArrayInputStream: int count>"},{"step":29,"from":"1093499400","to":"1093499400.<java.io.ByteArrayInputStream: int pos>","type":"load","field":"<java.io.ByteArrayInputStream: int pos>"},{"step":30,"from":"1093539856","to":"1093539856.<java.io.ObjectInputStream: boolean hasPushbackTC>","type":"load","field":"<java.io.ObjectInputStream: boolean hasPushbackTC>"},{"step":31,"from":"1093539856","to":"1093540056","type":"load","field":"<java.io.ObjectInputStream: java.io.DataInputStream input>"},{"step":32,"from":"1093540056","to":"1093499328","type":"load","field":"<java.io.FilterInputStream: java.io.InputStream in>"},{"step":33,"from":"1093499328","to":"1093499328.<java.io.ByteArrayInputStream: int pos>","type":"load","field":"<java.io.ByteArrayInputStream: int pos>"},{"step":34,"from":"1093499328","to":"1093499328.<java.io.ByteArrayInputStream: int count>","type":"load","field":"<java.io.ByteArrayInputStream: int count>"},{"step":35,"from":"1093499328","to":"1093499360","type":"load","field":"<java.io.ByteArrayInputStream: byte[] buf>"},{"step":36,"from":"1093499328","to":"1093499328.<java.io.ByteArrayInputStream: int pos>","type":"load","field":"<java.io.ByteArrayInputStream: int pos>"},{"step":37,"from":"sdaReg23","to":"1093499328","type":"store","field":"<java.io.ByteArrayInputStream: int pos>"},{"step":38,"from":"1093499360","to":"1093499360.arrayIdx_int:4","type":"load","field":"arrayIdx_int:4"},{"step":39,"from":"sdaReg25","to":"1093539856","type":"store","field":"<java.io.ObjectInputStream: byte pushbackTC>"},{"step":40,"from":"1093539856","to":"sdaReg27","type":"create","field":"<java.io.ObjectInputStream: boolean hasPushbackTC>"},{"step":41,"from":"1093539856","to":"1093499400","type":"load","field":"<java.io.ObjectInputStream: java.io.InputStream primitiveData>"},{"step":42,"from":"1093499400","to":"1093499400.<java.io.ByteArrayInputStream: int count>","type":"load","field":"<java.io.ByteArrayInputStream: int count>"},{"step":43,"from":"1093499400","to":"1093499400.<java.io.ByteArrayInputStream: int pos>","type":"load","field":"<java.io.ByteArrayInputStream: int pos>"},{"step":44,"from":"1093539856","to":"sdaReg31","type":"create","field":"<java.io.ObjectInputStream: boolean hasPushbackTC>"},{"step":45,"from":"1093539856","to":"1093540056","type":"load","field":"<java.io.ObjectInputStream: java.io.DataInputStream input>"},{"step":46,"from":"1093540056","to":"1093499328","type":"load","field":"<java.io.FilterInputStream: java.io.InputStream in>"},{"step":47,"from":"1093540056","to":"1093499488","type":"load","field":"<java.io.DataInputStream: byte[] scratch>"},{"step":48,"from":"1093499328","to":"1093499488","type":"model"},{"step":49,"from":"1093540056","to":"1093499488","type":"load","field":"<java.io.DataInputStream: byte[] scratch>"},{"step":50,"from":"static.<java.nio.ByteOrder: java.nio.ByteOrder BIG_ENDIAN>","to":"1084339448","type":"load","field":"<java.nio.ByteOrder: java.nio.ByteOrder BIG_ENDIAN>"},{"step":51,"from":"1093499488","to":"sdaReg37","type":"model"},{"step":52,"from":"1093540056","to":"1093499328","type":"load","field":"<java.io.FilterInputStream: java.io.InputStream in>"},{"step":53,"from":"1093499328","to":"1093486552","type":"model"},{"step":54,"from":"1093486552","to":"1093486552.arrayIdx_int:0","type":"load","field":"arrayIdx_int:0"},{"step":55,"from":"sdaReg51","to":"1093601464","type":"store","field":"arrayIdx_int:0"},{"step":56,"from":"1093486552","to":"1093486552.arrayIdx_int:1","type":"load","field":"arrayIdx_int:1"},{"step":57,"from":"sdaReg51","to":"1093601464","type":"store","field":"arrayIdx_int:1"},{"step":58,"from":"1093486552","to":"1093486552.arrayIdx_int:2","type":"load","field":"arrayIdx_int:2"},{"step":59,"from":"sdaReg51","to":"1093601464","type":"store","field":"arrayIdx_int:2"},{"step":60,"from":"1093486552","to":"1093486552.arrayIdx_int:3","type":"load","field":"arrayIdx_int:3"},{"step":61,"from":"sdaReg51","to":"1093601464","type":"store","field":"arrayIdx_int:3"},{"step":62,"from":"1093486552","to":"1093486552.arrayIdx_int:4","type":"load","field":"arrayIdx_int:4"},{"step":63,"from":"sdaReg51","to":"1093601464","type":"store","field":"arrayIdx_int:4"},{"step":64,"from":"1093486552","to":"1093486552.arrayIdx_int:5","type":"load","field":"arrayIdx_int:5"},{"step":65,"from":"sdaReg51","to":"1093601464","type":"store","field":"arrayIdx_int:5"},{"step":66,"from":"1093486552","to":"1093486552.arrayIdx_int:6","type":"load","field":"arrayIdx_int:6"},{"step":67,"from":"sdaReg51","to":"1093601464","type":"store","field":"arrayIdx_int:6"},{"step":68,"from":"1093486552","to":"1093486552.arrayIdx_int:7","type":"load","field":"arrayIdx_int:7"},{"step":69,"from":"sdaReg51","to":"1093601464","type":"store","field":"arrayIdx_int:7"},{"step":70,"from":"1093486552","to":"1093486552.arrayIdx_int:8","type":"load","field":"arrayIdx_int:8"},{"step":71,"from":"sdaReg51","to":"1093601464","type":"store","field":"arrayIdx_int:8"},{"step":72,"from":"1093486552","to":"1093486552.arrayIdx_int:9","type":"load","field":"arrayIdx_int:9"},{"step":73,"from":"sdaReg51","to":"1093601464","type":"store","field":"arrayIdx_int:9"},{"step":74,"from":"1093601464","to":"sdaReg52","type":"model"},{"step":75,"from":"1093539856","to":"1093539856.<java.io.ObjectInputStream: boolean enableResolve>","type":"load","field":"<java.io.ObjectInputStream: boolean enableResolve>"},{"step":76,"from":"1093539856","to":"1093539856.<java.io.ObjectInputStream: int nextHandle>","type":"load","field":"<java.io.ObjectInputStream: int nextHandle>"},{"step":77,"from":"sdaReg55","to":"1093539856","type":"store","field":"<java.io.ObjectInputStream: int nextHandle>"},{"step":78,"from":"1093539856","to":"1093499576","type":"load","field":"<java.io.ObjectInputStream: java.util.ArrayList objectsRead>"},{"step":79,"from":"1093499576","to":"1093499576.<java.util.ArrayList: int size>","type":"load","field":"<java.util.ArrayList: int size>"},{"step":80,"from":"1093539856","to":"1093499576","type":"load","field":"<java.io.ObjectInputStream: java.util.ArrayList objectsRead>"},{"step":81,"from":"1093499576","to":"1083994088","type":"load","field":"<java.util.ArrayList: java.lang.Object[] array>"},{"step":82,"from":"1093499576","to":"1093499576.<java.util.ArrayList: int size>","type":"load","field":"<java.util.ArrayList: int size>"},{"step":83,"from":"1083994088","to":"1093601832","type":"model"},{"step":84,"from":"1093499576","to":"1093601832","type":"create","field":"<java.util.ArrayList: java.lang.Object[] array>"},{"step":85,"from":"1093601504","to":"1093601832","type":"store","field":"arrayIdx_int:0"},{"step":86,"from":"sdaReg65","to":"1093499576","type":"store","field":"<java.util.ArrayList: int size>"},{"step":87,"from":"1093499576","to":"1093499576.<java.util.AbstractList: int modCount>","type":"load","field":"<java.util.AbstractList: int modCount>"},{"step":88,"from":"sdaReg66","to":"1093499576","type":"store","field":"<java.util.AbstractList: int modCount>"},{"step":89,"from":"sdaReg70","to":"1093539856","type":"store","field":"<java.io.ObjectInputStream: int nestedLevels>"},{"step":90,"from":"1093539856","to":"sdaReg71","type":"create","field":"<java.io.ObjectInputStream: java.lang.ClassLoader callerClassLoader>"}],"parameters":[{"id":"1093539856","name":"this","klass":"java.io.ObjectInputStream"}],"returns":[{"id":"1093601504","name":"return","klass":"java.lang.Object"}],"colors":{"heapLocToColor":{"1093539856.<java.io.ObjectInputStream: boolean subclassOverridingImplementation>":[0],"1093499488":[0],"1093499576.<java.util.ArrayList: int size>":[0],"static.<java.io.ObjectInputStream: java.lang.ClassLoader bootstrapLoader>":[1, 2, 3],"1093339976":[1],"1093601464":[9],"sdaReg66":[0],"sdaReg64":[0],"sdaReg65":[0],"sdaReg13":[1, 2, 3],"sdaReg14":[1, 4],"sdaReg11":[1, 2, 3],"sdaReg12":[1, 2, 3],"sdaReg10":[1, 2, 3],"1093486552":[8],"sdaReg19":[0],"sdaReg17":[0],"sdaReg18":[0],"sdaReg15":[1, 4],"sdaReg16":[0],"1093499400.<java.io.ByteArrayInputStream: int pos>":[0],"1083999760":[5],"1093486552.arrayIdx_int:5":[8],"1093486552.arrayIdx_int:6":[8],"1093486552.arrayIdx_int:7":[8],"1093486552.arrayIdx_int:8":[8],"1083994088":[0],"1093486552.arrayIdx_int:1":[8],"1093486552.arrayIdx_int:2":[8],"1093499400":[0],"1093486552.arrayIdx_int:3":[8],"1093486552.arrayIdx_int:4":[8],"1093539856.<java.io.ObjectInputStream: int nestedLevels>":[0],"1093486552.arrayIdx_int:9":[8],"1093499360.arrayIdx_int:4":[0],"1093499328":[0],"1093486552.arrayIdx_int:0":[8],"1093539856":[0],"1085582952":[1],"1093291176":[1, 4],"1093539856.<java.io.ObjectInputStream: java.io.InputStream primitiveData>":[0],"1084339448":[6],"1093499400.<java.io.ByteArrayInputStream: int count>":[0],"sdaReg60":[0],"1093540056":[0],"1093499576.<java.util.AbstractList: int modCount>":[0],"sdaReg59":[0],"sdaReg58":[0],"sdaReg56":[0],"sdaReg55":[0],"static.<java.nio.ByteOrder: java.nio.ByteOrder BIG_ENDIAN>":[6],"sdaReg54":[0],"sdaReg52":[10],"sdaReg51":[8],"1093539856.<java.io.ObjectInputStream: boolean hasPushbackTC>":[0],"1093539856.<java.io.ObjectInputStream: int nextHandle>":[0],"1093540056.<java.io.FilterInputStream: java.io.InputStream in>":[0],"1093501640.arrayIdx_int:3":[1],"1093501640.arrayIdx_int:4":[1],"1093501640.arrayIdx_int:1":[1],"1093501640.arrayIdx_int:2":[1],"1093539856.<java.io.ObjectInputStream: boolean enableResolve>":[0],"sdaReg45":[9],"sdaReg44":[8],"sdaReg41":[0],"sdaReg40":[0],"1093501640":[1],"sdaReg42":[8],"sdaReg39":[0],"sdaReg38":[7],"sdaReg37":[7],"1093499576":[0],"static.<java.io.ObjectInputStream: java.lang.ClassLoader systemLoader>":[5],"1093539856.<java.io.ObjectInputStream: java.util.ArrayList objectsRead>":[0],"1083999984":[1, 2, 3],"sdaReg30":[0],"sdaReg36":[0],"sdaReg35":[0],"1093540056.<java.io.DataInputStream: byte[] scratch>":[0],"sdaReg34":[0],"sdaReg33":[0],"sdaReg9":[1, 2],"sdaReg6":[1],"1093499328.<java.io.ByteArrayInputStream: int pos>":[0],"sdaReg4":[0],"sdaReg5":[1],"sdaReg26":[0],"1093601832":[11],"1093499360":[0],"sdaReg29":[0],"sdaReg28":[0],"sdaReg21":[0],"sdaReg0":[0],"sdaReg23":[0],"1093499328.<java.io.ByteArrayInputStream: int count>":[0],"sdaReg22":[0],"1093539856.<java.io.ObjectInputStream: java.io.DataInputStream input>":[0],"sdaReg25":[0],"sdaReg24":[0]},"colorToColor":{"0":[0, 7, 8, 11],"1":[0],"4":[0],"8":[9],"9":[10],"11":[0]},"colorToLabel":{"0":"this","3":"<java.io.ObjectInputStream: java.lang.ClassLoader bootstrapLoader>","5":"<java.io.ObjectInputStream: java.lang.ClassLoader systemLoader>","6":"<java.nio.ByteOrder: java.nio.ByteOrder BIG_ENDIAN>","12":"return"}}}

Generated Model

