Scanning method <java.util.TreeSet: boolean add(java.lang.Object)>

All seen event types: LoadStaticRecord, BinaryOperationRecord, SimpleAssignmentRecord, MethodReturnRecord, MethodCallRecord, MethodStartRecord, LoadInstanceRecord, MethodEndRecord, IfRecord, StoreInstanceRecord, NewObjectRecord, InstanceOfRecord, 
Ignored event types: IfRecord, 

JSON Encoded Analysis Data (for visualization):{"heapEdges":[{"step":0,"from":"1094676392","to":"1093233072","type":"load","field":"<java.util.TreeSet: java.util.NavigableMap backingMap>"},{"step":1,"from":"static.<java.lang.Boolean: java.lang.Boolean TRUE>","to":"1085638584","type":"load","field":"<java.lang.Boolean: java.lang.Boolean TRUE>"},{"step":2,"from":"static.<java.util.TreeMap$Relation: java.util.TreeMap$Relation CREATE>","to":"1085707192","type":"load","field":"<java.util.TreeMap$Relation: java.util.TreeMap$Relation CREATE>"},{"step":3,"from":"1093233072","to":"1083970648","type":"load","field":"<java.util.TreeMap: java.util.Comparator comparator>"},{"step":4,"from":"static.<java.util.TreeMap: java.util.Comparator NATURAL_ORDER>","to":"1083970648","type":"load","field":"<java.util.TreeMap: java.util.Comparator NATURAL_ORDER>"},{"step":5,"from":"static.<java.util.TreeMap$Relation: java.util.TreeMap$Relation CREATE>","to":"1085707192","type":"load","field":"<java.util.TreeMap$Relation: java.util.TreeMap$Relation CREATE>"},{"step":6,"from":"1093852672","to":"1093260488","type":"store","field":"<java.util.TreeMap$Node: java.lang.Object key>"},{"step":7,"from":"1093260488","to":"sdaReg13","type":"create","field":"<java.util.TreeMap$Node: int height>"},{"step":8,"from":"1093233072","to":"1093260488","type":"create","field":"<java.util.TreeMap: java.util.TreeMap$Node root>"},{"step":9,"from":"1093233072","to":"sdaReg15","type":"create","field":"<java.util.TreeMap: int size>"},{"step":10,"from":"1093233072","to":"1093233072.<java.util.TreeMap: int modCount>","type":"load","field":"<java.util.TreeMap: int modCount>"},{"step":11,"from":"sdaReg16","to":"1093233072","type":"store","field":"<java.util.TreeMap: int modCount>"},{"step":12,"from":"1085638584","to":"1093260488","type":"store","field":"<java.util.TreeMap$Node: java.lang.Object value>"}],"parameters":[{"id":"1094676392","name":"this","klass":"java.util.TreeSet"},{"id":"1093852672","name":"arg#1","klass":"java.lang.Object"}],"returns":[{"id":"sdaReg20","name":"return","klass":"boolean"}],"colors":{"heapLocToColor":{"static.<java.util.TreeMap: java.util.Comparator NATURAL_ORDER>":[0, 4],"1094676392":[0],"sdaReg14":[5],"sdaReg11":[1],"sdaReg12":[5],"sdaReg10":[5],"static.<java.lang.Boolean: java.lang.Boolean TRUE>":[2],"1085707192":[3],"sdaReg17":[5],"sdaReg16":[0],"sdaReg8":[3],"sdaReg6":[0],"sdaReg7":[1],"sdaReg4":[1],"sdaReg5":[2],"static.<java.util.TreeMap$Relation: java.util.TreeMap$Relation CREATE>":[3],"1093233072":[0],"1093233072.<java.util.TreeMap: int modCount>":[0],"1093852672":[1],"sdaReg3":[0],"sdaReg2":[2],"sdaReg1":[1],"1085638584":[2],"sdaReg0":[0],"1083970648":[0, 4],"1093260488":[5]},"colorToColor":{"0":[0],"1":[5],"2":[5],"5":[0]},"colorToLabel":{"0":"this","1":"arg#1","2":"<java.lang.Boolean: java.lang.Boolean TRUE>","3":"<java.util.TreeMap$Relation: java.util.TreeMap$Relation CREATE>","4":"<java.util.TreeMap: java.util.Comparator NATURAL_ORDER>","6":"return"}}}

Generated Model
	arg#1->this

