Scanning method <java.util.TreeSet: boolean add(java.lang.Object)>

All seen event types: SimpleAssignmentRecord, LoadInstanceRecord, MethodStartRecord, IfRecord, NewObjectRecord, StoreInstanceRecord, LoadStaticRecord, BinaryOperationRecord, MethodCallRecord, MethodReturnRecord, SwitchRecord, CastRecord, LoadArrayRecord, MethodEndRecord, 
Ignored event types: SwitchRecord, IfRecord, 

JSON Encoded Analysis Data (for visualization):{"heapEdges":[{"step":0,"from":"1094676392","to":"1093233072","type":"load","field":"<java.util.TreeSet: java.util.NavigableMap backingMap>"},{"step":1,"from":"static.<java.lang.Boolean: java.lang.Boolean TRUE>","to":"1085638584","type":"load","field":"<java.lang.Boolean: java.lang.Boolean TRUE>"},{"step":2,"from":"static.<java.util.TreeMap$Relation: java.util.TreeMap$Relation CREATE>","to":"1085707192","type":"load","field":"<java.util.TreeMap$Relation: java.util.TreeMap$Relation CREATE>"},{"step":3,"from":"1093233072","to":"1093260488","type":"load","field":"<java.util.TreeMap: java.util.TreeMap$Node root>"},{"step":4,"from":"1093233072","to":"1083970648","type":"load","field":"<java.util.TreeMap: java.util.Comparator comparator>"},{"step":5,"from":"static.<java.util.TreeMap: java.util.Comparator NATURAL_ORDER>","to":"1083970648","type":"load","field":"<java.util.TreeMap: java.util.Comparator NATURAL_ORDER>"},{"step":6,"from":"1093233072","to":"1093260488","type":"load","field":"<java.util.TreeMap: java.util.TreeMap$Node root>"},{"step":7,"from":"1093260488","to":"1093852672","type":"load","field":"<java.util.TreeMap$Node: java.lang.Object key>"},{"step":8,"from":"1094178736","to":"1093852672","type":"model"},{"step":9,"from":"1094178736","to":"sdaReg11","type":"model"},{"step":10,"from":"1093852672","to":"1094178736","type":"model"},{"step":11,"from":"1093852672","to":"sdaReg11","type":"model"},{"step":12,"from":"static.<java.util.TreeMap$2: int[] $SwitchMap$java$util$TreeMap$Relation>","to":"1085752200","type":"load","field":"<java.util.TreeMap$2: int[] $SwitchMap$java$util$TreeMap$Relation>"},{"step":13,"from":"1085707192","to":"sdaReg14","type":"model"},{"step":14,"from":"1085752200","to":"1085752200.arrayIdx_int:3","type":"load","field":"arrayIdx_int:3"},{"step":15,"from":"1093260488","to":"1095430504","type":"store","field":"<java.util.TreeMap$Node: java.util.TreeMap$Node parent>"},{"step":16,"from":"1094178736","to":"1095430504","type":"store","field":"<java.util.TreeMap$Node: java.lang.Object key>"},{"step":17,"from":"1095430504","to":"sdaReg19","type":"create","field":"<java.util.TreeMap$Node: int height>"},{"step":18,"from":"1093260488","to":"1095430504","type":"create","field":"<java.util.TreeMap$Node: java.util.TreeMap$Node right>"},{"step":19,"from":"1093233072","to":"1093233072.<java.util.TreeMap: int size>","type":"load","field":"<java.util.TreeMap: int size>"},{"step":20,"from":"sdaReg22","to":"1093233072","type":"store","field":"<java.util.TreeMap: int size>"},{"step":21,"from":"1093233072","to":"1093233072.<java.util.TreeMap: int modCount>","type":"load","field":"<java.util.TreeMap: int modCount>"},{"step":22,"from":"sdaReg23","to":"1093233072","type":"store","field":"<java.util.TreeMap: int modCount>"},{"step":23,"from":"static.<java.util.TreeMap: boolean $assertionsDisabled>","to":"static.<java.util.TreeMap: boolean $assertionsDisabled>","type":"load","field":"<java.util.TreeMap: boolean $assertionsDisabled>"},{"step":24,"from":"sdaReg29","to":"sdaReg30","type":"model"},{"step":25,"from":"sdaReg29","to":"sdaReg32","type":"model"},{"step":26,"from":"sdaReg30","to":"sdaReg29","type":"model"},{"step":27,"from":"sdaReg30","to":"sdaReg32","type":"model"},{"step":28,"from":"sdaReg33","to":"1093260488","type":"store","field":"<java.util.TreeMap$Node: int height>"},{"step":29,"from":"1085638584","to":"1095430504","type":"store","field":"<java.util.TreeMap$Node: java.lang.Object value>"}],"parameters":[{"id":"1094676392","name":"this","klass":"java.util.TreeSet"},{"id":"1094178736","name":"arg#1","klass":"java.lang.Object"}],"returns":[{"id":"sdaReg37","name":"return","klass":"boolean"}],"colors":{"heapLocToColor":{"1093233072.<java.util.TreeMap: java.util.TreeMap$Node root>":[0],"static.<java.util.TreeMap: java.util.Comparator NATURAL_ORDER>":[0, 4],"1094676392":[0],"1085752200.arrayIdx_int:3":[6],"1093233072.<java.util.TreeMap: int size>":[0],"sdaReg14":[3, 7],"1094178736":[1],"sdaReg11":[1, 5],"sdaReg12":[1, 5],"sdaReg10":[1],"static.<java.lang.Boolean: java.lang.Boolean TRUE>":[2],"sdaReg32":[10],"1085707192":[3],"sdaReg17":[1],"sdaReg18":[8],"sdaReg34":[8],"sdaReg15":[8],"sdaReg33":[10],"sdaReg16":[0],"sdaReg8":[3],"sdaReg9":[1],"sdaReg6":[0],"sdaReg7":[1],"1085752200":[6],"sdaReg4":[1],"sdaReg5":[2],"static.<java.util.TreeMap$Relation: java.util.TreeMap$Relation CREATE>":[3],"1093233072.<java.util.TreeMap: int modCount>":[0],"1093233072":[0],"1093852672":[0, 1],"sdaReg27":[0],"1095430504":[8],"static.<java.util.TreeMap$2: int[] $SwitchMap$java$util$TreeMap$Relation>":[6],"static.<java.util.TreeMap: boolean $assertionsDisabled>":[9],"sdaReg3":[0],"sdaReg2":[2],"sdaReg21":[8],"sdaReg1":[1],"1085638584":[2],"sdaReg20":[8],"sdaReg0":[0],"sdaReg23":[0],"sdaReg22":[0],"sdaReg25":[0],"sdaReg24":[0],"1093260488":[0],"1083970648":[0, 4]},"colorToColor":{"0":[0, 1, 5, 8],"1":[1, 5, 8],"2":[8],"8":[0],"10":[0]},"colorToLabel":{"0":"this","1":"arg#1","2":"<java.lang.Boolean: java.lang.Boolean TRUE>","3":"<java.util.TreeMap$Relation: java.util.TreeMap$Relation CREATE>","4":"<java.util.TreeMap: java.util.Comparator NATURAL_ORDER>","6":"<java.util.TreeMap$2: int[] $SwitchMap$java$util$TreeMap$Relation>","9":"<java.util.TreeMap: boolean $assertionsDisabled>","11":"return"}}}

Generated Model
	this->arg#1
	arg#1->this

