Scanning method <java.util.TreeSet: boolean add(java.lang.Object)>

All seen event types: SimpleAssignmentRecord, LoadInstanceRecord, MethodStartRecord, IfRecord, NewObjectRecord, StoreInstanceRecord, LoadStaticRecord, BinaryOperationRecord, MethodCallRecord, MethodReturnRecord, SwitchRecord, CastRecord, LoadArrayRecord, MethodEndRecord, 
Ignored event types: SwitchRecord, IfRecord, 

JSON Encoded Analysis Data (for visualization):{"heapEdges":[{"step":0,"from":"1094676392","to":"1093233072","type":"load","field":"<java.util.TreeSet: java.util.NavigableMap backingMap>"},{"step":1,"from":"static.<java.lang.Boolean: java.lang.Boolean TRUE>","to":"1085638584","type":"load","field":"<java.lang.Boolean: java.lang.Boolean TRUE>"},{"step":2,"from":"static.<java.util.TreeMap$Relation: java.util.TreeMap$Relation CREATE>","to":"1085707192","type":"load","field":"<java.util.TreeMap$Relation: java.util.TreeMap$Relation CREATE>"},{"step":3,"from":"1093233072","to":"1093533024","type":"load","field":"<java.util.TreeMap: java.util.TreeMap$Node root>"},{"step":4,"from":"1093233072","to":"1083970648","type":"load","field":"<java.util.TreeMap: java.util.Comparator comparator>"},{"step":5,"from":"static.<java.util.TreeMap: java.util.Comparator NATURAL_ORDER>","to":"1083970648","type":"load","field":"<java.util.TreeMap: java.util.Comparator NATURAL_ORDER>"},{"step":6,"from":"1093233072","to":"1093533024","type":"load","field":"<java.util.TreeMap: java.util.TreeMap$Node root>"},{"step":7,"from":"1093533024","to":"1093342360","type":"load","field":"<java.util.TreeMap$Node: java.lang.Object key>"},{"step":8,"from":"1094472424","to":"1093342360","type":"model"},{"step":9,"from":"1094472424","to":"sdaReg11","type":"model"},{"step":10,"from":"1093342360","to":"1094472424","type":"model"},{"step":11,"from":"1093342360","to":"sdaReg11","type":"model"},{"step":12,"from":"1093533024","to":"1096265440","type":"load","field":"<java.util.TreeMap$Node: java.util.TreeMap$Node right>"},{"step":13,"from":"1096265440","to":"1093351976","type":"load","field":"<java.util.TreeMap$Node: java.lang.Object key>"},{"step":14,"from":"1094472424","to":"1093351976","type":"model"},{"step":15,"from":"1094472424","to":"sdaReg14","type":"model"},{"step":16,"from":"1093351976","to":"1094472424","type":"model"},{"step":17,"from":"1093351976","to":"sdaReg14","type":"model"},{"step":18,"from":"1096265440","to":"1095116944","type":"load","field":"<java.util.TreeMap$Node: java.util.TreeMap$Node right>"},{"step":19,"from":"1095116944","to":"1093335456","type":"load","field":"<java.util.TreeMap$Node: java.lang.Object key>"},{"step":20,"from":"1094472424","to":"1093335456","type":"model"},{"step":21,"from":"1094472424","to":"sdaReg15","type":"model"},{"step":22,"from":"1093335456","to":"1094472424","type":"model"},{"step":23,"from":"1093335456","to":"sdaReg15","type":"model"},{"step":24,"from":"1095116944","to":"1093944824","type":"load","field":"<java.util.TreeMap$Node: java.util.TreeMap$Node right>"},{"step":25,"from":"1093944824","to":"1093356456","type":"load","field":"<java.util.TreeMap$Node: java.lang.Object key>"},{"step":26,"from":"1094472424","to":"1093356456","type":"model"},{"step":27,"from":"1094472424","to":"sdaReg16","type":"model"},{"step":28,"from":"1093356456","to":"1094472424","type":"model"},{"step":29,"from":"1093356456","to":"sdaReg16","type":"model"},{"step":30,"from":"1093944824","to":"1093278744","type":"load","field":"<java.util.TreeMap$Node: java.util.TreeMap$Node right>"},{"step":31,"from":"1093278744","to":"1093375120","type":"load","field":"<java.util.TreeMap$Node: java.lang.Object key>"},{"step":32,"from":"1094472424","to":"1093375120","type":"model"},{"step":33,"from":"1094472424","to":"sdaReg17","type":"model"},{"step":34,"from":"1093375120","to":"1094472424","type":"model"},{"step":35,"from":"1093375120","to":"sdaReg17","type":"model"},{"step":36,"from":"1093278744","to":"1093278784","type":"load","field":"<java.util.TreeMap$Node: java.util.TreeMap$Node right>"},{"step":37,"from":"1093278784","to":"1093458456","type":"load","field":"<java.util.TreeMap$Node: java.lang.Object key>"},{"step":38,"from":"1094472424","to":"1093458456","type":"model"},{"step":39,"from":"1094472424","to":"sdaReg18","type":"model"},{"step":40,"from":"1093458456","to":"1094472424","type":"model"},{"step":41,"from":"1093458456","to":"sdaReg18","type":"model"},{"step":42,"from":"static.<java.util.TreeMap$2: int[] $SwitchMap$java$util$TreeMap$Relation>","to":"1085752200","type":"load","field":"<java.util.TreeMap$2: int[] $SwitchMap$java$util$TreeMap$Relation>"},{"step":43,"from":"1085707192","to":"sdaReg19","type":"model"},{"step":44,"from":"1085752200","to":"1085752200.arrayIdx_int:3","type":"load","field":"arrayIdx_int:3"},{"step":45,"from":"1093278784","to":"1095193392","type":"store","field":"<java.util.TreeMap$Node: java.util.TreeMap$Node parent>"},{"step":46,"from":"1094472424","to":"1095193392","type":"store","field":"<java.util.TreeMap$Node: java.lang.Object key>"},{"step":47,"from":"1095193392","to":"sdaReg24","type":"create","field":"<java.util.TreeMap$Node: int height>"},{"step":48,"from":"1093278784","to":"1095193392","type":"create","field":"<java.util.TreeMap$Node: java.util.TreeMap$Node right>"},{"step":49,"from":"1093233072","to":"1093233072.<java.util.TreeMap: int size>","type":"load","field":"<java.util.TreeMap: int size>"},{"step":50,"from":"sdaReg27","to":"1093233072","type":"store","field":"<java.util.TreeMap: int size>"},{"step":51,"from":"1093233072","to":"1093233072.<java.util.TreeMap: int modCount>","type":"load","field":"<java.util.TreeMap: int modCount>"},{"step":52,"from":"sdaReg28","to":"1093233072","type":"store","field":"<java.util.TreeMap: int modCount>"},{"step":53,"from":"static.<java.util.TreeMap: boolean $assertionsDisabled>","to":"static.<java.util.TreeMap: boolean $assertionsDisabled>","type":"load","field":"<java.util.TreeMap: boolean $assertionsDisabled>"},{"step":54,"from":"sdaReg34","to":"sdaReg35","type":"model"},{"step":55,"from":"sdaReg34","to":"sdaReg37","type":"model"},{"step":56,"from":"sdaReg35","to":"sdaReg34","type":"model"},{"step":57,"from":"sdaReg35","to":"sdaReg37","type":"model"},{"step":58,"from":"sdaReg38","to":"1093278784","type":"store","field":"<java.util.TreeMap$Node: int height>"},{"step":59,"from":"1093278784","to":"1093278744","type":"load","field":"<java.util.TreeMap$Node: java.util.TreeMap$Node parent>"},{"step":60,"from":"1093278744","to":"1093278784","type":"load","field":"<java.util.TreeMap$Node: java.util.TreeMap$Node right>"},{"step":61,"from":"1093278744","to":"1093278784","type":"load","field":"<java.util.TreeMap$Node: java.util.TreeMap$Node right>"},{"step":62,"from":"1093278744","to":"1093944824","type":"load","field":"<java.util.TreeMap$Node: java.util.TreeMap$Node parent>"},{"step":63,"from":"1093278744","to":"sdaReg48","type":"create","field":"<java.util.TreeMap$Node: java.util.TreeMap$Node parent>"},{"step":64,"from":"1093944824","to":"1093278784","type":"store","field":"<java.util.TreeMap$Node: java.util.TreeMap$Node parent>"},{"step":65,"from":"1093944824","to":"1094030776","type":"load","field":"<java.util.TreeMap$Node: java.util.TreeMap$Node left>"},{"step":66,"from":"static.<java.util.TreeMap: boolean $assertionsDisabled>","to":"static.<java.util.TreeMap: boolean $assertionsDisabled>","type":"load","field":"<java.util.TreeMap: boolean $assertionsDisabled>"},{"step":67,"from":"1093278784","to":"1093944824","type":"store","field":"<java.util.TreeMap$Node: java.util.TreeMap$Node right>"},{"step":68,"from":"1093278744","to":"1093278784","type":"store","field":"<java.util.TreeMap$Node: java.util.TreeMap$Node left>"},{"step":69,"from":"1093278784","to":"1093278744","type":"store","field":"<java.util.TreeMap$Node: java.util.TreeMap$Node parent>"},{"step":70,"from":"sdaReg49","to":"sdaReg50","type":"model"},{"step":71,"from":"sdaReg49","to":"sdaReg51","type":"model"},{"step":72,"from":"sdaReg50","to":"sdaReg49","type":"model"},{"step":73,"from":"sdaReg50","to":"sdaReg51","type":"model"},{"step":74,"from":"sdaReg52","to":"1093278744","type":"store","field":"<java.util.TreeMap$Node: int height>"},{"step":75,"from":"sdaReg54","to":"1093278784","type":"store","field":"<java.util.TreeMap$Node: int height>"},{"step":76,"from":"1085638584","to":"1095193392","type":"store","field":"<java.util.TreeMap$Node: java.lang.Object value>"}],"parameters":[{"id":"1094676392","name":"this","klass":"java.util.TreeSet"},{"id":"1094472424","name":"arg#1","klass":"java.lang.Object"}],"returns":[{"id":"sdaReg58","name":"return","klass":"boolean"}],"colors":{"heapLocToColor":{"1093278744.<java.util.TreeMap$Node: java.util.TreeMap$Node parent>":[0],"1093458456":[0, 1],"1093233072.<java.util.TreeMap: int size>":[0],"sdaReg14":[1, 6],"sdaReg11":[1, 5],"sdaReg12":[1, 5, 6, 7, 8, 9, 10],"1095193392":[13],"sdaReg10":[1],"static.<java.lang.Boolean: java.lang.Boolean TRUE>":[2],"1085707192":[3],"sdaReg19":[3, 12],"sdaReg55":[13],"sdaReg54":[17],"sdaReg17":[1, 9],"sdaReg53":[17],"sdaReg18":[1, 10],"sdaReg52":[16],"sdaReg15":[1, 7],"sdaReg51":[16],"sdaReg16":[1, 8],"1093278784":[0],"1085752200":[11],"1093278744":[0],"1093233072":[0],"1095116944":[0],"static.<java.util.TreeMap$2: int[] $SwitchMap$java$util$TreeMap$Relation>":[11],"static.<java.util.TreeMap: boolean $assertionsDisabled>":[14],"1094472424":[1],"sdaReg45":[0],"sdaReg44":[0],"sdaReg47":[0],"1085638584":[2],"sdaReg46":[0],"1093278784.<java.util.TreeMap$Node: java.util.TreeMap$Node parent>":[0],"sdaReg43":[0],"1083970648":[0, 4],"1093351976":[0, 1],"1093342360":[0, 1],"1093233072.<java.util.TreeMap: java.util.TreeMap$Node root>":[0],"static.<java.util.TreeMap: java.util.Comparator NATURAL_ORDER>":[0, 4],"1093356456":[0, 1],"1094676392":[0],"1085752200.arrayIdx_int:3":[11],"sdaReg38":[15],"sdaReg37":[15],"1094030776":[0],"sdaReg32":[0],"1093375120":[0, 1],"sdaReg30":[0],"sdaReg8":[3],"1096265440":[0],"sdaReg9":[1],"sdaReg6":[0],"sdaReg7":[1],"sdaReg4":[1],"sdaReg5":[2],"1093278744.<java.util.TreeMap$Node: java.util.TreeMap$Node right>":[0],"static.<java.util.TreeMap$Relation: java.util.TreeMap$Relation CREATE>":[3],"1093233072.<java.util.TreeMap: int modCount>":[0],"sdaReg27":[0],"sdaReg26":[13],"sdaReg29":[0],"sdaReg28":[0],"1093944824":[0],"sdaReg3":[0],"sdaReg2":[2],"sdaReg1":[1],"sdaReg21":[0],"1093533024":[0],"sdaReg0":[0],"sdaReg20":[13],"sdaReg23":[13],"sdaReg22":[1],"sdaReg25":[13],"1093335456":[0, 1]},"colorToColor":{"17":[0],"0":[0, 1, 5, 6, 7, 8, 9, 10, 13],"16":[0],"1":[1, 5, 6, 7, 8, 9, 10, 13],"2":[13],"13":[0],"15":[0]},"colorToLabel":{"0":"this","1":"arg#1","2":"<java.lang.Boolean: java.lang.Boolean TRUE>","3":"<java.util.TreeMap$Relation: java.util.TreeMap$Relation CREATE>","4":"<java.util.TreeMap: java.util.Comparator NATURAL_ORDER>","11":"<java.util.TreeMap$2: int[] $SwitchMap$java$util$TreeMap$Relation>","14":"<java.util.TreeMap: boolean $assertionsDisabled>","18":"return"}}}

Generated Model
	this->arg#1
	arg#1->this

