Scanning method <java.util.TreeSet: boolean add(java.lang.Object)>

All seen event types: SimpleAssignmentRecord, LoadInstanceRecord, MethodStartRecord, IfRecord, NewObjectRecord, StoreInstanceRecord, LoadStaticRecord, BinaryOperationRecord, MethodCallRecord, MethodReturnRecord, SwitchRecord, CastRecord, LoadArrayRecord, MethodEndRecord, 
Ignored event types: SwitchRecord, IfRecord, 

JSON Encoded Analysis Data (for visualization):{"heapEdges":[{"step":0,"from":"1094676392","to":"1093233072","type":"load","field":"<java.util.TreeSet: java.util.NavigableMap backingMap>"},{"step":1,"from":"static.<java.lang.Boolean: java.lang.Boolean TRUE>","to":"1085638584","type":"load","field":"<java.lang.Boolean: java.lang.Boolean TRUE>"},{"step":2,"from":"static.<java.util.TreeMap$Relation: java.util.TreeMap$Relation CREATE>","to":"1085707192","type":"load","field":"<java.util.TreeMap$Relation: java.util.TreeMap$Relation CREATE>"},{"step":3,"from":"1093233072","to":"1095430504","type":"load","field":"<java.util.TreeMap: java.util.TreeMap$Node root>"},{"step":4,"from":"1093233072","to":"1083970648","type":"load","field":"<java.util.TreeMap: java.util.Comparator comparator>"},{"step":5,"from":"static.<java.util.TreeMap: java.util.Comparator NATURAL_ORDER>","to":"1083970648","type":"load","field":"<java.util.TreeMap: java.util.Comparator NATURAL_ORDER>"},{"step":6,"from":"1093233072","to":"1095430504","type":"load","field":"<java.util.TreeMap: java.util.TreeMap$Node root>"},{"step":7,"from":"1095430504","to":"1094178736","type":"load","field":"<java.util.TreeMap$Node: java.lang.Object key>"},{"step":8,"from":"1093571160","to":"1094178736","type":"model"},{"step":9,"from":"1093571160","to":"sdaReg11","type":"model"},{"step":10,"from":"1094178736","to":"1093571160","type":"model"},{"step":11,"from":"1094178736","to":"sdaReg11","type":"model"},{"step":12,"from":"1095430504","to":"1094753864","type":"load","field":"<java.util.TreeMap$Node: java.util.TreeMap$Node right>"},{"step":13,"from":"1094753864","to":"1094193096","type":"load","field":"<java.util.TreeMap$Node: java.lang.Object key>"},{"step":14,"from":"1093571160","to":"1094193096","type":"model"},{"step":15,"from":"1093571160","to":"sdaReg14","type":"model"},{"step":16,"from":"1094193096","to":"1093571160","type":"model"},{"step":17,"from":"1094193096","to":"sdaReg14","type":"model"},{"step":18,"from":"1094753864","to":"1094753904","type":"load","field":"<java.util.TreeMap$Node: java.util.TreeMap$Node right>"},{"step":19,"from":"1094753904","to":"1093854368","type":"load","field":"<java.util.TreeMap$Node: java.lang.Object key>"},{"step":20,"from":"1093571160","to":"1093854368","type":"model"},{"step":21,"from":"1093571160","to":"sdaReg15","type":"model"},{"step":22,"from":"1093854368","to":"1093571160","type":"model"},{"step":23,"from":"1093854368","to":"sdaReg15","type":"model"},{"step":24,"from":"static.<java.util.TreeMap$2: int[] $SwitchMap$java$util$TreeMap$Relation>","to":"1085752200","type":"load","field":"<java.util.TreeMap$2: int[] $SwitchMap$java$util$TreeMap$Relation>"},{"step":25,"from":"1085707192","to":"sdaReg16","type":"model"},{"step":26,"from":"1085752200","to":"1085752200.arrayIdx_int:3","type":"load","field":"arrayIdx_int:3"},{"step":27,"from":"1094753904","to":"1093686520","type":"store","field":"<java.util.TreeMap$Node: java.util.TreeMap$Node parent>"},{"step":28,"from":"1093571160","to":"1093686520","type":"store","field":"<java.util.TreeMap$Node: java.lang.Object key>"},{"step":29,"from":"1093686520","to":"sdaReg21","type":"create","field":"<java.util.TreeMap$Node: int height>"},{"step":30,"from":"1094753904","to":"1093686520","type":"create","field":"<java.util.TreeMap$Node: java.util.TreeMap$Node right>"},{"step":31,"from":"1093233072","to":"1093233072.<java.util.TreeMap: int size>","type":"load","field":"<java.util.TreeMap: int size>"},{"step":32,"from":"sdaReg24","to":"1093233072","type":"store","field":"<java.util.TreeMap: int size>"},{"step":33,"from":"1093233072","to":"1093233072.<java.util.TreeMap: int modCount>","type":"load","field":"<java.util.TreeMap: int modCount>"},{"step":34,"from":"sdaReg25","to":"1093233072","type":"store","field":"<java.util.TreeMap: int modCount>"},{"step":35,"from":"static.<java.util.TreeMap: boolean $assertionsDisabled>","to":"static.<java.util.TreeMap: boolean $assertionsDisabled>","type":"load","field":"<java.util.TreeMap: boolean $assertionsDisabled>"},{"step":36,"from":"sdaReg31","to":"sdaReg32","type":"model"},{"step":37,"from":"sdaReg31","to":"sdaReg34","type":"model"},{"step":38,"from":"sdaReg32","to":"sdaReg31","type":"model"},{"step":39,"from":"sdaReg32","to":"sdaReg34","type":"model"},{"step":40,"from":"sdaReg35","to":"1094753904","type":"store","field":"<java.util.TreeMap$Node: int height>"},{"step":41,"from":"1094753904","to":"1094753864","type":"load","field":"<java.util.TreeMap$Node: java.util.TreeMap$Node parent>"},{"step":42,"from":"1094753864","to":"1094753824","type":"load","field":"<java.util.TreeMap$Node: java.util.TreeMap$Node left>"},{"step":43,"from":"1094753864","to":"1094753904","type":"load","field":"<java.util.TreeMap$Node: java.util.TreeMap$Node right>"},{"step":44,"from":"1094753824","to":"1094753824.<java.util.TreeMap$Node: int height>","type":"load","field":"<java.util.TreeMap$Node: int height>"},{"step":45,"from":"static.<java.util.TreeMap: boolean $assertionsDisabled>","to":"static.<java.util.TreeMap: boolean $assertionsDisabled>","type":"load","field":"<java.util.TreeMap: boolean $assertionsDisabled>"},{"step":46,"from":"sdaReg31","to":"sdaReg32","type":"model"},{"step":47,"from":"sdaReg31","to":"sdaReg36","type":"model"},{"step":48,"from":"sdaReg32","to":"sdaReg31","type":"model"},{"step":49,"from":"sdaReg32","to":"sdaReg36","type":"model"},{"step":50,"from":"sdaReg35","to":"1094753864","type":"store","field":"<java.util.TreeMap$Node: int height>"},{"step":51,"from":"1094753864","to":"1095430504","type":"load","field":"<java.util.TreeMap$Node: java.util.TreeMap$Node parent>"},{"step":52,"from":"1095430504","to":"1093260488","type":"load","field":"<java.util.TreeMap$Node: java.util.TreeMap$Node left>"},{"step":53,"from":"1095430504","to":"1094753864","type":"load","field":"<java.util.TreeMap$Node: java.util.TreeMap$Node right>"},{"step":54,"from":"1093260488","to":"1093260488.<java.util.TreeMap$Node: int height>","type":"load","field":"<java.util.TreeMap$Node: int height>"},{"step":55,"from":"1094753864","to":"1094753824","type":"load","field":"<java.util.TreeMap$Node: java.util.TreeMap$Node left>"},{"step":56,"from":"1094753864","to":"1094753904","type":"load","field":"<java.util.TreeMap$Node: java.util.TreeMap$Node right>"},{"step":57,"from":"1094753824","to":"1094753824.<java.util.TreeMap$Node: int height>","type":"load","field":"<java.util.TreeMap$Node: int height>"},{"step":58,"from":"1095430504","to":"1093260488","type":"load","field":"<java.util.TreeMap$Node: java.util.TreeMap$Node left>"},{"step":59,"from":"1095430504","to":"1094753864","type":"load","field":"<java.util.TreeMap$Node: java.util.TreeMap$Node right>"},{"step":60,"from":"1094753864","to":"1094753824","type":"load","field":"<java.util.TreeMap$Node: java.util.TreeMap$Node left>"},{"step":61,"from":"1094753864","to":"1094753904","type":"load","field":"<java.util.TreeMap$Node: java.util.TreeMap$Node right>"},{"step":62,"from":"1094753824","to":"1095430504","type":"store","field":"<java.util.TreeMap$Node: java.util.TreeMap$Node right>"},{"step":63,"from":"1095430504","to":"1094753824","type":"store","field":"<java.util.TreeMap$Node: java.util.TreeMap$Node parent>"},{"step":64,"from":"1095430504","to":"sdaReg45","type":"create","field":"<java.util.TreeMap$Node: java.util.TreeMap$Node parent>"},{"step":65,"from":"1094753864","to":"1093233072","type":"store","field":"<java.util.TreeMap: java.util.TreeMap$Node root>"},{"step":66,"from":"1095430504","to":"1094753864","type":"store","field":"<java.util.TreeMap$Node: java.util.TreeMap$Node left>"},{"step":67,"from":"1094753864","to":"1095430504","type":"store","field":"<java.util.TreeMap$Node: java.util.TreeMap$Node parent>"},{"step":68,"from":"1093260488","to":"1093260488.<java.util.TreeMap$Node: int height>","type":"load","field":"<java.util.TreeMap$Node: int height>"},{"step":69,"from":"1094753824","to":"1094753824.<java.util.TreeMap$Node: int height>","type":"load","field":"<java.util.TreeMap$Node: int height>"},{"step":70,"from":"1093260488.<java.util.TreeMap$Node: int height>","to":"1094753824.<java.util.TreeMap$Node: int height>","type":"model"},{"step":71,"from":"1093260488.<java.util.TreeMap$Node: int height>","to":"sdaReg46","type":"model"},{"step":72,"from":"1094753824.<java.util.TreeMap$Node: int height>","to":"1093260488.<java.util.TreeMap$Node: int height>","type":"model"},{"step":73,"from":"1094753824.<java.util.TreeMap$Node: int height>","to":"sdaReg46","type":"model"},{"step":74,"from":"sdaReg47","to":"1095430504","type":"store","field":"<java.util.TreeMap$Node: int height>"},{"step":75,"from":"sdaReg49","to":"1094753864","type":"store","field":"<java.util.TreeMap$Node: int height>"},{"step":76,"from":"1085638584","to":"1093686520","type":"store","field":"<java.util.TreeMap$Node: java.lang.Object value>"}],"parameters":[{"id":"1094676392","name":"this","klass":"java.util.TreeSet"},{"id":"1093571160","name":"arg#1","klass":"java.lang.Object"}],"returns":[{"id":"sdaReg53","name":"return","klass":"boolean"}],"colors":{"heapLocToColor":{"1093233072.<java.util.TreeMap: int size>":[0],"sdaReg14":[1, 6],"sdaReg11":[1, 5],"1095430504.<java.util.TreeMap$Node: java.util.TreeMap$Node right>":[0],"sdaReg12":[1, 5, 6, 7],"sdaReg10":[1],"static.<java.lang.Boolean: java.lang.Boolean TRUE>":[2],"1085707192":[3],"sdaReg19":[1],"sdaReg17":[10],"sdaReg18":[0],"1093260488.<java.util.TreeMap$Node: int height>":[0],"sdaReg15":[1, 7],"sdaReg16":[3, 9],"sdaReg50":[10],"1085752200":[8],"1094753864.<java.util.TreeMap$Node: java.util.TreeMap$Node parent>":[0],"1093233072":[0],"1094753904":[0],"static.<java.util.TreeMap$2: int[] $SwitchMap$java$util$TreeMap$Relation>":[8],"sdaReg49":[15],"sdaReg48":[15],"1094753824":[0],"static.<java.util.TreeMap: boolean $assertionsDisabled>":[11],"sdaReg44":[0],"sdaReg47":[14],"1085638584":[2],"1094753864":[0],"sdaReg46":[14],"sdaReg41":[0],"sdaReg40":[0],"sdaReg43":[0],"sdaReg42":[0],"1093260488":[0],"1083970648":[0, 4],"1093686520":[10],"1093233072.<java.util.TreeMap: java.util.TreeMap$Node root>":[0],"static.<java.util.TreeMap: java.util.Comparator NATURAL_ORDER>":[0, 4],"1095430504.<java.util.TreeMap$Node: java.util.TreeMap$Node left>":[0],"1094753864.<java.util.TreeMap$Node: java.util.TreeMap$Node right>":[0],"1094676392":[0],"1085752200.arrayIdx_int:3":[8],"sdaReg39":[0],"sdaReg38":[0],"1094178736":[0, 1],"sdaReg31":[0],"sdaReg36":[13],"sdaReg35":[12, 13],"sdaReg34":[12],"sdaReg33":[0],"1093571160":[1],"sdaReg8":[3],"sdaReg9":[1],"sdaReg6":[0],"1094753904.<java.util.TreeMap$Node: java.util.TreeMap$Node parent>":[0],"sdaReg7":[1],"sdaReg4":[1],"sdaReg5":[2],"static.<java.util.TreeMap$Relation: java.util.TreeMap$Relation CREATE>":[3],"1094193096":[0, 1],"1093233072.<java.util.TreeMap: int modCount>":[0],"1094753864.<java.util.TreeMap$Node: java.util.TreeMap$Node left>":[0],"1095430504":[0],"sdaReg27":[0],"sdaReg26":[0],"sdaReg29":[0],"sdaReg3":[0],"sdaReg2":[2],"sdaReg1":[1],"sdaReg0":[0],"1093854368":[0, 1],"sdaReg20":[10],"sdaReg23":[10],"1094753824.<java.util.TreeMap$Node: int height>":[0],"sdaReg22":[10],"sdaReg25":[0],"sdaReg24":[0]},"colorToColor":{"0":[0, 1, 5, 6, 7, 10, 13, 14],"1":[1, 5, 6, 7, 10],"2":[10],"10":[0],"12":[0],"13":[0],"14":[0],"15":[0]},"colorToLabel":{"0":"this","1":"arg#1","2":"<java.lang.Boolean: java.lang.Boolean TRUE>","3":"<java.util.TreeMap$Relation: java.util.TreeMap$Relation CREATE>","4":"<java.util.TreeMap: java.util.Comparator NATURAL_ORDER>","8":"<java.util.TreeMap$2: int[] $SwitchMap$java$util$TreeMap$Relation>","11":"<java.util.TreeMap: boolean $assertionsDisabled>","16":"return"}}}

Generated Model
	this->arg#1
	arg#1->this

