Scanning method <java.io.ObjectInputStream: void <clinit>()>

All seen event types: LoadStaticRecord, StoreStaticRecord, SimpleAssignmentRecord, MethodReturnRecord, MethodCallRecord, CastRecord, MethodStartRecord, MethodEndRecord, StoreInstanceRecord, NewObjectRecord, 
Ignored event types: 

JSON Encoded Analysis Data (for visualization):{"heapEdges":[{"step":0,"from":"static.<java.io.ObjectInputStream: java.lang.Object UNSHARED_OBJ>","to":"1093626752","type":"create","field":"<java.io.ObjectInputStream: java.lang.Object UNSHARED_OBJ>"},{"step":1,"from":"static.<java.util.HashMap: java.util.Map$Entry[] EMPTY_TABLE>","to":"1083997920","type":"load","field":"<java.util.HashMap: java.util.Map$Entry[] EMPTY_TABLE>"},{"step":2,"from":"1083997920","to":"1093297584","type":"store","field":"<java.util.HashMap: java.util.HashMap$HashMapEntry[] table>"},{"step":3,"from":"1093297584","to":"sdaReg7","type":"create","field":"<java.util.HashMap: int threshold>"},{"step":4,"from":"static.<java.io.ObjectInputStream: java.util.HashMap PRIMITIVE_CLASSES>","to":"1093297584","type":"create","field":"<java.io.ObjectInputStream: java.util.HashMap PRIMITIVE_CLASSES>"},{"step":5,"from":"static.<java.lang.Boolean: java.lang.Class TYPE>","to":"1083908944","type":"load","field":"<java.lang.Boolean: java.lang.Class TYPE>"},{"step":6,"from":"1093297584","to":"1083908944","type":"model"},{"step":7,"from":"1083908944","to":"1093297584","type":"model"},{"step":8,"from":"static.<java.lang.Byte: java.lang.Class TYPE>","to":"1083909112","type":"load","field":"<java.lang.Byte: java.lang.Class TYPE>"},{"step":9,"from":"1093297584","to":"1083909112","type":"model"},{"step":10,"from":"1083909112","to":"1093297584","type":"model"},{"step":11,"from":"static.<java.lang.Character: java.lang.Class TYPE>","to":"1083909448","type":"load","field":"<java.lang.Character: java.lang.Class TYPE>"},{"step":12,"from":"1093297584","to":"1083909448","type":"model"},{"step":13,"from":"1083909448","to":"1093297584","type":"model"},{"step":14,"from":"static.<java.lang.Double: java.lang.Class TYPE>","to":"1083910120","type":"load","field":"<java.lang.Double: java.lang.Class TYPE>"},{"step":15,"from":"1093297584","to":"1083910120","type":"model"},{"step":16,"from":"1083910120","to":"1093297584","type":"model"},{"step":17,"from":"static.<java.lang.Float: java.lang.Class TYPE>","to":"1083909952","type":"load","field":"<java.lang.Float: java.lang.Class TYPE>"},{"step":18,"from":"1093297584","to":"1083909952","type":"model"},{"step":19,"from":"1083909952","to":"1093297584","type":"model"},{"step":20,"from":"static.<java.lang.Integer: java.lang.Class TYPE>","to":"1083909616","type":"load","field":"<java.lang.Integer: java.lang.Class TYPE>"},{"step":21,"from":"1093297584","to":"1083909616","type":"model"},{"step":22,"from":"1083909616","to":"1093297584","type":"model"},{"step":23,"from":"static.<java.lang.Long: java.lang.Class TYPE>","to":"1083909784","type":"load","field":"<java.lang.Long: java.lang.Class TYPE>"},{"step":24,"from":"1093297584","to":"1083909784","type":"model"},{"step":25,"from":"1083909784","to":"1093297584","type":"model"},{"step":26,"from":"static.<java.lang.Short: java.lang.Class TYPE>","to":"1083909280","type":"load","field":"<java.lang.Short: java.lang.Class TYPE>"},{"step":27,"from":"1093297584","to":"1083909280","type":"model"},{"step":28,"from":"1083909280","to":"1093297584","type":"model"},{"step":29,"from":"static.<java.lang.Void: java.lang.Class TYPE>","to":"1083908776","type":"load","field":"<java.lang.Void: java.lang.Class TYPE>"},{"step":30,"from":"1093297584","to":"1083908776","type":"model"},{"step":31,"from":"1083908776","to":"1093297584","type":"model"},{"step":32,"from":"1083910288","to":"1083999984","type":"model"},{"step":33,"from":"static.<java.io.ObjectInputStream: java.lang.ClassLoader bootstrapLoader>","to":"1083999984","type":"create","field":"<java.io.ObjectInputStream: java.lang.ClassLoader bootstrapLoader>"},{"step":34,"from":"static.<java.io.ObjectInputStream: java.lang.ClassLoader systemLoader>","to":"1083999760","type":"create","field":"<java.io.ObjectInputStream: java.lang.ClassLoader systemLoader>"}],"parameters":[],"returns":[{"id":null,"name":"return","klass":null}],"colors":{"heapLocToColor":{"static.<java.lang.Long: java.lang.Class TYPE>":[11],"static.<java.lang.Character: java.lang.Class TYPE>":[7],"1083908776":[2, 13],"1093626752":[0],"static.<java.io.ObjectInputStream: java.lang.ClassLoader bootstrapLoader>":[15],"static.<java.lang.Float: java.lang.Class TYPE>":[9],"1083909784":[2, 11],"static.<java.lang.Byte: java.lang.Class TYPE>":[6],"1083909112":[2, 6],"sdaReg11":[16],"1083909616":[2, 10],"1083909952":[2, 9],"sdaReg10":[14],"static.<java.io.ObjectInputStream: java.lang.ClassLoader systemLoader>":[17],"static.<java.io.ObjectInputStream: java.lang.Object UNSHARED_OBJ>":[1],"1083999984":[14],"1083997920":[3],"static.<java.util.HashMap: java.util.Map$Entry[] EMPTY_TABLE>":[3],"static.<java.lang.Double: java.lang.Class TYPE>":[8],"sdaReg8":[2],"sdaReg6":[3],"sdaReg4":[2],"sdaReg5":[3],"1083999760":[16],"static.<java.lang.Void: java.lang.Class TYPE>":[13],"static.<java.lang.Short: java.lang.Class TYPE>":[12],"1083909280":[2, 12],"static.<java.io.ObjectInputStream: java.util.HashMap PRIMITIVE_CLASSES>":[4],"static.<java.lang.Boolean: java.lang.Class TYPE>":[5],"1093297584":[2],"sdaReg3":[2],"static.<java.lang.Integer: java.lang.Class TYPE>":[10],"sdaReg2":[2],"sdaReg1":[2],"1083908944":[2, 5],"1083910120":[2, 8],"sdaReg0":[0],"1083909448":[2, 7]},"colorToColor":{"0":[1],"2":[2, 4],"3":[2],"5":[2],"6":[2],"7":[2],"8":[2],"9":[2],"10":[2],"11":[2],"12":[2],"13":[2],"14":[15],"16":[17]},"colorToLabel":{"1":"<java.io.ObjectInputStream: java.lang.Object UNSHARED_OBJ>","3":"<java.util.HashMap: java.util.Map$Entry[] EMPTY_TABLE>","4":"<java.io.ObjectInputStream: java.util.HashMap PRIMITIVE_CLASSES>","5":"<java.lang.Boolean: java.lang.Class TYPE>","6":"<java.lang.Byte: java.lang.Class TYPE>","7":"<java.lang.Character: java.lang.Class TYPE>","8":"<java.lang.Double: java.lang.Class TYPE>","9":"<java.lang.Float: java.lang.Class TYPE>","10":"<java.lang.Integer: java.lang.Class TYPE>","11":"<java.lang.Long: java.lang.Class TYPE>","12":"<java.lang.Short: java.lang.Class TYPE>","13":"<java.lang.Void: java.lang.Class TYPE>","15":"<java.io.ObjectInputStream: java.lang.ClassLoader bootstrapLoader>","17":"<java.io.ObjectInputStream: java.lang.ClassLoader systemLoader>","18":"return"}}}

Generated Model

