Scanning method <java.net.InetAddress: java.net.InetAddress[] lookupHostByName(java.lang.String)>

All seen event types: StoreArrayRecord, SimpleAssignmentRecord, MethodStartRecord, LoadInstanceRecord, IfRecord, StoreInstanceRecord, NewObjectRecord, NewArrayRecord, LoadStaticRecord, BinaryOperationRecord, MethodCallRecord, MethodReturnRecord, ArrayLengthRecord, CastRecord, LoadArrayRecord, MethodEndRecord, 
Ignored event types: IfRecord, 

JSON Encoded Analysis Data (for visualization):{"heapEdges":[{"step":0,"from":"static.<java.net.InetAddress: java.net.AddressCache addressCache>","to":"1085715264","type":"load","field":"<java.net.InetAddress: java.net.AddressCache addressCache>"},{"step":1,"from":"1085715264","to":"1085715280","type":"load","field":"<java.net.AddressCache: libcore.util.BasicLruCache cache>"},{"step":2,"from":"1085715280","to":"1085715304","type":"load","field":"<libcore.util.BasicLruCache: java.util.LinkedHashMap map>"},{"step":3,"from":"1085715304","to":"1083997920","type":"load","field":"<java.util.HashMap: java.util.HashMap$HashMapEntry[] table>"},{"step":4,"from":"static.<libcore.io.OsConstants: int AI_ADDRCONFIG>","to":"static.<libcore.io.OsConstants: int AI_ADDRCONFIG>","type":"load","field":"<libcore.io.OsConstants: int AI_ADDRCONFIG>"},{"step":5,"from":"static.<libcore.io.OsConstants: int AI_ADDRCONFIG>","to":"1093681536","type":"store","field":"<libcore.io.StructAddrinfo: int ai_flags>"},{"step":6,"from":"static.<libcore.io.OsConstants: int AF_UNSPEC>","to":"static.<libcore.io.OsConstants: int AF_UNSPEC>","type":"load","field":"<libcore.io.OsConstants: int AF_UNSPEC>"},{"step":7,"from":"static.<libcore.io.OsConstants: int AF_UNSPEC>","to":"1093681536","type":"store","field":"<libcore.io.StructAddrinfo: int ai_family>"},{"step":8,"from":"static.<libcore.io.OsConstants: int SOCK_STREAM>","to":"static.<libcore.io.OsConstants: int SOCK_STREAM>","type":"load","field":"<libcore.io.OsConstants: int SOCK_STREAM>"},{"step":9,"from":"static.<libcore.io.OsConstants: int SOCK_STREAM>","to":"1093681536","type":"store","field":"<libcore.io.StructAddrinfo: int ai_socktype>"},{"step":10,"from":"static.<libcore.io.Libcore: libcore.io.Os os>","to":"1083982784","type":"load","field":"<libcore.io.Libcore: libcore.io.Os os>"},{"step":11,"from":"1093681536","to":"1093681776","type":"model"},{"step":12,"from":"sdaReg0","to":"1093681776","type":"model"},{"step":13,"from":"1093681776","to":"1093681856","type":"load","field":"arrayIdx_int:0"},{"step":14,"from":"sdaReg0","to":"1093681856","type":"store","field":"<java.net.InetAddress: java.lang.String hostName>"},{"step":15,"from":"static.<java.net.InetAddress: java.net.AddressCache addressCache>","to":"1085715264","type":"load","field":"<java.net.InetAddress: java.net.AddressCache addressCache>"},{"step":16,"from":"1085715264","to":"1085715280","type":"load","field":"<java.net.AddressCache: libcore.util.BasicLruCache cache>"},{"step":17,"from":"1093682224","to":"1093681776","type":"create","field":"<java.net.AddressCache$AddressCacheEntry: java.lang.Object value>"},{"step":18,"from":"sdaReg41","to":"1093682224","type":"store","field":"<java.net.AddressCache$AddressCacheEntry: long expiryNanos>"},{"step":19,"from":"1085715280","to":"1085715304","type":"load","field":"<libcore.util.BasicLruCache: java.util.LinkedHashMap map>"},{"step":20,"from":"1085715304","to":"1083997920","type":"load","field":"<java.util.HashMap: java.util.HashMap$HashMapEntry[] table>"},{"step":21,"from":"1085715304","to":"1085715304.<java.util.HashMap: int modCount>","type":"load","field":"<java.util.HashMap: int modCount>"},{"step":22,"from":"sdaReg63","to":"1085715304","type":"store","field":"<java.util.HashMap: int modCount>"},{"step":23,"from":"1085715304","to":"1085715304.<java.util.HashMap: int size>","type":"load","field":"<java.util.HashMap: int size>"},{"step":24,"from":"sdaReg64","to":"1085715304","type":"store","field":"<java.util.HashMap: int size>"},{"step":25,"from":"1085715304","to":"1085715304.<java.util.HashMap: int threshold>","type":"load","field":"<java.util.HashMap: int threshold>"},{"step":26,"from":"1085715304","to":"1083997920","type":"load","field":"<java.util.HashMap: java.util.HashMap$HashMapEntry[] table>"},{"step":27,"from":"1085715304","to":"1093682288","type":"create","field":"<java.util.HashMap: java.util.HashMap$HashMapEntry[] table>"},{"step":28,"from":"sdaReg72","to":"1085715304","type":"store","field":"<java.util.HashMap: int threshold>"},{"step":29,"from":"1085715304","to":"1085715368","type":"load","field":"<java.util.LinkedHashMap: java.util.LinkedHashMap$LinkedEntry header>"},{"step":30,"from":"1085715368","to":"1085715368","type":"load","field":"<java.util.LinkedHashMap$LinkedEntry: java.util.LinkedHashMap$LinkedEntry nxt>"},{"step":31,"from":"1085715368","to":"1085715368","type":"load","field":"<java.util.LinkedHashMap$LinkedEntry: java.util.LinkedHashMap$LinkedEntry prv>"},{"step":32,"from":"1093670824","to":"1093588544","type":"store","field":"<java.util.HashMap$HashMapEntry: java.lang.Object key>"},{"step":33,"from":"1093588544","to":"1093682224","type":"create","field":"<java.util.HashMap$HashMapEntry: java.lang.Object value>"},{"step":34,"from":"sdaReg59","to":"1093588544","type":"store","field":"<java.util.HashMap$HashMapEntry: int hash>"},{"step":35,"from":"1085715368","to":"1093588544","type":"store","field":"<java.util.LinkedHashMap$LinkedEntry: java.util.LinkedHashMap$LinkedEntry nxt>"},{"step":36,"from":"1085715368","to":"1093588544","type":"store","field":"<java.util.LinkedHashMap$LinkedEntry: java.util.LinkedHashMap$LinkedEntry prv>"},{"step":37,"from":"1085715368","to":"1093588544","type":"create","field":"<java.util.LinkedHashMap$LinkedEntry: java.util.LinkedHashMap$LinkedEntry prv>"},{"step":38,"from":"1093588544","to":"1085715368","type":"store","field":"<java.util.LinkedHashMap$LinkedEntry: java.util.LinkedHashMap$LinkedEntry nxt>"},{"step":39,"from":"1093588544","to":"1093682288","type":"store","field":"arrayIdx_int:2"},{"step":40,"from":"1085715280","to":"1085715280.<libcore.util.BasicLruCache: int maxSize>","type":"load","field":"<libcore.util.BasicLruCache: int maxSize>"},{"step":41,"from":"1085715280","to":"1085715304","type":"load","field":"<libcore.util.BasicLruCache: java.util.LinkedHashMap map>"}],"parameters":[{"id":"sdaReg0","name":"arg#0","klass":"string"}],"returns":[{"id":"1093681776","name":"return","klass":"java.net.InetAddress[]"}],"colors":{"heapLocToColor":{"static.<libcore.io.OsConstants: int AF_UNSPEC>":[6],"1085715304.<java.util.HashMap: int threshold>":[2],"1085715280":[2],"sdaReg68":[2],"1085715264.<java.net.AddressCache: libcore.util.BasicLruCache cache>":[2],"1083982784":[8],"sdaReg64":[2],"sdaReg65":[2],"1085715304.<java.util.HashMap: java.util.HashMap$HashMapEntry[] table>":[2],"sdaReg62":[12],"sdaReg63":[2],"sdaReg13":[3],"sdaReg14":[3],"sdaReg11":[3],"sdaReg12":[3],"sdaReg10":[3],"1084337336":[1],"sdaReg59":[12],"sdaReg58":[12],"sdaReg57":[12],"sdaReg56":[12],"sdaReg19":[2],"1083997920":[2],"sdaReg55":[12],"sdaReg54":[12],"sdaReg17":[3],"sdaReg53":[12],"sdaReg52":[12],"sdaReg51":[12],"sdaReg50":[11],"sdaReg78":[2],"1093682288":[13],"sdaReg73":[13],"sdaReg75":[13],"1085715280.<libcore.util.BasicLruCache: java.util.LinkedHashMap map>":[2],"sdaReg81":[14],"sdaReg80":[11],"sdaReg83":[11],"1085715280.<libcore.util.BasicLruCache: int maxSize>":[2],"sdaReg48":[2],"sdaReg45":[11],"sdaReg44":[11],"sdaReg47":[11],"sdaReg46":[2],"sdaReg41":[10],"sdaReg40":[10],"sdaReg43":[9],"sdaReg42":[11],"1093681776":[9],"1085715368.<java.util.LinkedHashMap$LinkedEntry: java.util.LinkedHashMap$LinkedEntry nxt>":[2],"sdaReg86":[2],"sdaReg87":[14],"1085715304.<java.util.HashMap: int modCount>":[2],"sdaReg85":[2],"static.<libcore.io.Libcore: libcore.io.Os os>":[8],"sdaReg89":[11],"1085715264":[2],"static.<libcore.io.OsConstants: int AI_ADDRCONFIG>":[5],"sdaReg94":[14],"sdaReg93":[14],"sdaReg92":[14],"sdaReg91":[14],"sdaReg32":[9],"sdaReg31":[2],"1085715368":[2],"static.<java.net.InetAddress: java.net.AddressCache addressCache>":[2],"sdaReg34":[9],"sdaReg33":[2],"sdaReg8":[3],"sdaReg9":[3],"sdaReg6":[3],"1085715304.<java.util.HashMap: int size>":[2],"sdaReg7":[3],"sdaReg4":[2],"sdaReg96":[2],"sdaReg97":[2],"1085715368.<java.util.LinkedHashMap$LinkedEntry: java.util.LinkedHashMap$LinkedEntry prv>":[2],"static.<libcore.io.OsConstants: int SOCK_STREAM>":[7],"1085715304":[2],"sdaReg27":[9],"sdaReg26":[4],"1093681536":[4],"sdaReg28":[9],"sdaReg3":[2],"sdaReg2":[2],"sdaReg1":[1],"sdaReg0":[0],"1093682224":[11],"1093588544":[14],"sdaReg25":[4],"1093681856":[9]},"colorToColor":{"0":[9],"2":[2, 14],"4":[9],"5":[4],"6":[4],"7":[4],"9":[11, 15],"10":[11],"11":[14],"12":[14],"13":[2],"14":[2, 13]},"colorToLabel":{"0":"arg#0","2":"<java.net.InetAddress: java.net.AddressCache addressCache>","5":"<libcore.io.OsConstants: int AI_ADDRCONFIG>","6":"<libcore.io.OsConstants: int AF_UNSPEC>","7":"<libcore.io.OsConstants: int SOCK_STREAM>","8":"<libcore.io.Libcore: libcore.io.Os os>","15":"return"}}}

Generated Model
	arg#0->return
	arg#0-><java.net.InetAddress: java.net.AddressCache addressCache>

