Scanning method <java.util.Vector: java.lang.Object[] newElementArray(int)>

All seen event types: NewArrayRecord, CastRecord, 
Ignored event types: 

JSON Encoded Analysis Data (for visualization):{"heapEdges":[],"parameters":[{"id":"1093344504","name":"this","klass":"java.util.Vector"},{"id":"sdaReg0","name":"arg#1","klass":"int"}],"returns":[{"id":"1093343992","name":"return","klass":"java.lang.Object[]"}],"colors":{"heapLocToColor":{"1093343992":[2],"1093344504":[0],"sdaReg0":[1]},"colorToColor":{"2":[3]},"colorToLabel":{"0":"this","1":"arg#1","3":"return"}}}

Generated Model

