Scanning method <java.util.HashSet: void <init>(java.util.HashMap)>

All seen event types: MethodReturnRecord, MethodCallRecord, MethodStartRecord, MethodEndRecord, StoreInstanceRecord, 
Ignored event types: 

JSON Encoded Analysis Data (for visualization):{"heapEdges":[{"step":0,"from":"1093398416","to":"1093431816","type":"store","field":"<java.util.HashSet: java.util.HashMap backingMap>"}],"parameters":[{"id":"1093431816","name":"this","klass":"java.util.HashSet"},{"id":"1093398416","name":"arg#1","klass":"java.util.HashMap"}],"returns":[{"id":"1093431816","name":"return","klass":"java.util.HashSet"}],"colors":{"heapLocToColor":{"sdaReg4":[0],"sdaReg3":[0],"1093431816":[0],"sdaReg2":[0],"sdaReg1":[0],"sdaReg0":[0],"1093398416":[1]},"colorToColor":{"0":[2],"1":[0]},"colorToLabel":{"0":"this","1":"arg#1","2":"return"}}}

Generated Model
	this->return
	arg#1->this
	arg#1->return

