Scanning method <java.io.FilterInputStream: void close()>

All seen event types: MethodReturnRecord, MethodCallRecord, MethodStartRecord, LoadInstanceRecord, MethodEndRecord, 
Ignored event types: 

JSON Encoded Analysis Data (for visualization):{"heapEdges":[{"step":0,"from":"1093460328","to":"1093460168","type":"load","field":"<java.io.FilterInputStream: java.io.InputStream in>"}],"parameters":[{"id":"1093460328","name":"this","klass":"java.io.FilterInputStream"}],"returns":[{"id":null,"name":"return","klass":null}],"colors":{"heapLocToColor":{"sdaReg0":[0],"1093460328":[0],"1093460168":[0]},"colorToColor":{},"colorToLabel":{"0":"this","1":"return"}}}

Generated Model

