Scanning method <java.io.DataOutputStream: void writeUTF(java.lang.String)>

All seen event types: LoadStaticRecord, NewArrayRecord, BinaryOperationRecord, StoreArrayRecord, SimpleAssignmentRecord, MethodReturnRecord, MethodCallRecord, CastRecord, MethodStartRecord, MethodEndRecord, IfRecord, 
Ignored event types: IfRecord, 

JSON Encoded Analysis Data (for visualization):{"heapEdges":[{"step":0,"from":"sdaReg0","to":"sdaReg5","type":"model"},{"step":1,"from":"sdaReg0","to":"sdaReg7","type":"model"},{"step":2,"from":"sdaReg0","to":"sdaReg8","type":"model"},{"step":3,"from":"sdaReg0","to":"sdaReg9","type":"model"},{"step":4,"from":"sdaReg0","to":"sdaReg10","type":"model"},{"step":5,"from":"sdaReg0","to":"sdaReg11","type":"model"},{"step":6,"from":"sdaReg0","to":"sdaReg12","type":"model"},{"step":7,"from":"sdaReg0","to":"sdaReg13","type":"model"},{"step":8,"from":"sdaReg0","to":"sdaReg14","type":"model"},{"step":9,"from":"sdaReg0","to":"sdaReg15","type":"model"},{"step":10,"from":"sdaReg0","to":"sdaReg16","type":"model"},{"step":11,"from":"sdaReg0","to":"sdaReg17","type":"model"},{"step":12,"from":"static.<java.nio.ByteOrder: java.nio.ByteOrder BIG_ENDIAN>","to":"1084339448","type":"load","field":"<java.nio.ByteOrder: java.nio.ByteOrder BIG_ENDIAN>"},{"step":13,"from":"1093464968","to":"sdaReg20","type":"model"},{"step":14,"from":"1093464968","to":"1084339448","type":"model"},{"step":15,"from":"sdaReg20","to":"1093464968","type":"model"},{"step":16,"from":"sdaReg20","to":"1084339448","type":"model"},{"step":17,"from":"1084339448","to":"1093464968","type":"model"},{"step":18,"from":"1084339448","to":"sdaReg20","type":"model"},{"step":19,"from":"sdaReg0","to":"sdaReg25","type":"model"},{"step":20,"from":"sdaReg27","to":"1093464968","type":"store","field":"arrayIdx_int:2"},{"step":21,"from":"sdaReg0","to":"sdaReg28","type":"model"},{"step":22,"from":"sdaReg27","to":"1093464968","type":"store","field":"arrayIdx_int:3"},{"step":23,"from":"sdaReg0","to":"sdaReg29","type":"model"},{"step":24,"from":"sdaReg27","to":"1093464968","type":"store","field":"arrayIdx_int:4"},{"step":25,"from":"sdaReg0","to":"sdaReg30","type":"model"},{"step":26,"from":"sdaReg27","to":"1093464968","type":"store","field":"arrayIdx_int:5"},{"step":27,"from":"sdaReg0","to":"sdaReg31","type":"model"},{"step":28,"from":"sdaReg27","to":"1093464968","type":"store","field":"arrayIdx_int:6"},{"step":29,"from":"sdaReg0","to":"sdaReg32","type":"model"},{"step":30,"from":"sdaReg27","to":"1093464968","type":"store","field":"arrayIdx_int:7"},{"step":31,"from":"sdaReg0","to":"sdaReg33","type":"model"},{"step":32,"from":"sdaReg27","to":"1093464968","type":"store","field":"arrayIdx_int:8"},{"step":33,"from":"sdaReg0","to":"sdaReg34","type":"model"},{"step":34,"from":"sdaReg27","to":"1093464968","type":"store","field":"arrayIdx_int:9"},{"step":35,"from":"sdaReg0","to":"sdaReg35","type":"model"},{"step":36,"from":"sdaReg27","to":"1093464968","type":"store","field":"arrayIdx_int:10"},{"step":37,"from":"sdaReg0","to":"sdaReg36","type":"model"},{"step":38,"from":"sdaReg27","to":"1093464968","type":"store","field":"arrayIdx_int:11"},{"step":39,"from":"sdaReg0","to":"sdaReg37","type":"model"},{"step":40,"from":"sdaReg27","to":"1093464968","type":"store","field":"arrayIdx_int:12"},{"step":41,"from":"sdaReg0","to":"sdaReg38","type":"model"},{"step":42,"from":"sdaReg27","to":"1093464968","type":"store","field":"arrayIdx_int:13"},{"step":43,"from":"1093322016","to":"1093464968","type":"model"},{"step":44,"from":"1093464968","to":"1093322016","type":"model"}],"parameters":[{"id":"1093322016","name":"this","klass":"java.io.DataOutputStream"},{"id":"sdaReg0","name":"arg#1","klass":"string"}],"returns":[{"id":null,"name":"return","klass":null}],"colors":{"heapLocToColor":{"1093322016":[0],"sdaReg13":[1, 10],"sdaReg39":[15],"sdaReg14":[1, 11],"sdaReg38":[1, 29],"sdaReg11":[1, 8],"sdaReg37":[1, 28],"sdaReg12":[1, 9],"sdaReg10":[1, 7],"sdaReg32":[1, 23],"sdaReg31":[1, 22],"sdaReg30":[1, 21],"sdaReg36":[1, 27],"sdaReg17":[1, 14],"static.<java.nio.ByteOrder: java.nio.ByteOrder BIG_ENDIAN>":[16],"sdaReg35":[1, 26],"sdaReg34":[1, 25],"sdaReg15":[1, 12],"sdaReg33":[1, 24],"sdaReg16":[1, 13],"sdaReg8":[1, 5],"sdaReg9":[1, 6],"sdaReg7":[1, 4],"sdaReg5":[1, 3],"sdaReg27":[1, 19, 18, 21, 20, 23, 22, 25, 24, 27, 26, 29, 28],"sdaReg29":[1, 20],"sdaReg28":[1, 19],"1084339448":[16],"1093464968":[0, 15],"sdaReg3":[2],"sdaReg21":[15],"sdaReg0":[1],"sdaReg23":[17],"sdaReg25":[1, 18]},"colorToColor":{"0":[0],"1":[15],"15":[0, 16],"16":[15],"19":[15],"18":[15],"21":[15],"20":[15],"23":[15],"22":[15],"25":[15],"24":[15],"27":[15],"26":[15],"29":[15],"28":[15]},"colorToLabel":{"0":"this","1":"arg#1","16":"<java.nio.ByteOrder: java.nio.ByteOrder BIG_ENDIAN>","30":"return"}}}

Generated Model
	arg#1->this
	arg#1-><java.nio.ByteOrder: java.nio.ByteOrder BIG_ENDIAN>

