Scanning method <java.io.DataOutputStream: void writeUTF(java.lang.String)>

All seen event types: LoadStaticRecord, NewArrayRecord, BinaryOperationRecord, StoreArrayRecord, SimpleAssignmentRecord, MethodReturnRecord, MethodCallRecord, CastRecord, MethodStartRecord, MethodEndRecord, IfRecord, 
Ignored event types: IfRecord, 

JSON Encoded Analysis Data (for visualization):{"heapEdges":[{"step":0,"from":"sdaReg0","to":"sdaReg5","type":"model"},{"step":1,"from":"sdaReg0","to":"sdaReg7","type":"model"},{"step":2,"from":"sdaReg0","to":"sdaReg8","type":"model"},{"step":3,"from":"sdaReg0","to":"sdaReg9","type":"model"},{"step":4,"from":"sdaReg0","to":"sdaReg10","type":"model"},{"step":5,"from":"sdaReg0","to":"sdaReg11","type":"model"},{"step":6,"from":"sdaReg0","to":"sdaReg12","type":"model"},{"step":7,"from":"sdaReg0","to":"sdaReg13","type":"model"},{"step":8,"from":"sdaReg0","to":"sdaReg14","type":"model"},{"step":9,"from":"sdaReg0","to":"sdaReg15","type":"model"},{"step":10,"from":"sdaReg0","to":"sdaReg16","type":"model"},{"step":11,"from":"sdaReg0","to":"sdaReg17","type":"model"},{"step":12,"from":"sdaReg0","to":"sdaReg18","type":"model"},{"step":13,"from":"sdaReg0","to":"sdaReg19","type":"model"},{"step":14,"from":"sdaReg0","to":"sdaReg20","type":"model"},{"step":15,"from":"sdaReg0","to":"sdaReg21","type":"model"},{"step":16,"from":"sdaReg0","to":"sdaReg22","type":"model"},{"step":17,"from":"sdaReg0","to":"sdaReg23","type":"model"},{"step":18,"from":"sdaReg0","to":"sdaReg24","type":"model"},{"step":19,"from":"sdaReg0","to":"sdaReg25","type":"model"},{"step":20,"from":"sdaReg0","to":"sdaReg26","type":"model"},{"step":21,"from":"sdaReg0","to":"sdaReg27","type":"model"},{"step":22,"from":"sdaReg0","to":"sdaReg28","type":"model"},{"step":23,"from":"sdaReg0","to":"sdaReg29","type":"model"},{"step":24,"from":"sdaReg0","to":"sdaReg30","type":"model"},{"step":25,"from":"sdaReg0","to":"sdaReg31","type":"model"},{"step":26,"from":"sdaReg0","to":"sdaReg32","type":"model"},{"step":27,"from":"sdaReg0","to":"sdaReg33","type":"model"},{"step":28,"from":"sdaReg0","to":"sdaReg34","type":"model"},{"step":29,"from":"sdaReg0","to":"sdaReg35","type":"model"},{"step":30,"from":"sdaReg0","to":"sdaReg36","type":"model"},{"step":31,"from":"sdaReg0","to":"sdaReg37","type":"model"},{"step":32,"from":"sdaReg0","to":"sdaReg38","type":"model"},{"step":33,"from":"sdaReg0","to":"sdaReg39","type":"model"},{"step":34,"from":"sdaReg0","to":"sdaReg40","type":"model"},{"step":35,"from":"sdaReg0","to":"sdaReg41","type":"model"},{"step":36,"from":"sdaReg0","to":"sdaReg42","type":"model"},{"step":37,"from":"sdaReg0","to":"sdaReg43","type":"model"},{"step":38,"from":"sdaReg0","to":"sdaReg44","type":"model"},{"step":39,"from":"sdaReg0","to":"sdaReg45","type":"model"},{"step":40,"from":"sdaReg0","to":"sdaReg46","type":"model"},{"step":41,"from":"sdaReg0","to":"sdaReg47","type":"model"},{"step":42,"from":"sdaReg0","to":"sdaReg48","type":"model"},{"step":43,"from":"sdaReg0","to":"sdaReg49","type":"model"},{"step":44,"from":"sdaReg0","to":"sdaReg50","type":"model"},{"step":45,"from":"sdaReg0","to":"sdaReg51","type":"model"},{"step":46,"from":"sdaReg0","to":"sdaReg52","type":"model"},{"step":47,"from":"sdaReg0","to":"sdaReg53","type":"model"},{"step":48,"from":"sdaReg0","to":"sdaReg54","type":"model"},{"step":49,"from":"sdaReg0","to":"sdaReg55","type":"model"},{"step":50,"from":"sdaReg0","to":"sdaReg56","type":"model"},{"step":51,"from":"sdaReg0","to":"sdaReg57","type":"model"},{"step":52,"from":"sdaReg0","to":"sdaReg58","type":"model"},{"step":53,"from":"sdaReg0","to":"sdaReg59","type":"model"},{"step":54,"from":"sdaReg0","to":"sdaReg60","type":"model"},{"step":55,"from":"sdaReg0","to":"sdaReg61","type":"model"},{"step":56,"from":"sdaReg0","to":"sdaReg62","type":"model"},{"step":57,"from":"sdaReg0","to":"sdaReg63","type":"model"},{"step":58,"from":"sdaReg0","to":"sdaReg64","type":"model"},{"step":59,"from":"static.<java.nio.ByteOrder: java.nio.ByteOrder BIG_ENDIAN>","to":"1084339448","type":"load","field":"<java.nio.ByteOrder: java.nio.ByteOrder BIG_ENDIAN>"},{"step":60,"from":"1093392904","to":"sdaReg67","type":"model"},{"step":61,"from":"1093392904","to":"1084339448","type":"model"},{"step":62,"from":"sdaReg67","to":"1093392904","type":"model"},{"step":63,"from":"sdaReg67","to":"1084339448","type":"model"},{"step":64,"from":"1084339448","to":"1093392904","type":"model"},{"step":65,"from":"1084339448","to":"sdaReg67","type":"model"},{"step":66,"from":"sdaReg0","to":"sdaReg72","type":"model"},{"step":67,"from":"sdaReg74","to":"1093392904","type":"store","field":"arrayIdx_int:2"},{"step":68,"from":"sdaReg0","to":"sdaReg75","type":"model"},{"step":69,"from":"sdaReg74","to":"1093392904","type":"store","field":"arrayIdx_int:3"},{"step":70,"from":"sdaReg0","to":"sdaReg76","type":"model"},{"step":71,"from":"sdaReg74","to":"1093392904","type":"store","field":"arrayIdx_int:4"},{"step":72,"from":"sdaReg0","to":"sdaReg77","type":"model"},{"step":73,"from":"sdaReg74","to":"1093392904","type":"store","field":"arrayIdx_int:5"},{"step":74,"from":"sdaReg0","to":"sdaReg78","type":"model"},{"step":75,"from":"sdaReg74","to":"1093392904","type":"store","field":"arrayIdx_int:6"},{"step":76,"from":"sdaReg0","to":"sdaReg79","type":"model"},{"step":77,"from":"sdaReg74","to":"1093392904","type":"store","field":"arrayIdx_int:7"},{"step":78,"from":"sdaReg0","to":"sdaReg80","type":"model"},{"step":79,"from":"sdaReg74","to":"1093392904","type":"store","field":"arrayIdx_int:8"},{"step":80,"from":"sdaReg0","to":"sdaReg81","type":"model"},{"step":81,"from":"sdaReg74","to":"1093392904","type":"store","field":"arrayIdx_int:9"},{"step":82,"from":"sdaReg0","to":"sdaReg82","type":"model"},{"step":83,"from":"sdaReg74","to":"1093392904","type":"store","field":"arrayIdx_int:10"},{"step":84,"from":"sdaReg0","to":"sdaReg83","type":"model"},{"step":85,"from":"sdaReg74","to":"1093392904","type":"store","field":"arrayIdx_int:11"},{"step":86,"from":"sdaReg0","to":"sdaReg84","type":"model"},{"step":87,"from":"sdaReg74","to":"1093392904","type":"store","field":"arrayIdx_int:12"},{"step":88,"from":"sdaReg0","to":"sdaReg85","type":"model"},{"step":89,"from":"sdaReg74","to":"1093392904","type":"store","field":"arrayIdx_int:13"},{"step":90,"from":"sdaReg0","to":"sdaReg86","type":"model"},{"step":91,"from":"sdaReg74","to":"1093392904","type":"store","field":"arrayIdx_int:14"},{"step":92,"from":"sdaReg0","to":"sdaReg87","type":"model"},{"step":93,"from":"sdaReg74","to":"1093392904","type":"store","field":"arrayIdx_int:15"},{"step":94,"from":"sdaReg0","to":"sdaReg88","type":"model"},{"step":95,"from":"sdaReg74","to":"1093392904","type":"store","field":"arrayIdx_int:16"},{"step":96,"from":"sdaReg0","to":"sdaReg89","type":"model"},{"step":97,"from":"sdaReg74","to":"1093392904","type":"store","field":"arrayIdx_int:17"},{"step":98,"from":"sdaReg0","to":"sdaReg90","type":"model"},{"step":99,"from":"sdaReg74","to":"1093392904","type":"store","field":"arrayIdx_int:18"},{"step":100,"from":"sdaReg0","to":"sdaReg91","type":"model"},{"step":101,"from":"sdaReg74","to":"1093392904","type":"store","field":"arrayIdx_int:19"},{"step":102,"from":"sdaReg0","to":"sdaReg92","type":"model"},{"step":103,"from":"sdaReg74","to":"1093392904","type":"store","field":"arrayIdx_int:20"},{"step":104,"from":"sdaReg0","to":"sdaReg93","type":"model"},{"step":105,"from":"sdaReg74","to":"1093392904","type":"store","field":"arrayIdx_int:21"},{"step":106,"from":"sdaReg0","to":"sdaReg94","type":"model"},{"step":107,"from":"sdaReg74","to":"1093392904","type":"store","field":"arrayIdx_int:22"},{"step":108,"from":"sdaReg0","to":"sdaReg95","type":"model"},{"step":109,"from":"sdaReg74","to":"1093392904","type":"store","field":"arrayIdx_int:23"},{"step":110,"from":"sdaReg0","to":"sdaReg96","type":"model"},{"step":111,"from":"sdaReg74","to":"1093392904","type":"store","field":"arrayIdx_int:24"},{"step":112,"from":"sdaReg0","to":"sdaReg97","type":"model"},{"step":113,"from":"sdaReg74","to":"1093392904","type":"store","field":"arrayIdx_int:25"},{"step":114,"from":"sdaReg0","to":"sdaReg98","type":"model"},{"step":115,"from":"sdaReg74","to":"1093392904","type":"store","field":"arrayIdx_int:26"},{"step":116,"from":"sdaReg0","to":"sdaReg99","type":"model"},{"step":117,"from":"sdaReg74","to":"1093392904","type":"store","field":"arrayIdx_int:27"},{"step":118,"from":"sdaReg0","to":"sdaReg100","type":"model"},{"step":119,"from":"sdaReg74","to":"1093392904","type":"store","field":"arrayIdx_int:28"},{"step":120,"from":"sdaReg0","to":"sdaReg101","type":"model"},{"step":121,"from":"sdaReg74","to":"1093392904","type":"store","field":"arrayIdx_int:29"},{"step":122,"from":"sdaReg0","to":"sdaReg102","type":"model"},{"step":123,"from":"sdaReg74","to":"1093392904","type":"store","field":"arrayIdx_int:30"},{"step":124,"from":"sdaReg0","to":"sdaReg103","type":"model"},{"step":125,"from":"sdaReg74","to":"1093392904","type":"store","field":"arrayIdx_int:31"},{"step":126,"from":"sdaReg0","to":"sdaReg104","type":"model"},{"step":127,"from":"sdaReg74","to":"1093392904","type":"store","field":"arrayIdx_int:32"},{"step":128,"from":"sdaReg0","to":"sdaReg105","type":"model"},{"step":129,"from":"sdaReg74","to":"1093392904","type":"store","field":"arrayIdx_int:33"},{"step":130,"from":"sdaReg0","to":"sdaReg106","type":"model"},{"step":131,"from":"sdaReg74","to":"1093392904","type":"store","field":"arrayIdx_int:34"},{"step":132,"from":"sdaReg0","to":"sdaReg107","type":"model"},{"step":133,"from":"sdaReg74","to":"1093392904","type":"store","field":"arrayIdx_int:35"},{"step":134,"from":"sdaReg0","to":"sdaReg108","type":"model"},{"step":135,"from":"sdaReg74","to":"1093392904","type":"store","field":"arrayIdx_int:36"},{"step":136,"from":"sdaReg0","to":"sdaReg109","type":"model"},{"step":137,"from":"sdaReg74","to":"1093392904","type":"store","field":"arrayIdx_int:37"},{"step":138,"from":"sdaReg0","to":"sdaReg110","type":"model"},{"step":139,"from":"sdaReg74","to":"1093392904","type":"store","field":"arrayIdx_int:38"},{"step":140,"from":"sdaReg0","to":"sdaReg111","type":"model"},{"step":141,"from":"sdaReg74","to":"1093392904","type":"store","field":"arrayIdx_int:39"},{"step":142,"from":"sdaReg0","to":"sdaReg112","type":"model"},{"step":143,"from":"sdaReg74","to":"1093392904","type":"store","field":"arrayIdx_int:40"},{"step":144,"from":"sdaReg0","to":"sdaReg113","type":"model"},{"step":145,"from":"sdaReg74","to":"1093392904","type":"store","field":"arrayIdx_int:41"},{"step":146,"from":"sdaReg0","to":"sdaReg114","type":"model"},{"step":147,"from":"sdaReg74","to":"1093392904","type":"store","field":"arrayIdx_int:42"},{"step":148,"from":"sdaReg0","to":"sdaReg115","type":"model"},{"step":149,"from":"sdaReg74","to":"1093392904","type":"store","field":"arrayIdx_int:43"},{"step":150,"from":"sdaReg0","to":"sdaReg116","type":"model"},{"step":151,"from":"sdaReg74","to":"1093392904","type":"store","field":"arrayIdx_int:44"},{"step":152,"from":"sdaReg0","to":"sdaReg117","type":"model"},{"step":153,"from":"sdaReg74","to":"1093392904","type":"store","field":"arrayIdx_int:45"},{"step":154,"from":"sdaReg0","to":"sdaReg118","type":"model"},{"step":155,"from":"sdaReg74","to":"1093392904","type":"store","field":"arrayIdx_int:46"},{"step":156,"from":"sdaReg0","to":"sdaReg119","type":"model"},{"step":157,"from":"sdaReg74","to":"1093392904","type":"store","field":"arrayIdx_int:47"},{"step":158,"from":"sdaReg0","to":"sdaReg120","type":"model"},{"step":159,"from":"sdaReg74","to":"1093392904","type":"store","field":"arrayIdx_int:48"},{"step":160,"from":"sdaReg0","to":"sdaReg121","type":"model"},{"step":161,"from":"sdaReg74","to":"1093392904","type":"store","field":"arrayIdx_int:49"},{"step":162,"from":"sdaReg0","to":"sdaReg122","type":"model"},{"step":163,"from":"sdaReg74","to":"1093392904","type":"store","field":"arrayIdx_int:50"},{"step":164,"from":"sdaReg0","to":"sdaReg123","type":"model"},{"step":165,"from":"sdaReg74","to":"1093392904","type":"store","field":"arrayIdx_int:51"},{"step":166,"from":"sdaReg0","to":"sdaReg124","type":"model"},{"step":167,"from":"sdaReg74","to":"1093392904","type":"store","field":"arrayIdx_int:52"},{"step":168,"from":"sdaReg0","to":"sdaReg125","type":"model"},{"step":169,"from":"sdaReg74","to":"1093392904","type":"store","field":"arrayIdx_int:53"},{"step":170,"from":"sdaReg0","to":"sdaReg126","type":"model"},{"step":171,"from":"sdaReg74","to":"1093392904","type":"store","field":"arrayIdx_int:54"},{"step":172,"from":"sdaReg0","to":"sdaReg127","type":"model"},{"step":173,"from":"sdaReg74","to":"1093392904","type":"store","field":"arrayIdx_int:55"},{"step":174,"from":"sdaReg0","to":"sdaReg128","type":"model"},{"step":175,"from":"sdaReg74","to":"1093392904","type":"store","field":"arrayIdx_int:56"},{"step":176,"from":"sdaReg0","to":"sdaReg129","type":"model"},{"step":177,"from":"sdaReg74","to":"1093392904","type":"store","field":"arrayIdx_int:57"},{"step":178,"from":"sdaReg0","to":"sdaReg130","type":"model"},{"step":179,"from":"sdaReg74","to":"1093392904","type":"store","field":"arrayIdx_int:58"},{"step":180,"from":"sdaReg0","to":"sdaReg131","type":"model"},{"step":181,"from":"sdaReg74","to":"1093392904","type":"store","field":"arrayIdx_int:59"},{"step":182,"from":"sdaReg0","to":"sdaReg132","type":"model"},{"step":183,"from":"sdaReg74","to":"1093392904","type":"store","field":"arrayIdx_int:60"},{"step":184,"from":"1093603808","to":"1093392904","type":"model"},{"step":185,"from":"1093392904","to":"1093603808","type":"model"}],"parameters":[{"id":"1093603808","name":"this","klass":"java.io.DataOutputStream"},{"id":"sdaReg0","name":"arg#1","klass":"string"}],"returns":[{"id":null,"name":"return","klass":null}],"colors":{"heapLocToColor":{"sdaReg125":[1, 116],"sdaReg126":[1, 117],"sdaReg127":[1, 118],"sdaReg128":[119, 1],"sdaReg129":[1, 120],"sdaReg68":[62],"sdaReg64":[1, 61],"sdaReg62":[1, 59],"sdaReg63":[1, 60],"sdaReg13":[1, 10],"sdaReg72":[1, 65],"sdaReg14":[1, 11],"sdaReg11":[1, 8],"sdaReg70":[64],"sdaReg12":[1, 9],"sdaReg10":[1, 7],"sdaReg120":[1, 111],"sdaReg19":[1, 16],"sdaReg122":[1, 113],"sdaReg17":[1, 14],"1093392904":[0, 62],"sdaReg121":[1, 112],"sdaReg18":[1, 15],"sdaReg124":[1, 115],"sdaReg15":[1, 12],"sdaReg123":[1, 114],"sdaReg16":[1, 13],"sdaReg116":[1, 107],"sdaReg117":[1, 108],"sdaReg114":[1, 105],"sdaReg115":[1, 106],"sdaReg118":[1, 109],"sdaReg119":[1, 110],"sdaReg77":[68, 1],"sdaReg78":[1, 69],"sdaReg79":[1, 70],"sdaReg74":[1, 68, 69, 70, 71, 65, 66, 67, 76, 77, 78, 79, 72, 73, 74, 75, 85, 84, 87, 86, 81, 80, 83, 82, 93, 92, 95, 94, 89, 88, 91, 90, 102, 103, 100, 101, 98, 99, 96, 97, 110, 111, 108, 109, 106, 107, 104, 105, 119, 118, 117, 116, 115, 114, 113, 112, 123, 122, 121, 120],"sdaReg75":[1, 66],"sdaReg76":[1, 67],"sdaReg81":[1, 72],"sdaReg80":[1, 71],"sdaReg83":[1, 74],"sdaReg82":[1, 73],"sdaReg113":[1, 104],"sdaReg112":[1, 103],"sdaReg111":[102, 1],"sdaReg110":[1, 101],"sdaReg107":[1, 98],"sdaReg108":[1, 99],"sdaReg109":[1, 100],"sdaReg103":[1, 94],"sdaReg104":[1, 95],"sdaReg105":[1, 96],"sdaReg106":[1, 97],"sdaReg86":[1, 77],"sdaReg87":[1, 78],"sdaReg84":[1, 75],"sdaReg85":[1, 76],"sdaReg88":[1, 79],"sdaReg89":[1, 80],"sdaReg90":[1, 81],"sdaReg94":[85, 1],"sdaReg93":[1, 84],"sdaReg92":[1, 83],"sdaReg91":[1, 82],"sdaReg100":[1, 91],"sdaReg102":[1, 93],"sdaReg101":[1, 92],"sdaReg95":[1, 86],"sdaReg96":[1, 87],"sdaReg97":[1, 88],"sdaReg98":[1, 89],"sdaReg99":[1, 90],"1084339448":[63],"sdaReg60":[1, 57],"sdaReg61":[1, 58],"sdaReg59":[1, 56],"sdaReg58":[1, 55],"sdaReg57":[1, 54],"sdaReg56":[1, 53],"sdaReg55":[1, 52],"sdaReg54":[51, 1],"static.<java.nio.ByteOrder: java.nio.ByteOrder BIG_ENDIAN>":[63],"sdaReg53":[1, 50],"sdaReg52":[1, 49],"sdaReg51":[1, 48],"sdaReg50":[1, 47],"sdaReg49":[1, 46],"sdaReg48":[1, 45],"sdaReg45":[1, 42],"sdaReg44":[1, 41],"sdaReg47":[1, 44],"sdaReg46":[1, 43],"sdaReg41":[1, 38],"sdaReg40":[1, 37],"sdaReg43":[1, 40],"sdaReg42":[1, 39],"sdaReg39":[1, 36],"sdaReg38":[1, 35],"sdaReg37":[34, 1],"sdaReg32":[1, 29],"sdaReg31":[1, 28],"sdaReg30":[1, 27],"sdaReg36":[1, 33],"sdaReg35":[1, 32],"sdaReg34":[1, 31],"sdaReg33":[1, 30],"sdaReg8":[1, 5],"1093603808":[0],"sdaReg9":[1, 6],"sdaReg7":[1, 4],"sdaReg5":[1, 3],"sdaReg27":[1, 24],"sdaReg26":[1, 23],"sdaReg132":[1, 123],"sdaReg29":[1, 26],"sdaReg133":[62],"sdaReg28":[1, 25],"sdaReg130":[1, 121],"sdaReg131":[1, 122],"sdaReg3":[2],"sdaReg21":[1, 18],"sdaReg0":[1],"sdaReg20":[17, 1],"sdaReg23":[1, 20],"sdaReg22":[1, 19],"sdaReg25":[1, 22],"sdaReg24":[1, 21]},"colorToColor":{"0":[0],"1":[62],"63":[62],"62":[0, 63],"68":[62],"69":[62],"70":[62],"71":[62],"65":[62],"66":[62],"67":[62],"76":[62],"77":[62],"78":[62],"79":[62],"72":[62],"73":[62],"74":[62],"75":[62],"85":[62],"84":[62],"87":[62],"86":[62],"81":[62],"80":[62],"83":[62],"82":[62],"93":[62],"92":[62],"95":[62],"94":[62],"89":[62],"88":[62],"91":[62],"90":[62],"102":[62],"103":[62],"100":[62],"101":[62],"98":[62],"99":[62],"96":[62],"97":[62],"110":[62],"111":[62],"108":[62],"109":[62],"106":[62],"107":[62],"104":[62],"105":[62],"119":[62],"118":[62],"117":[62],"116":[62],"115":[62],"114":[62],"113":[62],"112":[62],"123":[62],"122":[62],"121":[62],"120":[62]},"colorToLabel":{"0":"this","1":"arg#1","63":"<java.nio.ByteOrder: java.nio.ByteOrder BIG_ENDIAN>","124":"return"}}}

Generated Model
	arg#1->this
	arg#1-><java.nio.ByteOrder: java.nio.ByteOrder BIG_ENDIAN>

