Scanning method <java.io.DataOutputStream: void writeUTF(java.lang.String)>

All seen event types: LoadStaticRecord, NewArrayRecord, BinaryOperationRecord, StoreArrayRecord, SimpleAssignmentRecord, MethodReturnRecord, MethodCallRecord, CastRecord, MethodStartRecord, MethodEndRecord, IfRecord, 
Ignored event types: IfRecord, 

JSON Encoded Analysis Data (for visualization):{"heapEdges":[{"step":0,"from":"sdaReg0","to":"sdaReg5","type":"model"},{"step":1,"from":"sdaReg0","to":"sdaReg7","type":"model"},{"step":2,"from":"sdaReg0","to":"sdaReg8","type":"model"},{"step":3,"from":"sdaReg0","to":"sdaReg9","type":"model"},{"step":4,"from":"sdaReg0","to":"sdaReg10","type":"model"},{"step":5,"from":"sdaReg0","to":"sdaReg11","type":"model"},{"step":6,"from":"sdaReg0","to":"sdaReg12","type":"model"},{"step":7,"from":"sdaReg0","to":"sdaReg13","type":"model"},{"step":8,"from":"sdaReg0","to":"sdaReg14","type":"model"},{"step":9,"from":"sdaReg0","to":"sdaReg15","type":"model"},{"step":10,"from":"sdaReg0","to":"sdaReg16","type":"model"},{"step":11,"from":"sdaReg0","to":"sdaReg17","type":"model"},{"step":12,"from":"sdaReg0","to":"sdaReg18","type":"model"},{"step":13,"from":"sdaReg0","to":"sdaReg19","type":"model"},{"step":14,"from":"sdaReg0","to":"sdaReg20","type":"model"},{"step":15,"from":"sdaReg0","to":"sdaReg21","type":"model"},{"step":16,"from":"sdaReg0","to":"sdaReg22","type":"model"},{"step":17,"from":"static.<java.nio.ByteOrder: java.nio.ByteOrder BIG_ENDIAN>","to":"1084339448","type":"load","field":"<java.nio.ByteOrder: java.nio.ByteOrder BIG_ENDIAN>"},{"step":18,"from":"1096956200","to":"sdaReg25","type":"model"},{"step":19,"from":"1096956200","to":"1084339448","type":"model"},{"step":20,"from":"sdaReg25","to":"1096956200","type":"model"},{"step":21,"from":"sdaReg25","to":"1084339448","type":"model"},{"step":22,"from":"1084339448","to":"1096956200","type":"model"},{"step":23,"from":"1084339448","to":"sdaReg25","type":"model"},{"step":24,"from":"sdaReg0","to":"sdaReg30","type":"model"},{"step":25,"from":"sdaReg32","to":"1096956200","type":"store","field":"arrayIdx_int:2"},{"step":26,"from":"sdaReg0","to":"sdaReg33","type":"model"},{"step":27,"from":"sdaReg32","to":"1096956200","type":"store","field":"arrayIdx_int:3"},{"step":28,"from":"sdaReg0","to":"sdaReg34","type":"model"},{"step":29,"from":"sdaReg32","to":"1096956200","type":"store","field":"arrayIdx_int:4"},{"step":30,"from":"sdaReg0","to":"sdaReg35","type":"model"},{"step":31,"from":"sdaReg32","to":"1096956200","type":"store","field":"arrayIdx_int:5"},{"step":32,"from":"sdaReg0","to":"sdaReg36","type":"model"},{"step":33,"from":"sdaReg32","to":"1096956200","type":"store","field":"arrayIdx_int:6"},{"step":34,"from":"sdaReg0","to":"sdaReg37","type":"model"},{"step":35,"from":"sdaReg32","to":"1096956200","type":"store","field":"arrayIdx_int:7"},{"step":36,"from":"sdaReg0","to":"sdaReg38","type":"model"},{"step":37,"from":"sdaReg32","to":"1096956200","type":"store","field":"arrayIdx_int:8"},{"step":38,"from":"sdaReg0","to":"sdaReg39","type":"model"},{"step":39,"from":"sdaReg32","to":"1096956200","type":"store","field":"arrayIdx_int:9"},{"step":40,"from":"sdaReg0","to":"sdaReg40","type":"model"},{"step":41,"from":"sdaReg32","to":"1096956200","type":"store","field":"arrayIdx_int:10"},{"step":42,"from":"sdaReg0","to":"sdaReg41","type":"model"},{"step":43,"from":"sdaReg32","to":"1096956200","type":"store","field":"arrayIdx_int:11"},{"step":44,"from":"sdaReg0","to":"sdaReg42","type":"model"},{"step":45,"from":"sdaReg32","to":"1096956200","type":"store","field":"arrayIdx_int:12"},{"step":46,"from":"sdaReg0","to":"sdaReg43","type":"model"},{"step":47,"from":"sdaReg32","to":"1096956200","type":"store","field":"arrayIdx_int:13"},{"step":48,"from":"sdaReg0","to":"sdaReg44","type":"model"},{"step":49,"from":"sdaReg32","to":"1096956200","type":"store","field":"arrayIdx_int:14"},{"step":50,"from":"sdaReg0","to":"sdaReg45","type":"model"},{"step":51,"from":"sdaReg32","to":"1096956200","type":"store","field":"arrayIdx_int:15"},{"step":52,"from":"sdaReg0","to":"sdaReg46","type":"model"},{"step":53,"from":"sdaReg32","to":"1096956200","type":"store","field":"arrayIdx_int:16"},{"step":54,"from":"sdaReg0","to":"sdaReg47","type":"model"},{"step":55,"from":"sdaReg32","to":"1096956200","type":"store","field":"arrayIdx_int:17"},{"step":56,"from":"sdaReg0","to":"sdaReg48","type":"model"},{"step":57,"from":"sdaReg32","to":"1096956200","type":"store","field":"arrayIdx_int:18"},{"step":58,"from":"1093509648","to":"1096956200","type":"model"},{"step":59,"from":"1096956200","to":"1093509648","type":"model"}],"parameters":[{"id":"1093509648","name":"this","klass":"java.io.DataOutputStream"},{"id":"sdaReg0","name":"arg#1","klass":"string"}],"returns":[{"id":null,"name":"return","klass":null}],"colors":{"heapLocToColor":{"sdaReg13":[1, 10],"1096956200":[0, 20],"sdaReg39":[1, 30],"sdaReg14":[1, 11],"sdaReg38":[1, 29],"sdaReg11":[1, 8],"sdaReg37":[1, 28],"sdaReg12":[1, 9],"sdaReg10":[1, 7],"sdaReg32":[34, 35, 1, 32, 33, 38, 39, 36, 37, 23, 25, 24, 27, 26, 29, 28, 31, 30],"sdaReg30":[1, 23],"sdaReg19":[1, 16],"sdaReg36":[1, 27],"sdaReg17":[1, 14],"static.<java.nio.ByteOrder: java.nio.ByteOrder BIG_ENDIAN>":[21],"sdaReg35":[1, 26],"sdaReg18":[1, 15],"sdaReg34":[1, 25],"sdaReg15":[1, 12],"sdaReg33":[1, 24],"sdaReg16":[1, 13],"sdaReg8":[1, 5],"sdaReg9":[1, 6],"sdaReg7":[1, 4],"sdaReg5":[1, 3],"1093509648":[0],"sdaReg26":[20],"sdaReg28":[22],"sdaReg49":[20],"sdaReg48":[1, 39],"1084339448":[21],"sdaReg45":[1, 36],"sdaReg3":[2],"sdaReg44":[1, 35],"sdaReg47":[1, 38],"sdaReg21":[1, 18],"sdaReg46":[1, 37],"sdaReg0":[1],"sdaReg20":[17, 1],"sdaReg41":[1, 32],"sdaReg40":[1, 31],"sdaReg22":[1, 19],"sdaReg43":[34, 1],"sdaReg42":[1, 33]},"colorToColor":{"0":[0],"34":[20],"35":[20],"1":[20],"32":[20],"33":[20],"38":[20],"39":[20],"36":[20],"37":[20],"21":[20],"20":[0, 21],"23":[20],"25":[20],"24":[20],"27":[20],"26":[20],"29":[20],"28":[20],"31":[20],"30":[20]},"colorToLabel":{"0":"this","1":"arg#1","21":"<java.nio.ByteOrder: java.nio.ByteOrder BIG_ENDIAN>","40":"return"}}}

Generated Model
	arg#1->this
	arg#1-><java.nio.ByteOrder: java.nio.ByteOrder BIG_ENDIAN>

