Scanning method <java.io.DataOutputStream: void writeUTF(java.lang.String)>

All seen event types: LoadStaticRecord, NewArrayRecord, BinaryOperationRecord, StoreArrayRecord, SimpleAssignmentRecord, MethodReturnRecord, MethodCallRecord, CastRecord, MethodStartRecord, MethodEndRecord, IfRecord, 
Ignored event types: IfRecord, 

JSON Encoded Analysis Data (for visualization):{"heapEdges":[{"step":0,"from":"sdaReg0","to":"sdaReg5","type":"model"},{"step":1,"from":"sdaReg0","to":"sdaReg7","type":"model"},{"step":2,"from":"sdaReg0","to":"sdaReg8","type":"model"},{"step":3,"from":"sdaReg0","to":"sdaReg9","type":"model"},{"step":4,"from":"sdaReg0","to":"sdaReg10","type":"model"},{"step":5,"from":"sdaReg0","to":"sdaReg11","type":"model"},{"step":6,"from":"sdaReg0","to":"sdaReg12","type":"model"},{"step":7,"from":"sdaReg0","to":"sdaReg13","type":"model"},{"step":8,"from":"sdaReg0","to":"sdaReg14","type":"model"},{"step":9,"from":"sdaReg0","to":"sdaReg15","type":"model"},{"step":10,"from":"sdaReg0","to":"sdaReg16","type":"model"},{"step":11,"from":"sdaReg0","to":"sdaReg17","type":"model"},{"step":12,"from":"sdaReg0","to":"sdaReg18","type":"model"},{"step":13,"from":"sdaReg0","to":"sdaReg19","type":"model"},{"step":14,"from":"sdaReg0","to":"sdaReg20","type":"model"},{"step":15,"from":"sdaReg0","to":"sdaReg21","type":"model"},{"step":16,"from":"sdaReg0","to":"sdaReg22","type":"model"},{"step":17,"from":"sdaReg0","to":"sdaReg23","type":"model"},{"step":18,"from":"sdaReg0","to":"sdaReg24","type":"model"},{"step":19,"from":"sdaReg0","to":"sdaReg25","type":"model"},{"step":20,"from":"sdaReg0","to":"sdaReg26","type":"model"},{"step":21,"from":"sdaReg0","to":"sdaReg27","type":"model"},{"step":22,"from":"sdaReg0","to":"sdaReg28","type":"model"},{"step":23,"from":"sdaReg0","to":"sdaReg29","type":"model"},{"step":24,"from":"sdaReg0","to":"sdaReg30","type":"model"},{"step":25,"from":"sdaReg0","to":"sdaReg31","type":"model"},{"step":26,"from":"sdaReg0","to":"sdaReg32","type":"model"},{"step":27,"from":"sdaReg0","to":"sdaReg33","type":"model"},{"step":28,"from":"sdaReg0","to":"sdaReg34","type":"model"},{"step":29,"from":"sdaReg0","to":"sdaReg35","type":"model"},{"step":30,"from":"sdaReg0","to":"sdaReg36","type":"model"},{"step":31,"from":"sdaReg0","to":"sdaReg37","type":"model"},{"step":32,"from":"sdaReg0","to":"sdaReg38","type":"model"},{"step":33,"from":"sdaReg0","to":"sdaReg39","type":"model"},{"step":34,"from":"sdaReg0","to":"sdaReg40","type":"model"},{"step":35,"from":"sdaReg0","to":"sdaReg41","type":"model"},{"step":36,"from":"sdaReg0","to":"sdaReg42","type":"model"},{"step":37,"from":"sdaReg0","to":"sdaReg43","type":"model"},{"step":38,"from":"sdaReg0","to":"sdaReg44","type":"model"},{"step":39,"from":"sdaReg0","to":"sdaReg45","type":"model"},{"step":40,"from":"sdaReg0","to":"sdaReg46","type":"model"},{"step":41,"from":"sdaReg0","to":"sdaReg47","type":"model"},{"step":42,"from":"sdaReg0","to":"sdaReg48","type":"model"},{"step":43,"from":"sdaReg0","to":"sdaReg49","type":"model"},{"step":44,"from":"sdaReg0","to":"sdaReg50","type":"model"},{"step":45,"from":"sdaReg0","to":"sdaReg51","type":"model"},{"step":46,"from":"sdaReg0","to":"sdaReg52","type":"model"},{"step":47,"from":"sdaReg0","to":"sdaReg53","type":"model"},{"step":48,"from":"sdaReg0","to":"sdaReg54","type":"model"},{"step":49,"from":"sdaReg0","to":"sdaReg55","type":"model"},{"step":50,"from":"sdaReg0","to":"sdaReg56","type":"model"},{"step":51,"from":"sdaReg0","to":"sdaReg57","type":"model"},{"step":52,"from":"sdaReg0","to":"sdaReg58","type":"model"},{"step":53,"from":"sdaReg0","to":"sdaReg59","type":"model"},{"step":54,"from":"sdaReg0","to":"sdaReg60","type":"model"},{"step":55,"from":"sdaReg0","to":"sdaReg61","type":"model"},{"step":56,"from":"sdaReg0","to":"sdaReg62","type":"model"},{"step":57,"from":"sdaReg0","to":"sdaReg63","type":"model"},{"step":58,"from":"sdaReg0","to":"sdaReg64","type":"model"},{"step":59,"from":"sdaReg0","to":"sdaReg65","type":"model"},{"step":60,"from":"sdaReg0","to":"sdaReg66","type":"model"},{"step":61,"from":"sdaReg0","to":"sdaReg67","type":"model"},{"step":62,"from":"sdaReg0","to":"sdaReg68","type":"model"},{"step":63,"from":"sdaReg0","to":"sdaReg69","type":"model"},{"step":64,"from":"sdaReg0","to":"sdaReg70","type":"model"},{"step":65,"from":"sdaReg0","to":"sdaReg71","type":"model"},{"step":66,"from":"sdaReg0","to":"sdaReg72","type":"model"},{"step":67,"from":"sdaReg0","to":"sdaReg73","type":"model"},{"step":68,"from":"sdaReg0","to":"sdaReg74","type":"model"},{"step":69,"from":"sdaReg0","to":"sdaReg75","type":"model"},{"step":70,"from":"sdaReg0","to":"sdaReg76","type":"model"},{"step":71,"from":"sdaReg0","to":"sdaReg77","type":"model"},{"step":72,"from":"sdaReg0","to":"sdaReg78","type":"model"},{"step":73,"from":"sdaReg0","to":"sdaReg79","type":"model"},{"step":74,"from":"sdaReg0","to":"sdaReg80","type":"model"},{"step":75,"from":"sdaReg0","to":"sdaReg81","type":"model"},{"step":76,"from":"sdaReg0","to":"sdaReg82","type":"model"},{"step":77,"from":"sdaReg0","to":"sdaReg83","type":"model"},{"step":78,"from":"sdaReg0","to":"sdaReg84","type":"model"},{"step":79,"from":"sdaReg0","to":"sdaReg85","type":"model"},{"step":80,"from":"sdaReg0","to":"sdaReg86","type":"model"},{"step":81,"from":"sdaReg0","to":"sdaReg87","type":"model"},{"step":82,"from":"static.<java.nio.ByteOrder: java.nio.ByteOrder BIG_ENDIAN>","to":"1084339448","type":"load","field":"<java.nio.ByteOrder: java.nio.ByteOrder BIG_ENDIAN>"},{"step":83,"from":"1093380512","to":"sdaReg90","type":"model"},{"step":84,"from":"1093380512","to":"1084339448","type":"model"},{"step":85,"from":"sdaReg90","to":"1093380512","type":"model"},{"step":86,"from":"sdaReg90","to":"1084339448","type":"model"},{"step":87,"from":"1084339448","to":"1093380512","type":"model"},{"step":88,"from":"1084339448","to":"sdaReg90","type":"model"},{"step":89,"from":"sdaReg0","to":"sdaReg95","type":"model"},{"step":90,"from":"sdaReg97","to":"1093380512","type":"store","field":"arrayIdx_int:2"},{"step":91,"from":"sdaReg0","to":"sdaReg98","type":"model"},{"step":92,"from":"sdaReg97","to":"1093380512","type":"store","field":"arrayIdx_int:3"},{"step":93,"from":"sdaReg0","to":"sdaReg99","type":"model"},{"step":94,"from":"sdaReg97","to":"1093380512","type":"store","field":"arrayIdx_int:4"},{"step":95,"from":"sdaReg0","to":"sdaReg100","type":"model"},{"step":96,"from":"sdaReg97","to":"1093380512","type":"store","field":"arrayIdx_int:5"},{"step":97,"from":"sdaReg0","to":"sdaReg101","type":"model"},{"step":98,"from":"sdaReg97","to":"1093380512","type":"store","field":"arrayIdx_int:6"},{"step":99,"from":"sdaReg0","to":"sdaReg102","type":"model"},{"step":100,"from":"sdaReg97","to":"1093380512","type":"store","field":"arrayIdx_int:7"},{"step":101,"from":"sdaReg0","to":"sdaReg103","type":"model"},{"step":102,"from":"sdaReg97","to":"1093380512","type":"store","field":"arrayIdx_int:8"},{"step":103,"from":"sdaReg0","to":"sdaReg104","type":"model"},{"step":104,"from":"sdaReg97","to":"1093380512","type":"store","field":"arrayIdx_int:9"},{"step":105,"from":"sdaReg0","to":"sdaReg105","type":"model"},{"step":106,"from":"sdaReg97","to":"1093380512","type":"store","field":"arrayIdx_int:10"},{"step":107,"from":"sdaReg0","to":"sdaReg106","type":"model"},{"step":108,"from":"sdaReg97","to":"1093380512","type":"store","field":"arrayIdx_int:11"},{"step":109,"from":"sdaReg0","to":"sdaReg107","type":"model"},{"step":110,"from":"sdaReg97","to":"1093380512","type":"store","field":"arrayIdx_int:12"},{"step":111,"from":"sdaReg0","to":"sdaReg108","type":"model"},{"step":112,"from":"sdaReg97","to":"1093380512","type":"store","field":"arrayIdx_int:13"},{"step":113,"from":"sdaReg0","to":"sdaReg109","type":"model"},{"step":114,"from":"sdaReg97","to":"1093380512","type":"store","field":"arrayIdx_int:14"},{"step":115,"from":"sdaReg0","to":"sdaReg110","type":"model"},{"step":116,"from":"sdaReg97","to":"1093380512","type":"store","field":"arrayIdx_int:15"},{"step":117,"from":"sdaReg0","to":"sdaReg111","type":"model"},{"step":118,"from":"sdaReg97","to":"1093380512","type":"store","field":"arrayIdx_int:16"},{"step":119,"from":"sdaReg0","to":"sdaReg112","type":"model"},{"step":120,"from":"sdaReg97","to":"1093380512","type":"store","field":"arrayIdx_int:17"},{"step":121,"from":"sdaReg0","to":"sdaReg113","type":"model"},{"step":122,"from":"sdaReg97","to":"1093380512","type":"store","field":"arrayIdx_int:18"},{"step":123,"from":"sdaReg0","to":"sdaReg114","type":"model"},{"step":124,"from":"sdaReg97","to":"1093380512","type":"store","field":"arrayIdx_int:19"},{"step":125,"from":"sdaReg0","to":"sdaReg115","type":"model"},{"step":126,"from":"sdaReg97","to":"1093380512","type":"store","field":"arrayIdx_int:20"},{"step":127,"from":"sdaReg0","to":"sdaReg116","type":"model"},{"step":128,"from":"sdaReg97","to":"1093380512","type":"store","field":"arrayIdx_int:21"},{"step":129,"from":"sdaReg0","to":"sdaReg117","type":"model"},{"step":130,"from":"sdaReg97","to":"1093380512","type":"store","field":"arrayIdx_int:22"},{"step":131,"from":"sdaReg0","to":"sdaReg118","type":"model"},{"step":132,"from":"sdaReg97","to":"1093380512","type":"store","field":"arrayIdx_int:23"},{"step":133,"from":"sdaReg0","to":"sdaReg119","type":"model"},{"step":134,"from":"sdaReg97","to":"1093380512","type":"store","field":"arrayIdx_int:24"},{"step":135,"from":"sdaReg0","to":"sdaReg120","type":"model"},{"step":136,"from":"sdaReg97","to":"1093380512","type":"store","field":"arrayIdx_int:25"},{"step":137,"from":"sdaReg0","to":"sdaReg121","type":"model"},{"step":138,"from":"sdaReg97","to":"1093380512","type":"store","field":"arrayIdx_int:26"},{"step":139,"from":"sdaReg0","to":"sdaReg122","type":"model"},{"step":140,"from":"sdaReg97","to":"1093380512","type":"store","field":"arrayIdx_int:27"},{"step":141,"from":"sdaReg0","to":"sdaReg123","type":"model"},{"step":142,"from":"sdaReg97","to":"1093380512","type":"store","field":"arrayIdx_int:28"},{"step":143,"from":"sdaReg0","to":"sdaReg124","type":"model"},{"step":144,"from":"sdaReg97","to":"1093380512","type":"store","field":"arrayIdx_int:29"},{"step":145,"from":"sdaReg0","to":"sdaReg125","type":"model"},{"step":146,"from":"sdaReg97","to":"1093380512","type":"store","field":"arrayIdx_int:30"},{"step":147,"from":"sdaReg0","to":"sdaReg126","type":"model"},{"step":148,"from":"sdaReg97","to":"1093380512","type":"store","field":"arrayIdx_int:31"},{"step":149,"from":"sdaReg0","to":"sdaReg127","type":"model"},{"step":150,"from":"sdaReg97","to":"1093380512","type":"store","field":"arrayIdx_int:32"},{"step":151,"from":"sdaReg0","to":"sdaReg128","type":"model"},{"step":152,"from":"sdaReg97","to":"1093380512","type":"store","field":"arrayIdx_int:33"},{"step":153,"from":"sdaReg0","to":"sdaReg129","type":"model"},{"step":154,"from":"sdaReg97","to":"1093380512","type":"store","field":"arrayIdx_int:34"},{"step":155,"from":"sdaReg0","to":"sdaReg130","type":"model"},{"step":156,"from":"sdaReg97","to":"1093380512","type":"store","field":"arrayIdx_int:35"},{"step":157,"from":"sdaReg0","to":"sdaReg131","type":"model"},{"step":158,"from":"sdaReg97","to":"1093380512","type":"store","field":"arrayIdx_int:36"},{"step":159,"from":"sdaReg0","to":"sdaReg132","type":"model"},{"step":160,"from":"sdaReg97","to":"1093380512","type":"store","field":"arrayIdx_int:37"},{"step":161,"from":"sdaReg0","to":"sdaReg133","type":"model"},{"step":162,"from":"sdaReg97","to":"1093380512","type":"store","field":"arrayIdx_int:38"},{"step":163,"from":"sdaReg0","to":"sdaReg134","type":"model"},{"step":164,"from":"sdaReg97","to":"1093380512","type":"store","field":"arrayIdx_int:39"},{"step":165,"from":"sdaReg0","to":"sdaReg135","type":"model"},{"step":166,"from":"sdaReg97","to":"1093380512","type":"store","field":"arrayIdx_int:40"},{"step":167,"from":"sdaReg0","to":"sdaReg136","type":"model"},{"step":168,"from":"sdaReg97","to":"1093380512","type":"store","field":"arrayIdx_int:41"},{"step":169,"from":"sdaReg0","to":"sdaReg137","type":"model"},{"step":170,"from":"sdaReg97","to":"1093380512","type":"store","field":"arrayIdx_int:42"},{"step":171,"from":"sdaReg0","to":"sdaReg138","type":"model"},{"step":172,"from":"sdaReg97","to":"1093380512","type":"store","field":"arrayIdx_int:43"},{"step":173,"from":"sdaReg0","to":"sdaReg139","type":"model"},{"step":174,"from":"sdaReg97","to":"1093380512","type":"store","field":"arrayIdx_int:44"},{"step":175,"from":"sdaReg0","to":"sdaReg140","type":"model"},{"step":176,"from":"sdaReg97","to":"1093380512","type":"store","field":"arrayIdx_int:45"},{"step":177,"from":"sdaReg0","to":"sdaReg141","type":"model"},{"step":178,"from":"sdaReg97","to":"1093380512","type":"store","field":"arrayIdx_int:46"},{"step":179,"from":"sdaReg0","to":"sdaReg142","type":"model"},{"step":180,"from":"sdaReg97","to":"1093380512","type":"store","field":"arrayIdx_int:47"},{"step":181,"from":"sdaReg0","to":"sdaReg143","type":"model"},{"step":182,"from":"sdaReg97","to":"1093380512","type":"store","field":"arrayIdx_int:48"},{"step":183,"from":"sdaReg0","to":"sdaReg144","type":"model"},{"step":184,"from":"sdaReg97","to":"1093380512","type":"store","field":"arrayIdx_int:49"},{"step":185,"from":"sdaReg0","to":"sdaReg145","type":"model"},{"step":186,"from":"sdaReg97","to":"1093380512","type":"store","field":"arrayIdx_int:50"},{"step":187,"from":"sdaReg0","to":"sdaReg146","type":"model"},{"step":188,"from":"sdaReg97","to":"1093380512","type":"store","field":"arrayIdx_int:51"},{"step":189,"from":"sdaReg0","to":"sdaReg147","type":"model"},{"step":190,"from":"sdaReg97","to":"1093380512","type":"store","field":"arrayIdx_int:52"},{"step":191,"from":"sdaReg0","to":"sdaReg148","type":"model"},{"step":192,"from":"sdaReg97","to":"1093380512","type":"store","field":"arrayIdx_int:53"},{"step":193,"from":"sdaReg0","to":"sdaReg149","type":"model"},{"step":194,"from":"sdaReg97","to":"1093380512","type":"store","field":"arrayIdx_int:54"},{"step":195,"from":"sdaReg0","to":"sdaReg150","type":"model"},{"step":196,"from":"sdaReg97","to":"1093380512","type":"store","field":"arrayIdx_int:55"},{"step":197,"from":"sdaReg0","to":"sdaReg151","type":"model"},{"step":198,"from":"sdaReg97","to":"1093380512","type":"store","field":"arrayIdx_int:56"},{"step":199,"from":"sdaReg0","to":"sdaReg152","type":"model"},{"step":200,"from":"sdaReg97","to":"1093380512","type":"store","field":"arrayIdx_int:57"},{"step":201,"from":"sdaReg0","to":"sdaReg153","type":"model"},{"step":202,"from":"sdaReg97","to":"1093380512","type":"store","field":"arrayIdx_int:58"},{"step":203,"from":"sdaReg0","to":"sdaReg154","type":"model"},{"step":204,"from":"sdaReg97","to":"1093380512","type":"store","field":"arrayIdx_int:59"},{"step":205,"from":"sdaReg0","to":"sdaReg155","type":"model"},{"step":206,"from":"sdaReg97","to":"1093380512","type":"store","field":"arrayIdx_int:60"},{"step":207,"from":"sdaReg0","to":"sdaReg156","type":"model"},{"step":208,"from":"sdaReg97","to":"1093380512","type":"store","field":"arrayIdx_int:61"},{"step":209,"from":"sdaReg0","to":"sdaReg157","type":"model"},{"step":210,"from":"sdaReg97","to":"1093380512","type":"store","field":"arrayIdx_int:62"},{"step":211,"from":"sdaReg0","to":"sdaReg158","type":"model"},{"step":212,"from":"sdaReg97","to":"1093380512","type":"store","field":"arrayIdx_int:63"},{"step":213,"from":"sdaReg0","to":"sdaReg159","type":"model"},{"step":214,"from":"sdaReg97","to":"1093380512","type":"store","field":"arrayIdx_int:64"},{"step":215,"from":"sdaReg0","to":"sdaReg160","type":"model"},{"step":216,"from":"sdaReg97","to":"1093380512","type":"store","field":"arrayIdx_int:65"},{"step":217,"from":"sdaReg0","to":"sdaReg161","type":"model"},{"step":218,"from":"sdaReg97","to":"1093380512","type":"store","field":"arrayIdx_int:66"},{"step":219,"from":"sdaReg0","to":"sdaReg162","type":"model"},{"step":220,"from":"sdaReg97","to":"1093380512","type":"store","field":"arrayIdx_int:67"},{"step":221,"from":"sdaReg0","to":"sdaReg163","type":"model"},{"step":222,"from":"sdaReg97","to":"1093380512","type":"store","field":"arrayIdx_int:68"},{"step":223,"from":"sdaReg0","to":"sdaReg164","type":"model"},{"step":224,"from":"sdaReg97","to":"1093380512","type":"store","field":"arrayIdx_int:69"},{"step":225,"from":"sdaReg0","to":"sdaReg165","type":"model"},{"step":226,"from":"sdaReg97","to":"1093380512","type":"store","field":"arrayIdx_int:70"},{"step":227,"from":"sdaReg0","to":"sdaReg166","type":"model"},{"step":228,"from":"sdaReg97","to":"1093380512","type":"store","field":"arrayIdx_int:71"},{"step":229,"from":"sdaReg0","to":"sdaReg167","type":"model"},{"step":230,"from":"sdaReg97","to":"1093380512","type":"store","field":"arrayIdx_int:72"},{"step":231,"from":"sdaReg0","to":"sdaReg168","type":"model"},{"step":232,"from":"sdaReg97","to":"1093380512","type":"store","field":"arrayIdx_int:73"},{"step":233,"from":"sdaReg0","to":"sdaReg169","type":"model"},{"step":234,"from":"sdaReg97","to":"1093380512","type":"store","field":"arrayIdx_int:74"},{"step":235,"from":"sdaReg0","to":"sdaReg170","type":"model"},{"step":236,"from":"sdaReg97","to":"1093380512","type":"store","field":"arrayIdx_int:75"},{"step":237,"from":"sdaReg0","to":"sdaReg171","type":"model"},{"step":238,"from":"sdaReg97","to":"1093380512","type":"store","field":"arrayIdx_int:76"},{"step":239,"from":"sdaReg0","to":"sdaReg172","type":"model"},{"step":240,"from":"sdaReg97","to":"1093380512","type":"store","field":"arrayIdx_int:77"},{"step":241,"from":"sdaReg0","to":"sdaReg173","type":"model"},{"step":242,"from":"sdaReg97","to":"1093380512","type":"store","field":"arrayIdx_int:78"},{"step":243,"from":"sdaReg0","to":"sdaReg174","type":"model"},{"step":244,"from":"sdaReg97","to":"1093380512","type":"store","field":"arrayIdx_int:79"},{"step":245,"from":"sdaReg0","to":"sdaReg175","type":"model"},{"step":246,"from":"sdaReg97","to":"1093380512","type":"store","field":"arrayIdx_int:80"},{"step":247,"from":"sdaReg0","to":"sdaReg176","type":"model"},{"step":248,"from":"sdaReg97","to":"1093380512","type":"store","field":"arrayIdx_int:81"},{"step":249,"from":"sdaReg0","to":"sdaReg177","type":"model"},{"step":250,"from":"sdaReg97","to":"1093380512","type":"store","field":"arrayIdx_int:82"},{"step":251,"from":"sdaReg0","to":"sdaReg178","type":"model"},{"step":252,"from":"sdaReg97","to":"1093380512","type":"store","field":"arrayIdx_int:83"},{"step":253,"from":"1093470648","to":"1093380512","type":"model"},{"step":254,"from":"1093380512","to":"1093470648","type":"model"}],"parameters":[{"id":"1093470648","name":"this","klass":"java.io.DataOutputStream"},{"id":"sdaReg0","name":"arg#1","klass":"string"}],"returns":[{"id":null,"name":"return","klass":null}],"colors":{"heapLocToColor":{"sdaReg125":[1, 116],"sdaReg126":[1, 117],"sdaReg127":[1, 118],"sdaReg128":[119, 1],"sdaReg129":[1, 120],"1093470648":[0],"sdaReg68":[1, 65],"sdaReg69":[1, 66],"sdaReg66":[1, 63],"sdaReg67":[1, 64],"sdaReg64":[1, 61],"sdaReg65":[1, 62],"sdaReg62":[1, 59],"sdaReg63":[1, 60],"sdaReg13":[1, 10],"sdaReg72":[1, 69],"sdaReg14":[1, 11],"sdaReg71":[68, 1],"sdaReg11":[1, 8],"sdaReg70":[1, 67],"sdaReg12":[1, 9],"sdaReg10":[1, 7],"sdaReg120":[1, 111],"sdaReg19":[1, 16],"sdaReg122":[1, 113],"sdaReg17":[1, 14],"sdaReg121":[1, 112],"sdaReg18":[1, 15],"sdaReg124":[1, 115],"sdaReg15":[1, 12],"sdaReg123":[1, 114],"sdaReg16":[1, 13],"sdaReg116":[1, 107],"sdaReg117":[1, 108],"sdaReg114":[1, 105],"sdaReg115":[1, 106],"sdaReg118":[1, 109],"sdaReg119":[1, 110],"1093380512":[0, 85],"sdaReg77":[1, 74],"sdaReg78":[1, 75],"sdaReg79":[1, 76],"sdaReg73":[1, 70],"sdaReg74":[1, 71],"sdaReg75":[1, 72],"sdaReg76":[1, 73],"sdaReg81":[1, 78],"sdaReg80":[1, 77],"sdaReg83":[1, 80],"sdaReg82":[1, 79],"sdaReg113":[1, 104],"sdaReg112":[1, 103],"sdaReg111":[102, 1],"sdaReg110":[1, 101],"sdaReg107":[1, 98],"sdaReg108":[1, 99],"sdaReg109":[1, 100],"sdaReg103":[1, 94],"sdaReg104":[1, 95],"sdaReg171":[1, 162],"sdaReg105":[1, 96],"sdaReg170":[1, 161],"sdaReg106":[1, 97],"sdaReg173":[1, 164],"sdaReg86":[1, 83],"sdaReg172":[1, 163],"sdaReg87":[1, 84],"sdaReg175":[1, 166],"sdaReg84":[1, 81],"sdaReg174":[1, 165],"sdaReg85":[1, 82],"sdaReg177":[1, 168],"sdaReg176":[1, 167],"sdaReg179":[85],"sdaReg178":[1, 169],"sdaReg93":[87],"sdaReg91":[85],"sdaReg100":[1, 91],"sdaReg102":[1, 93],"sdaReg101":[1, 92],"sdaReg95":[1, 88],"sdaReg97":[137, 136, 1, 139, 138, 141, 140, 143, 142, 129, 128, 131, 130, 133, 132, 135, 134, 152, 153, 154, 155, 156, 157, 158, 159, 144, 145, 146, 147, 148, 149, 150, 151, 169, 168, 163, 162, 161, 160, 167, 166, 165, 164, 93, 92, 95, 94, 89, 88, 91, 90, 102, 103, 100, 101, 98, 99, 96, 97, 110, 111, 108, 109, 106, 107, 104, 105, 119, 118, 117, 116, 115, 114, 113, 112, 127, 126, 125, 124, 123, 122, 121, 120],"sdaReg98":[1, 89],"sdaReg99":[1, 90],"1084339448":[86],"sdaReg60":[1, 57],"sdaReg61":[1, 58],"sdaReg169":[1, 160],"sdaReg161":[152, 1],"sdaReg162":[1, 153],"sdaReg163":[1, 154],"sdaReg164":[1, 155],"sdaReg165":[1, 156],"sdaReg166":[1, 157],"sdaReg167":[1, 158],"sdaReg168":[1, 159],"sdaReg59":[1, 56],"sdaReg58":[1, 55],"sdaReg57":[1, 54],"sdaReg56":[1, 53],"sdaReg55":[1, 52],"sdaReg54":[51, 1],"static.<java.nio.ByteOrder: java.nio.ByteOrder BIG_ENDIAN>":[86],"sdaReg53":[1, 50],"sdaReg52":[1, 49],"sdaReg160":[1, 151],"sdaReg51":[1, 48],"sdaReg50":[1, 47],"sdaReg159":[1, 150],"sdaReg158":[1, 149],"sdaReg152":[1, 143],"sdaReg153":[1, 144],"sdaReg150":[1, 141],"sdaReg151":[1, 142],"sdaReg156":[1, 147],"sdaReg49":[1, 46],"sdaReg157":[1, 148],"sdaReg48":[1, 45],"sdaReg154":[1, 145],"sdaReg155":[1, 146],"sdaReg45":[1, 42],"sdaReg44":[1, 41],"sdaReg47":[1, 44],"sdaReg46":[1, 43],"sdaReg41":[1, 38],"sdaReg40":[1, 37],"sdaReg43":[1, 40],"sdaReg42":[1, 39],"sdaReg148":[1, 139],"sdaReg147":[1, 138],"sdaReg149":[1, 140],"sdaReg143":[1, 134],"sdaReg144":[1, 135],"sdaReg39":[1, 36],"sdaReg145":[1, 136],"sdaReg38":[1, 35],"sdaReg146":[137, 1],"sdaReg37":[34, 1],"sdaReg140":[1, 131],"sdaReg141":[1, 132],"sdaReg142":[1, 133],"sdaReg32":[1, 29],"sdaReg31":[1, 28],"sdaReg30":[1, 27],"sdaReg36":[1, 33],"sdaReg35":[1, 32],"sdaReg34":[1, 31],"sdaReg33":[1, 30],"sdaReg8":[1, 5],"sdaReg9":[1, 6],"sdaReg7":[1, 4],"sdaReg5":[1, 3],"sdaReg139":[1, 130],"sdaReg138":[1, 129],"sdaReg137":[1, 128],"sdaReg136":[1, 127],"sdaReg134":[1, 125],"sdaReg27":[1, 24],"sdaReg135":[1, 126],"sdaReg26":[1, 23],"sdaReg132":[1, 123],"sdaReg29":[1, 26],"sdaReg133":[1, 124],"sdaReg28":[1, 25],"sdaReg130":[1, 121],"sdaReg131":[1, 122],"sdaReg3":[2],"sdaReg21":[1, 18],"sdaReg0":[1],"sdaReg20":[17, 1],"sdaReg23":[1, 20],"sdaReg22":[1, 19],"sdaReg25":[1, 22],"sdaReg24":[1, 21]},"colorToColor":{"0":[0],"137":[85],"136":[85],"1":[85],"139":[85],"138":[85],"141":[85],"140":[85],"143":[85],"142":[85],"129":[85],"128":[85],"131":[85],"130":[85],"133":[85],"132":[85],"135":[85],"134":[85],"152":[85],"153":[85],"154":[85],"155":[85],"156":[85],"157":[85],"158":[85],"159":[85],"144":[85],"145":[85],"146":[85],"147":[85],"148":[85],"149":[85],"150":[85],"151":[85],"169":[85],"168":[85],"163":[85],"162":[85],"161":[85],"160":[85],"167":[85],"166":[85],"165":[85],"164":[85],"85":[0, 86],"86":[85],"93":[85],"92":[85],"95":[85],"94":[85],"89":[85],"88":[85],"91":[85],"90":[85],"102":[85],"103":[85],"100":[85],"101":[85],"98":[85],"99":[85],"96":[85],"97":[85],"110":[85],"111":[85],"108":[85],"109":[85],"106":[85],"107":[85],"104":[85],"105":[85],"119":[85],"118":[85],"117":[85],"116":[85],"115":[85],"114":[85],"113":[85],"112":[85],"127":[85],"126":[85],"125":[85],"124":[85],"123":[85],"122":[85],"121":[85],"120":[85]},"colorToLabel":{"0":"this","1":"arg#1","86":"<java.nio.ByteOrder: java.nio.ByteOrder BIG_ENDIAN>","170":"return"}}}

Generated Model
	arg#1->this
	arg#1-><java.nio.ByteOrder: java.nio.ByteOrder BIG_ENDIAN>

