Scanning method <java.io.DataOutputStream: void writeUTF(java.lang.String)>

All seen event types: LoadStaticRecord, NewArrayRecord, BinaryOperationRecord, StoreArrayRecord, SimpleAssignmentRecord, MethodReturnRecord, MethodCallRecord, CastRecord, MethodStartRecord, MethodEndRecord, IfRecord, 
Ignored event types: IfRecord, 

JSON Encoded Analysis Data (for visualization):{"heapEdges":[{"step":0,"from":"sdaReg0","to":"sdaReg5","type":"model"},{"step":1,"from":"static.<java.nio.ByteOrder: java.nio.ByteOrder BIG_ENDIAN>","to":"1084339448","type":"load","field":"<java.nio.ByteOrder: java.nio.ByteOrder BIG_ENDIAN>"},{"step":2,"from":"1095132952","to":"sdaReg9","type":"model"},{"step":3,"from":"1095132952","to":"1084339448","type":"model"},{"step":4,"from":"sdaReg9","to":"1095132952","type":"model"},{"step":5,"from":"sdaReg9","to":"1084339448","type":"model"},{"step":6,"from":"1084339448","to":"1095132952","type":"model"},{"step":7,"from":"1084339448","to":"sdaReg9","type":"model"},{"step":8,"from":"sdaReg0","to":"sdaReg14","type":"model"},{"step":9,"from":"sdaReg16","to":"1095132952","type":"store","field":"arrayIdx_int:2"},{"step":10,"from":"1093361560","to":"1095132952","type":"model"},{"step":11,"from":"1095132952","to":"1093361560","type":"model"}],"parameters":[{"id":"1093361560","name":"this","klass":"java.io.DataOutputStream"},{"id":"sdaReg0","name":"arg#1","klass":"string"}],"returns":[{"id":null,"name":"return","klass":null}],"colors":{"heapLocToColor":{"sdaReg14":[1, 7],"1095132952":[0, 4],"sdaReg12":[6],"sdaReg10":[4],"1084339448":[5],"1093361560":[0],"sdaReg5":[1, 3],"sdaReg3":[2],"sdaReg0":[1],"sdaReg17":[4],"static.<java.nio.ByteOrder: java.nio.ByteOrder BIG_ENDIAN>":[5],"sdaReg16":[1, 7]},"colorToColor":{"0":[0],"1":[4],"4":[0, 5],"5":[4],"7":[4]},"colorToLabel":{"0":"this","1":"arg#1","5":"<java.nio.ByteOrder: java.nio.ByteOrder BIG_ENDIAN>","8":"return"}}}

Generated Model
	arg#1->this
	arg#1-><java.nio.ByteOrder: java.nio.ByteOrder BIG_ENDIAN>

