Scanning method <android.os.Bundle: java.lang.CharSequence getCharSequence(java.lang.String)>

All seen event types: BinaryOperationRecord, MethodReturnRecord, MethodCallRecord, CastRecord, ArrayLengthRecord, LoadInstanceRecord, MethodStartRecord, LoadArrayRecord, MethodEndRecord, IfRecord, 
Ignored event types: IfRecord, 

JSON Encoded Analysis Data (for visualization):{"heapEdges":[{"step":0,"from":"1093818736","to":"1093469344","type":"load","field":"<android.os.Bundle: java.util.Map mMap>"},{"step":1,"from":"1093469344","to":"1093505728","type":"load","field":"<java.util.HashMap: java.util.HashMap$HashMapEntry[] table>"},{"step":2,"from":"1093505728","to":"1093861728","type":"load","field":"arrayIdx_int:2"},{"step":3,"from":"1093861728","to":"1093724600","type":"load","field":"<java.util.HashMap$HashMapEntry: java.lang.Object key>"},{"step":4,"from":"1093861728","to":"1093861728.<java.util.HashMap$HashMapEntry: int hash>","type":"load","field":"<java.util.HashMap$HashMapEntry: int hash>"},{"step":5,"from":"1093861728","to":"1093817680","type":"load","field":"<java.util.HashMap$HashMapEntry: java.util.HashMap$HashMapEntry next>"},{"step":6,"from":"1093817680","to":"1093844688","type":"load","field":"<java.util.HashMap$HashMapEntry: java.lang.Object key>"},{"step":7,"from":"1093817680","to":"1093817680.<java.util.HashMap$HashMapEntry: int hash>","type":"load","field":"<java.util.HashMap$HashMapEntry: int hash>"},{"step":8,"from":"1093817680","to":"1093584368","type":"load","field":"<java.util.HashMap$HashMapEntry: java.lang.Object value>"}],"parameters":[{"id":"1093818736","name":"this","klass":"android.os.Bundle"},{"id":"sdaReg0","name":"arg#1","klass":"string"}],"returns":[{"id":"1093584368","name":"return","klass":"java.lang.CharSequence"}],"colors":{"heapLocToColor":{"1093861728.<java.util.HashMap$HashMapEntry: int hash>":[0],"1093469344":[0],"sdaReg14":[2],"sdaReg11":[2],"sdaReg10":[2],"1093817680":[0],"sdaReg17":[0],"sdaReg15":[3],"1093844688":[0],"sdaReg16":[0],"1093818736":[0],"sdaReg8":[2],"sdaReg9":[2],"sdaReg6":[2],"sdaReg7":[2],"sdaReg4":[2],"sdaReg5":[2],"sdaReg3":[2],"sdaReg2":[0],"sdaReg1":[0],"sdaReg0":[1],"1093817680.<java.util.HashMap$HashMapEntry: int hash>":[0],"1093505728":[0],"1093861728":[0],"1093724600":[0],"1093584368":[0]},"colorToColor":{"0":[4]},"colorToLabel":{"0":"this","1":"arg#1","4":"return"}}}

Generated Model
	this->return

