Scanning method <java.io.StringWriter: java.lang.String toString()>

All seen event types: MethodReturnRecord, MethodCallRecord, LoadInstanceRecord, 
Ignored event types: 

JSON Encoded Analysis Data (for visualization):{"heapEdges":[{"step":0,"from":"1093564040","to":"1093564064","type":"load","field":"<java.io.StringWriter: java.lang.StringBuffer buf>"},{"step":1,"from":"1093564064","to":"sdaReg0","type":"model"}],"parameters":[{"id":"1093564040","name":"this","klass":"java.io.StringWriter"}],"returns":[{"id":"sdaReg0","name":"return","klass":"string"}],"colors":{"heapLocToColor":{"1093564064":[0],"sdaReg0":[0, 1],"1093564040":[0]},"colorToColor":{"0":[2],"1":[2]},"colorToLabel":{"0":"this","2":"return"}}}

Generated Model
	this->return

