Scanning method <java.util.Formatter: java.util.Formatter format(java.lang.String,java.lang.Object[])>

All seen event types: SimpleAssignmentRecord, ExitMonitorRecord, LoadInstanceRecord, MethodStartRecord, IfRecord, InstanceOfRecord, NewObjectRecord, StoreInstanceRecord, LoadStaticRecord, BinaryOperationRecord, SwitchRecord, MethodCallRecord, MethodReturnRecord, EnterMonitorRecord, CastRecord, ArrayLengthRecord, LoadArrayRecord, MethodEndRecord, 
Ignored event types: SwitchRecord, ExitMonitorRecord, EnterMonitorRecord, IfRecord, 

JSON Encoded Analysis Data (for visualization):{"heapEdges":[{"step":0,"from":"1093276616","to":"1093271480","type":"load","field":"<java.util.Formatter: java.util.Locale locale>"},{"step":1,"from":"1093276616","to":"1093271480","type":"load","field":"<java.util.Formatter: java.util.Locale locale>"},{"step":2,"from":"1093271480","to":"1093276616","type":"store","field":"<java.util.Formatter: java.util.Locale locale>"},{"step":3,"from":"1093271480","to":"1093271480.<java.util.Locale: java.lang.String cachedToStringResult>","type":"load","field":"<java.util.Locale: java.lang.String cachedToStringResult>"},{"step":4,"from":"static.<libcore.icu.LocaleData: java.util.HashMap localeDataCache>","to":"1085803528","type":"load","field":"<libcore.icu.LocaleData: java.util.HashMap localeDataCache>"},{"step":5,"from":"static.<libcore.icu.LocaleData: java.util.HashMap localeDataCache>","to":"1085803528","type":"load","field":"<libcore.icu.LocaleData: java.util.HashMap localeDataCache>"},{"step":6,"from":"1085803528","to":"1085760672","type":"load","field":"<java.util.HashMap: java.util.HashMap$HashMapEntry[] table>"},{"step":7,"from":"1085760672","to":"1085767472","type":"load","field":"arrayIdx_int:0"},{"step":8,"from":"1085767472","to":"1085760768","type":"load","field":"<java.util.HashMap$HashMapEntry: java.lang.Object key>"},{"step":9,"from":"1085767472","to":"1085767472.<java.util.HashMap$HashMapEntry: int hash>","type":"load","field":"<java.util.HashMap$HashMapEntry: int hash>"},{"step":10,"from":"1085767472","to":"1085769600","type":"load","field":"<java.util.HashMap$HashMapEntry: java.lang.Object value>"},{"step":11,"from":"1085769600","to":"1093276616","type":"store","field":"<java.util.Formatter: libcore.icu.LocaleData localeData>"},{"step":12,"from":"1093276616","to":"1093276616.<java.util.Formatter: boolean closed>","type":"load","field":"<java.util.Formatter: boolean closed>"},{"step":13,"from":"sdaReg0","to":"1093505680","type":"store","field":"<java.util.Formatter$FormatSpecifierParser: java.lang.String format>"},{"step":14,"from":"sdaReg31","to":"1093505680","type":"store","field":"<java.util.Formatter$FormatSpecifierParser: int length>"},{"step":15,"from":"1093276616","to":"sdaReg0","type":"model"},{"step":16,"from":"1093276616","to":"sdaReg39","type":"model"},{"step":17,"from":"1093276616","to":"sdaReg42","type":"model"},{"step":18,"from":"sdaReg0","to":"1093276616","type":"model"},{"step":19,"from":"sdaReg0","to":"sdaReg39","type":"model"},{"step":20,"from":"sdaReg0","to":"sdaReg42","type":"model"},{"step":21,"from":"sdaReg39","to":"1093276616","type":"model"},{"step":22,"from":"sdaReg39","to":"sdaReg0","type":"model"},{"step":23,"from":"sdaReg39","to":"sdaReg42","type":"model"},{"step":24,"from":"sdaReg42","to":"1093276616","type":"model"},{"step":25,"from":"sdaReg42","to":"sdaReg0","type":"model"},{"step":26,"from":"sdaReg42","to":"sdaReg39","type":"model"},{"step":27,"from":"sdaReg43","to":"1093505680","type":"store","field":"<java.util.Formatter$FormatSpecifierParser: int startIndex>"},{"step":28,"from":"sdaReg43","to":"1093505680","type":"store","field":"<java.util.Formatter$FormatSpecifierParser: int i>"},{"step":29,"from":"1093447088","to":"sdaReg48","type":"create","field":"<java.util.Formatter$FormatToken: int argIndex>"},{"step":30,"from":"1093447088","to":"sdaReg49","type":"create","field":"<java.util.Formatter$FormatToken: char conversionType>"},{"step":31,"from":"1093447088","to":"sdaReg50","type":"create","field":"<java.util.Formatter$FormatToken: int precision>"},{"step":32,"from":"1093447088","to":"sdaReg51","type":"create","field":"<java.util.Formatter$FormatToken: int width>"},{"step":33,"from":"sdaReg70","to":"1093505680","type":"store","field":"<java.util.Formatter$FormatSpecifierParser: int i>"},{"step":34,"from":"sdaReg71","to":"1093447088","type":"store","field":"<java.util.Formatter$FormatToken: char conversionType>"},{"step":35,"from":"1093872232","to":"1093538048","type":"load","field":"arrayIdx_int:0"},{"step":36,"from":"1093276616","to":"1093447088","type":"create","field":"<java.util.Formatter: java.util.Formatter$FormatToken formatToken>"},{"step":37,"from":"1093538048","to":"1093276616","type":"store","field":"<java.util.Formatter: java.lang.Object arg>"},{"step":38,"from":"1093447088","to":"1093447088.<java.util.Formatter$FormatToken: boolean flagComma>","type":"load","field":"<java.util.Formatter$FormatToken: boolean flagComma>"},{"step":39,"from":"1093447088","to":"1093447088.<java.util.Formatter$FormatToken: boolean flagMinus>","type":"load","field":"<java.util.Formatter$FormatToken: boolean flagMinus>"},{"step":40,"from":"1093447088","to":"1093447088.<java.util.Formatter$FormatToken: boolean flagParenthesis>","type":"load","field":"<java.util.Formatter$FormatToken: boolean flagParenthesis>"},{"step":41,"from":"1093447088","to":"1093447088.<java.util.Formatter$FormatToken: boolean flagPlus>","type":"load","field":"<java.util.Formatter$FormatToken: boolean flagPlus>"},{"step":42,"from":"1093447088","to":"1093447088.<java.util.Formatter$FormatToken: boolean flagSharp>","type":"load","field":"<java.util.Formatter$FormatToken: boolean flagSharp>"},{"step":43,"from":"1093447088","to":"1093447088.<java.util.Formatter$FormatToken: boolean flagSpace>","type":"load","field":"<java.util.Formatter$FormatToken: boolean flagSpace>"},{"step":44,"from":"1093447088","to":"1093447088.<java.util.Formatter$FormatToken: boolean flagZero>","type":"load","field":"<java.util.Formatter$FormatToken: boolean flagZero>"},{"step":45,"from":"1093538048","to":"sdaReg97","type":"model"},{"step":46,"from":"1093276616","to":"1093274984","type":"load","field":"<java.util.Formatter: java.lang.Appendable out>"},{"step":47,"from":"1093538048","to":"1093274984","type":"model"},{"step":48,"from":"1093276616","to":"sdaReg0","type":"model"},{"step":49,"from":"1093276616","to":"sdaReg39","type":"model"},{"step":50,"from":"1093276616","to":"sdaReg42","type":"model"},{"step":51,"from":"sdaReg0","to":"1093276616","type":"model"},{"step":52,"from":"sdaReg0","to":"sdaReg39","type":"model"},{"step":53,"from":"sdaReg0","to":"sdaReg42","type":"model"},{"step":54,"from":"sdaReg39","to":"1093276616","type":"model"},{"step":55,"from":"sdaReg39","to":"sdaReg0","type":"model"},{"step":56,"from":"sdaReg39","to":"sdaReg42","type":"model"},{"step":57,"from":"sdaReg42","to":"1093276616","type":"model"},{"step":58,"from":"sdaReg42","to":"sdaReg0","type":"model"},{"step":59,"from":"sdaReg42","to":"sdaReg39","type":"model"},{"step":60,"from":"sdaReg43","to":"1093505680","type":"store","field":"<java.util.Formatter$FormatSpecifierParser: int startIndex>"},{"step":61,"from":"sdaReg43","to":"1093505680","type":"store","field":"<java.util.Formatter$FormatSpecifierParser: int i>"},{"step":62,"from":"1093419552","to":"sdaReg110","type":"create","field":"<java.util.Formatter$FormatToken: int argIndex>"},{"step":63,"from":"1093419552","to":"sdaReg111","type":"create","field":"<java.util.Formatter$FormatToken: char conversionType>"},{"step":64,"from":"1093419552","to":"sdaReg112","type":"create","field":"<java.util.Formatter$FormatToken: int precision>"},{"step":65,"from":"1093419552","to":"sdaReg113","type":"create","field":"<java.util.Formatter$FormatToken: int width>"},{"step":66,"from":"sdaReg132","to":"1093505680","type":"store","field":"<java.util.Formatter$FormatSpecifierParser: int i>"},{"step":67,"from":"sdaReg133","to":"1093419552","type":"store","field":"<java.util.Formatter$FormatToken: char conversionType>"},{"step":68,"from":"1093872232","to":"1093872264","type":"load","field":"arrayIdx_int:1"},{"step":69,"from":"1093276616","to":"1093419552","type":"create","field":"<java.util.Formatter: java.util.Formatter$FormatToken formatToken>"},{"step":70,"from":"1093872264","to":"1093276616","type":"store","field":"<java.util.Formatter: java.lang.Object arg>"},{"step":71,"from":"1093419552","to":"1093419552.<java.util.Formatter$FormatToken: boolean flagComma>","type":"load","field":"<java.util.Formatter$FormatToken: boolean flagComma>"},{"step":72,"from":"1093419552","to":"1093419552.<java.util.Formatter$FormatToken: boolean flagMinus>","type":"load","field":"<java.util.Formatter$FormatToken: boolean flagMinus>"},{"step":73,"from":"1093419552","to":"1093419552.<java.util.Formatter$FormatToken: boolean flagParenthesis>","type":"load","field":"<java.util.Formatter$FormatToken: boolean flagParenthesis>"},{"step":74,"from":"1093419552","to":"1093419552.<java.util.Formatter$FormatToken: boolean flagPlus>","type":"load","field":"<java.util.Formatter$FormatToken: boolean flagPlus>"},{"step":75,"from":"1093419552","to":"1093419552.<java.util.Formatter$FormatToken: boolean flagSharp>","type":"load","field":"<java.util.Formatter$FormatToken: boolean flagSharp>"},{"step":76,"from":"1093419552","to":"1093419552.<java.util.Formatter$FormatToken: boolean flagSpace>","type":"load","field":"<java.util.Formatter$FormatToken: boolean flagSpace>"},{"step":77,"from":"1093419552","to":"1093419552.<java.util.Formatter$FormatToken: boolean flagZero>","type":"load","field":"<java.util.Formatter$FormatToken: boolean flagZero>"},{"step":78,"from":"1093872264","to":"sdaReg156","type":"model"},{"step":79,"from":"1093276616","to":"1093274984","type":"load","field":"<java.util.Formatter: java.lang.Appendable out>"},{"step":80,"from":"1093872264","to":"1093274984","type":"model"},{"step":81,"from":"1093271480","to":"1093276616","type":"store","field":"<java.util.Formatter: java.util.Locale locale>"}],"parameters":[{"id":"1093276616","name":"this","klass":"java.util.Formatter"},{"id":"sdaReg0","name":"arg#1","klass":"string"},{"id":"1093872232","name":"arg#2","klass":"java.lang.Object[]"}],"returns":[{"id":"1093276616","name":"return","klass":"java.util.Formatter"}],"colors":{"heapLocToColor":{"sdaReg126":[6],"sdaReg127":[24],"sdaReg128":[25],"1093872232":[2],"sdaReg129":[6],"1093505680":[6],"sdaReg68":[10],"sdaReg69":[6],"sdaReg66":[15],"sdaReg67":[6],"sdaReg64":[6],"sdaReg65":[14],"sdaReg13":[4],"sdaReg72":[10],"sdaReg14":[4],"sdaReg71":[16],"sdaReg11":[4],"sdaReg12":[4],"sdaReg10":[4],"sdaReg120":[22],"sdaReg122":[23],"sdaReg17":[4],"sdaReg121":[6],"sdaReg18":[4],"sdaReg15":[4],"sdaReg123":[20],"sdaReg16":[4],"1093419552.<java.util.Formatter$FormatToken: boolean flagParenthesis>":[20],"sdaReg116":[6],"sdaReg117":[20],"sdaReg114":[20],"sdaReg115":[20],"sdaReg118":[6],"1093276616.<java.util.Formatter: boolean closed>":[0],"1093447088.<java.util.Formatter$FormatToken: boolean flagMinus>":[10],"sdaReg119":[21],"sdaReg77":[10],"sdaReg79":[10],"sdaReg73":[10],"sdaReg74":[10],"sdaReg75":[10],"sdaReg83":[0],"1093447088.<java.util.Formatter$FormatToken: boolean flagZero>":[10],"1093419552.<java.util.Formatter$FormatToken: boolean flagMinus>":[20],"sdaReg107":[20],"sdaReg108":[20],"sdaReg109":[20],"1085760672":[3],"sdaReg103":[6],"sdaReg104":[0, 19, 9],"sdaReg105":[19],"sdaReg106":[6],"sdaReg84":[2],"sdaReg85":[6],"1093538048":[2],"sdaReg88":[2],"sdaReg89":[0],"sdaReg90":[10],"sdaReg94":[10],"static.<libcore.icu.LocaleData: java.util.HashMap localeDataCache>":[3],"sdaReg92":[10],"sdaReg91":[2],"sdaReg100":[0],"sdaReg101":[2],"1085767472":[3],"1093447088.<java.util.Formatter$FormatToken: boolean flagSpace>":[10],"1093419552.<java.util.Formatter$FormatToken: boolean flagZero>":[20],"1093419552.<java.util.Formatter$FormatToken: boolean flagPlus>":[20],"1093419552.<java.util.Formatter$FormatToken: boolean flagSpace>":[20],"sdaReg97":[17, 2],"sdaReg98":[2],"sdaReg99":[18],"1085760768":[3],"1093447088":[10],"sdaReg60":[13],"sdaReg61":[10],"1093419552.<java.util.Formatter$FormatToken: boolean flagComma>":[20],"sdaReg162":[6],"sdaReg164":[0],"1093271480.<java.util.Locale: java.lang.String cachedToStringResult>":[0],"sdaReg59":[6],"1093271480":[0],"sdaReg58":[12],"sdaReg57":[11],"sdaReg56":[6],"sdaReg55":[10],"sdaReg54":[6],"sdaReg53":[10],"sdaReg52":[10],"sdaReg160":[2],"1093447088.<java.util.Formatter$FormatToken: boolean flagSharp>":[10],"1093447088.<java.util.Formatter$FormatToken: boolean flagPlus>":[10],"sdaReg159":[0],"sdaReg158":[28],"1093276616.<java.util.Formatter: java.util.Locale locale>":[0],"sdaReg153":[20],"1093274984":[0],"sdaReg150":[2],"sdaReg151":[20],"sdaReg156":[2, 27],"1085767472.<java.util.HashMap$HashMapEntry: int hash>":[3],"sdaReg157":[2],"sdaReg45":[10],"sdaReg44":[6],"sdaReg47":[10],"sdaReg46":[10],"sdaReg41":[19, 9],"sdaReg40":[9],"sdaReg43":[0, 19, 9],"sdaReg42":[0, 19, 9],"1093447088.<java.util.Formatter$FormatToken: boolean flagParenthesis>":[10],"1093419552.<java.util.Formatter$FormatToken: boolean flagSharp>":[20],"sdaReg148":[0],"sdaReg147":[2],"1093419552":[20],"sdaReg149":[20],"sdaReg143":[2],"sdaReg144":[6],"sdaReg39":[0],"sdaReg145":[2],"sdaReg38":[0, 9],"sdaReg37":[8],"sdaReg140":[20],"sdaReg142":[0],"sdaReg32":[6],"sdaReg31":[7],"sdaReg30":[6],"sdaReg35":[2],"sdaReg33":[6],"sdaReg8":[3],"sdaReg9":[3],"sdaReg6":[0],"sdaReg7":[0],"sdaReg4":[0],"sdaReg5":[0],"1085803528":[3],"sdaReg138":[20],"sdaReg137":[20],"sdaReg136":[20],"sdaReg134":[20],"sdaReg27":[2],"sdaReg135":[20],"sdaReg26":[0],"sdaReg29":[6],"1093447088.<java.util.Formatter$FormatToken: boolean flagComma>":[10],"sdaReg133":[26],"sdaReg28":[0],"sdaReg130":[20],"sdaReg131":[6],"1093276616":[0],"1085769600":[3],"sdaReg3":[2],"sdaReg2":[0],"sdaReg21":[4],"sdaReg1":[0],"sdaReg0":[0, 1],"sdaReg23":[3],"sdaReg22":[5],"sdaReg25":[3],"1093276616.<java.util.Formatter: java.lang.Appendable out>":[0],"1093872264":[2],"sdaReg24":[3]},"colorToColor":{"0":[0, 1, 19, 6, 9, 29],"16":[10],"1":[0, 19, 6, 9],"19":[0, 1, 6],"2":[0],"3":[0],"20":[0],"7":[6],"9":[0, 1, 6],"10":[0],"26":[20]},"colorToLabel":{"0":"this","1":"arg#1","2":"arg#2","3":"<libcore.icu.LocaleData: java.util.HashMap localeDataCache>","29":"return"}}}

Generated Model
	this->return
	this->arg#1
	arg#2->this
	arg#2->return
	arg#2->arg#1
	arg#1->this
	arg#1->return

