Scanning method <java.io.FileOutputStream: java.io.FileDescriptor getFD()>

All seen event types: LoadInstanceRecord, 
Ignored event types: 

JSON Encoded Analysis Data (for visualization):{"heapEdges":[{"step":0,"from":"1093398600","to":"1093457696","type":"load","field":"<java.io.FileOutputStream: java.io.FileDescriptor fd>"}],"parameters":[{"id":"1093398600","name":"this","klass":"java.io.FileOutputStream"}],"returns":[{"id":"1093457696","name":"return","klass":"java.io.FileDescriptor"}],"colors":{"heapLocToColor":{"1093398600":[0],"1093457696":[0]},"colorToColor":{"0":[1]},"colorToLabel":{"0":"this","1":"return"}}}

Generated Model
	this->return

