Scanning method <java.net.InetAddress: void <init>(int,byte[],java.lang.String)>

All seen event types: MethodReturnRecord, MethodCallRecord, StoreInstanceRecord, 
Ignored event types: 

JSON Encoded Analysis Data (for visualization):{"heapEdges":[{"step":0,"from":"sdaReg0","to":"1093655736","type":"store","field":"<java.net.InetAddress: int family>"},{"step":1,"from":"1093655760","to":"1093655736","type":"store","field":"<java.net.InetAddress: byte[] ipaddress>"},{"step":2,"from":"sdaReg1","to":"1093655736","type":"store","field":"<java.net.InetAddress: java.lang.String hostName>"}],"parameters":[{"id":"1093655736","name":"this","klass":"java.net.InetAddress"},{"id":"sdaReg0","name":"arg#1","klass":"int"},{"id":"1093655760","name":"arg#2","klass":"byte[]"},{"id":"sdaReg1","name":"arg#3","klass":"string"}],"returns":[{"id":"1093655736","name":"return","klass":"java.net.InetAddress"}],"colors":{"heapLocToColor":{"sdaReg2":[0],"1093655760":[2],"sdaReg1":[3],"sdaReg0":[1],"1093655736":[0]},"colorToColor":{"0":[4],"1":[0],"2":[0],"3":[0]},"colorToLabel":{"0":"this","1":"arg#1","2":"arg#2","3":"arg#3","4":"return"}}}

Generated Model
	this->return
	arg#3->this
	arg#3->return
	arg#2->this
	arg#2->return
	arg#1->this
	arg#1->return

