Scanning method <java.util.Vector: void <init>(int,int)>

All seen event types: NewArrayRecord, MethodReturnRecord, MethodCallRecord, CastRecord, MethodStartRecord, IfRecord, MethodEndRecord, StoreInstanceRecord, 
Ignored event types: IfRecord, 

JSON Encoded Analysis Data (for visualization):{"heapEdges":[{"step":0,"from":"1093397344","to":"1093397376","type":"create","field":"<java.util.Vector: java.lang.Object[] elementData>"},{"step":1,"from":"1093397344","to":"sdaReg10","type":"create","field":"<java.util.Vector: int elementCount>"},{"step":2,"from":"sdaReg1","to":"1093397344","type":"store","field":"<java.util.Vector: int capacityIncrement>"}],"parameters":[{"id":"1093397344","name":"this","klass":"java.util.Vector"},{"id":"sdaReg0","name":"arg#1","klass":"int"},{"id":"sdaReg1","name":"arg#2","klass":"int"}],"returns":[{"id":"1093397344","name":"return","klass":"java.util.Vector"}],"colors":{"heapLocToColor":{"1093397376":[3],"sdaReg9":[3],"sdaReg6":[0],"sdaReg7":[0],"sdaReg4":[0],"sdaReg5":[0],"sdaReg3":[0],"sdaReg2":[0],"sdaReg1":[2],"sdaReg0":[1],"1093397344":[0]},"colorToColor":{"0":[4],"2":[0],"3":[0]},"colorToLabel":{"0":"this","1":"arg#1","2":"arg#2","4":"return"}}}

Generated Model
	this->return
	arg#2->this
	arg#2->return

