Scanning method <java.util.HashMap$HashMapEntry: java.lang.Object getValue()>

All seen event types: LoadInstanceRecord, 
Ignored event types: 

JSON Encoded Analysis Data (for visualization):{"heapEdges":[{"step":0,"from":"1093229160","to":"1093639432","type":"load","field":"<java.util.HashMap$HashMapEntry: java.lang.Object value>"}],"parameters":[{"id":"1093229160","name":"this","klass":"java.util.HashMap$HashMapEntry"}],"returns":[{"id":"1093639432","name":"return","klass":"java.lang.Object"}],"colors":{"heapLocToColor":{"1093229160":[0],"1093639432":[0]},"colorToColor":{"0":[1]},"colorToLabel":{"0":"this","1":"return"}}}

Generated Model
	this->return

