Scanning method <java.io.StringReader: boolean markSupported()>

All seen event types: 
Ignored event types: 

JSON Encoded Analysis Data (for visualization):{"heapEdges":[],"parameters":[{"id":"1093653200","name":"this","klass":"java.io.StringReader"}],"returns":[{"id":null,"name":"return","klass":"boolean"}],"colors":{"heapLocToColor":{"1093653200":[0]},"colorToColor":{},"colorToLabel":{"0":"this","1":"return"}}}

Generated Model

