Scanning method <android.os.Message: void recycle()>

All seen event types: LoadStaticRecord, BinaryOperationRecord, StoreStaticRecord, SimpleAssignmentRecord, ExitMonitorRecord, MethodReturnRecord, MethodCallRecord, EnterMonitorRecord, MethodStartRecord, IfRecord, MethodEndRecord, StoreInstanceRecord, 
Ignored event types: ExitMonitorRecord, EnterMonitorRecord, IfRecord, 

JSON Encoded Analysis Data (for visualization):{"heapEdges":[{"step":0,"from":"1093476304","to":"sdaReg1","type":"create","field":"<android.os.Message: int flags>"},{"step":1,"from":"1093476304","to":"sdaReg2","type":"create","field":"<android.os.Message: int what>"},{"step":2,"from":"1093476304","to":"sdaReg3","type":"create","field":"<android.os.Message: int arg1>"},{"step":3,"from":"1093476304","to":"sdaReg4","type":"create","field":"<android.os.Message: int arg2>"},{"step":4,"from":"1093476304","to":"sdaReg5","type":"create","field":"<android.os.Message: java.lang.Object obj>"},{"step":5,"from":"1093476304","to":"sdaReg6","type":"create","field":"<android.os.Message: android.os.Messenger replyTo>"},{"step":6,"from":"1093476304","to":"sdaReg7","type":"create","field":"<android.os.Message: long when>"},{"step":7,"from":"1093476304","to":"sdaReg8","type":"create","field":"<android.os.Message: android.os.Handler target>"},{"step":8,"from":"1093476304","to":"sdaReg9","type":"create","field":"<android.os.Message: java.lang.Runnable callback>"},{"step":9,"from":"1093476304","to":"sdaReg10","type":"create","field":"<android.os.Message: android.os.Bundle data>"},{"step":10,"from":"static.<android.os.Message: java.lang.Object sPoolSync>","to":"1085010160","type":"load","field":"<android.os.Message: java.lang.Object sPoolSync>"},{"step":11,"from":"static.<android.os.Message: int sPoolSize>","to":"static.<android.os.Message: int sPoolSize>","type":"load","field":"<android.os.Message: int sPoolSize>"},{"step":12,"from":"1093476304","to":"static.<android.os.Message: android.os.Message sPool>","type":"store","field":"<android.os.Message: android.os.Message sPool>"},{"step":13,"from":"static.<android.os.Message: int sPoolSize>","to":"static.<android.os.Message: int sPoolSize>","type":"load","field":"<android.os.Message: int sPoolSize>"},{"step":14,"from":"sdaReg12","to":"static.<android.os.Message: int sPoolSize>","type":"store","field":"<android.os.Message: int sPoolSize>"}],"parameters":[{"id":"1093476304","name":"this","klass":"android.os.Message"}],"returns":[{"id":null,"name":"return","klass":null}],"colors":{"heapLocToColor":{"1085010160":[1],"sdaReg11":[1],"sdaReg12":[2],"1093476304":[0],"static.<android.os.Message: java.lang.Object sPoolSync>":[1],"static.<android.os.Message: android.os.Message sPool>":[3],"static.<android.os.Message: int sPoolSize>":[2],"sdaReg0":[0]},"colorToColor":{"0":[3],"2":[2]},"colorToLabel":{"0":"this","1":"<android.os.Message: java.lang.Object sPoolSync>","2":"<android.os.Message: int sPoolSize>","3":"<android.os.Message: android.os.Message sPool>","4":"return"}}}

Generated Model
	this-><android.os.Message: android.os.Message sPool>

