Scanning method <java.util.HashMap: int size()>

All seen event types: LoadInstanceRecord, 
Ignored event types: 

JSON Encoded Analysis Data (for visualization):{"heapEdges":[{"step":0,"from":"1094039048","to":"1094039048.<java.util.HashMap: int size>","type":"load","field":"<java.util.HashMap: int size>"}],"parameters":[{"id":"1094039048","name":"this","klass":"java.util.HashMap"}],"returns":[{"id":"1094039048.<java.util.HashMap: int size>","name":"return","klass":"int"}],"colors":{"heapLocToColor":{"1094039048.<java.util.HashMap: int size>":[0],"1094039048":[0]},"colorToColor":{"0":[1]},"colorToLabel":{"0":"this","1":"return"}}}

Generated Model
	this->return

