Scanning method <java.io.ObjectInputStream: byte[] readBlockData()>

All seen event types: NewArrayRecord, BinaryOperationRecord, MethodReturnRecord, MethodCallRecord, ArrayLengthRecord, CastRecord, MethodStartRecord, LoadInstanceRecord, LoadArrayRecord, MethodEndRecord, IfRecord, StoreInstanceRecord, 
Ignored event types: IfRecord, 

JSON Encoded Analysis Data (for visualization):{"heapEdges":[{"step":0,"from":"1093292320","to":"1093292408","type":"load","field":"<java.io.ObjectInputStream: java.io.DataInputStream input>"},{"step":1,"from":"1093292408","to":"1093628576","type":"load","field":"<java.io.FilterInputStream: java.io.InputStream in>"},{"step":2,"from":"1093628576","to":"1093628576.<java.io.ByteArrayInputStream: int pos>","type":"load","field":"<java.io.ByteArrayInputStream: int pos>"},{"step":3,"from":"1093628576","to":"1093628576.<java.io.ByteArrayInputStream: int count>","type":"load","field":"<java.io.ByteArrayInputStream: int count>"},{"step":4,"from":"1093628576","to":"1093628608","type":"load","field":"<java.io.ByteArrayInputStream: byte[] buf>"},{"step":5,"from":"1093628576","to":"1093628576.<java.io.ByteArrayInputStream: int pos>","type":"load","field":"<java.io.ByteArrayInputStream: int pos>"},{"step":6,"from":"sdaReg2","to":"1093628576","type":"store","field":"<java.io.ByteArrayInputStream: int pos>"},{"step":7,"from":"1093628608","to":"1093628608.arrayIdx_int:5","type":"load","field":"arrayIdx_int:5"},{"step":8,"from":"1093292320","to":"1093292408","type":"load","field":"<java.io.ObjectInputStream: java.io.DataInputStream input>"},{"step":9,"from":"1093292408","to":"1093628576","type":"load","field":"<java.io.FilterInputStream: java.io.InputStream in>"},{"step":10,"from":"1093628576","to":"1093463152","type":"model"}],"parameters":[{"id":"1093292320","name":"this","klass":"java.io.ObjectInputStream"}],"returns":[{"id":"1093463152","name":"return","klass":"byte[]"}],"colors":{"heapLocToColor":{"sdaReg9":[0],"sdaReg6":[0],"sdaReg7":[1],"1093628608":[0],"sdaReg4":[0],"sdaReg5":[0],"1093628576.<java.io.ByteArrayInputStream: int count>":[0],"1093463152":[1],"1093292408":[0],"1093292408.<java.io.FilterInputStream: java.io.InputStream in>":[0],"1093628576.<java.io.ByteArrayInputStream: int pos>":[0],"1093292320.<java.io.ObjectInputStream: java.io.DataInputStream input>":[0],"1093292320":[0],"sdaReg10":[1],"1093628608.arrayIdx_int:5":[0],"sdaReg3":[0],"sdaReg2":[0],"sdaReg1":[0],"sdaReg0":[0],"1093628576":[0]},"colorToColor":{"0":[0, 1],"1":[2]},"colorToLabel":{"0":"this","2":"return"}}}

Generated Model
	this->return

