Scanning method <java.util.Formatter: java.util.Formatter format(java.util.Locale,java.lang.String,java.lang.Object[])>

All seen event types: SimpleAssignmentRecord, ExitMonitorRecord, LoadInstanceRecord, MethodStartRecord, IfRecord, InstanceOfRecord, StoreInstanceRecord, NewObjectRecord, LoadStaticRecord, BinaryOperationRecord, SwitchRecord, MethodCallRecord, MethodReturnRecord, EnterMonitorRecord, CastRecord, ArrayLengthRecord, LoadArrayRecord, MethodEndRecord, 
Ignored event types: SwitchRecord, ExitMonitorRecord, EnterMonitorRecord, IfRecord, 

JSON Encoded Analysis Data (for visualization):{"heapEdges":[{"step":0,"from":"1093560432","to":"1093256352","type":"load","field":"<java.util.Formatter: java.util.Locale locale>"},{"step":1,"from":"1093256352","to":"1093560432","type":"store","field":"<java.util.Formatter: java.util.Locale locale>"},{"step":2,"from":"1093256352","to":"1093256352.<java.util.Locale: java.lang.String cachedToStringResult>","type":"load","field":"<java.util.Locale: java.lang.String cachedToStringResult>"},{"step":3,"from":"1093256352","to":"1093256352.<java.util.Locale: java.lang.String languageCode>","type":"load","field":"<java.util.Locale: java.lang.String languageCode>"},{"step":4,"from":"1093256352","to":"1093256352.<java.util.Locale: java.lang.String languageCode>","type":"load","field":"<java.util.Locale: java.lang.String languageCode>"},{"step":5,"from":"1093256352.<java.util.Locale: java.lang.String languageCode>","to":"1093480576","type":"model"},{"step":6,"from":"1093256352","to":"1093256352.<java.util.Locale: java.lang.String countryCode>","type":"load","field":"<java.util.Locale: java.lang.String countryCode>"},{"step":7,"from":"1093256352","to":"1093256352.<java.util.Locale: java.lang.String countryCode>","type":"load","field":"<java.util.Locale: java.lang.String countryCode>"},{"step":8,"from":"1093256352.<java.util.Locale: java.lang.String countryCode>","to":"1093480576","type":"model"},{"step":9,"from":"1093256352","to":"1093256352.<java.util.Locale: java.lang.String variantCode>","type":"load","field":"<java.util.Locale: java.lang.String variantCode>"},{"step":10,"from":"1093256352","to":"1093256352.<java.util.Locale: java.lang.String variantCode>","type":"load","field":"<java.util.Locale: java.lang.String variantCode>"},{"step":11,"from":"1093256352.<java.util.Locale: java.lang.String variantCode>","to":"1093480576","type":"model"},{"step":12,"from":"1093480576","to":"sdaReg10","type":"model"},{"step":13,"from":"sdaReg10","to":"1093256352","type":"store","field":"<java.util.Locale: java.lang.String cachedToStringResult>"},{"step":14,"from":"static.<libcore.icu.LocaleData: java.util.HashMap localeDataCache>","to":"1085803528","type":"load","field":"<libcore.icu.LocaleData: java.util.HashMap localeDataCache>"},{"step":15,"from":"static.<libcore.icu.LocaleData: java.util.HashMap localeDataCache>","to":"1085803528","type":"load","field":"<libcore.icu.LocaleData: java.util.HashMap localeDataCache>"},{"step":16,"from":"1085803528","to":"1085760672","type":"load","field":"<java.util.HashMap: java.util.HashMap$HashMapEntry[] table>"},{"step":17,"from":"1085760672","to":"1085767472","type":"load","field":"arrayIdx_int:0"},{"step":18,"from":"1085767472","to":"1085760768","type":"load","field":"<java.util.HashMap$HashMapEntry: java.lang.Object key>"},{"step":19,"from":"1085767472","to":"1085767472.<java.util.HashMap$HashMapEntry: int hash>","type":"load","field":"<java.util.HashMap$HashMapEntry: int hash>"},{"step":20,"from":"1085767472","to":"1085769600","type":"load","field":"<java.util.HashMap$HashMapEntry: java.lang.Object value>"},{"step":21,"from":"1085769600","to":"1093560432","type":"store","field":"<java.util.Formatter: libcore.icu.LocaleData localeData>"},{"step":22,"from":"1093560432","to":"1093560432.<java.util.Formatter: boolean closed>","type":"load","field":"<java.util.Formatter: boolean closed>"},{"step":23,"from":"sdaReg0","to":"1093298840","type":"store","field":"<java.util.Formatter$FormatSpecifierParser: java.lang.String format>"},{"step":24,"from":"sdaReg35","to":"1093298840","type":"store","field":"<java.util.Formatter$FormatSpecifierParser: int length>"},{"step":25,"from":"1093560432","to":"sdaReg0","type":"model"},{"step":26,"from":"1093560432","to":"sdaReg43","type":"model"},{"step":27,"from":"1093560432","to":"sdaReg46","type":"model"},{"step":28,"from":"sdaReg0","to":"1093560432","type":"model"},{"step":29,"from":"sdaReg0","to":"sdaReg43","type":"model"},{"step":30,"from":"sdaReg0","to":"sdaReg46","type":"model"},{"step":31,"from":"sdaReg43","to":"1093560432","type":"model"},{"step":32,"from":"sdaReg43","to":"sdaReg0","type":"model"},{"step":33,"from":"sdaReg43","to":"sdaReg46","type":"model"},{"step":34,"from":"sdaReg46","to":"1093560432","type":"model"},{"step":35,"from":"sdaReg46","to":"sdaReg0","type":"model"},{"step":36,"from":"sdaReg46","to":"sdaReg43","type":"model"},{"step":37,"from":"sdaReg47","to":"1093298840","type":"store","field":"<java.util.Formatter$FormatSpecifierParser: int startIndex>"},{"step":38,"from":"sdaReg47","to":"1093298840","type":"store","field":"<java.util.Formatter$FormatSpecifierParser: int i>"},{"step":39,"from":"1093426824","to":"sdaReg52","type":"create","field":"<java.util.Formatter$FormatToken: int argIndex>"},{"step":40,"from":"1093426824","to":"sdaReg53","type":"create","field":"<java.util.Formatter$FormatToken: char conversionType>"},{"step":41,"from":"1093426824","to":"sdaReg54","type":"create","field":"<java.util.Formatter$FormatToken: int precision>"},{"step":42,"from":"1093426824","to":"sdaReg55","type":"create","field":"<java.util.Formatter$FormatToken: int width>"},{"step":43,"from":"sdaReg74","to":"1093298840","type":"store","field":"<java.util.Formatter$FormatSpecifierParser: int i>"},{"step":44,"from":"sdaReg75","to":"1093426824","type":"store","field":"<java.util.Formatter$FormatToken: char conversionType>"},{"step":45,"from":"1093353888","to":"1093615720","type":"load","field":"arrayIdx_int:0"},{"step":46,"from":"1093560432","to":"1093426824","type":"create","field":"<java.util.Formatter: java.util.Formatter$FormatToken formatToken>"},{"step":47,"from":"1093615720","to":"1093560432","type":"store","field":"<java.util.Formatter: java.lang.Object arg>"},{"step":48,"from":"1093426824","to":"1093426824.<java.util.Formatter$FormatToken: boolean flagComma>","type":"load","field":"<java.util.Formatter$FormatToken: boolean flagComma>"},{"step":49,"from":"1093426824","to":"1093426824.<java.util.Formatter$FormatToken: boolean flagMinus>","type":"load","field":"<java.util.Formatter$FormatToken: boolean flagMinus>"},{"step":50,"from":"1093426824","to":"1093426824.<java.util.Formatter$FormatToken: boolean flagParenthesis>","type":"load","field":"<java.util.Formatter$FormatToken: boolean flagParenthesis>"},{"step":51,"from":"1093426824","to":"1093426824.<java.util.Formatter$FormatToken: boolean flagPlus>","type":"load","field":"<java.util.Formatter$FormatToken: boolean flagPlus>"},{"step":52,"from":"1093426824","to":"1093426824.<java.util.Formatter$FormatToken: boolean flagSharp>","type":"load","field":"<java.util.Formatter$FormatToken: boolean flagSharp>"},{"step":53,"from":"1093426824","to":"1093426824.<java.util.Formatter$FormatToken: boolean flagSpace>","type":"load","field":"<java.util.Formatter$FormatToken: boolean flagSpace>"},{"step":54,"from":"1093426824","to":"1093426824.<java.util.Formatter$FormatToken: boolean flagZero>","type":"load","field":"<java.util.Formatter$FormatToken: boolean flagZero>"},{"step":55,"from":"1093615720","to":"sdaReg101","type":"model"},{"step":56,"from":"1093560432","to":"1093449856","type":"load","field":"<java.util.Formatter: java.lang.Appendable out>"},{"step":57,"from":"1093615720","to":"1093449856","type":"model"},{"step":58,"from":"1093560432","to":"sdaReg0","type":"model"},{"step":59,"from":"1093560432","to":"sdaReg43","type":"model"},{"step":60,"from":"1093560432","to":"sdaReg46","type":"model"},{"step":61,"from":"sdaReg0","to":"1093560432","type":"model"},{"step":62,"from":"sdaReg0","to":"sdaReg43","type":"model"},{"step":63,"from":"sdaReg0","to":"sdaReg46","type":"model"},{"step":64,"from":"sdaReg43","to":"1093560432","type":"model"},{"step":65,"from":"sdaReg43","to":"sdaReg0","type":"model"},{"step":66,"from":"sdaReg43","to":"sdaReg46","type":"model"},{"step":67,"from":"sdaReg46","to":"1093560432","type":"model"},{"step":68,"from":"sdaReg46","to":"sdaReg0","type":"model"},{"step":69,"from":"sdaReg46","to":"sdaReg43","type":"model"},{"step":70,"from":"1093256352","to":"1093560432","type":"store","field":"<java.util.Formatter: java.util.Locale locale>"}],"parameters":[{"id":"1093560432","name":"this","klass":"java.util.Formatter"},{"id":"1093256352","name":"arg#1","klass":"java.util.Locale"},{"id":"sdaReg0","name":"arg#2","klass":"string"},{"id":"1093353888","name":"arg#3","klass":"java.lang.Object[]"}],"returns":[{"id":"1093560432","name":"return","klass":"java.util.Formatter"}],"colors":{"heapLocToColor":{"sdaReg68":[12],"sdaReg69":[20],"sdaReg64":[19],"sdaReg65":[16],"sdaReg62":[18],"1093615720":[3],"sdaReg63":[12],"sdaReg13":[9],"sdaReg72":[16],"sdaReg14":[10],"sdaReg71":[12],"sdaReg11":[5, 8],"sdaReg70":[21],"sdaReg12":[9],"sdaReg10":[5, 8],"sdaReg19":[10],"sdaReg17":[10],"sdaReg18":[10],"sdaReg15":[10],"sdaReg16":[10],"sdaReg77":[16],"sdaReg78":[16],"1093426824.<java.util.Formatter$FormatToken: boolean flagPlus>":[16],"sdaReg79":[16],"sdaReg73":[12],"1093353888":[3],"sdaReg75":[22],"sdaReg76":[16],"1093256352.<java.util.Locale: java.lang.String variantCode>":[0, 1],"sdaReg81":[16],"sdaReg83":[16],"1093426824.<java.util.Formatter$FormatToken: boolean flagSharp>":[16],"sdaReg107":[12],"sdaReg108":[0, 14, 15],"sdaReg109":[25],"1085760672":[9],"sdaReg103":[24],"sdaReg104":[0],"sdaReg105":[3],"sdaReg87":[0],"sdaReg88":[3],"sdaReg89":[12],"sdaReg94":[16],"1093256352.<java.util.Locale: java.lang.String languageCode>":[0, 1],"sdaReg93":[0],"static.<libcore.icu.LocaleData: java.util.HashMap localeDataCache>":[9],"sdaReg92":[3],"sdaReg102":[3],"sdaReg101":[3, 23],"1085767472":[9],"sdaReg95":[3],"sdaReg96":[16],"sdaReg98":[16],"1093426824.<java.util.Formatter$FormatToken: boolean flagZero>":[16],"1093426824.<java.util.Formatter$FormatToken: boolean flagSpace>":[16],"1093426824.<java.util.Formatter$FormatToken: boolean flagParenthesis>":[16],"1085760768":[9],"1093256352":[0, 1],"sdaReg60":[12],"sdaReg61":[17],"1093426824":[16],"1093426824.<java.util.Formatter$FormatToken: boolean flagComma>":[16],"1093426824.<java.util.Formatter$FormatToken: boolean flagMinus>":[16],"1093560432":[0],"sdaReg59":[16],"sdaReg58":[12],"sdaReg57":[16],"sdaReg56":[16],"1093449856":[0],"sdaReg51":[16],"sdaReg50":[16],"1093560432.<java.util.Formatter: java.util.Locale locale>":[1],"1085767472.<java.util.HashMap$HashMapEntry: int hash>":[9],"sdaReg49":[16],"sdaReg48":[12],"sdaReg45":[14, 15],"sdaReg44":[15],"1093298840":[12],"sdaReg47":[0, 15],"sdaReg46":[0, 14, 15],"sdaReg41":[14],"sdaReg43":[0],"sdaReg42":[0, 15],"1093256352.<java.util.Locale: java.lang.String cachedToStringResult>":[0, 1],"sdaReg39":[3],"sdaReg37":[12],"sdaReg32":[0],"sdaReg31":[3],"sdaReg30":[0],"1093256352.<java.util.Locale: java.lang.String countryCode>":[0, 1],"sdaReg36":[12],"sdaReg35":[13],"sdaReg34":[12],"sdaReg33":[12],"sdaReg8":[6],"sdaReg9":[7],"sdaReg6":[5],"sdaReg7":[5],"sdaReg4":[0, 1],"sdaReg5":[4],"1093480576":[5],"1085803528":[9],"sdaReg27":[9],"sdaReg26":[11],"sdaReg29":[9],"sdaReg28":[9],"1085769600":[9],"sdaReg3":[0, 1],"sdaReg2":[0, 1],"1093560432.<java.util.Formatter: boolean closed>":[0],"sdaReg21":[10],"sdaReg20":[10],"sdaReg0":[0, 2],"sdaReg22":[10],"sdaReg25":[10]},"colorToColor":{"0":[0, 2, 5, 26, 12, 14, 15],"16":[0],"1":[0, 5],"2":[0, 12, 14, 15],"3":[0],"5":[0, 1],"22":[16],"8":[0, 1],"9":[0],"13":[12],"14":[0, 2],"15":[0, 2, 12]},"colorToLabel":{"0":"this","1":"arg#1","2":"arg#2","3":"arg#3","9":"<libcore.icu.LocaleData: java.util.HashMap localeDataCache>","26":"return"}}}

Generated Model
	this->return
	this->arg#2
	this->arg#1
	arg#3->this
	arg#3->return
	arg#3->arg#2
	arg#3->arg#1
	arg#2->this
	arg#2->return
	arg#2->arg#1
	arg#1->this
	arg#1->return
	arg#1->arg#2

