Scanning method <java.util.Formatter$FormatSpecifierParser: void <init>(java.lang.String)>

All seen event types: MethodReturnRecord, MethodCallRecord, StoreInstanceRecord, 
Ignored event types: 

JSON Encoded Analysis Data (for visualization):{"heapEdges":[{"step":0,"from":"sdaReg0","to":"1093550728","type":"store","field":"<java.util.Formatter$FormatSpecifierParser: java.lang.String format>"},{"step":1,"from":"sdaReg2","to":"1093550728","type":"store","field":"<java.util.Formatter$FormatSpecifierParser: int length>"}],"parameters":[{"id":"1093550728","name":"this","klass":"java.util.Formatter$FormatSpecifierParser"},{"id":"sdaReg0","name":"arg#1","klass":"string"}],"returns":[{"id":"1093550728","name":"return","klass":"java.util.Formatter$FormatSpecifierParser"}],"colors":{"heapLocToColor":{"1093550728":[0],"sdaReg2":[2],"sdaReg1":[0],"sdaReg0":[1]},"colorToColor":{"0":[3],"1":[0],"2":[0]},"colorToLabel":{"0":"this","1":"arg#1","3":"return"}}}

Generated Model
	this->return
	arg#1->this
	arg#1->return

