Scanning method <android.os.Bundle: java.util.ArrayList getParcelableArrayList(java.lang.String)>

All seen event types: BinaryOperationRecord, MethodReturnRecord, MethodCallRecord, CastRecord, ArrayLengthRecord, LoadInstanceRecord, MethodStartRecord, LoadArrayRecord, MethodEndRecord, IfRecord, 
Ignored event types: IfRecord, 

JSON Encoded Analysis Data (for visualization):{"heapEdges":[{"step":0,"from":"1093932544","to":"1093939512","type":"load","field":"<android.os.Bundle: java.util.Map mMap>"},{"step":1,"from":"1093939512","to":"1093644776","type":"load","field":"<java.util.HashMap: java.util.HashMap$HashMapEntry[] table>"},{"step":2,"from":"1093644776","to":"1093742288","type":"load","field":"arrayIdx_int:2"},{"step":3,"from":"1093742288","to":"1093516192","type":"load","field":"<java.util.HashMap$HashMapEntry: java.lang.Object key>"},{"step":4,"from":"1093742288","to":"1093696640","type":"load","field":"<java.util.HashMap$HashMapEntry: java.lang.Object value>"}],"parameters":[{"id":"1093932544","name":"this","klass":"android.os.Bundle"},{"id":"sdaReg0","name":"arg#1","klass":"string"}],"returns":[{"id":"1093696640","name":"return","klass":"java.util.ArrayList"}],"colors":{"heapLocToColor":{"sdaReg8":[2],"sdaReg9":[2],"sdaReg6":[2],"1093742288":[0],"sdaReg7":[2],"1093939512":[0],"sdaReg4":[2],"sdaReg5":[2],"1093696640":[0],"sdaReg14":[2],"sdaReg11":[2],"sdaReg10":[2],"sdaReg3":[2],"1093644776":[0],"sdaReg2":[0],"sdaReg1":[0],"1093932544":[0],"sdaReg0":[1],"sdaReg15":[0],"1093516192":[0],"sdaReg16":[0]},"colorToColor":{"0":[3]},"colorToLabel":{"0":"this","1":"arg#1","3":"return"}}}

Generated Model
	this->return

