Scanning method <java.io.PrintStream: void flush()>

All seen event types: MethodReturnRecord, MethodCallRecord, LoadInstanceRecord, IfRecord, 
Ignored event types: IfRecord, 

JSON Encoded Analysis Data (for visualization):{"heapEdges":[{"step":0,"from":"1093645816","to":"1093654656","type":"load","field":"<java.io.FilterOutputStream: java.io.OutputStream out>"},{"step":1,"from":"1093645816","to":"1093654656","type":"load","field":"<java.io.FilterOutputStream: java.io.OutputStream out>"}],"parameters":[{"id":"1093645816","name":"this","klass":"java.io.PrintStream"}],"returns":[{"id":null,"name":"return","klass":null}],"colors":{"heapLocToColor":{"1093645816":[0],"1093645816.<java.io.FilterOutputStream: java.io.OutputStream out>":[0],"1093654656":[0]},"colorToColor":{},"colorToLabel":{"0":"this","1":"return"}}}

Generated Model

