Scanning method <java.net.InetAddress: java.net.InetAddress[] getAllByName(java.lang.String)>

All seen event types: LoadStaticRecord, NewArrayRecord, StoreArrayRecord, MethodReturnRecord, MethodCallRecord, CastRecord, MethodStartRecord, MethodEndRecord, IfRecord, 
Ignored event types: IfRecord, 

JSON Encoded Analysis Data (for visualization):{"heapEdges":[{"step":0,"from":"static.<java.net.Inet6Address: java.net.InetAddress LOOPBACK>","to":"1085716376","type":"load","field":"<java.net.Inet6Address: java.net.InetAddress LOOPBACK>"},{"step":1,"from":"1085716376","to":"1093245384","type":"store","field":"arrayIdx_int:0"},{"step":2,"from":"static.<java.net.Inet4Address: java.net.InetAddress LOOPBACK>","to":"1085715984","type":"load","field":"<java.net.Inet4Address: java.net.InetAddress LOOPBACK>"},{"step":3,"from":"1085715984","to":"1093245384","type":"store","field":"arrayIdx_int:1"},{"step":4,"from":"1093245384","to":"1093245416","type":"model"}],"parameters":[{"id":"sdaReg0","name":"arg#0","klass":"string"}],"returns":[{"id":"1093245416","name":"return","klass":"java.net.InetAddress[]"}],"colors":{"heapLocToColor":{"1093245384":[2],"1085715984":[4],"sdaReg4":[2, 5],"sdaReg5":[2, 5],"1085716376":[3],"static.<java.net.Inet6Address: java.net.InetAddress LOOPBACK>":[3],"sdaReg3":[2],"1093245416":[2, 5],"sdaReg2":[2],"sdaReg1":[1],"static.<java.net.Inet4Address: java.net.InetAddress LOOPBACK>":[4],"sdaReg0":[0]},"colorToColor":{"2":[6],"3":[2],"4":[2],"5":[6]},"colorToLabel":{"0":"arg#0","3":"<java.net.Inet6Address: java.net.InetAddress LOOPBACK>","4":"<java.net.Inet4Address: java.net.InetAddress LOOPBACK>","6":"return"}}}

Generated Model

