Scanning method <java.io.CharArrayWriter: java.io.CharArrayWriter append(java.lang.CharSequence,int,int)>

All seen event types: BinaryOperationRecord, SimpleAssignmentRecord, ExitMonitorRecord, MethodReturnRecord, MethodCallRecord, EnterMonitorRecord, ArrayLengthRecord, LoadInstanceRecord, MethodStartRecord, MethodEndRecord, IfRecord, StoreInstanceRecord, 
Ignored event types: ExitMonitorRecord, EnterMonitorRecord, IfRecord, 

JSON Encoded Analysis Data (for visualization):{"heapEdges":[{"step":0,"from":"1093653512","to":"1093653696","type":"model"},{"step":1,"from":"1093653696","to":"sdaReg3","type":"model"},{"step":2,"from":"1093653592","to":"1093653616","type":"load","field":"<java.io.Writer: java.lang.Object lock>"},{"step":3,"from":"1093653592","to":"1093653592.<java.io.CharArrayWriter: int count>","type":"load","field":"<java.io.CharArrayWriter: int count>"},{"step":4,"from":"1093653592","to":"1093653616","type":"load","field":"<java.io.CharArrayWriter: char[] buf>"},{"step":5,"from":"1093653592","to":"1093653616","type":"load","field":"<java.io.CharArrayWriter: char[] buf>"},{"step":6,"from":"1093653592","to":"1093653592.<java.io.CharArrayWriter: int count>","type":"load","field":"<java.io.CharArrayWriter: int count>"},{"step":7,"from":"sdaReg3","to":"1093653616","type":"model"},{"step":8,"from":"1093653592","to":"1093653592.<java.io.CharArrayWriter: int count>","type":"load","field":"<java.io.CharArrayWriter: int count>"},{"step":9,"from":"sdaReg15","to":"1093653592","type":"store","field":"<java.io.CharArrayWriter: int count>"}],"parameters":[{"id":"1093653592","name":"this","klass":"java.io.CharArrayWriter"},{"id":"1093653512","name":"arg#1","klass":"java.lang.CharSequence"},{"id":"sdaReg0","name":"arg#2","klass":"int"},{"id":"sdaReg1","name":"arg#3","klass":"int"}],"returns":[{"id":"1093653592","name":"return","klass":"java.io.CharArrayWriter"}],"colors":{"heapLocToColor":{"sdaReg8":[7],"sdaReg9":[6, 7],"1093653512":[1],"sdaReg7":[6],"1093653616":[0, 1, 4, 5],"sdaReg4":[6],"1093653592.<java.io.CharArrayWriter: char[] buf>":[0],"sdaReg5":[0],"1093653592.<java.io.CharArrayWriter: int count>":[0],"1093653696":[1, 4],"sdaReg14":[6],"sdaReg11":[0],"sdaReg12":[0, 6],"sdaReg3":[1, 4, 5],"sdaReg2":[1, 4],"1093653592":[0],"sdaReg1":[3],"sdaReg0":[2],"sdaReg15":[0, 6]},"colorToColor":{"0":[0, 8],"6":[0]},"colorToLabel":{"0":"this","1":"arg#1","2":"arg#2","3":"arg#3","8":"return"}}}

Generated Model
	this->return

