Scanning method <java.nio.CharBuffer: java.nio.CharBuffer wrap(java.lang.CharSequence,int,int)>

All seen event types: SimpleAssignmentRecord, MethodReturnRecord, MethodCallRecord, MethodStartRecord, MethodEndRecord, IfRecord, StoreInstanceRecord, NewObjectRecord, 
Ignored event types: IfRecord, 

JSON Encoded Analysis Data (for visualization):{"heapEdges":[{"step":0,"from":"1094927720","to":"sdaReg10","type":"create","field":"<java.nio.Buffer: int mark>"},{"step":1,"from":"1094927720","to":"sdaReg11","type":"create","field":"<java.nio.Buffer: int position>"},{"step":2,"from":"1094927720","to":"sdaReg8","type":"create","field":"<java.nio.Buffer: int _elementSizeShift>"},{"step":3,"from":"sdaReg5","to":"1094927720","type":"store","field":"<java.nio.Buffer: int limit>"},{"step":4,"from":"sdaReg5","to":"1094927720","type":"store","field":"<java.nio.Buffer: int capacity>"},{"step":5,"from":"1095512520","to":"1094927720","type":"store","field":"<java.nio.CharSequenceAdapter: java.lang.CharSequence sequence>"},{"step":6,"from":"sdaReg0","to":"1094927720","type":"store","field":"<java.nio.Buffer: int position>"},{"step":7,"from":"sdaReg1","to":"1094927720","type":"store","field":"<java.nio.Buffer: int limit>"}],"parameters":[{"id":"1095512520","name":"arg#0","klass":"java.lang.CharSequence"},{"id":"sdaReg0","name":"arg#1","klass":"int"},{"id":"sdaReg1","name":"arg#2","klass":"int"}],"returns":[{"id":"1094927720","name":"return","klass":"java.nio.CharBuffer"}],"colors":{"heapLocToColor":{"1094927720":[4],"sdaReg9":[4],"sdaReg6":[4],"sdaReg7":[4],"sdaReg4":[0],"sdaReg5":[5],"sdaReg13":[4],"sdaReg14":[4],"1095512520":[0],"sdaReg12":[4],"sdaReg3":[4],"sdaReg2":[3],"sdaReg1":[2],"sdaReg0":[1],"sdaReg15":[4]},"colorToColor":{"0":[4],"1":[4],"2":[4],"4":[6],"5":[4]},"colorToLabel":{"0":"arg#0","1":"arg#1","2":"arg#2","6":"return"}}}

Generated Model
	arg#2->return
	arg#1->return
	arg#0->return

