Scanning method <android.util.Base64: byte[] decode(byte[],int)>

All seen event types: StoreArrayRecord, SimpleAssignmentRecord, MethodStartRecord, LoadInstanceRecord, IfRecord, NewObjectRecord, StoreInstanceRecord, NewArrayRecord, LoadStaticRecord, BinaryOperationRecord, SwitchRecord, MethodCallRecord, MethodReturnRecord, CastRecord, ArrayLengthRecord, LoadArrayRecord, MethodEndRecord, 
Ignored event types: SwitchRecord, IfRecord, 

JSON Encoded Analysis Data (for visualization):{"heapEdges":[{"step":0,"from":"1097252200","to":"1097252232","type":"create","field":"<android.util.Base64$Coder: byte[] output>"},{"step":1,"from":"static.<android.util.Base64$Decoder: int[] DECODE>","to":"1096049968","type":"load","field":"<android.util.Base64$Decoder: int[] DECODE>"},{"step":2,"from":"1096049968","to":"1097252200","type":"store","field":"<android.util.Base64$Decoder: int[] alphabet>"},{"step":3,"from":"1097252200","to":"sdaReg12","type":"create","field":"<android.util.Base64$Decoder: int state>"},{"step":4,"from":"1097252200","to":"sdaReg13","type":"create","field":"<android.util.Base64$Decoder: int value>"},{"step":5,"from":"1097203672","to":"1097203672.arrayIdx_int:0","type":"load","field":"arrayIdx_int:0"},{"step":6,"from":"1096049968","to":"1096049968.arrayIdx_int:47","type":"load","field":"arrayIdx_int:47"},{"step":7,"from":"1097203672","to":"1097203672.arrayIdx_int:1","type":"load","field":"arrayIdx_int:1"},{"step":8,"from":"1096049968","to":"1096049968.arrayIdx_int:119","type":"load","field":"arrayIdx_int:119"},{"step":9,"from":"1097203672","to":"1097203672.arrayIdx_int:2","type":"load","field":"arrayIdx_int:2"},{"step":10,"from":"1096049968","to":"1096049968.arrayIdx_int:61","type":"load","field":"arrayIdx_int:61"},{"step":11,"from":"1097203672","to":"1097203672.arrayIdx_int:3","type":"load","field":"arrayIdx_int:3"},{"step":12,"from":"1096049968","to":"1096049968.arrayIdx_int:61","type":"load","field":"arrayIdx_int:61"},{"step":13,"from":"1097203672","to":"1097203672.arrayIdx_int:0","type":"load","field":"arrayIdx_int:0"},{"step":14,"from":"1096049968","to":"1096049968.arrayIdx_int:47","type":"load","field":"arrayIdx_int:47"},{"step":15,"from":"1097203672","to":"1097203672.arrayIdx_int:1","type":"load","field":"arrayIdx_int:1"},{"step":16,"from":"1096049968","to":"1096049968.arrayIdx_int:119","type":"load","field":"arrayIdx_int:119"},{"step":17,"from":"1097203672","to":"1097203672.arrayIdx_int:2","type":"load","field":"arrayIdx_int:2"},{"step":18,"from":"1096049968","to":"1096049968.arrayIdx_int:61","type":"load","field":"arrayIdx_int:61"},{"step":19,"from":"sdaReg43","to":"1097252232","type":"store","field":"arrayIdx_int:0"},{"step":20,"from":"1097203672","to":"1097203672.arrayIdx_int:3","type":"load","field":"arrayIdx_int:3"},{"step":21,"from":"1096049968","to":"1096049968.arrayIdx_int:61","type":"load","field":"arrayIdx_int:61"},{"step":22,"from":"sdaReg39","to":"1097252200","type":"store","field":"<android.util.Base64$Decoder: int state>"},{"step":23,"from":"sdaReg21","to":"1097252200","type":"store","field":"<android.util.Base64$Coder: int op>"},{"step":24,"from":"1097252232","to":"1093806328","type":"model"}],"parameters":[{"id":"1097203672","name":"arg#0","klass":"byte[]"},{"id":"sdaReg0","name":"arg#1","klass":"int"}],"returns":[{"id":"1093806328","name":"return","klass":"byte[]"}],"colors":{"heapLocToColor":{"1096049968.arrayIdx_int:47":[4],"1096049968.arrayIdx_int:61":[4],"1097203672.arrayIdx_int:3":[0],"1097203672.arrayIdx_int:2":[0],"1097203672.arrayIdx_int:1":[0],"sdaReg14":[2],"sdaReg38":[0],"sdaReg11":[1],"1093806328":[5],"sdaReg10":[2],"sdaReg32":[4],"sdaReg31":[4],"sdaReg30":[0],"sdaReg36":[4],"sdaReg17":[0],"sdaReg35":[4],"sdaReg34":[0],"sdaReg15":[2],"sdaReg16":[2],"sdaReg8":[2],"sdaReg9":[2],"sdaReg6":[2],"sdaReg7":[3],"1096049968.arrayIdx_int:119":[4],"static.<android.util.Base64$Decoder: int[] DECODE>":[4],"1096049968":[4],"sdaReg27":[4],"sdaReg26":[0],"sdaReg28":[4],"1097203672":[0],"1097203672.arrayIdx_int:0":[0],"sdaReg2":[0],"sdaReg46":[5],"sdaReg0":[1],"sdaReg23":[0],"sdaReg40":[4],"sdaReg43":[4],"1097252232":[3],"sdaReg42":[4],"1097252200":[2],"sdaReg24":[4]},"colorToColor":{"3":[2, 5],"4":[2, 3],"5":[6]},"colorToLabel":{"0":"arg#0","1":"arg#1","4":"<android.util.Base64$Decoder: int[] DECODE>","6":"return"}}}

Generated Model

