Scanning method <android.util.Base64: byte[] decode(byte[],int)>

All seen event types: StoreArrayRecord, SimpleAssignmentRecord, MethodStartRecord, LoadInstanceRecord, IfRecord, NewObjectRecord, StoreInstanceRecord, NewArrayRecord, LoadStaticRecord, BinaryOperationRecord, SwitchRecord, MethodCallRecord, MethodReturnRecord, CastRecord, ArrayLengthRecord, LoadArrayRecord, MethodEndRecord, 
Ignored event types: SwitchRecord, IfRecord, 

JSON Encoded Analysis Data (for visualization):{"heapEdges":[{"step":0,"from":"1094058456","to":"1094058488","type":"create","field":"<android.util.Base64$Coder: byte[] output>"},{"step":1,"from":"static.<android.util.Base64$Decoder: int[] DECODE_WEBSAFE>","to":"1093755832","type":"load","field":"<android.util.Base64$Decoder: int[] DECODE_WEBSAFE>"},{"step":2,"from":"1093755832","to":"1094058456","type":"store","field":"<android.util.Base64$Decoder: int[] alphabet>"},{"step":3,"from":"1094058456","to":"sdaReg12","type":"create","field":"<android.util.Base64$Decoder: int state>"},{"step":4,"from":"1094058456","to":"sdaReg13","type":"create","field":"<android.util.Base64$Decoder: int value>"},{"step":5,"from":"1094040392","to":"1094040392.arrayIdx_int:0","type":"load","field":"arrayIdx_int:0"},{"step":6,"from":"1093755832","to":"1093755832.arrayIdx_int:95","type":"load","field":"arrayIdx_int:95"},{"step":7,"from":"1094040392","to":"1094040392.arrayIdx_int:1","type":"load","field":"arrayIdx_int:1"},{"step":8,"from":"1093755832","to":"1093755832.arrayIdx_int:119","type":"load","field":"arrayIdx_int:119"},{"step":9,"from":"1094040392","to":"1094040392.arrayIdx_int:2","type":"load","field":"arrayIdx_int:2"},{"step":10,"from":"1093755832","to":"1093755832.arrayIdx_int:61","type":"load","field":"arrayIdx_int:61"},{"step":11,"from":"1094040392","to":"1094040392.arrayIdx_int:3","type":"load","field":"arrayIdx_int:3"},{"step":12,"from":"1093755832","to":"1093755832.arrayIdx_int:61","type":"load","field":"arrayIdx_int:61"},{"step":13,"from":"1094040392","to":"1094040392.arrayIdx_int:0","type":"load","field":"arrayIdx_int:0"},{"step":14,"from":"1093755832","to":"1093755832.arrayIdx_int:95","type":"load","field":"arrayIdx_int:95"},{"step":15,"from":"1094040392","to":"1094040392.arrayIdx_int:1","type":"load","field":"arrayIdx_int:1"},{"step":16,"from":"1093755832","to":"1093755832.arrayIdx_int:119","type":"load","field":"arrayIdx_int:119"},{"step":17,"from":"1094040392","to":"1094040392.arrayIdx_int:2","type":"load","field":"arrayIdx_int:2"},{"step":18,"from":"1093755832","to":"1093755832.arrayIdx_int:61","type":"load","field":"arrayIdx_int:61"},{"step":19,"from":"sdaReg43","to":"1094058488","type":"store","field":"arrayIdx_int:0"},{"step":20,"from":"1094040392","to":"1094040392.arrayIdx_int:3","type":"load","field":"arrayIdx_int:3"},{"step":21,"from":"1093755832","to":"1093755832.arrayIdx_int:61","type":"load","field":"arrayIdx_int:61"},{"step":22,"from":"sdaReg39","to":"1094058456","type":"store","field":"<android.util.Base64$Decoder: int state>"},{"step":23,"from":"sdaReg21","to":"1094058456","type":"store","field":"<android.util.Base64$Coder: int op>"},{"step":24,"from":"1094058488","to":"1094098848","type":"model"}],"parameters":[{"id":"1094040392","name":"arg#0","klass":"byte[]"},{"id":"sdaReg0","name":"arg#1","klass":"int"}],"returns":[{"id":"1094098848","name":"return","klass":"byte[]"}],"colors":{"heapLocToColor":{"1094058456":[2],"1093755832.arrayIdx_int:119":[4],"sdaReg14":[2],"sdaReg38":[0],"sdaReg11":[1],"sdaReg10":[2],"1093755832":[4],"1094040392.arrayIdx_int:3":[0],"sdaReg32":[4],"sdaReg31":[4],"1094040392.arrayIdx_int:2":[0],"sdaReg30":[0],"sdaReg36":[4],"sdaReg17":[0],"sdaReg35":[4],"1093755832.arrayIdx_int:95":[4],"sdaReg34":[0],"sdaReg15":[2],"1094040392":[0],"sdaReg16":[2],"1094058488":[3],"sdaReg8":[2],"sdaReg9":[2],"sdaReg6":[2],"1094040392.arrayIdx_int:0":[0],"sdaReg7":[3],"1094040392.arrayIdx_int:1":[0],"sdaReg27":[4],"sdaReg26":[0],"sdaReg28":[4],"sdaReg2":[0],"1093755832.arrayIdx_int:61":[4],"static.<android.util.Base64$Decoder: int[] DECODE_WEBSAFE>":[4],"sdaReg46":[5],"sdaReg0":[1],"sdaReg23":[0],"1094098848":[5],"sdaReg40":[4],"sdaReg43":[4],"sdaReg42":[4],"sdaReg24":[4]},"colorToColor":{"3":[2, 5],"4":[2, 3],"5":[6]},"colorToLabel":{"0":"arg#0","1":"arg#1","4":"<android.util.Base64$Decoder: int[] DECODE_WEBSAFE>","6":"return"}}}

Generated Model

