Scanning method <java.io.ObjectInputStream: char readChar()>

All seen event types: LoadStaticRecord, MethodReturnRecord, MethodCallRecord, CastRecord, MethodStartRecord, LoadInstanceRecord, MethodEndRecord, 
Ignored event types: 

JSON Encoded Analysis Data (for visualization):{"heapEdges":[{"step":0,"from":"1093609264","to":"1093250440","type":"load","field":"<java.io.ObjectInputStream: java.io.DataInputStream primitiveTypes>"},{"step":1,"from":"1093250440","to":"1093609264","type":"load","field":"<java.io.FilterInputStream: java.io.InputStream in>"},{"step":2,"from":"1093250440","to":"1093250464","type":"load","field":"<java.io.DataInputStream: byte[] scratch>"},{"step":3,"from":"1093609264","to":"1093250464","type":"model"},{"step":4,"from":"1093250440","to":"1093250464","type":"load","field":"<java.io.DataInputStream: byte[] scratch>"},{"step":5,"from":"static.<java.nio.ByteOrder: java.nio.ByteOrder BIG_ENDIAN>","to":"1084339448","type":"load","field":"<java.nio.ByteOrder: java.nio.ByteOrder BIG_ENDIAN>"},{"step":6,"from":"1093250464","to":"sdaReg2","type":"model"}],"parameters":[{"id":"1093609264","name":"this","klass":"java.io.ObjectInputStream"}],"returns":[{"id":"sdaReg3","name":"return","klass":"char"}],"colors":{"heapLocToColor":{"1093250440.<java.io.DataInputStream: byte[] scratch>":[0],"1084339448":[1],"1093250464":[0],"sdaReg3":[2],"sdaReg2":[2],"sdaReg1":[0],"1093250440":[0],"sdaReg0":[0],"static.<java.nio.ByteOrder: java.nio.ByteOrder BIG_ENDIAN>":[1],"1093609264":[0],"1093250440.<java.io.FilterInputStream: java.io.InputStream in>":[0]},"colorToColor":{"0":[0, 2],"2":[3]},"colorToLabel":{"0":"this","1":"<java.nio.ByteOrder: java.nio.ByteOrder BIG_ENDIAN>","3":"return"}}}

Generated Model
	this->return

