Scanning method <android.util.Base64: java.lang.String encodeToString(byte[],int)>

All seen event types: StoreArrayRecord, SimpleAssignmentRecord, MethodStartRecord, LoadInstanceRecord, IfRecord, NewObjectRecord, StoreInstanceRecord, LoadStaticRecord, NewArrayRecord, BinaryOperationRecord, MethodCallRecord, MethodReturnRecord, SwitchRecord, ArrayLengthRecord, LoadArrayRecord, MethodEndRecord, 
Ignored event types: SwitchRecord, IfRecord, 

JSON Encoded Analysis Data (for visualization):{"heapEdges":[{"step":0,"from":"1093541224","to":"sdaReg0","type":"model"},{"step":1,"from":"sdaReg0","to":"1093541224","type":"model"},{"step":2,"from":"sdaReg0","to":"1093541224","type":"model"},{"step":3,"from":"1093541224","to":"1093541224.<android.util.Base64$Encoder: boolean do_padding>","type":"load","field":"<android.util.Base64$Encoder: boolean do_padding>"},{"step":4,"from":"1093541224","to":"1093541224.<android.util.Base64$Encoder: boolean do_newline>","type":"load","field":"<android.util.Base64$Encoder: boolean do_newline>"},{"step":5,"from":"1093541224","to":"1093541224.<android.util.Base64$Encoder: boolean do_cr>","type":"load","field":"<android.util.Base64$Encoder: boolean do_cr>"},{"step":6,"from":"1093541224","to":"1093485904","type":"create","field":"<android.util.Base64$Coder: byte[] output>"},{"step":7,"from":"1093541224","to":"1093492104","type":"load","field":"<android.util.Base64$Encoder: byte[] alphabet>"},{"step":8,"from":"1093541224","to":"1093541224.<android.util.Base64$Encoder: int count>","type":"load","field":"<android.util.Base64$Encoder: int count>"},{"step":9,"from":"1093541224","to":"1093541224.<android.util.Base64$Encoder: int tailLen>","type":"load","field":"<android.util.Base64$Encoder: int tailLen>"},{"step":10,"from":"1093935744","to":"1093935744.arrayIdx_int:0","type":"load","field":"arrayIdx_int:0"},{"step":11,"from":"1093935744","to":"1093935744.arrayIdx_int:1","type":"load","field":"arrayIdx_int:1"},{"step":12,"from":"1093935744","to":"1093935744.arrayIdx_int:2","type":"load","field":"arrayIdx_int:2"},{"step":13,"from":"1093492104","to":"1093492104.arrayIdx_int:24","type":"load","field":"arrayIdx_int:24"},{"step":14,"from":"1093492104.arrayIdx_int:24","to":"1093485904","type":"store","field":"arrayIdx_int:0"},{"step":15,"from":"1093492104","to":"1093492104.arrayIdx_int:22","type":"load","field":"arrayIdx_int:22"},{"step":16,"from":"1093492104.arrayIdx_int:22","to":"1093485904","type":"store","field":"arrayIdx_int:1"},{"step":17,"from":"1093492104","to":"1093492104.arrayIdx_int:9","type":"load","field":"arrayIdx_int:9"},{"step":18,"from":"1093492104.arrayIdx_int:9","to":"1093485904","type":"store","field":"arrayIdx_int:2"},{"step":19,"from":"1093492104","to":"1093492104.arrayIdx_int:35","type":"load","field":"arrayIdx_int:35"},{"step":20,"from":"1093492104.arrayIdx_int:35","to":"1093485904","type":"store","field":"arrayIdx_int:3"},{"step":21,"from":"1093935744","to":"1093935744.arrayIdx_int:3","type":"load","field":"arrayIdx_int:3"},{"step":22,"from":"1093935744","to":"1093935744.arrayIdx_int:4","type":"load","field":"arrayIdx_int:4"},{"step":23,"from":"1093935744","to":"1093935744.arrayIdx_int:5","type":"load","field":"arrayIdx_int:5"},{"step":24,"from":"1093492104","to":"1093492104.arrayIdx_int:25","type":"load","field":"arrayIdx_int:25"},{"step":25,"from":"1093492104.arrayIdx_int:25","to":"1093485904","type":"store","field":"arrayIdx_int:4"},{"step":26,"from":"1093492104","to":"1093492104.arrayIdx_int:6","type":"load","field":"arrayIdx_int:6"},{"step":27,"from":"1093492104.arrayIdx_int:6","to":"1093485904","type":"store","field":"arrayIdx_int:5"},{"step":28,"from":"1093492104","to":"1093492104.arrayIdx_int:21","type":"load","field":"arrayIdx_int:21"},{"step":29,"from":"1093492104.arrayIdx_int:21","to":"1093485904","type":"store","field":"arrayIdx_int:6"},{"step":30,"from":"1093492104","to":"1093492104.arrayIdx_int:38","type":"load","field":"arrayIdx_int:38"},{"step":31,"from":"1093492104.arrayIdx_int:38","to":"1093485904","type":"store","field":"arrayIdx_int:7"},{"step":32,"from":"1093935744","to":"1093935744.arrayIdx_int:6","type":"load","field":"arrayIdx_int:6"},{"step":33,"from":"1093935744","to":"1093935744.arrayIdx_int:7","type":"load","field":"arrayIdx_int:7"},{"step":34,"from":"1093935744","to":"1093935744.arrayIdx_int:8","type":"load","field":"arrayIdx_int:8"},{"step":35,"from":"1093492104","to":"1093492104.arrayIdx_int:25","type":"load","field":"arrayIdx_int:25"},{"step":36,"from":"1093492104.arrayIdx_int:25","to":"1093485904","type":"store","field":"arrayIdx_int:8"},{"step":37,"from":"1093492104","to":"1093492104.arrayIdx_int:54","type":"load","field":"arrayIdx_int:54"},{"step":38,"from":"1093492104.arrayIdx_int:54","to":"1093485904","type":"store","field":"arrayIdx_int:9"},{"step":39,"from":"1093492104","to":"1093492104.arrayIdx_int:33","type":"load","field":"arrayIdx_int:33"},{"step":40,"from":"1093492104.arrayIdx_int:33","to":"1093485904","type":"store","field":"arrayIdx_int:10"},{"step":41,"from":"1093492104","to":"1093492104.arrayIdx_int:41","type":"load","field":"arrayIdx_int:41"},{"step":42,"from":"1093492104.arrayIdx_int:41","to":"1093485904","type":"store","field":"arrayIdx_int:11"},{"step":43,"from":"1093935744","to":"1093935744.arrayIdx_int:9","type":"load","field":"arrayIdx_int:9"},{"step":44,"from":"1093935744","to":"1093935744.arrayIdx_int:10","type":"load","field":"arrayIdx_int:10"},{"step":45,"from":"1093935744","to":"1093935744.arrayIdx_int:11","type":"load","field":"arrayIdx_int:11"},{"step":46,"from":"1093492104","to":"1093492104.arrayIdx_int:26","type":"load","field":"arrayIdx_int:26"},{"step":47,"from":"1093492104.arrayIdx_int:26","to":"1093485904","type":"store","field":"arrayIdx_int:12"},{"step":48,"from":"1093492104","to":"1093492104.arrayIdx_int:38","type":"load","field":"arrayIdx_int:38"},{"step":49,"from":"1093492104.arrayIdx_int:38","to":"1093485904","type":"store","field":"arrayIdx_int:13"},{"step":50,"from":"1093492104","to":"1093492104.arrayIdx_int:45","type":"load","field":"arrayIdx_int:45"},{"step":51,"from":"1093492104.arrayIdx_int:45","to":"1093485904","type":"store","field":"arrayIdx_int:14"},{"step":52,"from":"1093492104","to":"1093492104.arrayIdx_int:44","type":"load","field":"arrayIdx_int:44"},{"step":53,"from":"1093492104.arrayIdx_int:44","to":"1093485904","type":"store","field":"arrayIdx_int:15"},{"step":54,"from":"1093935744","to":"1093935744.arrayIdx_int:12","type":"load","field":"arrayIdx_int:12"},{"step":55,"from":"1093935744","to":"1093935744.arrayIdx_int:13","type":"load","field":"arrayIdx_int:13"},{"step":56,"from":"1093935744","to":"1093935744.arrayIdx_int:14","type":"load","field":"arrayIdx_int:14"},{"step":57,"from":"1093492104","to":"1093492104.arrayIdx_int:27","type":"load","field":"arrayIdx_int:27"},{"step":58,"from":"1093492104.arrayIdx_int:27","to":"1093485904","type":"store","field":"arrayIdx_int:16"},{"step":59,"from":"1093492104","to":"1093492104.arrayIdx_int:22","type":"load","field":"arrayIdx_int:22"},{"step":60,"from":"1093492104.arrayIdx_int:22","to":"1093485904","type":"store","field":"arrayIdx_int:17"},{"step":61,"from":"1093492104","to":"1093492104.arrayIdx_int:57","type":"load","field":"arrayIdx_int:57"},{"step":62,"from":"1093492104.arrayIdx_int:57","to":"1093485904","type":"store","field":"arrayIdx_int:18"},{"step":63,"from":"1093492104","to":"1093492104.arrayIdx_int:47","type":"load","field":"arrayIdx_int:47"},{"step":64,"from":"1093492104.arrayIdx_int:47","to":"1093485904","type":"store","field":"arrayIdx_int:19"},{"step":65,"from":"1093935744","to":"1093935744.arrayIdx_int:15","type":"load","field":"arrayIdx_int:15"},{"step":66,"from":"1093935744","to":"1093935744.arrayIdx_int:16","type":"load","field":"arrayIdx_int:16"},{"step":67,"from":"1093935744","to":"1093935744.arrayIdx_int:17","type":"load","field":"arrayIdx_int:17"},{"step":68,"from":"1093492104","to":"1093492104.arrayIdx_int:28","type":"load","field":"arrayIdx_int:28"},{"step":69,"from":"1093492104.arrayIdx_int:28","to":"1093485904","type":"store","field":"arrayIdx_int:20"},{"step":70,"from":"1093492104","to":"1093492104.arrayIdx_int:7","type":"load","field":"arrayIdx_int:7"},{"step":71,"from":"1093492104.arrayIdx_int:7","to":"1093485904","type":"store","field":"arrayIdx_int:21"},{"step":72,"from":"1093492104","to":"1093492104.arrayIdx_int:5","type":"load","field":"arrayIdx_int:5"},{"step":73,"from":"1093492104.arrayIdx_int:5","to":"1093485904","type":"store","field":"arrayIdx_int:22"},{"step":74,"from":"1093492104","to":"1093492104.arrayIdx_int:50","type":"load","field":"arrayIdx_int:50"},{"step":75,"from":"1093492104.arrayIdx_int:50","to":"1093485904","type":"store","field":"arrayIdx_int:23"},{"step":76,"from":"1093935744","to":"1093935744.arrayIdx_int:18","type":"load","field":"arrayIdx_int:18"},{"step":77,"from":"1093935744","to":"1093935744.arrayIdx_int:19","type":"load","field":"arrayIdx_int:19"},{"step":78,"from":"1093935744","to":"1093935744.arrayIdx_int:20","type":"load","field":"arrayIdx_int:20"},{"step":79,"from":"1093492104","to":"1093492104.arrayIdx_int:28","type":"load","field":"arrayIdx_int:28"},{"step":80,"from":"1093492104.arrayIdx_int:28","to":"1093485904","type":"store","field":"arrayIdx_int:24"},{"step":81,"from":"1093492104","to":"1093492104.arrayIdx_int:55","type":"load","field":"arrayIdx_int:55"},{"step":82,"from":"1093492104.arrayIdx_int:55","to":"1093485904","type":"store","field":"arrayIdx_int:25"},{"step":83,"from":"1093492104","to":"1093492104.arrayIdx_int:17","type":"load","field":"arrayIdx_int:17"},{"step":84,"from":"1093492104.arrayIdx_int:17","to":"1093485904","type":"store","field":"arrayIdx_int:26"},{"step":85,"from":"1093492104","to":"1093492104.arrayIdx_int:53","type":"load","field":"arrayIdx_int:53"},{"step":86,"from":"1093492104.arrayIdx_int:53","to":"1093485904","type":"store","field":"arrayIdx_int:27"},{"step":87,"from":"1093935744","to":"1093935744.arrayIdx_int:21","type":"load","field":"arrayIdx_int:21"},{"step":88,"from":"1093935744","to":"1093935744.arrayIdx_int:22","type":"load","field":"arrayIdx_int:22"},{"step":89,"from":"1093935744","to":"1093935744.arrayIdx_int:23","type":"load","field":"arrayIdx_int:23"},{"step":90,"from":"1093492104","to":"1093492104.arrayIdx_int:29","type":"load","field":"arrayIdx_int:29"},{"step":91,"from":"1093492104.arrayIdx_int:29","to":"1093485904","type":"store","field":"arrayIdx_int:28"},{"step":92,"from":"1093492104","to":"1093492104.arrayIdx_int:39","type":"load","field":"arrayIdx_int:39"},{"step":93,"from":"1093492104.arrayIdx_int:39","to":"1093485904","type":"store","field":"arrayIdx_int:29"},{"step":94,"from":"1093492104","to":"1093492104.arrayIdx_int:29","type":"load","field":"arrayIdx_int:29"},{"step":95,"from":"1093492104.arrayIdx_int:29","to":"1093485904","type":"store","field":"arrayIdx_int:30"},{"step":96,"from":"1093492104","to":"1093492104.arrayIdx_int:56","type":"load","field":"arrayIdx_int:56"},{"step":97,"from":"1093492104.arrayIdx_int:56","to":"1093485904","type":"store","field":"arrayIdx_int:31"},{"step":98,"from":"1093935744","to":"1093935744.arrayIdx_int:24","type":"load","field":"arrayIdx_int:24"},{"step":99,"from":"1093935744","to":"1093935744.arrayIdx_int:25","type":"load","field":"arrayIdx_int:25"},{"step":100,"from":"1093935744","to":"1093935744.arrayIdx_int:26","type":"load","field":"arrayIdx_int:26"},{"step":101,"from":"1093492104","to":"1093492104.arrayIdx_int:30","type":"load","field":"arrayIdx_int:30"},{"step":102,"from":"1093492104.arrayIdx_int:30","to":"1093485904","type":"store","field":"arrayIdx_int:32"},{"step":103,"from":"1093492104","to":"1093492104.arrayIdx_int:23","type":"load","field":"arrayIdx_int:23"},{"step":104,"from":"1093492104.arrayIdx_int:23","to":"1093485904","type":"store","field":"arrayIdx_int:33"},{"step":105,"from":"1093492104","to":"1093492104.arrayIdx_int:41","type":"load","field":"arrayIdx_int:41"},{"step":106,"from":"1093492104.arrayIdx_int:41","to":"1093485904","type":"store","field":"arrayIdx_int:34"},{"step":107,"from":"1093492104","to":"1093492104.arrayIdx_int:33","type":"load","field":"arrayIdx_int:33"},{"step":108,"from":"1093492104.arrayIdx_int:33","to":"1093485904","type":"store","field":"arrayIdx_int:35"},{"step":109,"from":"1093935744","to":"1093935744.arrayIdx_int:27","type":"load","field":"arrayIdx_int:27"},{"step":110,"from":"1093935744","to":"1093935744.arrayIdx_int:28","type":"load","field":"arrayIdx_int:28"},{"step":111,"from":"1093935744","to":"1093935744.arrayIdx_int:29","type":"load","field":"arrayIdx_int:29"},{"step":112,"from":"1093492104","to":"1093492104.arrayIdx_int:24","type":"load","field":"arrayIdx_int:24"},{"step":113,"from":"1093492104.arrayIdx_int:24","to":"1093485904","type":"store","field":"arrayIdx_int:36"},{"step":114,"from":"1093492104","to":"1093492104.arrayIdx_int:38","type":"load","field":"arrayIdx_int:38"},{"step":115,"from":"1093492104.arrayIdx_int:38","to":"1093485904","type":"store","field":"arrayIdx_int:37"},{"step":116,"from":"1093492104","to":"1093492104.arrayIdx_int:13","type":"load","field":"arrayIdx_int:13"},{"step":117,"from":"1093492104.arrayIdx_int:13","to":"1093485904","type":"store","field":"arrayIdx_int:38"},{"step":118,"from":"1093492104","to":"1093492104.arrayIdx_int:36","type":"load","field":"arrayIdx_int:36"},{"step":119,"from":"1093492104.arrayIdx_int:36","to":"1093485904","type":"store","field":"arrayIdx_int:39"},{"step":120,"from":"1093935744","to":"1093935744.arrayIdx_int:30","type":"load","field":"arrayIdx_int:30"},{"step":121,"from":"1093935744","to":"1093935744.arrayIdx_int:31","type":"load","field":"arrayIdx_int:31"},{"step":122,"from":"1093935744","to":"1093935744.arrayIdx_int:32","type":"load","field":"arrayIdx_int:32"},{"step":123,"from":"1093492104","to":"1093492104.arrayIdx_int:25","type":"load","field":"arrayIdx_int:25"},{"step":124,"from":"1093492104.arrayIdx_int:25","to":"1093485904","type":"store","field":"arrayIdx_int:40"},{"step":125,"from":"1093492104","to":"1093492104.arrayIdx_int:22","type":"load","field":"arrayIdx_int:22"},{"step":126,"from":"1093492104.arrayIdx_int:22","to":"1093485904","type":"store","field":"arrayIdx_int:41"},{"step":127,"from":"1093492104","to":"1093492104.arrayIdx_int:25","type":"load","field":"arrayIdx_int:25"},{"step":128,"from":"1093492104.arrayIdx_int:25","to":"1093485904","type":"store","field":"arrayIdx_int:42"},{"step":129,"from":"1093492104","to":"1093492104.arrayIdx_int:39","type":"load","field":"arrayIdx_int:39"},{"step":130,"from":"1093492104.arrayIdx_int:39","to":"1093485904","type":"store","field":"arrayIdx_int:43"},{"step":131,"from":"1093935744","to":"1093935744.arrayIdx_int:33","type":"load","field":"arrayIdx_int:33"},{"step":132,"from":"1093935744","to":"1093935744.arrayIdx_int:34","type":"load","field":"arrayIdx_int:34"},{"step":133,"from":"1093935744","to":"1093935744.arrayIdx_int:35","type":"load","field":"arrayIdx_int:35"},{"step":134,"from":"1093492104","to":"1093492104.arrayIdx_int:26","type":"load","field":"arrayIdx_int:26"},{"step":135,"from":"1093492104.arrayIdx_int:26","to":"1093485904","type":"store","field":"arrayIdx_int:44"},{"step":136,"from":"1093492104","to":"1093492104.arrayIdx_int:6","type":"load","field":"arrayIdx_int:6"},{"step":137,"from":"1093492104.arrayIdx_int:6","to":"1093485904","type":"store","field":"arrayIdx_int:45"},{"step":138,"from":"1093492104","to":"1093492104.arrayIdx_int:37","type":"load","field":"arrayIdx_int:37"},{"step":139,"from":"1093492104.arrayIdx_int:37","to":"1093485904","type":"store","field":"arrayIdx_int:46"},{"step":140,"from":"1093492104","to":"1093492104.arrayIdx_int:42","type":"load","field":"arrayIdx_int:42"},{"step":141,"from":"1093492104.arrayIdx_int:42","to":"1093485904","type":"store","field":"arrayIdx_int:47"},{"step":142,"from":"1093935744","to":"1093935744.arrayIdx_int:36","type":"load","field":"arrayIdx_int:36"},{"step":143,"from":"1093935744","to":"1093935744.arrayIdx_int:37","type":"load","field":"arrayIdx_int:37"},{"step":144,"from":"1093935744","to":"1093935744.arrayIdx_int:38","type":"load","field":"arrayIdx_int:38"},{"step":145,"from":"1093492104","to":"1093492104.arrayIdx_int:26","type":"load","field":"arrayIdx_int:26"},{"step":146,"from":"1093492104.arrayIdx_int:26","to":"1093485904","type":"store","field":"arrayIdx_int:48"},{"step":147,"from":"1093492104","to":"1093492104.arrayIdx_int:54","type":"load","field":"arrayIdx_int:54"},{"step":148,"from":"1093492104.arrayIdx_int:54","to":"1093485904","type":"store","field":"arrayIdx_int:49"},{"step":149,"from":"1093492104","to":"1093492104.arrayIdx_int:49","type":"load","field":"arrayIdx_int:49"},{"step":150,"from":"1093492104.arrayIdx_int:49","to":"1093485904","type":"store","field":"arrayIdx_int:50"},{"step":151,"from":"1093492104","to":"1093492104.arrayIdx_int:45","type":"load","field":"arrayIdx_int:45"},{"step":152,"from":"1093492104.arrayIdx_int:45","to":"1093485904","type":"store","field":"arrayIdx_int:51"},{"step":153,"from":"1093935744","to":"1093935744.arrayIdx_int:39","type":"load","field":"arrayIdx_int:39"},{"step":154,"from":"1093935744","to":"1093935744.arrayIdx_int:40","type":"load","field":"arrayIdx_int:40"},{"step":155,"from":"1093935744","to":"1093935744.arrayIdx_int:41","type":"load","field":"arrayIdx_int:41"},{"step":156,"from":"1093492104","to":"1093492104.arrayIdx_int:27","type":"load","field":"arrayIdx_int:27"},{"step":157,"from":"1093492104.arrayIdx_int:27","to":"1093485904","type":"store","field":"arrayIdx_int:52"},{"step":158,"from":"1093492104","to":"1093492104.arrayIdx_int:38","type":"load","field":"arrayIdx_int:38"},{"step":159,"from":"1093492104.arrayIdx_int:38","to":"1093485904","type":"store","field":"arrayIdx_int:53"},{"step":160,"from":"1093492104","to":"1093492104.arrayIdx_int:61","type":"load","field":"arrayIdx_int:61"},{"step":161,"from":"1093492104.arrayIdx_int:61","to":"1093485904","type":"store","field":"arrayIdx_int:54"},{"step":162,"from":"1093492104","to":"1093492104.arrayIdx_int:48","type":"load","field":"arrayIdx_int:48"},{"step":163,"from":"1093492104.arrayIdx_int:48","to":"1093485904","type":"store","field":"arrayIdx_int:55"},{"step":164,"from":"1093935744","to":"1093935744.arrayIdx_int:42","type":"load","field":"arrayIdx_int:42"},{"step":165,"from":"1093935744","to":"1093935744.arrayIdx_int:43","type":"load","field":"arrayIdx_int:43"},{"step":166,"from":"1093935744","to":"1093935744.arrayIdx_int:44","type":"load","field":"arrayIdx_int:44"},{"step":167,"from":"1093492104","to":"1093492104.arrayIdx_int:28","type":"load","field":"arrayIdx_int:28"},{"step":168,"from":"1093492104.arrayIdx_int:28","to":"1093485904","type":"store","field":"arrayIdx_int:56"},{"step":169,"from":"1093492104","to":"1093492104.arrayIdx_int:23","type":"load","field":"arrayIdx_int:23"},{"step":170,"from":"1093492104.arrayIdx_int:23","to":"1093485904","type":"store","field":"arrayIdx_int:57"},{"step":171,"from":"1093492104","to":"1093492104.arrayIdx_int:9","type":"load","field":"arrayIdx_int:9"},{"step":172,"from":"1093492104.arrayIdx_int:9","to":"1093485904","type":"store","field":"arrayIdx_int:58"},{"step":173,"from":"1093492104","to":"1093492104.arrayIdx_int:51","type":"load","field":"arrayIdx_int:51"},{"step":174,"from":"1093492104.arrayIdx_int:51","to":"1093485904","type":"store","field":"arrayIdx_int:59"},{"step":175,"from":"1093935744","to":"1093935744.arrayIdx_int:45","type":"load","field":"arrayIdx_int:45"},{"step":176,"from":"1093935744","to":"1093935744.arrayIdx_int:46","type":"load","field":"arrayIdx_int:46"},{"step":177,"from":"1093935744","to":"1093935744.arrayIdx_int:47","type":"load","field":"arrayIdx_int:47"},{"step":178,"from":"1093492104","to":"1093492104.arrayIdx_int:29","type":"load","field":"arrayIdx_int:29"},{"step":179,"from":"1093492104.arrayIdx_int:29","to":"1093485904","type":"store","field":"arrayIdx_int:60"},{"step":180,"from":"1093492104","to":"1093492104.arrayIdx_int:7","type":"load","field":"arrayIdx_int:7"},{"step":181,"from":"1093492104.arrayIdx_int:7","to":"1093485904","type":"store","field":"arrayIdx_int:61"},{"step":182,"from":"1093492104","to":"1093492104.arrayIdx_int:21","type":"load","field":"arrayIdx_int:21"},{"step":183,"from":"1093492104.arrayIdx_int:21","to":"1093485904","type":"store","field":"arrayIdx_int:62"},{"step":184,"from":"1093492104","to":"1093492104.arrayIdx_int:54","type":"load","field":"arrayIdx_int:54"},{"step":185,"from":"1093492104.arrayIdx_int:54","to":"1093485904","type":"store","field":"arrayIdx_int:63"},{"step":186,"from":"1093935744","to":"1093935744.arrayIdx_int:48","type":"load","field":"arrayIdx_int:48"},{"step":187,"from":"1093935744","to":"1093935744.arrayIdx_int:49","type":"load","field":"arrayIdx_int:49"},{"step":188,"from":"1093935744","to":"1093935744.arrayIdx_int:50","type":"load","field":"arrayIdx_int:50"},{"step":189,"from":"1093492104","to":"1093492104.arrayIdx_int:29","type":"load","field":"arrayIdx_int:29"},{"step":190,"from":"1093492104.arrayIdx_int:29","to":"1093485904","type":"store","field":"arrayIdx_int:64"},{"step":191,"from":"1093492104","to":"1093492104.arrayIdx_int:55","type":"load","field":"arrayIdx_int:55"},{"step":192,"from":"1093492104.arrayIdx_int:55","to":"1093485904","type":"store","field":"arrayIdx_int:65"},{"step":193,"from":"1093492104","to":"1093492104.arrayIdx_int:33","type":"load","field":"arrayIdx_int:33"},{"step":194,"from":"1093492104.arrayIdx_int:33","to":"1093485904","type":"store","field":"arrayIdx_int:66"},{"step":195,"from":"1093492104","to":"1093492104.arrayIdx_int:57","type":"load","field":"arrayIdx_int:57"},{"step":196,"from":"1093492104.arrayIdx_int:57","to":"1093485904","type":"store","field":"arrayIdx_int:67"},{"step":197,"from":"1093935744","to":"1093935744.arrayIdx_int:51","type":"load","field":"arrayIdx_int:51"},{"step":198,"from":"1093935744","to":"1093935744.arrayIdx_int:52","type":"load","field":"arrayIdx_int:52"},{"step":199,"from":"1093935744","to":"1093935744.arrayIdx_int:53","type":"load","field":"arrayIdx_int:53"},{"step":200,"from":"1093492104","to":"1093492104.arrayIdx_int:30","type":"load","field":"arrayIdx_int:30"},{"step":201,"from":"1093492104.arrayIdx_int:30","to":"1093485904","type":"store","field":"arrayIdx_int:68"},{"step":202,"from":"1093492104","to":"1093492104.arrayIdx_int:38","type":"load","field":"arrayIdx_int:38"},{"step":203,"from":"1093492104.arrayIdx_int:38","to":"1093485904","type":"store","field":"arrayIdx_int:69"},{"step":204,"from":"1093492104","to":"1093492104.arrayIdx_int:5","type":"load","field":"arrayIdx_int:5"},{"step":205,"from":"1093492104.arrayIdx_int:5","to":"1093485904","type":"store","field":"arrayIdx_int:70"},{"step":206,"from":"1093492104","to":"1093492104.arrayIdx_int:34","type":"load","field":"arrayIdx_int:34"},{"step":207,"from":"1093492104.arrayIdx_int:34","to":"1093485904","type":"store","field":"arrayIdx_int:71"},{"step":208,"from":"1093935744","to":"1093935744.arrayIdx_int:54","type":"load","field":"arrayIdx_int:54"},{"step":209,"from":"1093935744","to":"1093935744.arrayIdx_int:55","type":"load","field":"arrayIdx_int:55"},{"step":210,"from":"1093935744","to":"1093935744.arrayIdx_int:56","type":"load","field":"arrayIdx_int:56"},{"step":211,"from":"1093492104","to":"1093492104.arrayIdx_int:24","type":"load","field":"arrayIdx_int:24"},{"step":212,"from":"1093492104.arrayIdx_int:24","to":"1093485904","type":"store","field":"arrayIdx_int:72"},{"step":213,"from":"1093492104","to":"1093492104.arrayIdx_int:54","type":"load","field":"arrayIdx_int:54"},{"step":214,"from":"1093492104.arrayIdx_int:54","to":"1093485904","type":"store","field":"arrayIdx_int:73"},{"step":215,"from":"1093492104","to":"1093492104.arrayIdx_int:17","type":"load","field":"arrayIdx_int:17"},{"step":216,"from":"1093492104.arrayIdx_int:17","to":"1093485904","type":"store","field":"arrayIdx_int:74"},{"step":217,"from":"1093492104","to":"1093492104.arrayIdx_int:37","type":"load","field":"arrayIdx_int:37"},{"step":218,"from":"1093492104.arrayIdx_int:37","to":"1093485904","type":"store","field":"arrayIdx_int:75"},{"step":219,"from":"1093541224","to":"1093541224.<android.util.Base64$Encoder: boolean do_cr>","type":"load","field":"<android.util.Base64$Encoder: boolean do_cr>"},{"step":220,"from":"1093485904","to":"sdaReg44","type":"create","field":"arrayIdx_int:76"},{"step":221,"from":"1093541224","to":"1093541224.<android.util.Base64$Encoder: int tailLen>","type":"load","field":"<android.util.Base64$Encoder: int tailLen>"},{"step":222,"from":"1093541224","to":"1093541224.<android.util.Base64$Encoder: int tailLen>","type":"load","field":"<android.util.Base64$Encoder: int tailLen>"},{"step":223,"from":"1093541224","to":"1093541224.<android.util.Base64$Encoder: boolean do_newline>","type":"load","field":"<android.util.Base64$Encoder: boolean do_newline>"},{"step":224,"from":"static.<android.util.Base64$Encoder: boolean $assertionsDisabled>","to":"static.<android.util.Base64$Encoder: boolean $assertionsDisabled>","type":"load","field":"<android.util.Base64$Encoder: boolean $assertionsDisabled>"},{"step":225,"from":"static.<android.util.Base64$Encoder: boolean $assertionsDisabled>","to":"static.<android.util.Base64$Encoder: boolean $assertionsDisabled>","type":"load","field":"<android.util.Base64$Encoder: boolean $assertionsDisabled>"},{"step":226,"from":"sdaReg19","to":"1093541224","type":"store","field":"<android.util.Base64$Coder: int op>"},{"step":227,"from":"1093541224.<android.util.Base64$Encoder: int count>","to":"1093541224","type":"store","field":"<android.util.Base64$Encoder: int count>"},{"step":228,"from":"static.<android.util.Base64: boolean $assertionsDisabled>","to":"static.<android.util.Base64: boolean $assertionsDisabled>","type":"load","field":"<android.util.Base64: boolean $assertionsDisabled>"},{"step":229,"from":"1093485904","to":"sdaReg52","type":"model"}],"parameters":[{"id":"1093935744","name":"arg#0","klass":"byte[]"},{"id":"sdaReg0","name":"arg#1","klass":"int"}],"returns":[{"id":"sdaReg52","name":"return","klass":"string"}],"colors":{"heapLocToColor":{"1093541224.<android.util.Base64$Encoder: boolean do_cr>":[2],"1093492104.arrayIdx_int:61":[2],"sdaReg17":[0],"sdaReg16":[2],"1093492104.arrayIdx_int:57":[2],"1093492104.arrayIdx_int:56":[2],"1093492104.arrayIdx_int:55":[2],"1093492104.arrayIdx_int:54":[2],"1093935744.arrayIdx_int:53":[0],"1093492104.arrayIdx_int:53":[2],"1093935744.arrayIdx_int:52":[0],"1093935744.arrayIdx_int:51":[0],"1093492104.arrayIdx_int:51":[2],"1093935744.arrayIdx_int:50":[0],"1093492104.arrayIdx_int:50":[2],"1093935744.arrayIdx_int:56":[0],"1093935744.arrayIdx_int:55":[0],"1093935744.arrayIdx_int:54":[0],"1093541224.<android.util.Base64$Encoder: boolean do_newline>":[2],"1093492104.arrayIdx_int:44":[2],"1093492104.arrayIdx_int:45":[2],"1093492104.arrayIdx_int:48":[2],"1093492104.arrayIdx_int:47":[2],"1093492104.arrayIdx_int:49":[2],"1093492104.arrayIdx_int:42":[2],"1093492104.arrayIdx_int:41":[2],"1093935744.arrayIdx_int:2":[0],"1093935744.arrayIdx_int:1":[0],"1093935744.arrayIdx_int:4":[0],"1093935744.arrayIdx_int:3":[0],"1093935744.arrayIdx_int:0":[0],"1093935744.arrayIdx_int:9":[0],"1093935744.arrayIdx_int:6":[0],"1093935744.arrayIdx_int:5":[0],"1093935744.arrayIdx_int:8":[0],"1093935744.arrayIdx_int:7":[0],"1093492104.arrayIdx_int:35":[2],"1093492104.arrayIdx_int:34":[2],"1093492104.arrayIdx_int:33":[2],"1093492104.arrayIdx_int:39":[2],"1093492104.arrayIdx_int:38":[2],"1093492104.arrayIdx_int:37":[2],"1093492104.arrayIdx_int:36":[2],"1093541224":[2],"1093492104.arrayIdx_int:30":[2],"1093935744":[0],"1093492104.arrayIdx_int:29":[2],"1093935744.arrayIdx_int:20":[0],"1093935744.arrayIdx_int:21":[0],"1093935744.arrayIdx_int:22":[0],"1093935744.arrayIdx_int:23":[0],"1093935744.arrayIdx_int:24":[0],"1093935744.arrayIdx_int:26":[0],"1093935744.arrayIdx_int:25":[0],"1093935744.arrayIdx_int:28":[0],"1093935744.arrayIdx_int:27":[0],"static.<android.util.Base64: boolean $assertionsDisabled>":[5],"1093541224.<android.util.Base64$Encoder: int tailLen>":[2],"1093935744.arrayIdx_int:29":[0],"sdaReg52":[6],"sdaReg51":[3],"static.<android.util.Base64$Encoder: boolean $assertionsDisabled>":[4],"sdaReg50":[3],"1093935744.arrayIdx_int:12":[0],"1093935744.arrayIdx_int:13":[0],"1093935744.arrayIdx_int:10":[0],"1093935744.arrayIdx_int:11":[0],"1093541224.<android.util.Base64$Encoder: int count>":[2],"1093485904":[3],"sdaReg45":[2],"1093935744.arrayIdx_int:17":[0],"1093935744.arrayIdx_int:16":[0],"sdaReg47":[2],"1093935744.arrayIdx_int:15":[0],"1093935744.arrayIdx_int:14":[0],"sdaReg40":[0],"1093935744.arrayIdx_int:19":[0],"sdaReg42":[0],"1093935744.arrayIdx_int:18":[0],"1093935744.arrayIdx_int:43":[0],"1093935744.arrayIdx_int:44":[0],"1093935744.arrayIdx_int:45":[0],"1093935744.arrayIdx_int:46":[0],"1093935744.arrayIdx_int:40":[0],"1093935744.arrayIdx_int:41":[0],"1093935744.arrayIdx_int:42":[0],"1093492104":[2],"sdaReg39":[0],"sdaReg37":[0],"1093492104.arrayIdx_int:13":[2],"1093492104.arrayIdx_int:7":[2],"1093492104.arrayIdx_int:6":[2],"1093492104.arrayIdx_int:5":[2],"1093492104.arrayIdx_int:17":[2],"sdaReg32":[0],"sdaReg31":[0],"1093935744.arrayIdx_int:48":[0],"sdaReg36":[0],"1093935744.arrayIdx_int:47":[0],"sdaReg34":[0],"1093935744.arrayIdx_int:49":[0],"sdaReg33":[0],"1093541224.<android.util.Base64$Encoder: boolean do_padding>":[2],"1093935744.arrayIdx_int:34":[0],"1093935744.arrayIdx_int:35":[0],"1093935744.arrayIdx_int:32":[0],"1093935744.arrayIdx_int:33":[0],"sdaReg6":[2],"1093935744.arrayIdx_int:30":[0],"1093935744.arrayIdx_int:31":[0],"sdaReg5":[2],"1093492104.arrayIdx_int:9":[2],"sdaReg27":[0],"1093492104.arrayIdx_int:23":[2],"1093492104.arrayIdx_int:24":[2],"1093492104.arrayIdx_int:21":[2],"sdaReg29":[0],"1093492104.arrayIdx_int:22":[2],"sdaReg28":[0],"1093492104.arrayIdx_int:27":[2],"1093492104.arrayIdx_int:28":[2],"1093492104.arrayIdx_int:25":[2],"1093492104.arrayIdx_int:26":[2],"sdaReg3":[0],"sdaReg1":[0],"sdaReg0":[1, 2],"1093935744.arrayIdx_int:39":[0],"1093935744.arrayIdx_int:38":[0],"1093935744.arrayIdx_int:37":[0],"sdaReg25":[0],"1093935744.arrayIdx_int:36":[0],"sdaReg24":[0]},"colorToColor":{"1":[2],"2":[2, 3],"3":[2, 6],"6":[7]},"colorToLabel":{"0":"arg#0","1":"arg#1","4":"<android.util.Base64$Encoder: boolean $assertionsDisabled>","5":"<android.util.Base64: boolean $assertionsDisabled>","7":"return"}}}

Generated Model
	arg#1->return

