Scanning method <java.util.HashMap$HashIterator: boolean hasNext()>

All seen event types: SimpleAssignmentRecord, LoadInstanceRecord, IfRecord, 
Ignored event types: IfRecord, 

JSON Encoded Analysis Data (for visualization):{"heapEdges":[{"step":0,"from":"1093563880","to":"1093534608","type":"load","field":"<java.util.HashMap$HashIterator: java.util.HashMap$HashMapEntry nextEntry>"}],"parameters":[{"id":"1093563880","name":"this","klass":"java.util.HashMap$HashIterator"}],"returns":[{"id":"sdaReg0","name":"return","klass":"boolean"}],"colors":{"heapLocToColor":{"1093563880":[0],"1093534608":[0]},"colorToColor":{},"colorToLabel":{"0":"this","1":"return"}}}

Generated Model

