Scanning method <java.util.TreeMap: java.util.Set keySet()>

All seen event types: SimpleAssignmentRecord, MethodReturnRecord, MethodCallRecord, MethodStartRecord, LoadInstanceRecord, MethodEndRecord, IfRecord, StoreInstanceRecord, NewObjectRecord, 
Ignored event types: IfRecord, 

JSON Encoded Analysis Data (for visualization):{"heapEdges":[{"step":0,"from":"1093555848","to":"1093827928","type":"store","field":"<java.util.TreeMap$KeySet: java.util.TreeMap this$0>"},{"step":1,"from":"1093555848","to":"1093827928","type":"create","field":"<java.util.TreeMap: java.util.TreeMap$KeySet keySet>"}],"parameters":[{"id":"1093555848","name":"this","klass":"java.util.TreeMap"}],"returns":[{"id":"1093827928","name":"return","klass":"java.util.Set"}],"colors":{"heapLocToColor":{"1093827928":[1],"sdaReg8":[1],"1093555848":[0],"sdaReg6":[1],"sdaReg7":[1],"sdaReg4":[1],"sdaReg5":[1],"sdaReg3":[1],"sdaReg2":[1],"sdaReg1":[0],"sdaReg0":[1]},"colorToColor":{"0":[1],"1":[0, 2]},"colorToLabel":{"0":"this","2":"return"}}}

Generated Model
	this->return

