Scanning method <java.util.TreeMap: java.lang.Object putInternal(java.lang.Object,java.lang.Object)>

All seen event types: SimpleAssignmentRecord, MethodStartRecord, LoadInstanceRecord, IfRecord, NewObjectRecord, StoreInstanceRecord, LoadStaticRecord, BinaryOperationRecord, MethodCallRecord, MethodReturnRecord, SwitchRecord, CastRecord, LoadArrayRecord, MethodEndRecord, 
Ignored event types: SwitchRecord, IfRecord, 

JSON Encoded Analysis Data (for visualization):{"heapEdges":[{"step":0,"from":"static.<java.util.TreeMap$Relation: java.util.TreeMap$Relation CREATE>","to":"1085707192","type":"load","field":"<java.util.TreeMap$Relation: java.util.TreeMap$Relation CREATE>"},{"step":1,"from":"1093233072","to":"1095430504","type":"load","field":"<java.util.TreeMap: java.util.TreeMap$Node root>"},{"step":2,"from":"1093233072","to":"1083970648","type":"load","field":"<java.util.TreeMap: java.util.Comparator comparator>"},{"step":3,"from":"static.<java.util.TreeMap: java.util.Comparator NATURAL_ORDER>","to":"1083970648","type":"load","field":"<java.util.TreeMap: java.util.Comparator NATURAL_ORDER>"},{"step":4,"from":"1093233072","to":"1095430504","type":"load","field":"<java.util.TreeMap: java.util.TreeMap$Node root>"},{"step":5,"from":"1095430504","to":"1094178736","type":"load","field":"<java.util.TreeMap$Node: java.lang.Object key>"},{"step":6,"from":"1093571160","to":"1094178736","type":"model"},{"step":7,"from":"1093571160","to":"sdaReg5","type":"model"},{"step":8,"from":"1094178736","to":"1093571160","type":"model"},{"step":9,"from":"1094178736","to":"sdaReg5","type":"model"},{"step":10,"from":"1095430504","to":"1094753864","type":"load","field":"<java.util.TreeMap$Node: java.util.TreeMap$Node right>"},{"step":11,"from":"1094753864","to":"1094193096","type":"load","field":"<java.util.TreeMap$Node: java.lang.Object key>"},{"step":12,"from":"1093571160","to":"1094193096","type":"model"},{"step":13,"from":"1093571160","to":"sdaReg8","type":"model"},{"step":14,"from":"1094193096","to":"1093571160","type":"model"},{"step":15,"from":"1094193096","to":"sdaReg8","type":"model"},{"step":16,"from":"1094753864","to":"1094753904","type":"load","field":"<java.util.TreeMap$Node: java.util.TreeMap$Node right>"},{"step":17,"from":"1094753904","to":"1093854368","type":"load","field":"<java.util.TreeMap$Node: java.lang.Object key>"},{"step":18,"from":"1093571160","to":"1093854368","type":"model"},{"step":19,"from":"1093571160","to":"sdaReg9","type":"model"},{"step":20,"from":"1093854368","to":"1093571160","type":"model"},{"step":21,"from":"1093854368","to":"sdaReg9","type":"model"},{"step":22,"from":"static.<java.util.TreeMap$2: int[] $SwitchMap$java$util$TreeMap$Relation>","to":"1085752200","type":"load","field":"<java.util.TreeMap$2: int[] $SwitchMap$java$util$TreeMap$Relation>"},{"step":23,"from":"1085707192","to":"sdaReg10","type":"model"},{"step":24,"from":"1085752200","to":"1085752200.arrayIdx_int:3","type":"load","field":"arrayIdx_int:3"},{"step":25,"from":"1094753904","to":"1093686520","type":"store","field":"<java.util.TreeMap$Node: java.util.TreeMap$Node parent>"},{"step":26,"from":"1093571160","to":"1093686520","type":"store","field":"<java.util.TreeMap$Node: java.lang.Object key>"},{"step":27,"from":"1093686520","to":"sdaReg15","type":"create","field":"<java.util.TreeMap$Node: int height>"},{"step":28,"from":"1094753904","to":"1093686520","type":"create","field":"<java.util.TreeMap$Node: java.util.TreeMap$Node right>"},{"step":29,"from":"1093233072","to":"1093233072.<java.util.TreeMap: int size>","type":"load","field":"<java.util.TreeMap: int size>"},{"step":30,"from":"sdaReg18","to":"1093233072","type":"store","field":"<java.util.TreeMap: int size>"},{"step":31,"from":"1093233072","to":"1093233072.<java.util.TreeMap: int modCount>","type":"load","field":"<java.util.TreeMap: int modCount>"},{"step":32,"from":"sdaReg19","to":"1093233072","type":"store","field":"<java.util.TreeMap: int modCount>"},{"step":33,"from":"static.<java.util.TreeMap: boolean $assertionsDisabled>","to":"static.<java.util.TreeMap: boolean $assertionsDisabled>","type":"load","field":"<java.util.TreeMap: boolean $assertionsDisabled>"},{"step":34,"from":"sdaReg25","to":"sdaReg26","type":"model"},{"step":35,"from":"sdaReg25","to":"sdaReg28","type":"model"},{"step":36,"from":"sdaReg26","to":"sdaReg25","type":"model"},{"step":37,"from":"sdaReg26","to":"sdaReg28","type":"model"},{"step":38,"from":"sdaReg29","to":"1094753904","type":"store","field":"<java.util.TreeMap$Node: int height>"},{"step":39,"from":"1094753904","to":"1094753864","type":"load","field":"<java.util.TreeMap$Node: java.util.TreeMap$Node parent>"},{"step":40,"from":"1094753864","to":"1094753824","type":"load","field":"<java.util.TreeMap$Node: java.util.TreeMap$Node left>"},{"step":41,"from":"1094753864","to":"1094753904","type":"load","field":"<java.util.TreeMap$Node: java.util.TreeMap$Node right>"},{"step":42,"from":"1094753824","to":"1094753824.<java.util.TreeMap$Node: int height>","type":"load","field":"<java.util.TreeMap$Node: int height>"},{"step":43,"from":"static.<java.util.TreeMap: boolean $assertionsDisabled>","to":"static.<java.util.TreeMap: boolean $assertionsDisabled>","type":"load","field":"<java.util.TreeMap: boolean $assertionsDisabled>"},{"step":44,"from":"sdaReg25","to":"sdaReg26","type":"model"},{"step":45,"from":"sdaReg25","to":"sdaReg30","type":"model"},{"step":46,"from":"sdaReg26","to":"sdaReg25","type":"model"},{"step":47,"from":"sdaReg26","to":"sdaReg30","type":"model"},{"step":48,"from":"sdaReg29","to":"1094753864","type":"store","field":"<java.util.TreeMap$Node: int height>"},{"step":49,"from":"1094753864","to":"1095430504","type":"load","field":"<java.util.TreeMap$Node: java.util.TreeMap$Node parent>"},{"step":50,"from":"1095430504","to":"1093260488","type":"load","field":"<java.util.TreeMap$Node: java.util.TreeMap$Node left>"},{"step":51,"from":"1095430504","to":"1094753864","type":"load","field":"<java.util.TreeMap$Node: java.util.TreeMap$Node right>"},{"step":52,"from":"1093260488","to":"1093260488.<java.util.TreeMap$Node: int height>","type":"load","field":"<java.util.TreeMap$Node: int height>"},{"step":53,"from":"1094753864","to":"1094753824","type":"load","field":"<java.util.TreeMap$Node: java.util.TreeMap$Node left>"},{"step":54,"from":"1094753864","to":"1094753904","type":"load","field":"<java.util.TreeMap$Node: java.util.TreeMap$Node right>"},{"step":55,"from":"1094753824","to":"1094753824.<java.util.TreeMap$Node: int height>","type":"load","field":"<java.util.TreeMap$Node: int height>"},{"step":56,"from":"1095430504","to":"1093260488","type":"load","field":"<java.util.TreeMap$Node: java.util.TreeMap$Node left>"},{"step":57,"from":"1095430504","to":"1094753864","type":"load","field":"<java.util.TreeMap$Node: java.util.TreeMap$Node right>"},{"step":58,"from":"1094753864","to":"1094753824","type":"load","field":"<java.util.TreeMap$Node: java.util.TreeMap$Node left>"},{"step":59,"from":"1094753864","to":"1094753904","type":"load","field":"<java.util.TreeMap$Node: java.util.TreeMap$Node right>"},{"step":60,"from":"1094753824","to":"1095430504","type":"store","field":"<java.util.TreeMap$Node: java.util.TreeMap$Node right>"},{"step":61,"from":"1095430504","to":"1094753824","type":"store","field":"<java.util.TreeMap$Node: java.util.TreeMap$Node parent>"},{"step":62,"from":"1095430504","to":"sdaReg39","type":"create","field":"<java.util.TreeMap$Node: java.util.TreeMap$Node parent>"},{"step":63,"from":"1094753864","to":"1093233072","type":"store","field":"<java.util.TreeMap: java.util.TreeMap$Node root>"},{"step":64,"from":"1095430504","to":"1094753864","type":"store","field":"<java.util.TreeMap$Node: java.util.TreeMap$Node left>"},{"step":65,"from":"1094753864","to":"1095430504","type":"store","field":"<java.util.TreeMap$Node: java.util.TreeMap$Node parent>"},{"step":66,"from":"1093260488","to":"1093260488.<java.util.TreeMap$Node: int height>","type":"load","field":"<java.util.TreeMap$Node: int height>"},{"step":67,"from":"1094753824","to":"1094753824.<java.util.TreeMap$Node: int height>","type":"load","field":"<java.util.TreeMap$Node: int height>"},{"step":68,"from":"1093260488.<java.util.TreeMap$Node: int height>","to":"1094753824.<java.util.TreeMap$Node: int height>","type":"model"},{"step":69,"from":"1093260488.<java.util.TreeMap$Node: int height>","to":"sdaReg40","type":"model"},{"step":70,"from":"1094753824.<java.util.TreeMap$Node: int height>","to":"1093260488.<java.util.TreeMap$Node: int height>","type":"model"},{"step":71,"from":"1094753824.<java.util.TreeMap$Node: int height>","to":"sdaReg40","type":"model"},{"step":72,"from":"sdaReg41","to":"1095430504","type":"store","field":"<java.util.TreeMap$Node: int height>"},{"step":73,"from":"sdaReg43","to":"1094753864","type":"store","field":"<java.util.TreeMap$Node: int height>"},{"step":74,"from":"1085638584","to":"1093686520","type":"store","field":"<java.util.TreeMap$Node: java.lang.Object value>"}],"parameters":[{"id":"1093233072","name":"this","klass":"java.util.TreeMap"},{"id":"1093571160","name":"arg#1","klass":"java.lang.Object"},{"id":"1085638584","name":"arg#2","klass":"java.lang.Object"}],"returns":[{"id":"0","name":"return","klass":"java.lang.Object"}],"colors":{"heapLocToColor":{"sdaReg13":[1],"1093233072.<java.util.TreeMap: int size>":[0],"sdaReg14":[10],"sdaReg11":[10],"1095430504.<java.util.TreeMap$Node: java.util.TreeMap$Node right>":[0],"sdaReg12":[0],"sdaReg10":[3, 9],"1085707192":[3],"sdaReg19":[0],"sdaReg17":[10],"sdaReg18":[0],"1093260488.<java.util.TreeMap$Node: int height>":[0],"sdaReg16":[10],"1085752200":[8],"1094753864.<java.util.TreeMap$Node: java.util.TreeMap$Node parent>":[0],"1093233072":[0],"1094753904":[0],"static.<java.util.TreeMap$2: int[] $SwitchMap$java$util$TreeMap$Relation>":[8],"static.<java.util.TreeMap: boolean $assertionsDisabled>":[11],"1094753824":[0],"sdaReg44":[10],"1094753864":[0],"1085638584":[2],"sdaReg41":[14],"sdaReg40":[14],"sdaReg43":[15],"sdaReg42":[15],"1093260488":[0],"1083970648":[0, 4],"1093686520":[10],"1093233072.<java.util.TreeMap: java.util.TreeMap$Node root>":[0],"static.<java.util.TreeMap: java.util.Comparator NATURAL_ORDER>":[0, 4],"1095430504.<java.util.TreeMap$Node: java.util.TreeMap$Node left>":[0],"1094753864.<java.util.TreeMap$Node: java.util.TreeMap$Node right>":[0],"1085752200.arrayIdx_int:3":[8],"sdaReg38":[0],"1094178736":[0, 1],"sdaReg37":[0],"sdaReg32":[0],"sdaReg30":[13],"sdaReg36":[0],"sdaReg35":[0],"sdaReg34":[0],"sdaReg33":[0],"1093571160":[1],"sdaReg8":[1, 6],"sdaReg9":[1, 7],"sdaReg6":[1, 5, 6, 7],"1094753904.<java.util.TreeMap$Node: java.util.TreeMap$Node parent>":[0],"sdaReg4":[1],"sdaReg5":[1, 5],"static.<java.util.TreeMap$Relation: java.util.TreeMap$Relation CREATE>":[3],"1094193096":[0, 1],"1093233072.<java.util.TreeMap: int modCount>":[0],"1094753864.<java.util.TreeMap$Node: java.util.TreeMap$Node left>":[0],"sdaReg27":[0],"1095430504":[0],"sdaReg29":[12, 13],"sdaReg28":[12],"sdaReg3":[1],"sdaReg2":[3],"sdaReg1":[1],"sdaReg21":[0],"1093854368":[0, 1],"sdaReg0":[0],"sdaReg20":[0],"sdaReg23":[0],"1094753824.<java.util.TreeMap$Node: int height>":[0],"sdaReg25":[0]},"colorToColor":{"0":[0, 1, 5, 6, 7, 10, 13, 14],"1":[1, 5, 6, 7, 10],"2":[10],"10":[0],"12":[0],"13":[0],"14":[0],"15":[0]},"colorToLabel":{"0":"this","1":"arg#1","2":"arg#2","3":"<java.util.TreeMap$Relation: java.util.TreeMap$Relation CREATE>","4":"<java.util.TreeMap: java.util.Comparator NATURAL_ORDER>","8":"<java.util.TreeMap$2: int[] $SwitchMap$java$util$TreeMap$Relation>","11":"<java.util.TreeMap: boolean $assertionsDisabled>","16":"return"}}}

Generated Model
	this->arg#1
	arg#2->this
	arg#2->arg#1
	arg#1->this

