Scanning method <java.util.TreeMap: java.lang.Object putInternal(java.lang.Object,java.lang.Object)>

All seen event types: SimpleAssignmentRecord, MethodStartRecord, LoadInstanceRecord, IfRecord, NewObjectRecord, StoreInstanceRecord, LoadStaticRecord, BinaryOperationRecord, MethodCallRecord, MethodReturnRecord, SwitchRecord, CastRecord, LoadArrayRecord, MethodEndRecord, 
Ignored event types: SwitchRecord, IfRecord, 

JSON Encoded Analysis Data (for visualization):{"heapEdges":[{"step":0,"from":"static.<java.util.TreeMap$Relation: java.util.TreeMap$Relation CREATE>","to":"1085707192","type":"load","field":"<java.util.TreeMap$Relation: java.util.TreeMap$Relation CREATE>"},{"step":1,"from":"1093233072","to":"1096265440","type":"load","field":"<java.util.TreeMap: java.util.TreeMap$Node root>"},{"step":2,"from":"1093233072","to":"1083970648","type":"load","field":"<java.util.TreeMap: java.util.Comparator comparator>"},{"step":3,"from":"static.<java.util.TreeMap: java.util.Comparator NATURAL_ORDER>","to":"1083970648","type":"load","field":"<java.util.TreeMap: java.util.Comparator NATURAL_ORDER>"},{"step":4,"from":"1093233072","to":"1096265440","type":"load","field":"<java.util.TreeMap: java.util.TreeMap$Node root>"},{"step":5,"from":"1096265440","to":"1093351976","type":"load","field":"<java.util.TreeMap$Node: java.lang.Object key>"},{"step":6,"from":"1093290848","to":"1093351976","type":"model"},{"step":7,"from":"1093290848","to":"sdaReg5","type":"model"},{"step":8,"from":"1093351976","to":"1093290848","type":"model"},{"step":9,"from":"1093351976","to":"sdaReg5","type":"model"},{"step":10,"from":"1096265440","to":"1094259416","type":"load","field":"<java.util.TreeMap$Node: java.util.TreeMap$Node right>"},{"step":11,"from":"1094259416","to":"1093427368","type":"load","field":"<java.util.TreeMap$Node: java.lang.Object key>"},{"step":12,"from":"1093290848","to":"1093427368","type":"model"},{"step":13,"from":"1093290848","to":"sdaReg8","type":"model"},{"step":14,"from":"1093427368","to":"1093290848","type":"model"},{"step":15,"from":"1093427368","to":"sdaReg8","type":"model"},{"step":16,"from":"1094259416","to":"1096093824","type":"load","field":"<java.util.TreeMap$Node: java.util.TreeMap$Node right>"},{"step":17,"from":"1096093824","to":"1093524480","type":"load","field":"<java.util.TreeMap$Node: java.lang.Object key>"},{"step":18,"from":"1093290848","to":"1093524480","type":"model"},{"step":19,"from":"1093290848","to":"sdaReg9","type":"model"},{"step":20,"from":"1093524480","to":"1093290848","type":"model"},{"step":21,"from":"1093524480","to":"sdaReg9","type":"model"},{"step":22,"from":"1096093824","to":"1097169872","type":"load","field":"<java.util.TreeMap$Node: java.util.TreeMap$Node right>"},{"step":23,"from":"1097169872","to":"1093573104","type":"load","field":"<java.util.TreeMap$Node: java.lang.Object key>"},{"step":24,"from":"1093290848","to":"1093573104","type":"model"},{"step":25,"from":"1093290848","to":"sdaReg10","type":"model"},{"step":26,"from":"1093573104","to":"1093290848","type":"model"},{"step":27,"from":"1093573104","to":"sdaReg10","type":"model"},{"step":28,"from":"1097169872","to":"1097679488","type":"load","field":"<java.util.TreeMap$Node: java.util.TreeMap$Node right>"},{"step":29,"from":"1097679488","to":"1093218856","type":"load","field":"<java.util.TreeMap$Node: java.lang.Object key>"},{"step":30,"from":"1093290848","to":"1093218856","type":"model"},{"step":31,"from":"1093290848","to":"sdaReg11","type":"model"},{"step":32,"from":"1093218856","to":"1093290848","type":"model"},{"step":33,"from":"1093218856","to":"sdaReg11","type":"model"},{"step":34,"from":"1097679488","to":"1097679528","type":"load","field":"<java.util.TreeMap$Node: java.util.TreeMap$Node right>"},{"step":35,"from":"1097679528","to":"1093260328","type":"load","field":"<java.util.TreeMap$Node: java.lang.Object key>"},{"step":36,"from":"1093290848","to":"1093260328","type":"model"},{"step":37,"from":"1093290848","to":"sdaReg12","type":"model"},{"step":38,"from":"1093260328","to":"1093290848","type":"model"},{"step":39,"from":"1093260328","to":"sdaReg12","type":"model"},{"step":40,"from":"1097679528","to":"1093229472","type":"load","field":"<java.util.TreeMap$Node: java.util.TreeMap$Node right>"},{"step":41,"from":"1093229472","to":"1093284704","type":"load","field":"<java.util.TreeMap$Node: java.lang.Object key>"},{"step":42,"from":"1093290848","to":"1093284704","type":"model"},{"step":43,"from":"1093290848","to":"sdaReg13","type":"model"},{"step":44,"from":"1093284704","to":"1093290848","type":"model"},{"step":45,"from":"1093284704","to":"sdaReg13","type":"model"},{"step":46,"from":"static.<java.util.TreeMap$2: int[] $SwitchMap$java$util$TreeMap$Relation>","to":"1085752200","type":"load","field":"<java.util.TreeMap$2: int[] $SwitchMap$java$util$TreeMap$Relation>"},{"step":47,"from":"1085707192","to":"sdaReg14","type":"model"},{"step":48,"from":"1085752200","to":"1085752200.arrayIdx_int:3","type":"load","field":"arrayIdx_int:3"},{"step":49,"from":"1093229472","to":"1095117736","type":"store","field":"<java.util.TreeMap$Node: java.util.TreeMap$Node parent>"},{"step":50,"from":"1093290848","to":"1095117736","type":"store","field":"<java.util.TreeMap$Node: java.lang.Object key>"},{"step":51,"from":"1095117736","to":"sdaReg19","type":"create","field":"<java.util.TreeMap$Node: int height>"},{"step":52,"from":"1093229472","to":"1095117736","type":"create","field":"<java.util.TreeMap$Node: java.util.TreeMap$Node right>"},{"step":53,"from":"1093233072","to":"1093233072.<java.util.TreeMap: int size>","type":"load","field":"<java.util.TreeMap: int size>"},{"step":54,"from":"sdaReg22","to":"1093233072","type":"store","field":"<java.util.TreeMap: int size>"},{"step":55,"from":"1093233072","to":"1093233072.<java.util.TreeMap: int modCount>","type":"load","field":"<java.util.TreeMap: int modCount>"},{"step":56,"from":"sdaReg23","to":"1093233072","type":"store","field":"<java.util.TreeMap: int modCount>"},{"step":57,"from":"static.<java.util.TreeMap: boolean $assertionsDisabled>","to":"static.<java.util.TreeMap: boolean $assertionsDisabled>","type":"load","field":"<java.util.TreeMap: boolean $assertionsDisabled>"},{"step":58,"from":"sdaReg29","to":"sdaReg30","type":"model"},{"step":59,"from":"sdaReg29","to":"sdaReg32","type":"model"},{"step":60,"from":"sdaReg30","to":"sdaReg29","type":"model"},{"step":61,"from":"sdaReg30","to":"sdaReg32","type":"model"},{"step":62,"from":"sdaReg33","to":"1093229472","type":"store","field":"<java.util.TreeMap$Node: int height>"},{"step":63,"from":"1093229472","to":"1097679528","type":"load","field":"<java.util.TreeMap$Node: java.util.TreeMap$Node parent>"},{"step":64,"from":"1097679528","to":"1093229472","type":"load","field":"<java.util.TreeMap$Node: java.util.TreeMap$Node right>"},{"step":65,"from":"1097679528","to":"1093229472","type":"load","field":"<java.util.TreeMap$Node: java.util.TreeMap$Node right>"},{"step":66,"from":"1097679528","to":"1097679488","type":"load","field":"<java.util.TreeMap$Node: java.util.TreeMap$Node parent>"},{"step":67,"from":"1097679528","to":"sdaReg43","type":"create","field":"<java.util.TreeMap$Node: java.util.TreeMap$Node parent>"},{"step":68,"from":"1097679488","to":"1093229472","type":"store","field":"<java.util.TreeMap$Node: java.util.TreeMap$Node parent>"},{"step":69,"from":"1097679488","to":"1097679448","type":"load","field":"<java.util.TreeMap$Node: java.util.TreeMap$Node left>"},{"step":70,"from":"static.<java.util.TreeMap: boolean $assertionsDisabled>","to":"static.<java.util.TreeMap: boolean $assertionsDisabled>","type":"load","field":"<java.util.TreeMap: boolean $assertionsDisabled>"},{"step":71,"from":"1093229472","to":"1097679488","type":"store","field":"<java.util.TreeMap$Node: java.util.TreeMap$Node right>"},{"step":72,"from":"1097679528","to":"1093229472","type":"store","field":"<java.util.TreeMap$Node: java.util.TreeMap$Node left>"},{"step":73,"from":"1093229472","to":"1097679528","type":"store","field":"<java.util.TreeMap$Node: java.util.TreeMap$Node parent>"},{"step":74,"from":"sdaReg44","to":"sdaReg45","type":"model"},{"step":75,"from":"sdaReg44","to":"sdaReg46","type":"model"},{"step":76,"from":"sdaReg45","to":"sdaReg44","type":"model"},{"step":77,"from":"sdaReg45","to":"sdaReg46","type":"model"},{"step":78,"from":"sdaReg47","to":"1097679528","type":"store","field":"<java.util.TreeMap$Node: int height>"},{"step":79,"from":"sdaReg49","to":"1093229472","type":"store","field":"<java.util.TreeMap$Node: int height>"},{"step":80,"from":"1085638584","to":"1095117736","type":"store","field":"<java.util.TreeMap$Node: java.lang.Object value>"}],"parameters":[{"id":"1093233072","name":"this","klass":"java.util.TreeMap"},{"id":"1093290848","name":"arg#1","klass":"java.lang.Object"},{"id":"1085638584","name":"arg#2","klass":"java.lang.Object"}],"returns":[{"id":"0","name":"return","klass":"java.lang.Object"}],"colors":{"heapLocToColor":{"1093218856":[0, 1],"1093284704":[0, 1],"sdaReg13":[1, 11],"1093233072.<java.util.TreeMap: int size>":[0],"sdaReg14":[3, 13],"sdaReg11":[1, 9],"sdaReg12":[1, 10],"1093229472.<java.util.TreeMap$Node: java.util.TreeMap$Node parent>":[0],"sdaReg10":[1, 8],"1093260328":[0, 1],"1085707192":[3],"1097169872":[0],"1094259416":[0],"sdaReg17":[1],"sdaReg18":[14],"sdaReg15":[14],"sdaReg16":[0],"sdaReg50":[14],"1085752200":[12],"1097679448":[0],"1093233072":[0],"static.<java.util.TreeMap$2: int[] $SwitchMap$java$util$TreeMap$Relation>":[12],"sdaReg49":[18],"sdaReg48":[18],"1097679488":[0],"1093427368":[0, 1],"static.<java.util.TreeMap: boolean $assertionsDisabled>":[15],"sdaReg47":[17],"1085638584":[2],"1093229472":[0],"sdaReg46":[17],"sdaReg41":[0],"sdaReg40":[0],"sdaReg42":[0],"1093351976":[0, 1],"1083970648":[0, 4],"1096093824":[0],"1093233072.<java.util.TreeMap: java.util.TreeMap$Node root>":[0],"static.<java.util.TreeMap: java.util.Comparator NATURAL_ORDER>":[0, 4],"1085752200.arrayIdx_int:3":[12],"1097679528.<java.util.TreeMap$Node: java.util.TreeMap$Node right>":[0],"sdaReg39":[0],"sdaReg38":[0],"1093524480":[0, 1],"1097679528":[0],"1097679528.<java.util.TreeMap$Node: java.util.TreeMap$Node parent>":[0],"sdaReg32":[16],"sdaReg33":[16],"sdaReg8":[1, 6],"1093290848":[1],"1096265440":[0],"sdaReg9":[1, 7],"sdaReg6":[1, 5, 6, 7, 8, 9, 10, 11],"sdaReg4":[1],"sdaReg5":[1, 5],"static.<java.util.TreeMap$Relation: java.util.TreeMap$Relation CREATE>":[3],"1095117736":[14],"1093233072.<java.util.TreeMap: int modCount>":[0],"1093573104":[0, 1],"sdaReg27":[0],"sdaReg3":[1],"sdaReg2":[3],"sdaReg1":[1],"sdaReg21":[14],"sdaReg0":[0],"sdaReg20":[14],"sdaReg23":[0],"sdaReg22":[0],"sdaReg25":[0],"sdaReg24":[0]},"colorToColor":{"17":[0],"0":[0, 1, 5, 6, 7, 8, 9, 10, 11, 14],"16":[0],"1":[1, 5, 6, 7, 8, 9, 10, 11, 14],"2":[14],"18":[0],"14":[0]},"colorToLabel":{"0":"this","1":"arg#1","2":"arg#2","3":"<java.util.TreeMap$Relation: java.util.TreeMap$Relation CREATE>","4":"<java.util.TreeMap: java.util.Comparator NATURAL_ORDER>","12":"<java.util.TreeMap$2: int[] $SwitchMap$java$util$TreeMap$Relation>","15":"<java.util.TreeMap: boolean $assertionsDisabled>","19":"return"}}}

Generated Model
	this->arg#1
	arg#2->this
	arg#2->arg#1
	arg#1->this

