Scanning method <java.io.FilterInputStream: int read()>

All seen event types: BinaryOperationRecord, MethodReturnRecord, MethodCallRecord, MethodStartRecord, LoadInstanceRecord, LoadArrayRecord, MethodEndRecord, IfRecord, StoreInstanceRecord, 
Ignored event types: IfRecord, 

JSON Encoded Analysis Data (for visualization):{"heapEdges":[{"step":0,"from":"1093289368","to":"1093289216","type":"load","field":"<java.io.FilterInputStream: java.io.InputStream in>"},{"step":1,"from":"1093289216","to":"1093289216.<java.io.ByteArrayInputStream: int pos>","type":"load","field":"<java.io.ByteArrayInputStream: int pos>"},{"step":2,"from":"1093289216","to":"1093289216.<java.io.ByteArrayInputStream: int count>","type":"load","field":"<java.io.ByteArrayInputStream: int count>"},{"step":3,"from":"1093289216","to":"1093289248","type":"load","field":"<java.io.ByteArrayInputStream: byte[] buf>"},{"step":4,"from":"1093289216","to":"1093289216.<java.io.ByteArrayInputStream: int pos>","type":"load","field":"<java.io.ByteArrayInputStream: int pos>"},{"step":5,"from":"sdaReg1","to":"1093289216","type":"store","field":"<java.io.ByteArrayInputStream: int pos>"},{"step":6,"from":"1093289248","to":"1093289248.arrayIdx_int:4","type":"load","field":"arrayIdx_int:4"}],"parameters":[{"id":"1093289368","name":"this","klass":"java.io.FilterInputStream"}],"returns":[{"id":"sdaReg2","name":"return","klass":"int"}],"colors":{"heapLocToColor":{"1093289248":[0],"1093289248.arrayIdx_int:4":[0],"1093289216.<java.io.ByteArrayInputStream: int pos>":[0],"sdaReg2":[0],"1093289216":[0],"sdaReg1":[0],"1093289216.<java.io.ByteArrayInputStream: int count>":[0],"sdaReg0":[0],"1093289368":[0]},"colorToColor":{"0":[0, 1]},"colorToLabel":{"0":"this","1":"return"}}}

Generated Model
	this->return

