Scanning method <android.os.Bundle: void putInt(java.lang.String,int)>

All seen event types: StoreArrayRecord, SimpleAssignmentRecord, MethodStartRecord, LoadInstanceRecord, IfRecord, NewObjectRecord, StoreInstanceRecord, NewArrayRecord, BinaryOperationRecord, MethodCallRecord, MethodReturnRecord, ArrayLengthRecord, CastRecord, LoadArrayRecord, MethodEndRecord, 
Ignored event types: IfRecord, 

JSON Encoded Analysis Data (for visualization):{"heapEdges":[{"step":0,"from":"1093926944","to":"1093932352","type":"load","field":"<android.os.Bundle: java.util.Map mMap>"},{"step":1,"from":"sdaReg1","to":"1083976944","type":"model"},{"step":2,"from":"1093932352","to":"1093932408","type":"load","field":"<java.util.HashMap: java.util.HashMap$HashMapEntry[] table>"},{"step":3,"from":"1093932408","to":"1093887416","type":"load","field":"arrayIdx_int:0"},{"step":4,"from":"1093887416","to":"1093887416.<java.util.HashMap$HashMapEntry: int hash>","type":"load","field":"<java.util.HashMap$HashMapEntry: int hash>"},{"step":5,"from":"1093932352","to":"1093932352.<java.util.HashMap: int modCount>","type":"load","field":"<java.util.HashMap: int modCount>"},{"step":6,"from":"sdaReg18","to":"1093932352","type":"store","field":"<java.util.HashMap: int modCount>"},{"step":7,"from":"1093932352","to":"1093932352.<java.util.HashMap: int size>","type":"load","field":"<java.util.HashMap: int size>"},{"step":8,"from":"sdaReg19","to":"1093932352","type":"store","field":"<java.util.HashMap: int size>"},{"step":9,"from":"1093932352","to":"1093932352.<java.util.HashMap: int threshold>","type":"load","field":"<java.util.HashMap: int threshold>"},{"step":10,"from":"1093932352","to":"1093932408","type":"load","field":"<java.util.HashMap: java.util.HashMap$HashMapEntry[] table>"},{"step":11,"from":"1093932352","to":"1093777520","type":"create","field":"<java.util.HashMap: java.util.HashMap$HashMapEntry[] table>"},{"step":12,"from":"sdaReg27","to":"1093932352","type":"store","field":"<java.util.HashMap: int threshold>"},{"step":13,"from":"1093932408","to":"1093887416","type":"load","field":"arrayIdx_int:0"},{"step":14,"from":"1093887416","to":"1093887416.<java.util.HashMap$HashMapEntry: int hash>","type":"load","field":"<java.util.HashMap$HashMapEntry: int hash>"},{"step":15,"from":"1093887416","to":"1093777520","type":"store","field":"arrayIdx_int:0"},{"step":16,"from":"1093932408","to":"1093824720","type":"load","field":"arrayIdx_int:1"},{"step":17,"from":"1093824720","to":"1093824720.<java.util.HashMap$HashMapEntry: int hash>","type":"load","field":"<java.util.HashMap$HashMapEntry: int hash>"},{"step":18,"from":"1093824720","to":"1093777520","type":"store","field":"arrayIdx_int:5"},{"step":19,"from":"1093824720","to":"1093886824","type":"load","field":"<java.util.HashMap$HashMapEntry: java.util.HashMap$HashMapEntry next>"},{"step":20,"from":"1093886824","to":"1093886824.<java.util.HashMap$HashMapEntry: int hash>","type":"load","field":"<java.util.HashMap$HashMapEntry: int hash>"},{"step":21,"from":"1093886824","to":"1093777520","type":"store","field":"arrayIdx_int:1"},{"step":22,"from":"1093824720","to":"sdaReg35","type":"create","field":"<java.util.HashMap$HashMapEntry: java.util.HashMap$HashMapEntry next>"},{"step":23,"from":"1093932408","to":"1093744056","type":"load","field":"arrayIdx_int:3"},{"step":24,"from":"1093744056","to":"1093744056.<java.util.HashMap$HashMapEntry: int hash>","type":"load","field":"<java.util.HashMap$HashMapEntry: int hash>"},{"step":25,"from":"1093744056","to":"1093777520","type":"store","field":"arrayIdx_int:3"},{"step":26,"from":"1093501472","to":"1093777952","type":"store","field":"<java.util.HashMap$HashMapEntry: java.lang.Object key>"},{"step":27,"from":"1093777952","to":"1083976944","type":"create","field":"<java.util.HashMap$HashMapEntry: java.lang.Object value>"},{"step":28,"from":"sdaReg14","to":"1093777952","type":"store","field":"<java.util.HashMap$HashMapEntry: int hash>"},{"step":29,"from":"1093887416","to":"1093777952","type":"store","field":"<java.util.HashMap$HashMapEntry: java.util.HashMap$HashMapEntry next>"},{"step":30,"from":"1093777520","to":"1093777952","type":"create","field":"arrayIdx_int:0"}],"parameters":[{"id":"1093926944","name":"this","klass":"android.os.Bundle"},{"id":"sdaReg0","name":"arg#1","klass":"string"},{"id":"sdaReg1","name":"arg#2","klass":"int"}],"returns":[{"id":null,"name":"return","klass":null}],"colors":{"heapLocToColor":{"1093744056.<java.util.HashMap$HashMapEntry: int hash>":[0],"1093887416.<java.util.HashMap$HashMapEntry: int hash>":[0],"sdaReg13":[4],"sdaReg14":[4],"1083976944":[3],"sdaReg11":[4],"sdaReg12":[4],"1093932352.<java.util.HashMap: int size>":[0],"sdaReg10":[4],"sdaReg19":[0],"sdaReg17":[4],"sdaReg18":[0],"1093932408.arrayIdx_int:0":[0],"1093932352.<java.util.HashMap: int modCount>":[0],"1093887416":[0],"1093932352":[0],"sdaReg45":[0],"sdaReg44":[3],"sdaReg47":[6],"1093744056":[0],"sdaReg46":[6],"1093932408":[0],"sdaReg41":[3],"sdaReg42":[6],"1093932352.<java.util.HashMap: int threshold>":[0],"1093777952":[6],"sdaReg39":[0],"1093777520":[5],"1093824720":[0],"1093886824":[0],"sdaReg32":[0],"sdaReg30":[0],"sdaReg36":[5],"sdaReg34":[0],"sdaReg33":[0],"sdaReg8":[4],"1093824720.<java.util.HashMap$HashMapEntry: int hash>":[0],"sdaReg9":[4],"1093886824.<java.util.HashMap$HashMapEntry: int hash>":[0],"sdaReg6":[4],"sdaReg7":[4],"1093932352.<java.util.HashMap: java.util.HashMap$HashMapEntry[] table>":[0],"sdaReg4":[0],"sdaReg5":[3],"sdaReg28":[5],"sdaReg3":[3],"sdaReg2":[0],"sdaReg1":[2],"1093926944":[0],"sdaReg0":[1],"sdaReg20":[0],"sdaReg23":[0]},"colorToColor":{"0":[0, 5, 6],"2":[3],"3":[6],"4":[6],"5":[0],"6":[5]},"colorToLabel":{"0":"this","1":"arg#1","2":"arg#2","7":"return"}}}

Generated Model
	arg#2->this

