Scanning method <android.os.Bundle: void putInt(java.lang.String,int)>

All seen event types: StoreArrayRecord, SimpleAssignmentRecord, MethodStartRecord, LoadInstanceRecord, IfRecord, NewObjectRecord, StoreInstanceRecord, NewArrayRecord, BinaryOperationRecord, MethodCallRecord, MethodReturnRecord, ArrayLengthRecord, CastRecord, LoadArrayRecord, MethodEndRecord, 
Ignored event types: IfRecord, 

JSON Encoded Analysis Data (for visualization):{"heapEdges":[{"step":0,"from":"1093520456","to":"1093510944","type":"load","field":"<android.os.Bundle: java.util.Map mMap>"},{"step":1,"from":"sdaReg1","to":"1083976944","type":"model"},{"step":2,"from":"1093510944","to":"1093511000","type":"load","field":"<java.util.HashMap: java.util.HashMap$HashMapEntry[] table>"},{"step":3,"from":"1093511000","to":"1093486144","type":"load","field":"arrayIdx_int:0"},{"step":4,"from":"1093486144","to":"1093486144.<java.util.HashMap$HashMapEntry: int hash>","type":"load","field":"<java.util.HashMap$HashMapEntry: int hash>"},{"step":5,"from":"1093510944","to":"1093510944.<java.util.HashMap: int modCount>","type":"load","field":"<java.util.HashMap: int modCount>"},{"step":6,"from":"sdaReg18","to":"1093510944","type":"store","field":"<java.util.HashMap: int modCount>"},{"step":7,"from":"1093510944","to":"1093510944.<java.util.HashMap: int size>","type":"load","field":"<java.util.HashMap: int size>"},{"step":8,"from":"sdaReg19","to":"1093510944","type":"store","field":"<java.util.HashMap: int size>"},{"step":9,"from":"1093510944","to":"1093510944.<java.util.HashMap: int threshold>","type":"load","field":"<java.util.HashMap: int threshold>"},{"step":10,"from":"1093510944","to":"1093511000","type":"load","field":"<java.util.HashMap: java.util.HashMap$HashMapEntry[] table>"},{"step":11,"from":"1093510944","to":"1093715496","type":"create","field":"<java.util.HashMap: java.util.HashMap$HashMapEntry[] table>"},{"step":12,"from":"sdaReg27","to":"1093510944","type":"store","field":"<java.util.HashMap: int threshold>"},{"step":13,"from":"1093511000","to":"1093486144","type":"load","field":"arrayIdx_int:0"},{"step":14,"from":"1093486144","to":"1093486144.<java.util.HashMap$HashMapEntry: int hash>","type":"load","field":"<java.util.HashMap$HashMapEntry: int hash>"},{"step":15,"from":"1093486144","to":"1093715496","type":"store","field":"arrayIdx_int:0"},{"step":16,"from":"1093511000","to":"1093608224","type":"load","field":"arrayIdx_int:1"},{"step":17,"from":"1093608224","to":"1093608224.<java.util.HashMap$HashMapEntry: int hash>","type":"load","field":"<java.util.HashMap$HashMapEntry: int hash>"},{"step":18,"from":"1093608224","to":"1093715496","type":"store","field":"arrayIdx_int:5"},{"step":19,"from":"1093608224","to":"1093744840","type":"load","field":"<java.util.HashMap$HashMapEntry: java.util.HashMap$HashMapEntry next>"},{"step":20,"from":"1093744840","to":"1093744840.<java.util.HashMap$HashMapEntry: int hash>","type":"load","field":"<java.util.HashMap$HashMapEntry: int hash>"},{"step":21,"from":"1093744840","to":"1093715496","type":"store","field":"arrayIdx_int:1"},{"step":22,"from":"1093608224","to":"sdaReg35","type":"create","field":"<java.util.HashMap$HashMapEntry: java.util.HashMap$HashMapEntry next>"},{"step":23,"from":"1093511000","to":"1093426376","type":"load","field":"arrayIdx_int:3"},{"step":24,"from":"1093426376","to":"1093426376.<java.util.HashMap$HashMapEntry: int hash>","type":"load","field":"<java.util.HashMap$HashMapEntry: int hash>"},{"step":25,"from":"1093426376","to":"1093715496","type":"store","field":"arrayIdx_int:3"},{"step":26,"from":"1093514664","to":"1093715552","type":"store","field":"<java.util.HashMap$HashMapEntry: java.lang.Object key>"},{"step":27,"from":"1093715552","to":"1083976944","type":"create","field":"<java.util.HashMap$HashMapEntry: java.lang.Object value>"},{"step":28,"from":"sdaReg14","to":"1093715552","type":"store","field":"<java.util.HashMap$HashMapEntry: int hash>"},{"step":29,"from":"1093486144","to":"1093715552","type":"store","field":"<java.util.HashMap$HashMapEntry: java.util.HashMap$HashMapEntry next>"},{"step":30,"from":"1093715496","to":"1093715552","type":"create","field":"arrayIdx_int:0"}],"parameters":[{"id":"1093520456","name":"this","klass":"android.os.Bundle"},{"id":"sdaReg0","name":"arg#1","klass":"string"},{"id":"sdaReg1","name":"arg#2","klass":"int"}],"returns":[{"id":null,"name":"return","klass":null}],"colors":{"heapLocToColor":{"1093426376.<java.util.HashMap$HashMapEntry: int hash>":[0],"1093486144":[0],"sdaReg13":[4],"sdaReg14":[4],"1083976944":[3],"sdaReg11":[4],"sdaReg12":[4],"sdaReg10":[4],"sdaReg19":[0],"sdaReg17":[4],"sdaReg18":[0],"1093426376":[0],"1093510944.<java.util.HashMap: java.util.HashMap$HashMapEntry[] table>":[0],"1093486144.<java.util.HashMap$HashMapEntry: int hash>":[0],"sdaReg45":[0],"sdaReg44":[3],"sdaReg47":[6],"sdaReg46":[6],"sdaReg41":[3],"1093510944.<java.util.HashMap: int modCount>":[0],"sdaReg42":[6],"1093608224.<java.util.HashMap$HashMapEntry: int hash>":[0],"sdaReg39":[0],"1093511000.arrayIdx_int:0":[0],"1093511000":[0],"sdaReg32":[0],"1093744840.<java.util.HashMap$HashMapEntry: int hash>":[0],"sdaReg30":[0],"sdaReg36":[5],"sdaReg34":[0],"sdaReg33":[0],"1093510944.<java.util.HashMap: int threshold>":[0],"sdaReg8":[4],"1093715496":[5],"sdaReg9":[4],"sdaReg6":[4],"1093608224":[0],"sdaReg7":[4],"sdaReg4":[0],"sdaReg5":[3],"1093510944.<java.util.HashMap: int size>":[0],"sdaReg28":[5],"1093715552":[6],"sdaReg3":[3],"sdaReg2":[0],"1093510944":[0],"1093744840":[0],"1093520456":[0],"sdaReg1":[2],"sdaReg0":[1],"sdaReg20":[0],"sdaReg23":[0]},"colorToColor":{"0":[0, 5, 6],"2":[3],"3":[6],"4":[6],"5":[0],"6":[5]},"colorToLabel":{"0":"this","1":"arg#1","2":"arg#2","7":"return"}}}

Generated Model
	arg#2->this

