Scanning method <java.util.TreeMap$MapIterator: java.util.TreeMap$Node stepForward()>

All seen event types: SimpleAssignmentRecord, MethodReturnRecord, MethodCallRecord, MethodStartRecord, LoadInstanceRecord, MethodEndRecord, IfRecord, StoreInstanceRecord, 
Ignored event types: IfRecord, 

JSON Encoded Analysis Data (for visualization):{"heapEdges":[{"step":0,"from":"1096199360","to":"1094410832","type":"load","field":"<java.util.TreeMap$MapIterator: java.util.TreeMap$Node next>"},{"step":1,"from":"1096199360","to":"1093233072","type":"load","field":"<java.util.TreeMap$MapIterator: java.util.TreeMap this$0>"},{"step":2,"from":"1093233072","to":"1093233072.<java.util.TreeMap: int modCount>","type":"load","field":"<java.util.TreeMap: int modCount>"},{"step":3,"from":"1096199360","to":"1096199360.<java.util.TreeMap$MapIterator: int expectedModCount>","type":"load","field":"<java.util.TreeMap$MapIterator: int expectedModCount>"},{"step":4,"from":"1096199360","to":"1094410832","type":"load","field":"<java.util.TreeMap$MapIterator: java.util.TreeMap$Node next>"},{"step":5,"from":"1094410832","to":"1096199360","type":"store","field":"<java.util.TreeMap$MapIterator: java.util.TreeMap$Node last>"},{"step":6,"from":"1096199360","to":"1094410832","type":"load","field":"<java.util.TreeMap$MapIterator: java.util.TreeMap$Node next>"},{"step":7,"from":"1094410832","to":"1094410872","type":"load","field":"<java.util.TreeMap$Node: java.util.TreeMap$Node right>"},{"step":8,"from":"1094410832","to":"1094410872","type":"load","field":"<java.util.TreeMap$Node: java.util.TreeMap$Node right>"},{"step":9,"from":"1094410872","to":"1096199360","type":"store","field":"<java.util.TreeMap$MapIterator: java.util.TreeMap$Node next>"}],"parameters":[{"id":"1096199360","name":"this","klass":"java.util.TreeMap$MapIterator"}],"returns":[{"id":"1094410832","name":"return","klass":"java.util.TreeMap$Node"}],"colors":{"heapLocToColor":{"1094410832":[0],"sdaReg4":[0],"1096199360":[0],"1093233072":[0],"1093233072.<java.util.TreeMap: int modCount>":[0],"1094410872":[0],"1096199360.<java.util.TreeMap$MapIterator: int expectedModCount>":[0],"sdaReg3":[0],"sdaReg2":[0],"1096199360.<java.util.TreeMap$MapIterator: java.util.TreeMap$Node next>":[0],"1094410832.<java.util.TreeMap$Node: java.util.TreeMap$Node right>":[0],"sdaReg1":[0],"sdaReg0":[0]},"colorToColor":{"0":[0, 1]},"colorToLabel":{"0":"this","1":"return"}}}

Generated Model
	this->return

