Scanning method <java.util.Vector: java.lang.Object elementAt(int)>

All seen event types: LoadInstanceRecord, LoadArrayRecord, IfRecord, 
Ignored event types: IfRecord, 

JSON Encoded Analysis Data (for visualization):{"heapEdges":[{"step":0,"from":"1093631440","to":"1093631440.<java.util.Vector: int elementCount>","type":"load","field":"<java.util.Vector: int elementCount>"},{"step":1,"from":"1093631440","to":"1093736424","type":"load","field":"<java.util.Vector: java.lang.Object[] elementData>"},{"step":2,"from":"1093736424","to":"1093750768","type":"load","field":"arrayIdx_int:95"}],"parameters":[{"id":"1093631440","name":"this","klass":"java.util.Vector"},{"id":"sdaReg0","name":"arg#1","klass":"int"}],"returns":[{"id":"1093750768","name":"return","klass":"java.lang.Object"}],"colors":{"heapLocToColor":{"1093750768":[0],"1093631440":[0],"1093736424":[0],"1093631440.<java.util.Vector: int elementCount>":[0],"sdaReg0":[1]},"colorToColor":{"0":[2]},"colorToLabel":{"0":"this","1":"arg#1","2":"return"}}}

Generated Model
	this->return

