Scanning method <android.os.Bundle: int size()>

All seen event types: MethodReturnRecord, MethodCallRecord, LoadInstanceRecord, MethodStartRecord, MethodEndRecord, IfRecord, 
Ignored event types: IfRecord, 

JSON Encoded Analysis Data (for visualization):{"heapEdges":[{"step":0,"from":"1093620424","to":"1093614768","type":"load","field":"<android.os.Bundle: java.util.Map mMap>"},{"step":1,"from":"1093614768","to":"1093614768.<java.util.HashMap: int size>","type":"load","field":"<java.util.HashMap: int size>"}],"parameters":[{"id":"1093620424","name":"this","klass":"android.os.Bundle"}],"returns":[{"id":"1093614768.<java.util.HashMap: int size>","name":"return","klass":"int"}],"colors":{"heapLocToColor":{"1093614768":[0],"1093620424":[0],"sdaReg1":[0],"sdaReg0":[0],"1093614768.<java.util.HashMap: int size>":[0]},"colorToColor":{"0":[1]},"colorToLabel":{"0":"this","1":"return"}}}

Generated Model
	this->return

