Scanning method <android.os.Bundle: boolean hasFileDescriptors()>

All seen event types: LoadInstanceRecord, IfRecord, 
Ignored event types: IfRecord, 

JSON Encoded Analysis Data (for visualization):{"heapEdges":[{"step":0,"from":"1094001456","to":"1094001456.<android.os.Bundle: boolean mFdsKnown>","type":"load","field":"<android.os.Bundle: boolean mFdsKnown>"},{"step":1,"from":"1094001456","to":"1094001456.<android.os.Bundle: boolean mHasFds>","type":"load","field":"<android.os.Bundle: boolean mHasFds>"}],"parameters":[{"id":"1094001456","name":"this","klass":"android.os.Bundle"}],"returns":[{"id":"1094001456.<android.os.Bundle: boolean mHasFds>","name":"return","klass":"boolean"}],"colors":{"heapLocToColor":{"1094001456.<android.os.Bundle: boolean mFdsKnown>":[0],"1094001456":[0],"1094001456.<android.os.Bundle: boolean mHasFds>":[0]},"colorToColor":{"0":[1]},"colorToLabel":{"0":"this","1":"return"}}}

Generated Model
	this->return

