Scanning method <java.util.Arrays: java.lang.String toString(java.lang.Object[])>

All seen event types: BinaryOperationRecord, SimpleAssignmentRecord, MethodReturnRecord, MethodCallRecord, ArrayLengthRecord, LoadArrayRecord, IfRecord, NewObjectRecord, 
Ignored event types: IfRecord, 

JSON Encoded Analysis Data (for visualization):{"heapEdges":[{"step":0,"from":"1093346648","to":"1083912376","type":"load","field":"arrayIdx_int:0"},{"step":1,"from":"1083912376","to":"1093457968","type":"model"},{"step":2,"from":"1093457968","to":"sdaReg7","type":"model"}],"parameters":[{"id":"1093346648","name":"arg#0","klass":"java.lang.Object[]"}],"returns":[{"id":"sdaReg7","name":"return","klass":"string"}],"colors":{"heapLocToColor":{"1093346648":[0],"sdaReg7":[1, 2],"sdaReg4":[1],"sdaReg3":[1],"1093457968":[1],"1083912376":[0]},"colorToColor":{"0":[1],"1":[3],"2":[3]},"colorToLabel":{"0":"arg#0","3":"return"}}}

Generated Model
	arg#0->return

