Scanning method <java.net.URI: void <init>(java.lang.String)>

All seen event types: LoadStaticRecord, BinaryOperationRecord, SimpleAssignmentRecord, MethodReturnRecord, MethodCallRecord, ArrayLengthRecord, LoadInstanceRecord, MethodStartRecord, LoadArrayRecord, MethodEndRecord, IfRecord, StoreInstanceRecord, 
Ignored event types: IfRecord, 

JSON Encoded Analysis Data (for visualization):{"heapEdges":[{"step":0,"from":"1093654816","to":"sdaReg2","type":"create","field":"<java.net.URI: int port>"},{"step":1,"from":"1093654816","to":"sdaReg3","type":"create","field":"<java.net.URI: boolean serverAuthority>"},{"step":2,"from":"1093654816","to":"sdaReg4","type":"create","field":"<java.net.URI: int hash>"},{"step":3,"from":"sdaReg0","to":"1093654816","type":"store","field":"<java.net.URI: java.lang.String string>"},{"step":4,"from":"sdaReg0","to":"sdaReg11","type":"model"},{"step":5,"from":"sdaReg0","to":"sdaReg13","type":"model"},{"step":6,"from":"sdaReg0","to":"sdaReg15","type":"model"},{"step":7,"from":"sdaReg0","to":"sdaReg17","type":"model"},{"step":8,"from":"sdaReg0","to":"sdaReg19","type":"model"},{"step":9,"from":"sdaReg0","to":"sdaReg21","type":"model"},{"step":10,"from":"sdaReg0","to":"sdaReg23","type":"model"},{"step":11,"from":"sdaReg0","to":"sdaReg25","type":"model"},{"step":12,"from":"sdaReg0","to":"sdaReg27","type":"model"},{"step":13,"from":"sdaReg0","to":"sdaReg29","type":"model"},{"step":14,"from":"sdaReg0","to":"sdaReg31","type":"model"},{"step":15,"from":"sdaReg0","to":"sdaReg33","type":"model"},{"step":16,"from":"sdaReg0","to":"sdaReg35","type":"model"},{"step":17,"from":"sdaReg0","to":"sdaReg41","type":"model"},{"step":18,"from":"sdaReg0","to":"sdaReg43","type":"model"},{"step":19,"from":"sdaReg0","to":"sdaReg45","type":"model"},{"step":20,"from":"sdaReg0","to":"sdaReg47","type":"model"},{"step":21,"from":"sdaReg0","to":"sdaReg49","type":"model"},{"step":22,"from":"sdaReg0","to":"sdaReg54","type":"model"},{"step":23,"from":"sdaReg0","to":"sdaReg56","type":"model"},{"step":24,"from":"sdaReg0","to":"sdaReg58","type":"model"},{"step":25,"from":"sdaReg0","to":"sdaReg60","type":"model"},{"step":26,"from":"sdaReg0","to":"sdaReg62","type":"model"},{"step":27,"from":"sdaReg0","to":"sdaReg64","type":"model"},{"step":28,"from":"1093654816","to":"sdaReg66","type":"create","field":"<java.net.URI: boolean absolute>"},{"step":29,"from":"sdaReg0","to":"sdaReg69","type":"model"},{"step":30,"from":"sdaReg0","to":"sdaReg71","type":"model"},{"step":31,"from":"sdaReg0","to":"sdaReg73","type":"model"},{"step":32,"from":"sdaReg0","to":"sdaReg75","type":"model"},{"step":33,"from":"sdaReg0","to":"sdaReg77","type":"model"},{"step":34,"from":"sdaReg77","to":"1093654816","type":"store","field":"<java.net.URI: java.lang.String scheme>"},{"step":35,"from":"1093654816","to":"sdaReg80","type":"create","field":"<java.net.URI: boolean opaque>"},{"step":36,"from":"sdaReg0","to":"sdaReg81","type":"model"},{"step":37,"from":"sdaReg81","to":"1093654816","type":"store","field":"<java.net.URI: java.lang.String schemeSpecificPart>"},{"step":38,"from":"sdaReg0","to":"sdaReg86","type":"model"},{"step":39,"from":"sdaReg0","to":"sdaReg88","type":"model"},{"step":40,"from":"sdaReg0","to":"sdaReg90","type":"model"},{"step":41,"from":"sdaReg0","to":"sdaReg92","type":"model"},{"step":42,"from":"sdaReg0","to":"sdaReg94","type":"model"},{"step":43,"from":"sdaReg0","to":"sdaReg96","type":"model"},{"step":44,"from":"static.<java.net.URI: libcore.net.UriCodec AUTHORITY_ENCODER>","to":"1085536376","type":"load","field":"<java.net.URI: libcore.net.UriCodec AUTHORITY_ENCODER>"},{"step":45,"from":"sdaReg0","to":"sdaReg102","type":"model"},{"step":46,"from":"sdaReg0","to":"sdaReg103","type":"model"},{"step":47,"from":"sdaReg0","to":"sdaReg104","type":"model"},{"step":48,"from":"sdaReg0","to":"sdaReg105","type":"model"},{"step":49,"from":"sdaReg0","to":"sdaReg106","type":"model"},{"step":50,"from":"sdaReg0","to":"sdaReg113","type":"model"},{"step":51,"from":"sdaReg113","to":"1093654816","type":"store","field":"<java.net.URI: java.lang.String authority>"},{"step":52,"from":"sdaReg0","to":"sdaReg116","type":"model"},{"step":53,"from":"static.<java.net.URI: libcore.net.UriCodec PATH_ENCODER>","to":"1085474672","type":"load","field":"<java.net.URI: libcore.net.UriCodec PATH_ENCODER>"},{"step":54,"from":"sdaReg0","to":"sdaReg121","type":"model"},{"step":55,"from":"1085474672","to":"1085474672.<java.net.URI$PartEncoder: java.lang.String extraLegalCharacters>","type":"load","field":"<java.net.URI$PartEncoder: java.lang.String extraLegalCharacters>"},{"step":56,"from":"sdaReg0","to":"sdaReg129","type":"model"},{"step":57,"from":"sdaReg129","to":"1093654816","type":"store","field":"<java.net.URI: java.lang.String path>"},{"step":58,"from":"sdaReg137","to":"sdaReg145","type":"model"},{"step":59,"from":"sdaReg137","to":"sdaReg150","type":"model"},{"step":60,"from":"sdaReg137","to":"sdaReg152","type":"model"},{"step":61,"from":"sdaReg137","to":"sdaReg154","type":"model"},{"step":62,"from":"sdaReg137","to":"sdaReg156","type":"model"},{"step":63,"from":"sdaReg137","to":"1093520608","type":"model"},{"step":64,"from":"1093520608","to":"1093520608.arrayIdx_int:0","type":"load","field":"arrayIdx_int:0"},{"step":65,"from":"sdaReg131","to":"1093654816","type":"store","field":"<java.net.URI: java.lang.String userInfo>"},{"step":66,"from":"sdaReg137","to":"1093654816","type":"store","field":"<java.net.URI: java.lang.String host>"},{"step":67,"from":"sdaReg136","to":"1093654816","type":"store","field":"<java.net.URI: int port>"},{"step":68,"from":"1093654816","to":"sdaReg167","type":"create","field":"<java.net.URI: boolean serverAuthority>"}],"parameters":[{"id":"1093654816","name":"this","klass":"java.net.URI"},{"id":"sdaReg0","name":"arg#1","klass":"string"}],"returns":[{"id":"1093654816","name":"return","klass":"java.net.URI"}],"colors":{"heapLocToColor":{"sdaReg126":[87],"sdaReg127":[88],"1093654816":[0],"sdaReg129":[1, 89],"sdaReg69":[1, 52],"sdaReg67":[0],"sdaReg64":[1, 50],"sdaReg65":[51],"sdaReg62":[1, 48],"sdaReg63":[49],"sdaReg13":[1, 5],"sdaReg14":[6],"sdaReg71":[1, 53],"sdaReg11":[1, 3],"sdaReg12":[4],"sdaReg19":[1, 11],"sdaReg17":[1, 9],"sdaReg122":[84],"sdaReg18":[10],"sdaReg121":[85, 1],"sdaReg15":[1, 7],"sdaReg124":[86],"sdaReg16":[8],"sdaReg116":[1, 82],"sdaReg117":[83],"sdaReg118":[84],"sdaReg77":[1, 56],"sdaReg79":[57],"sdaReg73":[1, 54],"sdaReg75":[1, 55],"sdaReg81":[1, 58],"sdaReg82":[59],"sdaReg113":[1, 81],"sdaReg111":[80],"sdaReg107":[73],"sdaReg109":[79],"sdaReg103":[1, 75],"sdaReg104":[1, 76],"sdaReg105":[1, 77],"sdaReg106":[1, 78],"sdaReg86":[1, 60],"sdaReg87":[61],"sdaReg88":[1, 62],"sdaReg89":[63],"sdaReg90":[1, 64],"sdaReg94":[68, 1],"sdaReg93":[67],"sdaReg92":[1, 66],"sdaReg91":[65],"sdaReg102":[1, 74],"1093520608":[93, 109],"1085474672.<java.net.URI$PartEncoder: java.lang.String extraLegalCharacters>":[84],"sdaReg95":[69],"sdaReg96":[1, 70],"sdaReg97":[71],"sdaReg98":[72],"1085536376":[73],"sdaReg99":[73],"static.<java.net.URI: libcore.net.UriCodec PATH_ENCODER>":[84],"1093520608.arrayIdx_int:0":[93, 109],"sdaReg60":[1, 46],"sdaReg61":[47],"sdaReg162":[110],"sdaReg163":[111],"sdaReg164":[112],"sdaReg59":[45],"sdaReg58":[1, 44],"sdaReg57":[43],"sdaReg56":[1, 42],"sdaReg55":[41],"sdaReg54":[1, 40],"sdaReg50":[39],"sdaReg159":[93, 109],"sdaReg158":[93, 109],"sdaReg152":[103, 93],"sdaReg153":[104],"sdaReg150":[101, 93],"sdaReg151":[102],"sdaReg156":[93, 107],"sdaReg49":[1, 38],"sdaReg157":[108],"sdaReg48":[37],"sdaReg154":[93, 105],"sdaReg155":[106],"sdaReg45":[34, 1],"sdaReg44":[33],"sdaReg47":[1, 36],"sdaReg46":[35],"sdaReg41":[1, 30],"sdaReg43":[1, 32],"sdaReg42":[31],"static.<java.net.URI: libcore.net.UriCodec AUTHORITY_ENCODER>":[73],"sdaReg149":[100],"sdaReg143":[97],"sdaReg144":[98],"sdaReg145":[99, 93],"1085474672":[84],"sdaReg146":[0],"sdaReg37":[29],"sdaReg140":[95],"sdaReg141":[0],"sdaReg142":[96],"sdaReg32":[24],"sdaReg31":[1, 23],"sdaReg30":[22],"sdaReg36":[28],"sdaReg35":[1, 27],"sdaReg34":[26],"sdaReg33":[1, 25],"sdaReg7":[2],"sdaReg5":[0],"sdaReg139":[94],"sdaReg138":[94],"sdaReg137":[93],"sdaReg134":[91],"sdaReg27":[1, 19],"sdaReg135":[92],"sdaReg26":[18],"sdaReg132":[90],"sdaReg29":[1, 21],"sdaReg28":[20],"sdaReg130":[0],"sdaReg1":[0],"sdaReg21":[1, 13],"sdaReg0":[1],"sdaReg20":[12],"sdaReg23":[1, 15],"sdaReg22":[14],"sdaReg25":[17, 1],"sdaReg24":[16]},"colorToColor":{"0":[113],"1":[0],"81":[0],"93":[0],"58":[0],"56":[0],"89":[0]},"colorToLabel":{"0":"this","1":"arg#1","73":"<java.net.URI: libcore.net.UriCodec AUTHORITY_ENCODER>","84":"<java.net.URI: libcore.net.UriCodec PATH_ENCODER>","113":"return"}}}

Generated Model
	this->return
	arg#1->this
	arg#1->return

