Scanning method <java.net.URI: void <init>(java.lang.String)>

All seen event types: LoadStaticRecord, BinaryOperationRecord, SimpleAssignmentRecord, MethodReturnRecord, MethodCallRecord, LoadInstanceRecord, MethodStartRecord, MethodEndRecord, IfRecord, StoreInstanceRecord, 
Ignored event types: IfRecord, 

JSON Encoded Analysis Data (for visualization):{"heapEdges":[{"step":0,"from":"1093661168","to":"sdaReg2","type":"create","field":"<java.net.URI: int port>"},{"step":1,"from":"1093661168","to":"sdaReg3","type":"create","field":"<java.net.URI: boolean serverAuthority>"},{"step":2,"from":"1093661168","to":"sdaReg4","type":"create","field":"<java.net.URI: int hash>"},{"step":3,"from":"sdaReg0","to":"1093661168","type":"store","field":"<java.net.URI: java.lang.String string>"},{"step":4,"from":"sdaReg0","to":"sdaReg11","type":"model"},{"step":5,"from":"sdaReg0","to":"sdaReg13","type":"model"},{"step":6,"from":"sdaReg0","to":"sdaReg15","type":"model"},{"step":7,"from":"sdaReg0","to":"sdaReg17","type":"model"},{"step":8,"from":"sdaReg0","to":"sdaReg19","type":"model"},{"step":9,"from":"sdaReg0","to":"sdaReg21","type":"model"},{"step":10,"from":"sdaReg0","to":"sdaReg23","type":"model"},{"step":11,"from":"sdaReg0","to":"sdaReg25","type":"model"},{"step":12,"from":"sdaReg0","to":"sdaReg27","type":"model"},{"step":13,"from":"sdaReg0","to":"sdaReg29","type":"model"},{"step":14,"from":"sdaReg0","to":"sdaReg35","type":"model"},{"step":15,"from":"sdaReg0","to":"sdaReg37","type":"model"},{"step":16,"from":"sdaReg0","to":"sdaReg39","type":"model"},{"step":17,"from":"sdaReg0","to":"sdaReg41","type":"model"},{"step":18,"from":"sdaReg0","to":"sdaReg43","type":"model"},{"step":19,"from":"sdaReg0","to":"sdaReg45","type":"model"},{"step":20,"from":"sdaReg0","to":"sdaReg47","type":"model"},{"step":21,"from":"sdaReg0","to":"sdaReg49","type":"model"},{"step":22,"from":"sdaReg0","to":"sdaReg51","type":"model"},{"step":23,"from":"sdaReg0","to":"sdaReg53","type":"model"},{"step":24,"from":"sdaReg0","to":"sdaReg58","type":"model"},{"step":25,"from":"sdaReg0","to":"sdaReg60","type":"model"},{"step":26,"from":"sdaReg0","to":"sdaReg62","type":"model"},{"step":27,"from":"sdaReg0","to":"sdaReg64","type":"model"},{"step":28,"from":"sdaReg0","to":"sdaReg66","type":"model"},{"step":29,"from":"sdaReg0","to":"sdaReg68","type":"model"},{"step":30,"from":"sdaReg0","to":"sdaReg70","type":"model"},{"step":31,"from":"sdaReg0","to":"sdaReg72","type":"model"},{"step":32,"from":"sdaReg0","to":"sdaReg74","type":"model"},{"step":33,"from":"sdaReg0","to":"sdaReg76","type":"model"},{"step":34,"from":"1093661168","to":"sdaReg78","type":"create","field":"<java.net.URI: boolean absolute>"},{"step":35,"from":"1093661168","to":"sdaReg80","type":"create","field":"<java.net.URI: boolean opaque>"},{"step":36,"from":"sdaReg0","to":"sdaReg81","type":"model"},{"step":37,"from":"sdaReg81","to":"1093661168","type":"store","field":"<java.net.URI: java.lang.String schemeSpecificPart>"},{"step":38,"from":"sdaReg0","to":"sdaReg86","type":"model"},{"step":39,"from":"sdaReg0","to":"sdaReg88","type":"model"},{"step":40,"from":"sdaReg0","to":"sdaReg90","type":"model"},{"step":41,"from":"sdaReg0","to":"sdaReg92","type":"model"},{"step":42,"from":"sdaReg0","to":"sdaReg94","type":"model"},{"step":43,"from":"sdaReg0","to":"sdaReg96","type":"model"},{"step":44,"from":"sdaReg0","to":"sdaReg98","type":"model"},{"step":45,"from":"sdaReg0","to":"sdaReg100","type":"model"},{"step":46,"from":"sdaReg0","to":"sdaReg102","type":"model"},{"step":47,"from":"sdaReg0","to":"sdaReg104","type":"model"},{"step":48,"from":"static.<java.net.URI: libcore.net.UriCodec PATH_ENCODER>","to":"1085474672","type":"load","field":"<java.net.URI: libcore.net.UriCodec PATH_ENCODER>"},{"step":49,"from":"sdaReg0","to":"sdaReg109","type":"model"},{"step":50,"from":"sdaReg0","to":"sdaReg110","type":"model"},{"step":51,"from":"sdaReg0","to":"sdaReg111","type":"model"},{"step":52,"from":"sdaReg0","to":"sdaReg112","type":"model"},{"step":53,"from":"sdaReg0","to":"sdaReg113","type":"model"},{"step":54,"from":"sdaReg0","to":"sdaReg114","type":"model"},{"step":55,"from":"sdaReg0","to":"sdaReg115","type":"model"},{"step":56,"from":"sdaReg0","to":"sdaReg120","type":"model"},{"step":57,"from":"sdaReg0","to":"sdaReg121","type":"model"},{"step":58,"from":"sdaReg0","to":"sdaReg122","type":"model"},{"step":59,"from":"sdaReg0","to":"sdaReg123","type":"model"},{"step":60,"from":"sdaReg123","to":"1093661168","type":"store","field":"<java.net.URI: java.lang.String path>"},{"step":61,"from":"1093661168","to":"1093661168.<java.net.URI: java.lang.String authority>","type":"load","field":"<java.net.URI: java.lang.String authority>"}],"parameters":[{"id":"1093661168","name":"this","klass":"java.net.URI"},{"id":"sdaReg0","name":"arg#1","klass":"string"}],"returns":[{"id":"1093661168","name":"return","klass":"java.net.URI"}],"colors":{"heapLocToColor":{"sdaReg68":[1, 54],"sdaReg69":[55],"sdaReg66":[1, 52],"sdaReg67":[53],"sdaReg64":[1, 50],"sdaReg65":[51],"sdaReg62":[1, 48],"sdaReg63":[49],"sdaReg13":[1, 5],"sdaReg72":[1, 58],"sdaReg14":[6],"sdaReg71":[57],"sdaReg11":[1, 3],"sdaReg70":[1, 56],"sdaReg12":[4],"sdaReg120":[1, 95],"sdaReg19":[1, 11],"sdaReg122":[1, 97],"sdaReg17":[1, 9],"sdaReg121":[1, 96],"sdaReg18":[10],"sdaReg124":[0],"sdaReg15":[1, 7],"sdaReg123":[1, 98],"sdaReg16":[8],"sdaReg116":[86],"sdaReg114":[1, 92],"sdaReg115":[1, 93],"sdaReg118":[94],"sdaReg77":[63],"sdaReg73":[59],"sdaReg74":[1, 60],"sdaReg75":[61],"sdaReg76":[1, 62],"sdaReg81":[1, 64],"sdaReg82":[65],"sdaReg113":[1, 91],"sdaReg112":[1, 90],"sdaReg111":[1, 89],"sdaReg110":[1, 88],"sdaReg109":[1, 87],"sdaReg103":[83],"sdaReg104":[1, 84],"sdaReg105":[85],"sdaReg106":[86],"sdaReg86":[1, 66],"sdaReg87":[67],"sdaReg88":[68, 1],"sdaReg89":[69],"sdaReg90":[1, 70],"1093661168.<java.net.URI: java.lang.String authority>":[0],"sdaReg94":[1, 74],"sdaReg93":[73],"sdaReg92":[1, 72],"sdaReg91":[71],"sdaReg100":[1, 80],"sdaReg102":[1, 82],"sdaReg101":[81],"sdaReg95":[75],"sdaReg96":[1, 76],"sdaReg97":[77],"sdaReg98":[1, 78],"sdaReg99":[79],"static.<java.net.URI: libcore.net.UriCodec PATH_ENCODER>":[86],"sdaReg60":[1, 46],"sdaReg61":[47],"sdaReg59":[45],"sdaReg58":[1, 44],"sdaReg54":[43],"sdaReg53":[1, 42],"sdaReg52":[41],"sdaReg51":[1, 40],"sdaReg50":[39],"sdaReg49":[1, 38],"sdaReg48":[37],"sdaReg45":[34, 1],"sdaReg44":[33],"sdaReg47":[1, 36],"sdaReg46":[35],"sdaReg41":[1, 30],"sdaReg40":[29],"sdaReg43":[1, 32],"sdaReg42":[31],"sdaReg39":[1, 28],"sdaReg38":[27],"1085474672":[86],"sdaReg37":[1, 26],"sdaReg31":[23],"sdaReg30":[22],"sdaReg36":[25],"sdaReg35":[1, 24],"1093661168":[0],"sdaReg7":[2],"sdaReg5":[0],"sdaReg27":[1, 19],"sdaReg26":[18],"sdaReg29":[1, 21],"sdaReg28":[20],"sdaReg1":[0],"sdaReg21":[1, 13],"sdaReg0":[1],"sdaReg20":[12],"sdaReg23":[1, 15],"sdaReg22":[14],"sdaReg25":[17, 1],"sdaReg24":[16]},"colorToColor":{"0":[99],"1":[0],"98":[0],"64":[0]},"colorToLabel":{"0":"this","1":"arg#1","86":"<java.net.URI: libcore.net.UriCodec PATH_ENCODER>","99":"return"}}}

Generated Model
	this->return
	arg#1->this
	arg#1->return

