Scanning method <java.net.URI: void <init>(java.lang.String)>

All seen event types: LoadStaticRecord, BinaryOperationRecord, SimpleAssignmentRecord, MethodReturnRecord, MethodCallRecord, ArrayLengthRecord, LoadInstanceRecord, MethodStartRecord, LoadArrayRecord, MethodEndRecord, IfRecord, StoreInstanceRecord, 
Ignored event types: IfRecord, 

JSON Encoded Analysis Data (for visualization):{"heapEdges":[{"step":0,"from":"1093313608","to":"sdaReg2","type":"create","field":"<java.net.URI: int port>"},{"step":1,"from":"1093313608","to":"sdaReg3","type":"create","field":"<java.net.URI: boolean serverAuthority>"},{"step":2,"from":"1093313608","to":"sdaReg4","type":"create","field":"<java.net.URI: int hash>"},{"step":3,"from":"sdaReg0","to":"1093313608","type":"store","field":"<java.net.URI: java.lang.String string>"},{"step":4,"from":"sdaReg0","to":"sdaReg11","type":"model"},{"step":5,"from":"sdaReg0","to":"sdaReg13","type":"model"},{"step":6,"from":"sdaReg0","to":"sdaReg15","type":"model"},{"step":7,"from":"sdaReg0","to":"sdaReg17","type":"model"},{"step":8,"from":"sdaReg0","to":"sdaReg19","type":"model"},{"step":9,"from":"sdaReg0","to":"sdaReg21","type":"model"},{"step":10,"from":"sdaReg0","to":"sdaReg23","type":"model"},{"step":11,"from":"sdaReg0","to":"sdaReg25","type":"model"},{"step":12,"from":"sdaReg0","to":"sdaReg27","type":"model"},{"step":13,"from":"sdaReg0","to":"sdaReg29","type":"model"},{"step":14,"from":"sdaReg0","to":"sdaReg31","type":"model"},{"step":15,"from":"sdaReg0","to":"sdaReg33","type":"model"},{"step":16,"from":"sdaReg0","to":"sdaReg35","type":"model"},{"step":17,"from":"sdaReg0","to":"sdaReg37","type":"model"},{"step":18,"from":"sdaReg0","to":"sdaReg39","type":"model"},{"step":19,"from":"sdaReg0","to":"sdaReg41","type":"model"},{"step":20,"from":"sdaReg0","to":"sdaReg43","type":"model"},{"step":21,"from":"sdaReg0","to":"sdaReg49","type":"model"},{"step":22,"from":"sdaReg0","to":"sdaReg51","type":"model"},{"step":23,"from":"sdaReg0","to":"sdaReg53","type":"model"},{"step":24,"from":"sdaReg0","to":"sdaReg55","type":"model"},{"step":25,"from":"sdaReg0","to":"sdaReg57","type":"model"},{"step":26,"from":"sdaReg0","to":"sdaReg59","type":"model"},{"step":27,"from":"sdaReg0","to":"sdaReg64","type":"model"},{"step":28,"from":"sdaReg0","to":"sdaReg66","type":"model"},{"step":29,"from":"sdaReg0","to":"sdaReg68","type":"model"},{"step":30,"from":"sdaReg0","to":"sdaReg70","type":"model"},{"step":31,"from":"sdaReg0","to":"sdaReg72","type":"model"},{"step":32,"from":"sdaReg0","to":"sdaReg74","type":"model"},{"step":33,"from":"sdaReg0","to":"sdaReg76","type":"model"},{"step":34,"from":"1093313608","to":"sdaReg78","type":"create","field":"<java.net.URI: boolean absolute>"},{"step":35,"from":"sdaReg0","to":"sdaReg81","type":"model"},{"step":36,"from":"sdaReg0","to":"sdaReg83","type":"model"},{"step":37,"from":"sdaReg0","to":"sdaReg85","type":"model"},{"step":38,"from":"sdaReg0","to":"sdaReg87","type":"model"},{"step":39,"from":"sdaReg0","to":"sdaReg89","type":"model"},{"step":40,"from":"sdaReg0","to":"sdaReg91","type":"model"},{"step":41,"from":"sdaReg91","to":"1093313608","type":"store","field":"<java.net.URI: java.lang.String scheme>"},{"step":42,"from":"1093313608","to":"sdaReg94","type":"create","field":"<java.net.URI: boolean opaque>"},{"step":43,"from":"sdaReg0","to":"sdaReg95","type":"model"},{"step":44,"from":"sdaReg95","to":"1093313608","type":"store","field":"<java.net.URI: java.lang.String schemeSpecificPart>"},{"step":45,"from":"sdaReg0","to":"sdaReg100","type":"model"},{"step":46,"from":"sdaReg0","to":"sdaReg102","type":"model"},{"step":47,"from":"sdaReg0","to":"sdaReg104","type":"model"},{"step":48,"from":"sdaReg0","to":"sdaReg106","type":"model"},{"step":49,"from":"sdaReg0","to":"sdaReg108","type":"model"},{"step":50,"from":"sdaReg0","to":"sdaReg110","type":"model"},{"step":51,"from":"static.<java.net.URI: libcore.net.UriCodec AUTHORITY_ENCODER>","to":"1085536376","type":"load","field":"<java.net.URI: libcore.net.UriCodec AUTHORITY_ENCODER>"},{"step":52,"from":"sdaReg0","to":"sdaReg116","type":"model"},{"step":53,"from":"sdaReg0","to":"sdaReg117","type":"model"},{"step":54,"from":"sdaReg0","to":"sdaReg118","type":"model"},{"step":55,"from":"sdaReg0","to":"sdaReg119","type":"model"},{"step":56,"from":"sdaReg0","to":"sdaReg120","type":"model"},{"step":57,"from":"sdaReg0","to":"sdaReg121","type":"model"},{"step":58,"from":"sdaReg121","to":"1093313608","type":"store","field":"<java.net.URI: java.lang.String authority>"},{"step":59,"from":"sdaReg0","to":"sdaReg124","type":"model"},{"step":60,"from":"sdaReg0","to":"sdaReg126","type":"model"},{"step":61,"from":"sdaReg0","to":"sdaReg128","type":"model"},{"step":62,"from":"sdaReg0","to":"sdaReg130","type":"model"},{"step":63,"from":"static.<java.net.URI: libcore.net.UriCodec PATH_ENCODER>","to":"1085474672","type":"load","field":"<java.net.URI: libcore.net.UriCodec PATH_ENCODER>"},{"step":64,"from":"sdaReg0","to":"sdaReg135","type":"model"},{"step":65,"from":"1085474672","to":"1085474672.<java.net.URI$PartEncoder: java.lang.String extraLegalCharacters>","type":"load","field":"<java.net.URI$PartEncoder: java.lang.String extraLegalCharacters>"},{"step":66,"from":"sdaReg0","to":"sdaReg143","type":"model"},{"step":67,"from":"sdaReg0","to":"sdaReg144","type":"model"},{"step":68,"from":"1085474672","to":"1085474672.<java.net.URI$PartEncoder: java.lang.String extraLegalCharacters>","type":"load","field":"<java.net.URI$PartEncoder: java.lang.String extraLegalCharacters>"},{"step":69,"from":"sdaReg0","to":"sdaReg152","type":"model"},{"step":70,"from":"sdaReg0","to":"sdaReg153","type":"model"},{"step":71,"from":"sdaReg153","to":"1093313608","type":"store","field":"<java.net.URI: java.lang.String path>"},{"step":72,"from":"sdaReg161","to":"sdaReg167","type":"model"},{"step":73,"from":"sdaReg161","to":"sdaReg172","type":"model"},{"step":74,"from":"sdaReg161","to":"sdaReg174","type":"model"},{"step":75,"from":"sdaReg161","to":"sdaReg176","type":"model"},{"step":76,"from":"sdaReg161","to":"sdaReg178","type":"model"},{"step":77,"from":"sdaReg161","to":"sdaReg180","type":"model"},{"step":78,"from":"sdaReg161","to":"1093516464","type":"model"},{"step":79,"from":"1093516464","to":"1093516464.arrayIdx_int:0","type":"load","field":"arrayIdx_int:0"},{"step":80,"from":"sdaReg155","to":"1093313608","type":"store","field":"<java.net.URI: java.lang.String userInfo>"},{"step":81,"from":"sdaReg161","to":"1093313608","type":"store","field":"<java.net.URI: java.lang.String host>"},{"step":82,"from":"sdaReg160","to":"1093313608","type":"store","field":"<java.net.URI: int port>"},{"step":83,"from":"1093313608","to":"sdaReg191","type":"create","field":"<java.net.URI: boolean serverAuthority>"}],"parameters":[{"id":"1093313608","name":"this","klass":"java.net.URI"},{"id":"sdaReg0","name":"arg#1","klass":"string"}],"returns":[{"id":"1093313608","name":"return","klass":"java.net.URI"}],"colors":{"heapLocToColor":{"sdaReg125":[94],"sdaReg126":[1, 95],"sdaReg127":[96],"sdaReg128":[1, 97],"sdaReg129":[98],"sdaReg68":[1, 54],"sdaReg69":[55],"sdaReg66":[1, 52],"sdaReg67":[53],"sdaReg64":[1, 50],"sdaReg65":[51],"sdaReg13":[1, 5],"sdaReg72":[1, 58],"sdaReg14":[6],"sdaReg71":[57],"sdaReg11":[1, 3],"sdaReg70":[1, 56],"sdaReg12":[4],"sdaReg19":[1, 11],"sdaReg120":[1, 91],"sdaReg17":[1, 9],"sdaReg121":[1, 92],"sdaReg18":[10],"sdaReg124":[1, 93],"sdaReg15":[1, 7],"sdaReg16":[8],"sdaReg116":[1, 87],"sdaReg117":[1, 88],"sdaReg118":[1, 89],"sdaReg119":[1, 90],"sdaReg77":[63],"sdaReg79":[0],"sdaReg73":[59],"sdaReg74":[1, 60],"sdaReg75":[61],"sdaReg76":[1, 62],"sdaReg81":[1, 64],"sdaReg83":[1, 65],"sdaReg113":[86],"sdaReg112":[85],"sdaReg111":[84],"sdaReg110":[1, 83],"sdaReg107":[80],"sdaReg108":[1, 81],"sdaReg109":[82],"sdaReg103":[76],"sdaReg104":[1, 77],"sdaReg171":[121],"sdaReg105":[78],"sdaReg106":[1, 79],"sdaReg173":[123],"sdaReg172":[122],"sdaReg87":[1, 67],"sdaReg175":[125],"sdaReg174":[124],"sdaReg85":[1, 66],"sdaReg177":[127],"sdaReg176":[126],"sdaReg179":[129],"sdaReg178":[128],"sdaReg89":[68, 1],"sdaReg93":[70],"sdaReg91":[1, 69],"sdaReg100":[1, 73],"sdaReg102":[1, 75],"sdaReg101":[74],"sdaReg182":[132],"sdaReg181":[131],"sdaReg180":[130],"1085474672.<java.net.URI$PartEncoder: java.lang.String extraLegalCharacters>":[101],"sdaReg186":[133],"sdaReg95":[1, 71],"sdaReg96":[72],"sdaReg183":[132],"1085536376":[86],"sdaReg188":[135],"sdaReg187":[134],"1093516464.arrayIdx_int:0":[132],"static.<java.net.URI: libcore.net.UriCodec PATH_ENCODER>":[101],"sdaReg60":[49],"sdaReg162":[116],"sdaReg163":[0],"sdaReg164":[117],"sdaReg165":[118],"sdaReg166":[119],"sdaReg167":[120],"sdaReg168":[0],"sdaReg59":[1, 48],"sdaReg58":[47],"sdaReg57":[1, 46],"1093516464":[132],"sdaReg56":[45],"sdaReg55":[1, 44],"sdaReg54":[43],"sdaReg53":[1, 42],"sdaReg52":[41],"sdaReg51":[1, 40],"sdaReg50":[39],"sdaReg159":[115],"1093313608":[0],"sdaReg158":[114],"sdaReg152":[1, 111],"sdaReg153":[1, 112],"sdaReg150":[110],"sdaReg156":[113],"sdaReg49":[1, 38],"sdaReg154":[0],"sdaReg45":[37],"sdaReg44":[36],"sdaReg41":[1, 33],"sdaReg40":[32],"sdaReg43":[1, 35],"sdaReg42":[34],"static.<java.net.URI: libcore.net.UriCodec AUTHORITY_ENCODER>":[86],"sdaReg147":[108],"sdaReg149":[109],"sdaReg143":[1, 106],"sdaReg144":[1, 107],"sdaReg39":[1, 31],"sdaReg145":[101],"1085474672":[101],"sdaReg38":[30],"sdaReg37":[1, 29],"sdaReg140":[104],"sdaReg141":[105],"sdaReg32":[24],"sdaReg31":[1, 23],"sdaReg30":[22],"sdaReg36":[28],"sdaReg35":[1, 27],"sdaReg34":[26],"sdaReg33":[1, 25],"sdaReg7":[2],"sdaReg5":[0],"sdaReg138":[103],"sdaReg136":[101],"sdaReg27":[1, 19],"sdaReg135":[102, 1],"sdaReg26":[18],"sdaReg132":[101],"sdaReg29":[1, 21],"sdaReg28":[20],"sdaReg130":[1, 99],"sdaReg131":[100],"sdaReg1":[0],"sdaReg21":[1, 13],"sdaReg0":[1],"sdaReg20":[12],"sdaReg23":[1, 15],"sdaReg22":[14],"sdaReg25":[17, 1],"sdaReg24":[16]},"colorToColor":{"0":[136],"69":[0],"1":[0],"71":[0],"112":[0],"92":[0]},"colorToLabel":{"0":"this","1":"arg#1","86":"<java.net.URI: libcore.net.UriCodec AUTHORITY_ENCODER>","101":"<java.net.URI: libcore.net.UriCodec PATH_ENCODER>","136":"return"}}}

Generated Model
	this->return
	arg#1->this
	arg#1->return

