Scanning method <java.net.URI: void <init>(java.lang.String)>

All seen event types: LoadStaticRecord, BinaryOperationRecord, SimpleAssignmentRecord, MethodReturnRecord, MethodCallRecord, LoadInstanceRecord, MethodStartRecord, MethodEndRecord, IfRecord, StoreInstanceRecord, 
Ignored event types: IfRecord, 

JSON Encoded Analysis Data (for visualization):{"heapEdges":[{"step":0,"from":"1093461424","to":"sdaReg2","type":"create","field":"<java.net.URI: int port>"},{"step":1,"from":"1093461424","to":"sdaReg3","type":"create","field":"<java.net.URI: boolean serverAuthority>"},{"step":2,"from":"1093461424","to":"sdaReg4","type":"create","field":"<java.net.URI: int hash>"},{"step":3,"from":"sdaReg0","to":"1093461424","type":"store","field":"<java.net.URI: java.lang.String string>"},{"step":4,"from":"sdaReg0","to":"sdaReg11","type":"model"},{"step":5,"from":"sdaReg0","to":"sdaReg13","type":"model"},{"step":6,"from":"sdaReg0","to":"sdaReg19","type":"model"},{"step":7,"from":"sdaReg0","to":"sdaReg21","type":"model"},{"step":8,"from":"sdaReg0","to":"sdaReg26","type":"model"},{"step":9,"from":"sdaReg0","to":"sdaReg28","type":"model"},{"step":10,"from":"1093461424","to":"sdaReg30","type":"create","field":"<java.net.URI: boolean absolute>"},{"step":11,"from":"1093461424","to":"sdaReg32","type":"create","field":"<java.net.URI: boolean opaque>"},{"step":12,"from":"sdaReg0","to":"sdaReg33","type":"model"},{"step":13,"from":"sdaReg33","to":"1093461424","type":"store","field":"<java.net.URI: java.lang.String schemeSpecificPart>"},{"step":14,"from":"sdaReg0","to":"sdaReg38","type":"model"},{"step":15,"from":"sdaReg0","to":"sdaReg40","type":"model"},{"step":16,"from":"static.<java.net.URI: libcore.net.UriCodec PATH_ENCODER>","to":"1085474672","type":"load","field":"<java.net.URI: libcore.net.UriCodec PATH_ENCODER>"},{"step":17,"from":"sdaReg0","to":"sdaReg45","type":"model"},{"step":18,"from":"sdaReg0","to":"sdaReg46","type":"model"},{"step":19,"from":"1085474672","to":"1085474672.<java.net.URI$PartEncoder: java.lang.String extraLegalCharacters>","type":"load","field":"<java.net.URI$PartEncoder: java.lang.String extraLegalCharacters>"},{"step":20,"from":"sdaReg0","to":"sdaReg54","type":"model"},{"step":21,"from":"sdaReg54","to":"1093461424","type":"store","field":"<java.net.URI: java.lang.String path>"},{"step":22,"from":"1093461424","to":"1093461424.<java.net.URI: java.lang.String authority>","type":"load","field":"<java.net.URI: java.lang.String authority>"}],"parameters":[{"id":"1093461424","name":"this","klass":"java.net.URI"},{"id":"sdaReg0","name":"arg#1","klass":"string"}],"returns":[{"id":"1093461424","name":"return","klass":"java.net.URI"}],"colors":{"heapLocToColor":{"1093461424":[0],"sdaReg13":[1, 5],"sdaReg14":[6],"sdaReg39":[19],"1085474672":[22],"sdaReg11":[1, 3],"sdaReg38":[1, 18],"sdaReg12":[4],"sdaReg19":[1, 8],"sdaReg55":[0],"sdaReg54":[1, 28],"sdaReg52":[27],"sdaReg15":[7],"sdaReg34":[17],"sdaReg51":[26],"sdaReg33":[1, 16],"sdaReg7":[2],"1085474672.<java.net.URI$PartEncoder: java.lang.String extraLegalCharacters>":[22],"sdaReg5":[0],"sdaReg27":[13],"sdaReg26":[1, 12],"sdaReg29":[15],"sdaReg28":[1, 14],"static.<java.net.URI: libcore.net.UriCodec PATH_ENCODER>":[22],"sdaReg49":[25],"1093461424.<java.net.URI: java.lang.String authority>":[0],"sdaReg45":[1, 23],"sdaReg47":[22],"sdaReg21":[1, 10],"sdaReg1":[0],"sdaReg46":[1, 24],"sdaReg20":[9],"sdaReg0":[1],"sdaReg41":[21],"sdaReg22":[11],"sdaReg40":[1, 20],"sdaReg42":[22]},"colorToColor":{"0":[29],"16":[0],"1":[0],"28":[0]},"colorToLabel":{"0":"this","1":"arg#1","22":"<java.net.URI: libcore.net.UriCodec PATH_ENCODER>","29":"return"}}}

Generated Model
	this->return
	arg#1->this
	arg#1->return

