Scanning method <java.net.URI: void <init>(java.lang.String)>

All seen event types: LoadStaticRecord, BinaryOperationRecord, SimpleAssignmentRecord, MethodReturnRecord, MethodCallRecord, LoadInstanceRecord, MethodStartRecord, MethodEndRecord, IfRecord, StoreInstanceRecord, 
Ignored event types: IfRecord, 

JSON Encoded Analysis Data (for visualization):{"heapEdges":[{"step":0,"from":"1096361672","to":"sdaReg2","type":"create","field":"<java.net.URI: int port>"},{"step":1,"from":"1096361672","to":"sdaReg3","type":"create","field":"<java.net.URI: boolean serverAuthority>"},{"step":2,"from":"1096361672","to":"sdaReg4","type":"create","field":"<java.net.URI: int hash>"},{"step":3,"from":"sdaReg0","to":"1096361672","type":"store","field":"<java.net.URI: java.lang.String string>"},{"step":4,"from":"sdaReg0","to":"sdaReg11","type":"model"},{"step":5,"from":"sdaReg0","to":"sdaReg13","type":"model"},{"step":6,"from":"sdaReg0","to":"sdaReg15","type":"model"},{"step":7,"from":"sdaReg0","to":"sdaReg21","type":"model"},{"step":8,"from":"sdaReg0","to":"sdaReg23","type":"model"},{"step":9,"from":"sdaReg0","to":"sdaReg25","type":"model"},{"step":10,"from":"sdaReg0","to":"sdaReg30","type":"model"},{"step":11,"from":"sdaReg0","to":"sdaReg32","type":"model"},{"step":12,"from":"sdaReg0","to":"sdaReg34","type":"model"},{"step":13,"from":"1096361672","to":"sdaReg36","type":"create","field":"<java.net.URI: boolean absolute>"},{"step":14,"from":"1096361672","to":"sdaReg38","type":"create","field":"<java.net.URI: boolean opaque>"},{"step":15,"from":"sdaReg0","to":"sdaReg39","type":"model"},{"step":16,"from":"sdaReg39","to":"1096361672","type":"store","field":"<java.net.URI: java.lang.String schemeSpecificPart>"},{"step":17,"from":"sdaReg0","to":"sdaReg44","type":"model"},{"step":18,"from":"sdaReg0","to":"sdaReg46","type":"model"},{"step":19,"from":"sdaReg0","to":"sdaReg48","type":"model"},{"step":20,"from":"static.<java.net.URI: libcore.net.UriCodec PATH_ENCODER>","to":"1085474672","type":"load","field":"<java.net.URI: libcore.net.UriCodec PATH_ENCODER>"},{"step":21,"from":"sdaReg0","to":"sdaReg53","type":"model"},{"step":22,"from":"sdaReg0","to":"sdaReg58","type":"model"},{"step":23,"from":"sdaReg0","to":"sdaReg63","type":"model"},{"step":24,"from":"1085474672","to":"1085474672.<java.net.URI$PartEncoder: java.lang.String extraLegalCharacters>","type":"load","field":"<java.net.URI$PartEncoder: java.lang.String extraLegalCharacters>"},{"step":25,"from":"sdaReg0","to":"sdaReg71","type":"model"},{"step":26,"from":"sdaReg71","to":"1096361672","type":"store","field":"<java.net.URI: java.lang.String path>"},{"step":27,"from":"1096361672","to":"1096361672.<java.net.URI: java.lang.String authority>","type":"load","field":"<java.net.URI: java.lang.String authority>"}],"parameters":[{"id":"1096361672","name":"this","klass":"java.net.URI"},{"id":"sdaReg0","name":"arg#1","klass":"string"}],"returns":[{"id":"1096361672","name":"return","klass":"java.net.URI"}],"colors":{"heapLocToColor":{"sdaReg61":[34],"sdaReg68":[37],"sdaReg69":[38],"sdaReg66":[36],"sdaReg64":[30],"sdaReg63":[1, 35],"sdaReg13":[1, 5],"sdaReg72":[0],"sdaReg14":[6],"sdaReg71":[1, 39],"sdaReg11":[1, 3],"sdaReg12":[4],"sdaReg59":[30],"sdaReg58":[1, 33],"sdaReg56":[32],"sdaReg17":[9],"sdaReg54":[30],"sdaReg53":[1, 31],"sdaReg15":[1, 7],"sdaReg16":[8],"sdaReg50":[30],"sdaReg49":[29],"sdaReg48":[1, 28],"sdaReg45":[25],"sdaReg44":[1, 24],"sdaReg47":[27],"sdaReg46":[1, 26],"sdaReg40":[23],"sdaReg39":[1, 22],"1085474672":[30],"sdaReg32":[1, 18],"sdaReg31":[17],"sdaReg30":[1, 16],"1096361672":[0],"sdaReg35":[21],"sdaReg34":[1, 20],"sdaReg33":[19],"sdaReg7":[2],"1085474672.<java.net.URI$PartEncoder: java.lang.String extraLegalCharacters>":[30],"sdaReg5":[0],"1096361672.<java.net.URI: java.lang.String authority>":[0],"sdaReg26":[15],"static.<java.net.URI: libcore.net.UriCodec PATH_ENCODER>":[30],"sdaReg1":[0],"sdaReg21":[1, 10],"sdaReg0":[1],"sdaReg23":[1, 12],"sdaReg22":[11],"sdaReg25":[1, 14],"sdaReg24":[13]},"colorToColor":{"0":[40],"1":[0],"39":[0],"22":[0]},"colorToLabel":{"0":"this","1":"arg#1","30":"<java.net.URI: libcore.net.UriCodec PATH_ENCODER>","40":"return"}}}

Generated Model
	this->return
	arg#1->this
	arg#1->return

