Scanning method <java.net.URI: void <init>(java.lang.String)>

All seen event types: LoadStaticRecord, BinaryOperationRecord, SimpleAssignmentRecord, MethodReturnRecord, MethodCallRecord, MethodStartRecord, MethodEndRecord, IfRecord, StoreInstanceRecord, 
Ignored event types: IfRecord, 

JSON Encoded Analysis Data (for visualization):{"heapEdges":[{"step":0,"from":"1093517176","to":"sdaReg2","type":"create","field":"<java.net.URI: int port>"},{"step":1,"from":"1093517176","to":"sdaReg3","type":"create","field":"<java.net.URI: boolean serverAuthority>"},{"step":2,"from":"1093517176","to":"sdaReg4","type":"create","field":"<java.net.URI: int hash>"},{"step":3,"from":"sdaReg0","to":"1093517176","type":"store","field":"<java.net.URI: java.lang.String string>"},{"step":4,"from":"sdaReg0","to":"sdaReg11","type":"model"},{"step":5,"from":"sdaReg0","to":"sdaReg13","type":"model"},{"step":6,"from":"sdaReg0","to":"sdaReg15","type":"model"},{"step":7,"from":"sdaReg0","to":"sdaReg17","type":"model"},{"step":8,"from":"sdaReg0","to":"sdaReg19","type":"model"},{"step":9,"from":"sdaReg0","to":"sdaReg21","type":"model"},{"step":10,"from":"sdaReg0","to":"sdaReg27","type":"model"},{"step":11,"from":"sdaReg0","to":"sdaReg29","type":"model"},{"step":12,"from":"sdaReg0","to":"sdaReg31","type":"model"},{"step":13,"from":"sdaReg0","to":"sdaReg33","type":"model"},{"step":14,"from":"sdaReg0","to":"sdaReg35","type":"model"},{"step":15,"from":"sdaReg0","to":"sdaReg40","type":"model"},{"step":16,"from":"sdaReg0","to":"sdaReg42","type":"model"},{"step":17,"from":"sdaReg0","to":"sdaReg44","type":"model"},{"step":18,"from":"sdaReg0","to":"sdaReg46","type":"model"},{"step":19,"from":"sdaReg0","to":"sdaReg48","type":"model"},{"step":20,"from":"sdaReg0","to":"sdaReg50","type":"model"},{"step":21,"from":"1093517176","to":"sdaReg52","type":"create","field":"<java.net.URI: boolean absolute>"},{"step":22,"from":"sdaReg0","to":"sdaReg55","type":"model"},{"step":23,"from":"sdaReg0","to":"sdaReg57","type":"model"},{"step":24,"from":"sdaReg0","to":"sdaReg59","type":"model"},{"step":25,"from":"sdaReg0","to":"sdaReg61","type":"model"},{"step":26,"from":"sdaReg0","to":"sdaReg63","type":"model"},{"step":27,"from":"sdaReg63","to":"1093517176","type":"store","field":"<java.net.URI: java.lang.String scheme>"},{"step":28,"from":"1093517176","to":"sdaReg66","type":"create","field":"<java.net.URI: boolean opaque>"},{"step":29,"from":"static.<java.net.URI: libcore.net.UriCodec ALL_LEGAL_ENCODER>","to":"1085538000","type":"load","field":"<java.net.URI: libcore.net.UriCodec ALL_LEGAL_ENCODER>"},{"step":30,"from":"sdaReg0","to":"sdaReg70","type":"model"},{"step":31,"from":"sdaReg0","to":"sdaReg71","type":"model"},{"step":32,"from":"sdaReg71","to":"1093517176","type":"store","field":"<java.net.URI: java.lang.String schemeSpecificPart>"}],"parameters":[{"id":"1093517176","name":"this","klass":"java.net.URI"},{"id":"sdaReg0","name":"arg#1","klass":"string"}],"returns":[{"id":"1093517176","name":"return","klass":"java.net.URI"}],"colors":{"heapLocToColor":{"sdaReg61":[1, 41],"sdaReg67":[44],"sdaReg65":[43],"sdaReg63":[1, 42],"sdaReg13":[1, 5],"sdaReg71":[1, 46],"sdaReg14":[6],"sdaReg70":[1, 45],"sdaReg11":[1, 3],"sdaReg12":[4],"sdaReg59":[1, 40],"sdaReg57":[1, 39],"sdaReg19":[1, 11],"sdaReg55":[1, 38],"sdaReg17":[1, 9],"sdaReg18":[10],"sdaReg53":[0],"sdaReg15":[1, 7],"sdaReg16":[8],"sdaReg51":[37],"sdaReg50":[1, 36],"static.<java.net.URI: libcore.net.UriCodec ALL_LEGAL_ENCODER>":[44],"1093517176":[0],"sdaReg49":[35],"sdaReg48":[34, 1],"sdaReg45":[31],"sdaReg44":[1, 30],"sdaReg47":[33],"sdaReg46":[1, 32],"sdaReg41":[27],"sdaReg40":[1, 26],"sdaReg43":[29],"sdaReg42":[1, 28],"sdaReg32":[21],"1085538000":[44],"sdaReg31":[1, 20],"sdaReg30":[19],"sdaReg36":[25],"sdaReg35":[1, 24],"sdaReg34":[23],"sdaReg33":[1, 22],"sdaReg7":[2],"sdaReg5":[0],"sdaReg27":[1, 16],"sdaReg29":[1, 18],"sdaReg28":[17],"sdaReg21":[1, 13],"sdaReg1":[0],"sdaReg20":[12],"sdaReg0":[1],"sdaReg23":[15],"sdaReg22":[14]},"colorToColor":{"0":[47],"1":[0],"42":[0],"46":[0]},"colorToLabel":{"0":"this","1":"arg#1","44":"<java.net.URI: libcore.net.UriCodec ALL_LEGAL_ENCODER>","47":"return"}}}

Generated Model
	this->return
	arg#1->this
	arg#1->return

