Scanning method <java.net.URI: void <init>(java.lang.String)>

All seen event types: LoadStaticRecord, BinaryOperationRecord, SimpleAssignmentRecord, MethodReturnRecord, MethodCallRecord, ArrayLengthRecord, LoadInstanceRecord, MethodStartRecord, LoadArrayRecord, MethodEndRecord, IfRecord, StoreInstanceRecord, 
Ignored event types: IfRecord, 

JSON Encoded Analysis Data (for visualization):{"heapEdges":[{"step":0,"from":"1093480344","to":"sdaReg2","type":"create","field":"<java.net.URI: int port>"},{"step":1,"from":"1093480344","to":"sdaReg3","type":"create","field":"<java.net.URI: boolean serverAuthority>"},{"step":2,"from":"1093480344","to":"sdaReg4","type":"create","field":"<java.net.URI: int hash>"},{"step":3,"from":"sdaReg0","to":"1093480344","type":"store","field":"<java.net.URI: java.lang.String string>"},{"step":4,"from":"sdaReg0","to":"sdaReg11","type":"model"},{"step":5,"from":"sdaReg0","to":"sdaReg13","type":"model"},{"step":6,"from":"sdaReg0","to":"sdaReg15","type":"model"},{"step":7,"from":"sdaReg0","to":"sdaReg17","type":"model"},{"step":8,"from":"sdaReg0","to":"sdaReg19","type":"model"},{"step":9,"from":"sdaReg0","to":"sdaReg21","type":"model"},{"step":10,"from":"sdaReg0","to":"sdaReg23","type":"model"},{"step":11,"from":"sdaReg0","to":"sdaReg25","type":"model"},{"step":12,"from":"sdaReg0","to":"sdaReg27","type":"model"},{"step":13,"from":"sdaReg0","to":"sdaReg29","type":"model"},{"step":14,"from":"sdaReg0","to":"sdaReg31","type":"model"},{"step":15,"from":"sdaReg0","to":"sdaReg33","type":"model"},{"step":16,"from":"sdaReg0","to":"sdaReg35","type":"model"},{"step":17,"from":"sdaReg0","to":"sdaReg41","type":"model"},{"step":18,"from":"sdaReg0","to":"sdaReg43","type":"model"},{"step":19,"from":"sdaReg0","to":"sdaReg45","type":"model"},{"step":20,"from":"sdaReg0","to":"sdaReg47","type":"model"},{"step":21,"from":"sdaReg0","to":"sdaReg49","type":"model"},{"step":22,"from":"sdaReg0","to":"sdaReg51","type":"model"},{"step":23,"from":"sdaReg0","to":"sdaReg53","type":"model"},{"step":24,"from":"sdaReg0","to":"sdaReg55","type":"model"},{"step":25,"from":"sdaReg0","to":"sdaReg57","type":"model"},{"step":26,"from":"sdaReg0","to":"sdaReg59","type":"model"},{"step":27,"from":"sdaReg0","to":"sdaReg61","type":"model"},{"step":28,"from":"sdaReg0","to":"sdaReg63","type":"model"},{"step":29,"from":"sdaReg0","to":"sdaReg65","type":"model"},{"step":30,"from":"sdaReg0","to":"sdaReg70","type":"model"},{"step":31,"from":"1093480344","to":"sdaReg72","type":"create","field":"<java.net.URI: boolean absolute>"},{"step":32,"from":"1093480344","to":"sdaReg74","type":"create","field":"<java.net.URI: boolean opaque>"},{"step":33,"from":"sdaReg0","to":"sdaReg75","type":"model"},{"step":34,"from":"sdaReg75","to":"1093480344","type":"store","field":"<java.net.URI: java.lang.String schemeSpecificPart>"},{"step":35,"from":"sdaReg0","to":"sdaReg80","type":"model"},{"step":36,"from":"sdaReg0","to":"sdaReg82","type":"model"},{"step":37,"from":"sdaReg0","to":"sdaReg84","type":"model"},{"step":38,"from":"sdaReg0","to":"sdaReg86","type":"model"},{"step":39,"from":"sdaReg0","to":"sdaReg88","type":"model"},{"step":40,"from":"sdaReg0","to":"sdaReg90","type":"model"},{"step":41,"from":"sdaReg0","to":"sdaReg92","type":"model"},{"step":42,"from":"sdaReg0","to":"sdaReg94","type":"model"},{"step":43,"from":"static.<java.net.URI: libcore.net.UriCodec AUTHORITY_ENCODER>","to":"1085536376","type":"load","field":"<java.net.URI: libcore.net.UriCodec AUTHORITY_ENCODER>"},{"step":44,"from":"sdaReg0","to":"sdaReg100","type":"model"},{"step":45,"from":"sdaReg0","to":"sdaReg101","type":"model"},{"step":46,"from":"sdaReg0","to":"sdaReg102","type":"model"},{"step":47,"from":"sdaReg0","to":"sdaReg103","type":"model"},{"step":48,"from":"sdaReg0","to":"sdaReg104","type":"model"},{"step":49,"from":"sdaReg0","to":"sdaReg105","type":"model"},{"step":50,"from":"sdaReg0","to":"sdaReg106","type":"model"},{"step":51,"from":"sdaReg0","to":"sdaReg107","type":"model"},{"step":52,"from":"sdaReg107","to":"1093480344","type":"store","field":"<java.net.URI: java.lang.String authority>"},{"step":53,"from":"sdaReg0","to":"sdaReg110","type":"model"},{"step":54,"from":"sdaReg0","to":"sdaReg112","type":"model"},{"step":55,"from":"sdaReg0","to":"sdaReg114","type":"model"},{"step":56,"from":"sdaReg0","to":"sdaReg116","type":"model"},{"step":57,"from":"static.<java.net.URI: libcore.net.UriCodec PATH_ENCODER>","to":"1085474672","type":"load","field":"<java.net.URI: libcore.net.UriCodec PATH_ENCODER>"},{"step":58,"from":"sdaReg0","to":"sdaReg121","type":"model"},{"step":59,"from":"1085474672","to":"1085474672.<java.net.URI$PartEncoder: java.lang.String extraLegalCharacters>","type":"load","field":"<java.net.URI$PartEncoder: java.lang.String extraLegalCharacters>"},{"step":60,"from":"sdaReg0","to":"sdaReg129","type":"model"},{"step":61,"from":"sdaReg0","to":"sdaReg130","type":"model"},{"step":62,"from":"1085474672","to":"1085474672.<java.net.URI$PartEncoder: java.lang.String extraLegalCharacters>","type":"load","field":"<java.net.URI$PartEncoder: java.lang.String extraLegalCharacters>"},{"step":63,"from":"sdaReg0","to":"sdaReg138","type":"model"},{"step":64,"from":"sdaReg0","to":"sdaReg139","type":"model"},{"step":65,"from":"sdaReg139","to":"1093480344","type":"store","field":"<java.net.URI: java.lang.String path>"},{"step":66,"from":"sdaReg147","to":"sdaReg153","type":"model"},{"step":67,"from":"sdaReg147","to":"sdaReg158","type":"model"},{"step":68,"from":"sdaReg147","to":"sdaReg160","type":"model"},{"step":69,"from":"sdaReg147","to":"sdaReg162","type":"model"},{"step":70,"from":"sdaReg147","to":"sdaReg164","type":"model"},{"step":71,"from":"sdaReg147","to":"sdaReg166","type":"model"},{"step":72,"from":"sdaReg147","to":"sdaReg168","type":"model"},{"step":73,"from":"sdaReg147","to":"sdaReg170","type":"model"},{"step":74,"from":"sdaReg147","to":"1093308120","type":"model"},{"step":75,"from":"1093308120","to":"1093308120.arrayIdx_int:0","type":"load","field":"arrayIdx_int:0"},{"step":76,"from":"sdaReg141","to":"1093480344","type":"store","field":"<java.net.URI: java.lang.String userInfo>"},{"step":77,"from":"sdaReg147","to":"1093480344","type":"store","field":"<java.net.URI: java.lang.String host>"},{"step":78,"from":"sdaReg146","to":"1093480344","type":"store","field":"<java.net.URI: int port>"},{"step":79,"from":"1093480344","to":"sdaReg181","type":"create","field":"<java.net.URI: boolean serverAuthority>"}],"parameters":[{"id":"1093480344","name":"this","klass":"java.net.URI"},{"id":"sdaReg0","name":"arg#1","klass":"string"}],"returns":[{"id":"1093480344","name":"return","klass":"java.net.URI"}],"colors":{"heapLocToColor":{"sdaReg126":[97],"sdaReg127":[98],"sdaReg129":[1, 99],"sdaReg66":[55],"sdaReg64":[53],"sdaReg65":[1, 54],"sdaReg62":[51],"sdaReg63":[1, 52],"sdaReg13":[1, 5],"sdaReg14":[6],"sdaReg71":[57],"sdaReg11":[1, 3],"sdaReg70":[1, 56],"1093308120.arrayIdx_int:0":[129],"sdaReg12":[4],"1093480344":[0],"1093308120":[129],"sdaReg19":[1, 11],"sdaReg122":[94],"sdaReg17":[1, 9],"sdaReg121":[1, 95],"sdaReg18":[10],"sdaReg124":[96],"sdaReg15":[1, 7],"sdaReg16":[8],"sdaReg116":[1, 92],"sdaReg117":[93],"sdaReg114":[1, 90],"sdaReg115":[91],"sdaReg118":[94],"sdaReg75":[1, 58],"sdaReg76":[59],"sdaReg81":[61],"sdaReg80":[1, 60],"sdaReg83":[63],"sdaReg82":[1, 62],"sdaReg113":[89],"sdaReg112":[1, 88],"sdaReg111":[87],"sdaReg110":[1, 86],"sdaReg107":[85, 1],"sdaReg103":[1, 81],"sdaReg104":[1, 82],"sdaReg171":[128],"sdaReg105":[1, 83],"sdaReg170":[127],"sdaReg106":[1, 84],"sdaReg173":[129],"sdaReg86":[1, 66],"sdaReg172":[129],"sdaReg87":[67],"sdaReg84":[1, 64],"sdaReg85":[65],"sdaReg177":[131],"sdaReg176":[130],"sdaReg88":[68, 1],"sdaReg178":[132],"sdaReg89":[69],"sdaReg90":[1, 70],"sdaReg94":[1, 74],"sdaReg93":[73],"sdaReg92":[1, 72],"sdaReg91":[71],"sdaReg100":[1, 78],"sdaReg102":[1, 80],"sdaReg101":[1, 79],"1085474672.<java.net.URI$PartEncoder: java.lang.String extraLegalCharacters>":[94],"sdaReg95":[75],"sdaReg96":[76],"sdaReg97":[77],"1085536376":[77],"static.<java.net.URI: libcore.net.UriCodec PATH_ENCODER>":[94],"sdaReg60":[49],"sdaReg61":[1, 50],"sdaReg169":[126],"sdaReg161":[118],"sdaReg162":[119],"sdaReg163":[120],"sdaReg164":[121],"sdaReg165":[122],"sdaReg166":[123],"sdaReg167":[124],"sdaReg168":[125],"sdaReg59":[1, 48],"sdaReg58":[47],"sdaReg57":[1, 46],"sdaReg56":[45],"sdaReg55":[1, 44],"sdaReg54":[43],"sdaReg53":[1, 42],"sdaReg52":[41],"sdaReg160":[117],"sdaReg51":[1, 40],"sdaReg50":[39],"sdaReg159":[116],"sdaReg158":[115],"sdaReg152":[112],"sdaReg153":[113],"sdaReg150":[110],"sdaReg151":[111],"sdaReg49":[1, 38],"sdaReg157":[114],"sdaReg48":[37],"sdaReg154":[0],"sdaReg45":[34, 1],"sdaReg44":[33],"sdaReg47":[1, 36],"sdaReg46":[35],"sdaReg41":[1, 30],"sdaReg43":[1, 32],"sdaReg42":[31],"static.<java.net.URI: libcore.net.UriCodec AUTHORITY_ENCODER>":[77],"sdaReg148":[109],"sdaReg149":[0],"sdaReg144":[107],"sdaReg145":[108],"1085474672":[94],"sdaReg37":[29],"sdaReg140":[0],"sdaReg142":[106],"sdaReg32":[24],"sdaReg31":[1, 23],"sdaReg30":[22],"sdaReg36":[28],"sdaReg35":[1, 27],"sdaReg34":[26],"sdaReg33":[1, 25],"sdaReg7":[2],"sdaReg5":[0],"sdaReg139":[1, 105],"sdaReg138":[1, 104],"sdaReg136":[103],"sdaReg27":[1, 19],"sdaReg135":[102],"sdaReg26":[18],"sdaReg29":[1, 21],"sdaReg133":[101],"sdaReg28":[20],"sdaReg130":[1, 100],"sdaReg131":[94],"sdaReg1":[0],"sdaReg21":[1, 13],"sdaReg0":[1],"sdaReg20":[12],"sdaReg23":[1, 15],"sdaReg22":[14],"sdaReg25":[17, 1],"sdaReg24":[16]},"colorToColor":{"0":[133],"85":[0],"1":[0],"58":[0],"105":[0]},"colorToLabel":{"0":"this","1":"arg#1","77":"<java.net.URI: libcore.net.UriCodec AUTHORITY_ENCODER>","94":"<java.net.URI: libcore.net.UriCodec PATH_ENCODER>","133":"return"}}}

Generated Model
	this->return
	arg#1->this
	arg#1->return

