Scanning method <java.net.URI: void <init>(java.lang.String)>

All seen event types: CaughtExceptionRecord, SimpleAssignmentRecord, MethodStartRecord, LoadInstanceRecord, IfRecord, ThrowExceptionRecord, StoreInstanceRecord, NewObjectRecord, LoadStaticRecord, BinaryOperationRecord, MethodCallRecord, MethodReturnRecord, MethodEndRecord, 
Ignored event types: ThrowExceptionRecord, IfRecord, 

JSON Encoded Analysis Data (for visualization):{"heapEdges":[{"step":0,"from":"1093635576","to":"sdaReg2","type":"create","field":"<java.net.URI: int port>"},{"step":1,"from":"1093635576","to":"sdaReg3","type":"create","field":"<java.net.URI: boolean serverAuthority>"},{"step":2,"from":"1093635576","to":"sdaReg4","type":"create","field":"<java.net.URI: int hash>"},{"step":3,"from":"sdaReg0","to":"1093635576","type":"store","field":"<java.net.URI: java.lang.String string>"},{"step":4,"from":"sdaReg0","to":"sdaReg11","type":"model"},{"step":5,"from":"sdaReg0","to":"sdaReg13","type":"model"},{"step":6,"from":"sdaReg0","to":"sdaReg15","type":"model"},{"step":7,"from":"sdaReg0","to":"sdaReg17","type":"model"},{"step":8,"from":"sdaReg0","to":"sdaReg19","type":"model"},{"step":9,"from":"sdaReg0","to":"sdaReg21","type":"model"},{"step":10,"from":"sdaReg0","to":"sdaReg23","type":"model"},{"step":11,"from":"sdaReg0","to":"sdaReg25","type":"model"},{"step":12,"from":"sdaReg0","to":"sdaReg27","type":"model"},{"step":13,"from":"sdaReg0","to":"sdaReg29","type":"model"},{"step":14,"from":"sdaReg0","to":"sdaReg31","type":"model"},{"step":15,"from":"sdaReg0","to":"sdaReg33","type":"model"},{"step":16,"from":"sdaReg0","to":"sdaReg35","type":"model"},{"step":17,"from":"sdaReg0","to":"sdaReg37","type":"model"},{"step":18,"from":"sdaReg0","to":"sdaReg39","type":"model"},{"step":19,"from":"sdaReg0","to":"sdaReg41","type":"model"},{"step":20,"from":"sdaReg0","to":"sdaReg43","type":"model"},{"step":21,"from":"sdaReg0","to":"sdaReg45","type":"model"},{"step":22,"from":"sdaReg0","to":"sdaReg51","type":"model"},{"step":23,"from":"sdaReg0","to":"sdaReg53","type":"model"},{"step":24,"from":"sdaReg0","to":"sdaReg55","type":"model"},{"step":25,"from":"sdaReg0","to":"sdaReg57","type":"model"},{"step":26,"from":"sdaReg0","to":"sdaReg59","type":"model"},{"step":27,"from":"sdaReg0","to":"sdaReg64","type":"model"},{"step":28,"from":"sdaReg0","to":"sdaReg66","type":"model"},{"step":29,"from":"sdaReg0","to":"sdaReg68","type":"model"},{"step":30,"from":"sdaReg0","to":"sdaReg70","type":"model"},{"step":31,"from":"sdaReg0","to":"sdaReg72","type":"model"},{"step":32,"from":"sdaReg0","to":"sdaReg74","type":"model"},{"step":33,"from":"1093635576","to":"sdaReg76","type":"create","field":"<java.net.URI: boolean absolute>"},{"step":34,"from":"sdaReg0","to":"sdaReg79","type":"model"},{"step":35,"from":"sdaReg0","to":"sdaReg81","type":"model"},{"step":36,"from":"sdaReg0","to":"sdaReg83","type":"model"},{"step":37,"from":"sdaReg0","to":"sdaReg85","type":"model"},{"step":38,"from":"sdaReg0","to":"sdaReg87","type":"model"},{"step":39,"from":"sdaReg87","to":"1093635576","type":"store","field":"<java.net.URI: java.lang.String scheme>"},{"step":40,"from":"1093635576","to":"sdaReg90","type":"create","field":"<java.net.URI: boolean opaque>"},{"step":41,"from":"sdaReg0","to":"sdaReg91","type":"model"},{"step":42,"from":"sdaReg91","to":"1093635576","type":"store","field":"<java.net.URI: java.lang.String schemeSpecificPart>"},{"step":43,"from":"sdaReg0","to":"sdaReg96","type":"model"},{"step":44,"from":"sdaReg0","to":"sdaReg98","type":"model"},{"step":45,"from":"sdaReg0","to":"sdaReg100","type":"model"},{"step":46,"from":"sdaReg0","to":"sdaReg102","type":"model"},{"step":47,"from":"sdaReg0","to":"sdaReg104","type":"model"},{"step":48,"from":"sdaReg0","to":"sdaReg106","type":"model"},{"step":49,"from":"sdaReg0","to":"sdaReg108","type":"model"},{"step":50,"from":"sdaReg0","to":"sdaReg110","type":"model"},{"step":51,"from":"sdaReg0","to":"sdaReg112","type":"model"},{"step":52,"from":"sdaReg0","to":"sdaReg114","type":"model"},{"step":53,"from":"sdaReg0","to":"sdaReg116","type":"model"},{"step":54,"from":"static.<java.net.URI: libcore.net.UriCodec AUTHORITY_ENCODER>","to":"1085536376","type":"load","field":"<java.net.URI: libcore.net.UriCodec AUTHORITY_ENCODER>"},{"step":55,"from":"sdaReg0","to":"sdaReg122","type":"model"},{"step":56,"from":"sdaReg0","to":"sdaReg123","type":"model"},{"step":57,"from":"sdaReg0","to":"sdaReg124","type":"model"},{"step":58,"from":"sdaReg0","to":"sdaReg125","type":"model"},{"step":59,"from":"sdaReg0","to":"sdaReg126","type":"model"},{"step":60,"from":"sdaReg0","to":"sdaReg133","type":"model"},{"step":61,"from":"sdaReg0","to":"sdaReg140","type":"model"},{"step":62,"from":"sdaReg0","to":"sdaReg141","type":"model"},{"step":63,"from":"sdaReg0","to":"sdaReg142","type":"model"},{"step":64,"from":"sdaReg0","to":"sdaReg143","type":"model"},{"step":65,"from":"sdaReg0","to":"sdaReg144","type":"model"},{"step":66,"from":"sdaReg144","to":"1093635576","type":"store","field":"<java.net.URI: java.lang.String authority>"},{"step":67,"from":"sdaReg0","to":"sdaReg147","type":"model"},{"step":68,"from":"static.<java.net.URI: libcore.net.UriCodec PATH_ENCODER>","to":"1085474672","type":"load","field":"<java.net.URI: libcore.net.UriCodec PATH_ENCODER>"},{"step":69,"from":"sdaReg0","to":"sdaReg152","type":"model"},{"step":70,"from":"1085474672","to":"1085474672.<java.net.URI$PartEncoder: java.lang.String extraLegalCharacters>","type":"load","field":"<java.net.URI$PartEncoder: java.lang.String extraLegalCharacters>"},{"step":71,"from":"sdaReg0","to":"sdaReg160","type":"model"},{"step":72,"from":"sdaReg160","to":"1093635576","type":"store","field":"<java.net.URI: java.lang.String path>"},{"step":73,"from":"sdaReg172","to":"sdaReg173","type":"model"},{"step":74,"from":"sdaReg168","to":"sdaReg179","type":"model"},{"step":75,"from":"sdaReg168","to":"sdaReg184","type":"model"},{"step":76,"from":"sdaReg168","to":"sdaReg186","type":"model"},{"step":77,"from":"sdaReg168","to":"sdaReg188","type":"model"},{"step":78,"from":"sdaReg168","to":"sdaReg190","type":"model"},{"step":79,"from":"sdaReg168","to":"sdaReg192","type":"model"},{"step":80,"from":"1093673664","to":"sdaReg195","type":"model"},{"step":81,"from":"sdaReg195","to":"1093673664","type":"model"},{"step":82,"from":"sdaReg195","to":"1093673664","type":"model"},{"step":83,"from":"sdaReg168","to":"1093673664","type":"store","field":"<java.net.URISyntaxException: java.lang.String input>"},{"step":84,"from":"sdaReg182","to":"1093673664","type":"store","field":"<java.net.URISyntaxException: int index>"}],"parameters":[{"id":"1093635576","name":"this","klass":"java.net.URI"},{"id":"sdaReg0","name":"arg#1","klass":"string"}],"returns":[{"id":"1093635576","name":"return","klass":"java.net.URI"}],"colors":{"heapLocToColor":{"sdaReg191":[137],"sdaReg125":[1, 97],"sdaReg190":[136, 120],"sdaReg126":[1, 98],"sdaReg193":[139],"sdaReg127":[93],"sdaReg192":[138, 120],"sdaReg129":[99],"sdaReg68":[1, 54],"sdaReg69":[55],"sdaReg66":[1, 52],"sdaReg67":[53],"sdaReg195":[140],"sdaReg64":[1, 50],"sdaReg194":[140],"sdaReg65":[51],"sdaReg197":[140],"sdaReg196":[140],"sdaReg13":[1, 5],"sdaReg72":[1, 58],"sdaReg14":[6],"1093635576":[0],"sdaReg71":[57],"sdaReg11":[1, 3],"sdaReg70":[1, 56],"sdaReg12":[4],"sdaReg19":[1, 11],"sdaReg122":[1, 94],"sdaReg17":[1, 9],"sdaReg18":[10],"sdaReg124":[1, 96],"sdaReg15":[1, 7],"sdaReg123":[1, 95],"sdaReg16":[8],"sdaReg116":[1, 90],"sdaReg117":[91],"sdaReg114":[1, 88],"sdaReg115":[89],"sdaReg118":[92],"sdaReg119":[93],"sdaReg77":[0],"sdaReg79":[1, 62],"sdaReg73":[59],"sdaReg74":[1, 60],"sdaReg75":[61],"sdaReg81":[1, 63],"sdaReg83":[1, 64],"sdaReg113":[87],"sdaReg112":[1, 86],"sdaReg111":[85],"sdaReg110":[1, 84],"sdaReg107":[81],"sdaReg108":[1, 82],"sdaReg109":[83],"sdaReg103":[77],"sdaReg104":[1, 78],"sdaReg171":[118],"sdaReg105":[79],"sdaReg170":[121],"sdaReg106":[1, 80],"sdaReg173":[123],"sdaReg172":[122],"sdaReg87":[1, 66],"sdaReg175":[0],"sdaReg174":[124],"sdaReg85":[1, 65],"sdaReg177":[126],"sdaReg176":[125],"sdaReg179":[128, 120],"sdaReg178":[127],"sdaReg89":[67],"sdaReg92":[69],"sdaReg91":[68, 1],"sdaReg100":[1, 74],"sdaReg102":[1, 76],"sdaReg101":[75],"sdaReg180":[0],"1085474672.<java.net.URI$PartEncoder: java.lang.String extraLegalCharacters>":[111],"sdaReg186":[132, 120],"sdaReg185":[131],"sdaReg96":[1, 70],"sdaReg184":[130, 120],"sdaReg97":[71],"sdaReg183":[129],"sdaReg98":[1, 72],"1085536376":[93],"sdaReg99":[73],"sdaReg189":[135],"sdaReg188":[120, 134],"sdaReg187":[133],"static.<java.net.URI: libcore.net.UriCodec PATH_ENCODER>":[111],"sdaReg60":[49],"sdaReg169":[121],"sdaReg161":[0],"sdaReg163":[117],"sdaReg165":[118],"sdaReg166":[119],"sdaReg168":[120],"sdaReg59":[1, 48],"sdaReg58":[47],"sdaReg57":[1, 46],"sdaReg56":[45],"sdaReg55":[1, 44],"sdaReg54":[43],"sdaReg53":[1, 42],"sdaReg52":[41],"sdaReg160":[1, 116],"sdaReg51":[1, 40],"sdaReg158":[115],"sdaReg152":[1, 112],"sdaReg153":[111],"sdaReg157":[114],"sdaReg155":[113],"sdaReg45":[1, 37],"sdaReg44":[36],"sdaReg47":[39],"sdaReg46":[38],"sdaReg41":[1, 33],"sdaReg40":[32],"sdaReg43":[1, 35],"sdaReg42":[34],"1093673664":[140],"static.<java.net.URI: libcore.net.UriCodec AUTHORITY_ENCODER>":[93],"sdaReg148":[110],"sdaReg147":[1, 109],"sdaReg149":[111],"sdaReg143":[1, 107],"sdaReg144":[1, 108],"sdaReg39":[1, 31],"1085474672":[111],"sdaReg38":[30],"sdaReg37":[1, 29],"sdaReg140":[1, 104],"sdaReg141":[1, 105],"sdaReg142":[1, 106],"sdaReg32":[24],"sdaReg31":[1, 23],"sdaReg30":[22],"sdaReg36":[28],"sdaReg35":[1, 27],"sdaReg34":[26],"sdaReg33":[1, 25],"sdaReg7":[2],"sdaReg5":[0],"sdaReg138":[103],"sdaReg136":[102],"sdaReg134":[93],"sdaReg27":[1, 19],"sdaReg26":[18],"sdaReg29":[1, 21],"sdaReg133":[1, 101],"sdaReg28":[20],"sdaReg131":[100],"sdaReg1":[0],"sdaReg21":[1, 13],"sdaReg0":[1],"sdaReg20":[12],"sdaReg23":[1, 15],"sdaReg22":[14],"sdaReg25":[17, 1],"sdaReg24":[16]},"colorToColor":{"0":[141],"68":[0],"1":[0],"116":[0],"140":[140],"66":[0],"108":[0],"122":[123],"120":[140]},"colorToLabel":{"0":"this","1":"arg#1","93":"<java.net.URI: libcore.net.UriCodec AUTHORITY_ENCODER>","111":"<java.net.URI: libcore.net.UriCodec PATH_ENCODER>","141":"return"}}}

Generated Model
	this->return
	arg#1->this
	arg#1->return

