Scanning method <java.net.URI: void <init>(java.lang.String)>

All seen event types: LoadStaticRecord, BinaryOperationRecord, SimpleAssignmentRecord, MethodReturnRecord, MethodCallRecord, LoadInstanceRecord, MethodStartRecord, MethodEndRecord, IfRecord, StoreInstanceRecord, 
Ignored event types: IfRecord, 

JSON Encoded Analysis Data (for visualization):{"heapEdges":[{"step":0,"from":"1093515424","to":"sdaReg2","type":"create","field":"<java.net.URI: int port>"},{"step":1,"from":"1093515424","to":"sdaReg3","type":"create","field":"<java.net.URI: boolean serverAuthority>"},{"step":2,"from":"1093515424","to":"sdaReg4","type":"create","field":"<java.net.URI: int hash>"},{"step":3,"from":"sdaReg0","to":"1093515424","type":"store","field":"<java.net.URI: java.lang.String string>"},{"step":4,"from":"sdaReg0","to":"sdaReg11","type":"model"},{"step":5,"from":"sdaReg0","to":"sdaReg13","type":"model"},{"step":6,"from":"sdaReg0","to":"sdaReg15","type":"model"},{"step":7,"from":"sdaReg0","to":"sdaReg17","type":"model"},{"step":8,"from":"sdaReg0","to":"sdaReg19","type":"model"},{"step":9,"from":"sdaReg0","to":"sdaReg25","type":"model"},{"step":10,"from":"sdaReg0","to":"sdaReg27","type":"model"},{"step":11,"from":"sdaReg0","to":"sdaReg29","type":"model"},{"step":12,"from":"sdaReg0","to":"sdaReg31","type":"model"},{"step":13,"from":"sdaReg0","to":"sdaReg33","type":"model"},{"step":14,"from":"sdaReg0","to":"sdaReg38","type":"model"},{"step":15,"from":"sdaReg0","to":"sdaReg40","type":"model"},{"step":16,"from":"1093515424","to":"sdaReg42","type":"create","field":"<java.net.URI: boolean absolute>"},{"step":17,"from":"1093515424","to":"sdaReg44","type":"create","field":"<java.net.URI: boolean opaque>"},{"step":18,"from":"sdaReg0","to":"sdaReg45","type":"model"},{"step":19,"from":"sdaReg45","to":"1093515424","type":"store","field":"<java.net.URI: java.lang.String schemeSpecificPart>"},{"step":20,"from":"sdaReg0","to":"sdaReg50","type":"model"},{"step":21,"from":"sdaReg0","to":"sdaReg52","type":"model"},{"step":22,"from":"sdaReg0","to":"sdaReg54","type":"model"},{"step":23,"from":"sdaReg0","to":"sdaReg56","type":"model"},{"step":24,"from":"sdaReg0","to":"sdaReg58","type":"model"},{"step":25,"from":"static.<java.net.URI: libcore.net.UriCodec PATH_ENCODER>","to":"1085474672","type":"load","field":"<java.net.URI: libcore.net.UriCodec PATH_ENCODER>"},{"step":26,"from":"sdaReg0","to":"sdaReg63","type":"model"},{"step":27,"from":"sdaReg0","to":"sdaReg68","type":"model"},{"step":28,"from":"1085474672","to":"1085474672.<java.net.URI$PartEncoder: java.lang.String extraLegalCharacters>","type":"load","field":"<java.net.URI$PartEncoder: java.lang.String extraLegalCharacters>"},{"step":29,"from":"sdaReg0","to":"sdaReg76","type":"model"},{"step":30,"from":"sdaReg0","to":"sdaReg77","type":"model"},{"step":31,"from":"1085474672","to":"1085474672.<java.net.URI$PartEncoder: java.lang.String extraLegalCharacters>","type":"load","field":"<java.net.URI$PartEncoder: java.lang.String extraLegalCharacters>"},{"step":32,"from":"sdaReg0","to":"sdaReg85","type":"model"},{"step":33,"from":"sdaReg0","to":"sdaReg90","type":"model"},{"step":34,"from":"sdaReg90","to":"1093515424","type":"store","field":"<java.net.URI: java.lang.String path>"},{"step":35,"from":"1093515424","to":"1093515424.<java.net.URI: java.lang.String authority>","type":"load","field":"<java.net.URI: java.lang.String authority>"}],"parameters":[{"id":"1093515424","name":"this","klass":"java.net.URI"},{"id":"sdaReg0","name":"arg#1","klass":"string"}],"returns":[{"id":"1093515424","name":"return","klass":"java.net.URI"}],"colors":{"heapLocToColor":{"sdaReg60":[40],"sdaReg68":[1, 43],"sdaReg69":[40],"sdaReg66":[42],"sdaReg64":[40],"sdaReg63":[1, 41],"sdaReg13":[1, 5],"sdaReg71":[44],"sdaReg14":[6],"sdaReg11":[1, 3],"sdaReg12":[4],"sdaReg59":[39],"sdaReg58":[1, 38],"sdaReg57":[37],"sdaReg19":[1, 11],"sdaReg56":[1, 36],"sdaReg55":[35],"sdaReg17":[1, 9],"sdaReg54":[34, 1],"sdaReg18":[10],"sdaReg53":[33],"sdaReg15":[1, 7],"sdaReg52":[1, 32],"sdaReg16":[8],"sdaReg51":[31],"sdaReg50":[1, 30],"sdaReg77":[1, 48],"sdaReg78":[40],"sdaReg73":[45],"sdaReg74":[46],"sdaReg76":[1, 47],"sdaReg80":[49],"sdaReg83":[51],"sdaReg82":[50],"sdaReg45":[1, 28],"1093515424.<java.net.URI: java.lang.String authority>":[0],"sdaReg46":[29],"sdaReg41":[27],"sdaReg40":[1, 26],"sdaReg86":[40],"sdaReg85":[1, 52],"sdaReg88":[53],"sdaReg90":[1, 54],"sdaReg39":[25],"sdaReg38":[1, 24],"1085474672":[40],"sdaReg91":[0],"sdaReg32":[21],"sdaReg31":[1, 20],"sdaReg30":[19],"sdaReg34":[23],"sdaReg33":[1, 22],"sdaReg7":[2],"1085474672.<java.net.URI$PartEncoder: java.lang.String extraLegalCharacters>":[40],"sdaReg5":[0],"sdaReg27":[1, 16],"sdaReg26":[15],"sdaReg29":[1, 18],"sdaReg28":[17],"static.<java.net.URI: libcore.net.UriCodec PATH_ENCODER>":[40],"sdaReg21":[13],"sdaReg1":[0],"sdaReg20":[12],"sdaReg0":[1],"1093515424":[0],"sdaReg25":[1, 14]},"colorToColor":{"0":[55],"1":[0],"54":[0],"28":[0]},"colorToLabel":{"0":"this","1":"arg#1","40":"<java.net.URI: libcore.net.UriCodec PATH_ENCODER>","55":"return"}}}

Generated Model
	this->return
	arg#1->this
	arg#1->return

