Scanning method <java.io.CharArrayWriter: void write(java.lang.String,int,int)>

All seen event types: BinaryOperationRecord, SimpleAssignmentRecord, ExitMonitorRecord, MethodReturnRecord, MethodCallRecord, EnterMonitorRecord, ArrayLengthRecord, MethodStartRecord, LoadInstanceRecord, MethodEndRecord, IfRecord, StoreInstanceRecord, 
Ignored event types: ExitMonitorRecord, EnterMonitorRecord, IfRecord, 

JSON Encoded Analysis Data (for visualization):{"heapEdges":[{"step":0,"from":"1093590408","to":"1093590432","type":"load","field":"<java.io.Writer: java.lang.Object lock>"},{"step":1,"from":"1093590408","to":"1093590408.<java.io.CharArrayWriter: int count>","type":"load","field":"<java.io.CharArrayWriter: int count>"},{"step":2,"from":"1093590408","to":"1093590432","type":"load","field":"<java.io.CharArrayWriter: char[] buf>"},{"step":3,"from":"1093590408","to":"1093590432","type":"load","field":"<java.io.CharArrayWriter: char[] buf>"},{"step":4,"from":"1093590408","to":"1093590408.<java.io.CharArrayWriter: int count>","type":"load","field":"<java.io.CharArrayWriter: int count>"},{"step":5,"from":"sdaReg0","to":"1093590432","type":"model"},{"step":6,"from":"1093590408","to":"1093590408.<java.io.CharArrayWriter: int count>","type":"load","field":"<java.io.CharArrayWriter: int count>"},{"step":7,"from":"sdaReg11","to":"1093590408","type":"store","field":"<java.io.CharArrayWriter: int count>"}],"parameters":[{"id":"1093590408","name":"this","klass":"java.io.CharArrayWriter"},{"id":"sdaReg0","name":"arg#1","klass":"string"},{"id":"sdaReg1","name":"arg#2","klass":"int"},{"id":"sdaReg2","name":"arg#3","klass":"int"}],"returns":[{"id":null,"name":"return","klass":null}],"colors":{"heapLocToColor":{"sdaReg8":[0, 3],"1093590432":[0, 1],"sdaReg7":[0],"1093590408":[0],"sdaReg4":[4],"sdaReg5":[3, 4],"1093590408.<java.io.CharArrayWriter: int count>":[0],"sdaReg11":[0, 3],"sdaReg10":[2, 3],"sdaReg3":[2, 3],"sdaReg2":[3],"sdaReg1":[2],"sdaReg0":[1],"1093590408.<java.io.CharArrayWriter: char[] buf>":[0]},"colorToColor":{"0":[0],"3":[0]},"colorToLabel":{"0":"this","1":"arg#1","2":"arg#2","3":"arg#3","5":"return"}}}

Generated Model
	arg#3->this

