Scanning method <java.net.URLConnection: boolean getDefaultUseCaches()>

All seen event types: LoadStaticRecord, 
Ignored event types: 

JSON Encoded Analysis Data (for visualization):{"heapEdges":[{"step":0,"from":"static.<java.net.URLConnection: boolean defaultUseCaches>","to":"static.<java.net.URLConnection: boolean defaultUseCaches>","type":"load","field":"<java.net.URLConnection: boolean defaultUseCaches>"}],"parameters":[{"id":"1093649016","name":"this","klass":"java.net.URLConnection"}],"returns":[{"id":"static.<java.net.URLConnection: boolean defaultUseCaches>","name":"return","klass":"boolean"}],"colors":{"heapLocToColor":{"1093649016":[0],"static.<java.net.URLConnection: boolean defaultUseCaches>":[1]},"colorToColor":{"1":[2]},"colorToLabel":{"0":"this","1":"<java.net.URLConnection: boolean defaultUseCaches>","2":"return"}}}

Generated Model

