Scanning method <android.location.Location: void <init>(java.lang.String)>

All seen event types: NewArrayRecord, MethodReturnRecord, MethodCallRecord, StoreInstanceRecord, 
Ignored event types: 

JSON Encoded Analysis Data (for visualization):{"heapEdges":[{"step":0,"from":"1093954384","to":"sdaReg2","type":"create","field":"<android.location.Location: long mTime>"},{"step":1,"from":"1093954384","to":"sdaReg3","type":"create","field":"<android.location.Location: double mLatitude>"},{"step":2,"from":"1093954384","to":"sdaReg4","type":"create","field":"<android.location.Location: double mLongitude>"},{"step":3,"from":"1093954384","to":"sdaReg5","type":"create","field":"<android.location.Location: boolean mHasAltitude>"},{"step":4,"from":"1093954384","to":"sdaReg6","type":"create","field":"<android.location.Location: double mAltitude>"},{"step":5,"from":"1093954384","to":"sdaReg7","type":"create","field":"<android.location.Location: boolean mHasSpeed>"},{"step":6,"from":"1093954384","to":"sdaReg8","type":"create","field":"<android.location.Location: float mSpeed>"},{"step":7,"from":"1093954384","to":"sdaReg9","type":"create","field":"<android.location.Location: boolean mHasBearing>"},{"step":8,"from":"1093954384","to":"sdaReg10","type":"create","field":"<android.location.Location: float mBearing>"},{"step":9,"from":"1093954384","to":"sdaReg11","type":"create","field":"<android.location.Location: boolean mHasAccuracy>"},{"step":10,"from":"1093954384","to":"sdaReg12","type":"create","field":"<android.location.Location: float mAccuracy>"},{"step":11,"from":"1093954384","to":"sdaReg13","type":"create","field":"<android.location.Location: android.os.Bundle mExtras>"},{"step":12,"from":"1093954384","to":"sdaReg14","type":"create","field":"<android.location.Location: double mLat1>"},{"step":13,"from":"1093954384","to":"sdaReg15","type":"create","field":"<android.location.Location: double mLon1>"},{"step":14,"from":"1093954384","to":"sdaReg16","type":"create","field":"<android.location.Location: double mLat2>"},{"step":15,"from":"1093954384","to":"sdaReg17","type":"create","field":"<android.location.Location: double mLon2>"},{"step":16,"from":"1093954384","to":"sdaReg18","type":"create","field":"<android.location.Location: float mDistance>"},{"step":17,"from":"1093954384","to":"sdaReg19","type":"create","field":"<android.location.Location: float mInitialBearing>"},{"step":18,"from":"1093954384","to":"1093962800","type":"create","field":"<android.location.Location: float[] mResults>"},{"step":19,"from":"sdaReg0","to":"1093954384","type":"store","field":"<android.location.Location: java.lang.String mProvider>"}],"parameters":[{"id":"1093954384","name":"this","klass":"android.location.Location"},{"id":"sdaReg0","name":"arg#1","klass":"string"}],"returns":[{"id":"1093954384","name":"return","klass":"android.location.Location"}],"colors":{"heapLocToColor":{"1093962800":[2],"sdaReg1":[0],"sdaReg0":[1],"1093954384":[0]},"colorToColor":{"0":[3],"1":[0],"2":[0]},"colorToLabel":{"0":"this","1":"arg#1","3":"return"}}}

Generated Model
	this->return
	arg#1->this
	arg#1->return

