Scanning method <java.util.AbstractList$SubAbstractList: int size()>

All seen event types: LoadInstanceRecord, IfRecord, 
Ignored event types: IfRecord, 

JSON Encoded Analysis Data (for visualization):{"heapEdges":[{"step":0,"from":"1093351928","to":"1093351928.<java.util.AbstractList: int modCount>","type":"load","field":"<java.util.AbstractList: int modCount>"},{"step":1,"from":"1093351928","to":"1093519824","type":"load","field":"<java.util.AbstractList$SubAbstractList: java.util.AbstractList fullList>"},{"step":2,"from":"1093519824","to":"1093519824.<java.util.AbstractList: int modCount>","type":"load","field":"<java.util.AbstractList: int modCount>"},{"step":3,"from":"1093351928","to":"1093351928.<java.util.AbstractList$SubAbstractList: int size>","type":"load","field":"<java.util.AbstractList$SubAbstractList: int size>"}],"parameters":[{"id":"1093351928","name":"this","klass":"java.util.AbstractList$SubAbstractList"}],"returns":[{"id":"1093351928.<java.util.AbstractList$SubAbstractList: int size>","name":"return","klass":"int"}],"colors":{"heapLocToColor":{"1093519824":[0],"1093351928.<java.util.AbstractList$SubAbstractList: int size>":[0],"1093519824.<java.util.AbstractList: int modCount>":[0],"1093351928":[0],"1093351928.<java.util.AbstractList: int modCount>":[0]},"colorToColor":{"0":[1]},"colorToLabel":{"0":"this","1":"return"}}}

Generated Model
	this->return

