Scanning method <android.text.Html: java.lang.String toHtml(android.text.Spanned)>

All seen event types: StoreArrayRecord, SimpleAssignmentRecord, MethodStartRecord, LoadInstanceRecord, IfRecord, InstanceOfRecord, NewObjectRecord, LoadStaticRecord, BinaryOperationRecord, MethodCallRecord, MethodReturnRecord, CastRecord, ArrayLengthRecord, LoadArrayRecord, MethodEndRecord, 
Ignored event types: IfRecord, 

JSON Encoded Analysis Data (for visualization):{"heapEdges":[{"step":0,"from":"1093778128","to":"1093778128.<android.text.SpannableStringInternal: java.lang.String mText>","type":"load","field":"<android.text.SpannableStringInternal: java.lang.String mText>"},{"step":1,"from":"1093778128","to":"1093778128.<android.text.SpannableStringInternal: java.lang.String mText>","type":"load","field":"<android.text.SpannableStringInternal: java.lang.String mText>"},{"step":2,"from":"1093778128","to":"1093778128.<android.text.SpannableStringInternal: int mSpanCount>","type":"load","field":"<android.text.SpannableStringInternal: int mSpanCount>"},{"step":3,"from":"1093778128","to":"1093481264","type":"load","field":"<android.text.SpannableStringInternal: java.lang.Object[] mSpans>"},{"step":4,"from":"1093778128","to":"1093711952","type":"load","field":"<android.text.SpannableStringInternal: int[] mSpanData>"},{"step":5,"from":"1093711952","to":"1093711952.arrayIdx_int:0","type":"load","field":"arrayIdx_int:0"},{"step":6,"from":"1093711952","to":"1093711952.arrayIdx_int:1","type":"load","field":"arrayIdx_int:1"},{"step":7,"from":"1093481264","to":"1093505328","type":"load","field":"arrayIdx_int:0"},{"step":8,"from":"1093481264","to":"1093505328","type":"load","field":"arrayIdx_int:0"},{"step":9,"from":"1093778128","to":"1093778128.<android.text.SpannableStringInternal: int mSpanCount>","type":"load","field":"<android.text.SpannableStringInternal: int mSpanCount>"},{"step":10,"from":"1093778128","to":"1093481264","type":"load","field":"<android.text.SpannableStringInternal: java.lang.Object[] mSpans>"},{"step":11,"from":"1093778128","to":"1093711952","type":"load","field":"<android.text.SpannableStringInternal: int[] mSpanData>"},{"step":12,"from":"1093481264","to":"1093505328","type":"load","field":"arrayIdx_int:0"},{"step":13,"from":"1084659448","to":"sdaReg30","type":"model"},{"step":14,"from":"static.<com.android.internal.util.ArrayUtils: java.lang.Object[] sCache>","to":"1084375760","type":"load","field":"<com.android.internal.util.ArrayUtils: java.lang.Object[] sCache>"},{"step":15,"from":"1084375760","to":"1085268040","type":"load","field":"arrayIdx_int:42"},{"step":16,"from":"1085268040","to":"1084833288","type":"model"},{"step":17,"from":"1084833288","to":"1084659448","type":"model"},{"step":18,"from":"1093778128","to":"1093778128.<android.text.SpannableStringInternal: int mSpanCount>","type":"load","field":"<android.text.SpannableStringInternal: int mSpanCount>"},{"step":19,"from":"1093778128","to":"1093481264","type":"load","field":"<android.text.SpannableStringInternal: java.lang.Object[] mSpans>"},{"step":20,"from":"1093778128","to":"1093711952","type":"load","field":"<android.text.SpannableStringInternal: int[] mSpanData>"},{"step":21,"from":"1093711952","to":"1093711952.arrayIdx_int:0","type":"load","field":"arrayIdx_int:0"},{"step":22,"from":"1093711952","to":"1093711952.arrayIdx_int:1","type":"load","field":"arrayIdx_int:1"},{"step":23,"from":"1093481264","to":"1093505328","type":"load","field":"arrayIdx_int:0"},{"step":24,"from":"1093481264","to":"1093505328","type":"load","field":"arrayIdx_int:0"},{"step":25,"from":"1093778128","to":"1093778128.<android.text.SpannableStringInternal: int mSpanCount>","type":"load","field":"<android.text.SpannableStringInternal: int mSpanCount>"},{"step":26,"from":"1093778128","to":"1093481264","type":"load","field":"<android.text.SpannableStringInternal: java.lang.Object[] mSpans>"},{"step":27,"from":"1093778128","to":"1093711952","type":"load","field":"<android.text.SpannableStringInternal: int[] mSpanData>"},{"step":28,"from":"1093481264","to":"1093505328","type":"load","field":"arrayIdx_int:0"},{"step":29,"from":"1084853880","to":"sdaReg71","type":"model"},{"step":30,"from":"static.<com.android.internal.util.ArrayUtils: java.lang.Object[] sCache>","to":"1084375760","type":"load","field":"<com.android.internal.util.ArrayUtils: java.lang.Object[] sCache>"},{"step":31,"from":"static.<com.android.internal.util.ArrayUtils: java.lang.Object[] sCache>","to":"1084375760","type":"load","field":"<com.android.internal.util.ArrayUtils: java.lang.Object[] sCache>"},{"step":32,"from":"1084375760","to":"1093997824","type":"create","field":"arrayIdx_int:37"},{"step":33,"from":"1093778128","to":"1093778128.<android.text.SpannableStringInternal: int mSpanCount>","type":"load","field":"<android.text.SpannableStringInternal: int mSpanCount>"},{"step":34,"from":"1093778128","to":"1093481264","type":"load","field":"<android.text.SpannableStringInternal: java.lang.Object[] mSpans>"},{"step":35,"from":"1093778128","to":"1093711952","type":"load","field":"<android.text.SpannableStringInternal: int[] mSpanData>"},{"step":36,"from":"1093711952","to":"1093711952.arrayIdx_int:0","type":"load","field":"arrayIdx_int:0"},{"step":37,"from":"1093711952","to":"1093711952.arrayIdx_int:1","type":"load","field":"arrayIdx_int:1"},{"step":38,"from":"1093481264","to":"1093505328","type":"load","field":"arrayIdx_int:0"},{"step":39,"from":"1093778128","to":"1093778128.<android.text.SpannableStringInternal: int mSpanCount>","type":"load","field":"<android.text.SpannableStringInternal: int mSpanCount>"},{"step":40,"from":"1093778128","to":"1093481264","type":"load","field":"<android.text.SpannableStringInternal: java.lang.Object[] mSpans>"},{"step":41,"from":"1093778128","to":"1093711952","type":"load","field":"<android.text.SpannableStringInternal: int[] mSpanData>"},{"step":42,"from":"1093481264","to":"1093505328","type":"load","field":"arrayIdx_int:0"},{"step":43,"from":"1093711952","to":"1093711952.arrayIdx_int:0","type":"load","field":"arrayIdx_int:0"},{"step":44,"from":"1093711952","to":"1093711952.arrayIdx_int:1","type":"load","field":"arrayIdx_int:1"},{"step":45,"from":"1084661656","to":"sdaReg122","type":"model"},{"step":46,"from":"static.<com.android.internal.util.ArrayUtils: java.lang.Object[] sCache>","to":"1084375760","type":"load","field":"<com.android.internal.util.ArrayUtils: java.lang.Object[] sCache>"},{"step":47,"from":"static.<com.android.internal.util.ArrayUtils: java.lang.Object[] sCache>","to":"1084375760","type":"load","field":"<com.android.internal.util.ArrayUtils: java.lang.Object[] sCache>"},{"step":48,"from":"1084375760","to":"1093550768","type":"create","field":"arrayIdx_int:26"},{"step":49,"from":"1093778128","to":"1093778128.<android.text.SpannableStringInternal: java.lang.String mText>","type":"load","field":"<android.text.SpannableStringInternal: java.lang.String mText>"},{"step":50,"from":"1093778128.<android.text.SpannableStringInternal: java.lang.String mText>","to":"sdaReg140","type":"model"},{"step":51,"from":"sdaReg140","to":"1093847240","type":"model"},{"step":52,"from":"1093778128","to":"1093778128.<android.text.SpannableStringInternal: java.lang.String mText>","type":"load","field":"<android.text.SpannableStringInternal: java.lang.String mText>"},{"step":53,"from":"1093778128.<android.text.SpannableStringInternal: java.lang.String mText>","to":"sdaReg142","type":"model"},{"step":54,"from":"sdaReg142","to":"1093847240","type":"model"},{"step":55,"from":"1093778128","to":"1093778128.<android.text.SpannableStringInternal: java.lang.String mText>","type":"load","field":"<android.text.SpannableStringInternal: java.lang.String mText>"},{"step":56,"from":"1093778128.<android.text.SpannableStringInternal: java.lang.String mText>","to":"sdaReg144","type":"model"},{"step":57,"from":"sdaReg144","to":"1093847240","type":"model"},{"step":58,"from":"1093778128","to":"1093778128.<android.text.SpannableStringInternal: java.lang.String mText>","type":"load","field":"<android.text.SpannableStringInternal: java.lang.String mText>"},{"step":59,"from":"1093778128.<android.text.SpannableStringInternal: java.lang.String mText>","to":"sdaReg146","type":"model"},{"step":60,"from":"sdaReg146","to":"1093847240","type":"model"},{"step":61,"from":"1093778128","to":"1093778128.<android.text.SpannableStringInternal: java.lang.String mText>","type":"load","field":"<android.text.SpannableStringInternal: java.lang.String mText>"},{"step":62,"from":"1093778128.<android.text.SpannableStringInternal: java.lang.String mText>","to":"sdaReg148","type":"model"},{"step":63,"from":"sdaReg148","to":"1093847240","type":"model"},{"step":64,"from":"1093778128","to":"1093778128.<android.text.SpannableStringInternal: java.lang.String mText>","type":"load","field":"<android.text.SpannableStringInternal: java.lang.String mText>"},{"step":65,"from":"1093778128.<android.text.SpannableStringInternal: java.lang.String mText>","to":"sdaReg150","type":"model"},{"step":66,"from":"1093778128","to":"1093778128.<android.text.SpannableStringInternal: int mSpanCount>","type":"load","field":"<android.text.SpannableStringInternal: int mSpanCount>"},{"step":67,"from":"1093778128","to":"1093481264","type":"load","field":"<android.text.SpannableStringInternal: java.lang.Object[] mSpans>"},{"step":68,"from":"1093778128","to":"1093711952","type":"load","field":"<android.text.SpannableStringInternal: int[] mSpanData>"},{"step":69,"from":"1093711952","to":"1093711952.arrayIdx_int:0","type":"load","field":"arrayIdx_int:0"},{"step":70,"from":"1093711952","to":"1093711952.arrayIdx_int:1","type":"load","field":"arrayIdx_int:1"},{"step":71,"from":"1093481264","to":"1093505328","type":"load","field":"arrayIdx_int:0"},{"step":72,"from":"1093778128","to":"1093778128.<android.text.SpannableStringInternal: int mSpanCount>","type":"load","field":"<android.text.SpannableStringInternal: int mSpanCount>"},{"step":73,"from":"1093778128","to":"1093481264","type":"load","field":"<android.text.SpannableStringInternal: java.lang.Object[] mSpans>"},{"step":74,"from":"1093778128","to":"1093711952","type":"load","field":"<android.text.SpannableStringInternal: int[] mSpanData>"},{"step":75,"from":"1093481264","to":"1093505328","type":"load","field":"arrayIdx_int:0"},{"step":76,"from":"1093711952","to":"1093711952.arrayIdx_int:0","type":"load","field":"arrayIdx_int:0"},{"step":77,"from":"1093711952","to":"1093711952.arrayIdx_int:1","type":"load","field":"arrayIdx_int:1"},{"step":78,"from":"1093481264","to":"1093505328","type":"load","field":"arrayIdx_int:0"},{"step":79,"from":"1093505328","to":"1094034608","type":"store","field":"arrayIdx_int:0"},{"step":80,"from":"1093505328","to":"1093505328.<android.text.style.StyleSpan: int mStyle>","type":"load","field":"<android.text.style.StyleSpan: int mStyle>"},{"step":81,"from":"1093778128","to":"1093778128.<android.text.SpannableStringInternal: java.lang.String mText>","type":"load","field":"<android.text.SpannableStringInternal: java.lang.String mText>"},{"step":82,"from":"1093778128.<android.text.SpannableStringInternal: java.lang.String mText>","to":"sdaReg203","type":"model"},{"step":83,"from":"sdaReg203","to":"1093847240","type":"model"},{"step":84,"from":"1093778128","to":"1093778128.<android.text.SpannableStringInternal: java.lang.String mText>","type":"load","field":"<android.text.SpannableStringInternal: java.lang.String mText>"},{"step":85,"from":"1093778128.<android.text.SpannableStringInternal: java.lang.String mText>","to":"sdaReg205","type":"model"},{"step":86,"from":"sdaReg205","to":"1093847240","type":"model"},{"step":87,"from":"1093778128","to":"1093778128.<android.text.SpannableStringInternal: java.lang.String mText>","type":"load","field":"<android.text.SpannableStringInternal: java.lang.String mText>"},{"step":88,"from":"1093778128.<android.text.SpannableStringInternal: java.lang.String mText>","to":"sdaReg207","type":"model"},{"step":89,"from":"sdaReg207","to":"1093847240","type":"model"},{"step":90,"from":"1093778128","to":"1093778128.<android.text.SpannableStringInternal: java.lang.String mText>","type":"load","field":"<android.text.SpannableStringInternal: java.lang.String mText>"},{"step":91,"from":"1093778128.<android.text.SpannableStringInternal: java.lang.String mText>","to":"sdaReg209","type":"model"},{"step":92,"from":"sdaReg209","to":"1093847240","type":"model"},{"step":93,"from":"1093505328","to":"1093505328.<android.text.style.StyleSpan: int mStyle>","type":"load","field":"<android.text.style.StyleSpan: int mStyle>"},{"step":94,"from":"1093778128","to":"1093778128.<android.text.SpannableStringInternal: int mSpanCount>","type":"load","field":"<android.text.SpannableStringInternal: int mSpanCount>"},{"step":95,"from":"1093778128","to":"1093481264","type":"load","field":"<android.text.SpannableStringInternal: java.lang.Object[] mSpans>"},{"step":96,"from":"1093778128","to":"1093711952","type":"load","field":"<android.text.SpannableStringInternal: int[] mSpanData>"},{"step":97,"from":"1093711952","to":"1093711952.arrayIdx_int:0","type":"load","field":"arrayIdx_int:0"},{"step":98,"from":"1093711952","to":"1093711952.arrayIdx_int:1","type":"load","field":"arrayIdx_int:1"},{"step":99,"from":"1093778128","to":"1093778128.<android.text.SpannableStringInternal: int mSpanCount>","type":"load","field":"<android.text.SpannableStringInternal: int mSpanCount>"},{"step":100,"from":"1093778128","to":"1093481264","type":"load","field":"<android.text.SpannableStringInternal: java.lang.Object[] mSpans>"},{"step":101,"from":"1093778128","to":"1093711952","type":"load","field":"<android.text.SpannableStringInternal: int[] mSpanData>"},{"step":102,"from":"1093481264","to":"1093505328","type":"load","field":"arrayIdx_int:0"},{"step":103,"from":"1093711952","to":"1093711952.arrayIdx_int:0","type":"load","field":"arrayIdx_int:0"},{"step":104,"from":"1093711952","to":"1093711952.arrayIdx_int:1","type":"load","field":"arrayIdx_int:1"},{"step":105,"from":"1084661656","to":"sdaReg247","type":"model"},{"step":106,"from":"static.<com.android.internal.util.ArrayUtils: java.lang.Object[] sCache>","to":"1084375760","type":"load","field":"<com.android.internal.util.ArrayUtils: java.lang.Object[] sCache>"},{"step":107,"from":"1093550768","to":"1085374624","type":"model"},{"step":108,"from":"1085374624","to":"1084661656","type":"model"},{"step":109,"from":"1093778128","to":"1093778128.<android.text.SpannableStringInternal: java.lang.String mText>","type":"load","field":"<android.text.SpannableStringInternal: java.lang.String mText>"},{"step":110,"from":"1093778128.<android.text.SpannableStringInternal: java.lang.String mText>","to":"sdaReg264","type":"model"},{"step":111,"from":"1093778128","to":"1093778128.<android.text.SpannableStringInternal: java.lang.String mText>","type":"load","field":"<android.text.SpannableStringInternal: java.lang.String mText>"},{"step":112,"from":"1093778128.<android.text.SpannableStringInternal: java.lang.String mText>","to":"sdaReg268","type":"model"},{"step":113,"from":"1093778128","to":"1093778128.<android.text.SpannableStringInternal: java.lang.String mText>","type":"load","field":"<android.text.SpannableStringInternal: java.lang.String mText>"},{"step":114,"from":"1093778128.<android.text.SpannableStringInternal: java.lang.String mText>","to":"sdaReg270","type":"model"},{"step":115,"from":"sdaReg270","to":"1093847240","type":"model"},{"step":116,"from":"1093778128","to":"1093778128.<android.text.SpannableStringInternal: java.lang.String mText>","type":"load","field":"<android.text.SpannableStringInternal: java.lang.String mText>"},{"step":117,"from":"1093778128.<android.text.SpannableStringInternal: java.lang.String mText>","to":"sdaReg272","type":"model"},{"step":118,"from":"sdaReg272","to":"1093847240","type":"model"},{"step":119,"from":"1093778128","to":"1093778128.<android.text.SpannableStringInternal: java.lang.String mText>","type":"load","field":"<android.text.SpannableStringInternal: java.lang.String mText>"},{"step":120,"from":"1093778128.<android.text.SpannableStringInternal: java.lang.String mText>","to":"sdaReg274","type":"model"},{"step":121,"from":"sdaReg274","to":"1093847240","type":"model"},{"step":122,"from":"1093778128","to":"1093778128.<android.text.SpannableStringInternal: java.lang.String mText>","type":"load","field":"<android.text.SpannableStringInternal: java.lang.String mText>"},{"step":123,"from":"1093778128.<android.text.SpannableStringInternal: java.lang.String mText>","to":"sdaReg276","type":"model"},{"step":124,"from":"sdaReg276","to":"1093847240","type":"model"},{"step":125,"from":"1093778128","to":"1093778128.<android.text.SpannableStringInternal: java.lang.String mText>","type":"load","field":"<android.text.SpannableStringInternal: java.lang.String mText>"},{"step":126,"from":"1093778128.<android.text.SpannableStringInternal: java.lang.String mText>","to":"sdaReg278","type":"model"},{"step":127,"from":"sdaReg278","to":"1093847240","type":"model"},{"step":128,"from":"sdaReg281","to":"1093847240","type":"model"},{"step":129,"from":"1093778128","to":"1093778128.<android.text.SpannableStringInternal: java.lang.String mText>","type":"load","field":"<android.text.SpannableStringInternal: java.lang.String mText>"},{"step":130,"from":"1093847240","to":"sdaReg288","type":"model"}],"parameters":[{"id":"1093778128","name":"arg#0","klass":"android.text.Spanned"}],"returns":[{"id":"sdaReg288","name":"return","klass":"string"}],"colors":{"heapLocToColor":{"sdaReg125":[19],"sdaReg126":[20],"1093550768":[20],"sdaReg127":[20],"sdaReg128":[20],"1093505328.<android.text.style.StyleSpan: int mStyle>":[0],"sdaReg129":[20],"sdaReg199":[1],"sdaReg69":[13],"sdaReg224":[0],"1093711952.arrayIdx_int:1":[0],"1093778128.<android.text.SpannableStringInternal: int[] mSpanData>":[0],"1093711952":[0],"1093711952.arrayIdx_int:0":[0],"sdaReg226":[0],"sdaReg63":[0],"sdaReg221":[0],"sdaReg72":[14],"sdaReg71":[14],"sdaReg223":[0],"sdaReg11":[0],"sdaReg222":[0],"sdaReg19":[5],"sdaReg122":[19],"sdaReg18":[4],"sdaReg124":[19],"sdaReg123":[19],"sdaReg116":[18],"sdaReg77":[15],"1093997824":[15],"sdaReg78":[15],"sdaReg79":[15],"sdaReg73":[14],"sdaReg74":[14],"sdaReg75":[15],"sdaReg76":[15],"sdaReg81":[15],"sdaReg80":[15],"sdaReg83":[15],"1085268040":[8],"sdaReg82":[15],"sdaReg110":[0],"sdaReg107":[17],"sdaReg108":[0],"static.<com.android.internal.util.ArrayUtils: java.lang.Object[] sCache>":[8],"sdaReg86":[1],"sdaReg247":[35],"sdaReg172":[28],"sdaReg87":[0],"sdaReg248":[35],"sdaReg249":[35],"sdaReg177":[29],"sdaReg88":[16, 2],"sdaReg179":[29],"sdaReg178":[29],"sdaReg89":[16, 2],"sdaReg241":[34],"sdaReg92":[0, 16, 2],"sdaReg100":[0],"sdaReg182":[29],"sdaReg181":[29],"sdaReg180":[29],"sdaReg186":[0],"sdaReg95":[1],"sdaReg96":[0],"sdaReg235":[0],"sdaReg97":[0, 16, 2],"1093778128.<android.text.SpannableStringInternal: int mSpanCount>":[0],"1093778128.<android.text.SpannableStringInternal: java.lang.String mText>":[0],"sdaReg98":[0],"sdaReg188":[0],"sdaReg187":[0],"sdaReg233":[0],"sdaReg60":[12],"sdaReg61":[0],"sdaReg269":[0],"sdaReg268":[0, 39],"sdaReg163":[27],"sdaReg164":[0],"sdaReg166":[0],"1093481264":[0],"sdaReg59":[11],"sdaReg264":[0, 38],"sdaReg265":[0, 16, 2],"sdaReg266":[0, 16, 2],"sdaReg267":[0],"sdaReg260":[1],"sdaReg261":[0],"sdaReg262":[0, 16, 2],"sdaReg52":[0],"sdaReg263":[0],"sdaReg50":[0],"sdaReg258":[20],"sdaReg257":[20],"1084661656":[20, 36, 37],"1084833288":[8, 9],"sdaReg150":[0, 26],"sdaReg49":[2],"sdaReg156":[0],"sdaReg48":[0],"sdaReg154":[0],"sdaReg255":[20],"1084659448":[8, 9, 10],"sdaReg256":[20],"1094034608":[29],"sdaReg47":[1],"sdaReg251":[20, 36],"sdaReg41":[8],"sdaReg252":[20, 36, 37],"sdaReg40":[8],"sdaReg250":[35],"sdaReg42":[8],"1093505328":[0],"sdaReg200":[0],"sdaReg148":[0, 25],"1085374624":[20, 36],"sdaReg201":[0, 16, 2],"sdaReg147":[0],"sdaReg149":[0],"sdaReg205":[0, 31],"sdaReg143":[0],"sdaReg204":[0],"sdaReg144":[0, 23],"sdaReg39":[8],"sdaReg203":[0, 30],"sdaReg145":[0],"sdaReg38":[8],"sdaReg202":[0],"sdaReg146":[0, 24],"1084375760":[8],"1093778128":[0],"sdaReg209":[0, 33],"sdaReg208":[0],"sdaReg140":[0, 21],"sdaReg207":[0, 32],"1093481264.arrayIdx_int:0":[0],"sdaReg141":[0],"sdaReg206":[0],"sdaReg142":[0, 22],"sdaReg32":[7],"sdaReg283":[15],"sdaReg31":[7],"sdaReg30":[7],"sdaReg286":[0],"sdaReg287":[45],"sdaReg35":[8, 9, 10],"sdaReg288":[1, 46],"sdaReg34":[8, 9],"sdaReg33":[7],"sdaReg8":[3],"sdaReg9":[0],"sdaReg6":[2],"sdaReg7":[0],"sdaReg4":[0],"sdaReg5":[2],"sdaReg139":[0],"sdaReg137":[0],"sdaReg136":[1],"sdaReg132":[20],"sdaReg28":[6],"sdaReg133":[20, 29],"sdaReg130":[20],"sdaReg270":[0, 40],"1093778128.<android.text.SpannableStringInternal: java.lang.Object[] mSpans>":[0],"sdaReg131":[20],"sdaReg273":[0],"sdaReg3":[0],"1093847240":[1],"sdaReg274":[0, 42],"sdaReg2":[1],"sdaReg271":[0],"sdaReg1":[1],"sdaReg272":[0, 41],"sdaReg0":[1],"sdaReg20":[0],"sdaReg277":[0],"sdaReg278":[0, 44],"sdaReg22":[0],"sdaReg275":[0],"sdaReg276":[0, 43]},"colorToColor":{"0":[1, 29],"1":[47],"32":[1],"33":[1],"42":[1],"43":[1],"40":[1],"41":[1],"46":[47],"44":[1],"15":[8],"21":[1],"20":[8],"23":[1],"22":[1],"25":[1],"24":[1],"31":[1],"30":[1]},"colorToLabel":{"0":"arg#0","8":"<com.android.internal.util.ArrayUtils: java.lang.Object[] sCache>","47":"return"}}}

Generated Model
	arg#0->return

