Scanning method <java.io.PrintWriter: void setError()>

All seen event types: SimpleAssignmentRecord, ExitMonitorRecord, EnterMonitorRecord, LoadInstanceRecord, StoreInstanceRecord, 
Ignored event types: ExitMonitorRecord, EnterMonitorRecord, 

JSON Encoded Analysis Data (for visualization):{"heapEdges":[{"step":0,"from":"1093602280","to":"1093602312","type":"load","field":"<java.io.Writer: java.lang.Object lock>"},{"step":1,"from":"1093602280","to":"sdaReg1","type":"create","field":"<java.io.PrintWriter: boolean ioError>"}],"parameters":[{"id":"1093602280","name":"this","klass":"java.io.PrintWriter"}],"returns":[{"id":null,"name":"return","klass":null}],"colors":{"heapLocToColor":{"1093602312":[0],"1093602280":[0]},"colorToColor":{},"colorToLabel":{"0":"this","1":"return"}}}

Generated Model

