Scanning method <java.io.ObjectInputStream: java.lang.Class readNewClass(boolean)>

All seen event types: StoreArrayRecord, SimpleAssignmentRecord, MethodStartRecord, LoadInstanceRecord, IfRecord, StoreInstanceRecord, NewArrayRecord, BinaryOperationRecord, MethodCallRecord, MethodReturnRecord, SwitchRecord, CastRecord, ArrayLengthRecord, LoadArrayRecord, MethodEndRecord, 
Ignored event types: SwitchRecord, IfRecord, 

JSON Encoded Analysis Data (for visualization):{"heapEdges":[{"step":0,"from":"1093282712","to":"1093282712.<java.io.ObjectInputStream: boolean hasPushbackTC>","type":"load","field":"<java.io.ObjectInputStream: boolean hasPushbackTC>"},{"step":1,"from":"1093282712","to":"1093296224","type":"load","field":"<java.io.ObjectInputStream: java.io.DataInputStream input>"},{"step":2,"from":"1093296224","to":"1093608136","type":"load","field":"<java.io.FilterInputStream: java.io.InputStream in>"},{"step":3,"from":"1093608136","to":"1093608136.<java.io.ByteArrayInputStream: int pos>","type":"load","field":"<java.io.ByteArrayInputStream: int pos>"},{"step":4,"from":"1093608136","to":"1093608136.<java.io.ByteArrayInputStream: int count>","type":"load","field":"<java.io.ByteArrayInputStream: int count>"},{"step":5,"from":"1093608136","to":"1093608168","type":"load","field":"<java.io.ByteArrayInputStream: byte[] buf>"},{"step":6,"from":"1093608136","to":"1093608136.<java.io.ByteArrayInputStream: int pos>","type":"load","field":"<java.io.ByteArrayInputStream: int pos>"},{"step":7,"from":"sdaReg5","to":"1093608136","type":"store","field":"<java.io.ByteArrayInputStream: int pos>"},{"step":8,"from":"1093608168","to":"1093608168.arrayIdx_int:5","type":"load","field":"arrayIdx_int:5"},{"step":9,"from":"sdaReg7","to":"1093282712","type":"store","field":"<java.io.ObjectInputStream: byte pushbackTC>"},{"step":10,"from":"1093282712","to":"1093296224","type":"load","field":"<java.io.ObjectInputStream: java.io.DataInputStream input>"},{"step":11,"from":"1093296224","to":"1093282712","type":"store","field":"<java.io.ObjectInputStream: java.io.InputStream primitiveData>"},{"step":12,"from":"1093282712","to":"1093282712.<java.io.ObjectInputStream: int descriptorHandle>","type":"load","field":"<java.io.ObjectInputStream: int descriptorHandle>"},{"step":13,"from":"1093282712","to":"1093282712.<java.io.ObjectInputStream: int nextHandle>","type":"load","field":"<java.io.ObjectInputStream: int nextHandle>"},{"step":14,"from":"sdaReg12","to":"1093282712","type":"store","field":"<java.io.ObjectInputStream: int nextHandle>"},{"step":15,"from":"1093282712.<java.io.ObjectInputStream: int nextHandle>","to":"1093282712","type":"store","field":"<java.io.ObjectInputStream: int descriptorHandle>"},{"step":16,"from":"1093282712","to":"1093441400","type":"model"},{"step":17,"from":"1093282712","to":"1093296336","type":"load","field":"<java.io.ObjectInputStream: java.util.ArrayList objectsRead>"},{"step":18,"from":"1093296336","to":"1093296336.<java.util.ArrayList: int size>","type":"load","field":"<java.util.ArrayList: int size>"},{"step":19,"from":"1093282712","to":"1093296336","type":"load","field":"<java.io.ObjectInputStream: java.util.ArrayList objectsRead>"},{"step":20,"from":"1093296336","to":"1083994088","type":"load","field":"<java.util.ArrayList: java.lang.Object[] array>"},{"step":21,"from":"1093296336","to":"1093296336.<java.util.ArrayList: int size>","type":"load","field":"<java.util.ArrayList: int size>"},{"step":22,"from":"1083994088","to":"1093655992","type":"model"},{"step":23,"from":"1093296336","to":"1093655992","type":"create","field":"<java.util.ArrayList: java.lang.Object[] array>"},{"step":24,"from":"1093655992","to":"1093441400","type":"create","field":"arrayIdx_int:0"},{"step":25,"from":"sdaReg24","to":"1093296336","type":"store","field":"<java.util.ArrayList: int size>"},{"step":26,"from":"1093296336","to":"1093296336.<java.util.AbstractList: int modCount>","type":"load","field":"<java.util.AbstractList: int modCount>"},{"step":27,"from":"sdaReg25","to":"1093296336","type":"store","field":"<java.util.AbstractList: int modCount>"},{"step":28,"from":"1093282712.<java.io.ObjectInputStream: int descriptorHandle>","to":"1093282712","type":"store","field":"<java.io.ObjectInputStream: int descriptorHandle>"},{"step":29,"from":"1093282712","to":"1093296136","type":"load","field":"<java.io.ObjectInputStream: java.io.InputStream emptyStream>"},{"step":30,"from":"1093296136","to":"1093282712","type":"store","field":"<java.io.ObjectInputStream: java.io.InputStream primitiveData>"},{"step":31,"from":"1093441400","to":"1093607832","type":"model"},{"step":32,"from":"1093441400","to":"1093607832","type":"model"},{"step":33,"from":"1093607832","to":"1093441400","type":"model"},{"step":34,"from":"1093441400","to":"1093607832","type":"model"},{"step":35,"from":"1093607832","to":"1093441400","type":"model"},{"step":36,"from":"1093441400","to":"sdaReg35","type":"model"},{"step":37,"from":"1093441400","to":"sdaReg36","type":"model"},{"step":38,"from":"1093441400","to":"sdaReg38","type":"model"},{"step":39,"from":"sdaReg38","to":"sdaReg39","type":"model"},{"step":40,"from":"sdaReg38","to":"sdaReg42","type":"model"},{"step":41,"from":"sdaReg38","to":"sdaReg43","type":"model"},{"step":42,"from":"sdaReg42","to":"sdaReg38","type":"model"},{"step":43,"from":"sdaReg42","to":"sdaReg43","type":"model"},{"step":44,"from":"1093441400","to":"sdaReg44","type":"model"},{"step":45,"from":"sdaReg44","to":"sdaReg45","type":"model"},{"step":46,"from":"sdaReg44","to":"sdaReg48","type":"model"},{"step":47,"from":"sdaReg44","to":"sdaReg49","type":"model"},{"step":48,"from":"sdaReg48","to":"sdaReg44","type":"model"},{"step":49,"from":"sdaReg48","to":"sdaReg49","type":"model"},{"step":50,"from":"1093441400","to":"1093444120","type":"model"},{"step":51,"from":"1093441400","to":"1093607832","type":"model"},{"step":52,"from":"1093441400","to":"1093607832","type":"model"},{"step":53,"from":"1093607832","to":"1093277064","type":"model"},{"step":54,"from":"1093282712","to":"1093296136","type":"load","field":"<java.io.ObjectInputStream: java.io.InputStream emptyStream>"},{"step":55,"from":"1093296136","to":"1093282712","type":"store","field":"<java.io.ObjectInputStream: java.io.InputStream primitiveData>"},{"step":56,"from":"1093282712","to":"1093282712.<java.io.ObjectInputStream: boolean mustResolve>","type":"load","field":"<java.io.ObjectInputStream: boolean mustResolve>"},{"step":57,"from":"1093282712","to":"sdaReg62","type":"create","field":"<java.io.ObjectInputStream: boolean mustResolve>"},{"step":58,"from":"1093282712","to":"1093282712.<java.io.ObjectInputStream: boolean hasPushbackTC>","type":"load","field":"<java.io.ObjectInputStream: boolean hasPushbackTC>"},{"step":59,"from":"1093282712","to":"1093296224","type":"load","field":"<java.io.ObjectInputStream: java.io.DataInputStream input>"},{"step":60,"from":"1093296224","to":"1093608136","type":"load","field":"<java.io.FilterInputStream: java.io.InputStream in>"},{"step":61,"from":"1093608136","to":"1093608136.<java.io.ByteArrayInputStream: int count>","type":"load","field":"<java.io.ByteArrayInputStream: int count>"},{"step":62,"from":"1093608136","to":"1093608168","type":"load","field":"<java.io.ByteArrayInputStream: byte[] buf>"},{"step":63,"from":"sdaReg66","to":"1093608136","type":"store","field":"<java.io.ByteArrayInputStream: int pos>"},{"step":64,"from":"1093608168","to":"1093608168.arrayIdx_int:6","type":"load","field":"arrayIdx_int:6"},{"step":65,"from":"sdaReg68","to":"1093282712","type":"store","field":"<java.io.ObjectInputStream: byte pushbackTC>"},{"step":66,"from":"1093282712.<java.io.ObjectInputStream: boolean mustResolve>","to":"1093282712","type":"store","field":"<java.io.ObjectInputStream: boolean mustResolve>"},{"step":67,"from":"1093282712","to":"1093282712.<java.io.ObjectInputStream: boolean hasPushbackTC>","type":"load","field":"<java.io.ObjectInputStream: boolean hasPushbackTC>"},{"step":68,"from":"1093282712","to":"1093296224","type":"load","field":"<java.io.ObjectInputStream: java.io.DataInputStream input>"},{"step":69,"from":"1093296224","to":"1093608136","type":"load","field":"<java.io.FilterInputStream: java.io.InputStream in>"},{"step":70,"from":"1093608136","to":"1093608136.<java.io.ByteArrayInputStream: int count>","type":"load","field":"<java.io.ByteArrayInputStream: int count>"},{"step":71,"from":"1093608136","to":"1093608168","type":"load","field":"<java.io.ByteArrayInputStream: byte[] buf>"},{"step":72,"from":"sdaReg74","to":"1093608136","type":"store","field":"<java.io.ByteArrayInputStream: int pos>"},{"step":73,"from":"1093608168","to":"1093608168.arrayIdx_int:7","type":"load","field":"arrayIdx_int:7"},{"step":74,"from":"sdaReg76","to":"1093282712","type":"store","field":"<java.io.ObjectInputStream: byte pushbackTC>"},{"step":75,"from":"1093441400","to":"1093607832","type":"model"},{"step":76,"from":"sdaReg86","to":"1093282712","type":"store","field":"<java.io.ObjectInputStream: int nextHandle>"},{"step":77,"from":"1093282712","to":"1093607832","type":"model"},{"step":78,"from":"1093282712","to":"sdaReg87","type":"model"},{"step":79,"from":"1093282712","to":"sdaReg0","type":"model"},{"step":80,"from":"1093607832","to":"1093282712","type":"model"},{"step":81,"from":"1093607832","to":"sdaReg87","type":"model"},{"step":82,"from":"1093607832","to":"sdaReg0","type":"model"},{"step":83,"from":"sdaReg87","to":"1093282712","type":"model"},{"step":84,"from":"sdaReg87","to":"1093607832","type":"model"},{"step":85,"from":"sdaReg87","to":"sdaReg0","type":"model"},{"step":86,"from":"sdaReg0","to":"1093282712","type":"model"},{"step":87,"from":"sdaReg0","to":"1093607832","type":"model"},{"step":88,"from":"sdaReg0","to":"sdaReg87","type":"model"}],"parameters":[{"id":"1093282712","name":"this","klass":"java.io.ObjectInputStream"},{"id":"sdaReg0","name":"arg#1","klass":"boolean"}],"returns":[{"id":"1093607832","name":"return","klass":"com.android.cts.droidrecord.modelgen.ObjectInputStreamTest$TestClassForSerialization.class"}],"colors":{"heapLocToColor":{"1093296336":[0],"sdaReg68":[0],"sdaReg67":[0],"sdaReg64":[0],"sdaReg65":[0],"sdaReg63":[0],"sdaReg13":[0, 2],"1093282712.<java.io.ObjectInputStream: java.io.InputStream emptyStream>":[0],"sdaReg72":[0],"sdaReg14":[0],"sdaReg71":[0],"sdaReg11":[0],"sdaReg70":[0],"sdaReg12":[0],"1093296224.<java.io.FilterInputStream: java.io.InputStream in>":[0],"1093608136.<java.io.ByteArrayInputStream: byte[] buf>":[0],"sdaReg19":[0],"1093607832":[0, 2, 4],"1093282712.<java.io.ObjectInputStream: boolean hasPushbackTC>":[0],"sdaReg18":[0],"sdaReg15":[0, 2],"1093296136":[0],"1093282712.<java.io.ObjectInputStream: java.io.DataInputStream input>":[0],"1093296336.<java.util.AbstractList: int modCount>":[0],"sdaReg79":[0, 2],"sdaReg73":[0],"sdaReg75":[0],"1093608136.<java.io.ByteArrayInputStream: int count>":[0],"sdaReg76":[0],"sdaReg81":[18],"1093608136.<java.io.ByteArrayInputStream: int pos>":[0],"sdaReg83":[0, 2],"1083994088":[0],"sdaReg82":[0, 2],"1093608136":[0],"1093277064":[0, 17, 2, 4],"1093282712":[0],"sdaReg87":[0],"1093282712.<java.io.ObjectInputStream: int descriptorHandle>":[0],"1093282712.<java.io.ObjectInputStream: int nextHandle>":[0],"sdaReg84":[0, 2, 4],"sdaReg85":[0],"1093608168":[0],"1093296224":[0],"1093282712.<java.io.ObjectInputStream: java.util.ArrayList objectsRead>":[0],"1093444120":[0, 16, 2],"1093296336.<java.util.ArrayList: int size>":[0],"sdaReg61":[0],"sdaReg58":[0, 16, 2],"sdaReg57":[0, 17, 2, 4],"sdaReg56":[17, 0, 2, 4],"sdaReg55":[0, 2, 4],"sdaReg54":[0, 2, 4],"1093441400":[0, 2],"sdaReg53":[0, 16, 2],"sdaReg52":[0, 16, 2],"sdaReg51":[0, 16, 2],"sdaReg50":[15],"sdaReg49":[0, 2, 11, 14],"sdaReg48":[0, 2, 11, 12],"sdaReg45":[0, 2, 11, 12],"1093655992":[3],"sdaReg44":[0, 2, 11],"sdaReg47":[13],"sdaReg46":[13],"sdaReg41":[9],"sdaReg40":[9],"sdaReg43":[0, 2, 7, 10],"sdaReg42":[0, 2, 7, 8],"1093282712.<java.io.ObjectInputStream: boolean mustResolve>":[0],"sdaReg39":[0, 2, 7, 8],"sdaReg38":[0, 2, 7],"sdaReg37":[0, 2, 5, 6],"sdaReg32":[0, 2],"sdaReg31":[0],"sdaReg30":[0, 2, 4],"sdaReg36":[0, 2, 6],"sdaReg35":[0, 2, 5],"sdaReg34":[0, 2],"sdaReg33":[0, 2, 4],"1093608168.arrayIdx_int:7":[0],"1093608168.arrayIdx_int:6":[0],"sdaReg9":[0],"sdaReg6":[0],"sdaReg7":[0],"sdaReg4":[0],"sdaReg5":[0],"sdaReg27":[0],"sdaReg29":[0, 2, 4],"sdaReg28":[0, 2],"sdaReg3":[0],"sdaReg2":[0],"sdaReg1":[0],"sdaReg20":[0, 2],"sdaReg0":[0, 1],"sdaReg23":[0],"sdaReg25":[0],"sdaReg24":[0],"1093608168.arrayIdx_int:5":[0]},"colorToColor":{"0":[0, 1, 19, 2, 3, 4, 7, 10, 11, 14],"1":[0, 2, 4],"2":[0, 1, 19, 2, 3, 7, 10, 11, 14],"3":[0],"4":[0, 1, 19, 2],"7":[0, 2, 7, 10],"8":[0, 2, 7, 10],"11":[0, 2, 11, 14],"12":[0, 2, 11, 14]},"colorToLabel":{"0":"this","1":"arg#1","19":"return"}}}

Generated Model
	this->return
	this->arg#1
	arg#1->this
	arg#1->return

