Scanning method <java.io.ObjectInputStream: void checkReadPrimitiveTypes()>

All seen event types: BinaryOperationRecord, MethodReturnRecord, MethodCallRecord, MethodStartRecord, LoadInstanceRecord, MethodEndRecord, IfRecord, 
Ignored event types: IfRecord, 

JSON Encoded Analysis Data (for visualization):{"heapEdges":[{"step":0,"from":"1093516800","to":"1093628424","type":"load","field":"<java.io.ObjectInputStream: java.io.InputStream primitiveData>"},{"step":1,"from":"1093516800","to":"1093516712","type":"load","field":"<java.io.ObjectInputStream: java.io.DataInputStream input>"},{"step":2,"from":"1093516800","to":"1093628424","type":"load","field":"<java.io.ObjectInputStream: java.io.InputStream primitiveData>"},{"step":3,"from":"1093628424","to":"1093628424.<java.io.ByteArrayInputStream: int count>","type":"load","field":"<java.io.ByteArrayInputStream: int count>"},{"step":4,"from":"1093628424","to":"1093628424.<java.io.ByteArrayInputStream: int pos>","type":"load","field":"<java.io.ByteArrayInputStream: int pos>"}],"parameters":[{"id":"1093516800","name":"this","klass":"java.io.ObjectInputStream"}],"returns":[{"id":null,"name":"return","klass":null}],"colors":{"heapLocToColor":{"1093628424.<java.io.ByteArrayInputStream: int pos>":[0],"1093516712":[0],"1093628424.<java.io.ByteArrayInputStream: int count>":[0],"sdaReg1":[0],"1093628424":[0],"sdaReg0":[0],"1093516800.<java.io.ObjectInputStream: java.io.InputStream primitiveData>":[0],"1093516800":[0]},"colorToColor":{},"colorToLabel":{"0":"this","1":"return"}}}

Generated Model

