Scanning method <java.nio.ByteBuffer: byte[] array()>

All seen event types: MethodReturnRecord, MethodCallRecord, LoadInstanceRecord, MethodStartRecord, MethodEndRecord, 
Ignored event types: 

JSON Encoded Analysis Data (for visualization):{"heapEdges":[{"step":0,"from":"1093577856","to":"1093480152","type":"load","field":"<java.nio.HeapByteBuffer: byte[] backingArray>"}],"parameters":[{"id":"1093577856","name":"this","klass":"java.nio.ByteBuffer"}],"returns":[{"id":"1093480152","name":"return","klass":"byte[]"}],"colors":{"heapLocToColor":{"sdaReg1":[0],"1093480152":[0],"sdaReg0":[0],"1093577856":[0]},"colorToColor":{"0":[1]},"colorToLabel":{"0":"this","1":"return"}}}

Generated Model
	this->return

