Scanning method <java.io.DataOutputStream: void <init>(java.io.OutputStream)>

All seen event types: NewArrayRecord, MethodReturnRecord, MethodCallRecord, StoreInstanceRecord, 
Ignored event types: 

JSON Encoded Analysis Data (for visualization):{"heapEdges":[{"step":0,"from":"1093710176","to":"1093710672","type":"model"},{"step":1,"from":"1093710176","to":"1093710672","type":"model"},{"step":2,"from":"1093710672","to":"1093710696","type":"create","field":"<java.io.DataOutputStream: byte[] scratch>"}],"parameters":[{"id":"1093710672","name":"this","klass":"java.io.DataOutputStream"},{"id":"1093710176","name":"arg#1","klass":"java.io.OutputStream"}],"returns":[{"id":"1093710672","name":"return","klass":"java.io.DataOutputStream"}],"colors":{"heapLocToColor":{"1093710176":[1],"sdaReg0":[0],"1093710696":[2],"1093710672":[0]},"colorToColor":{"0":[3],"1":[0],"2":[0]},"colorToLabel":{"0":"this","1":"arg#1","3":"return"}}}

Generated Model
	this->return
	arg#1->this
	arg#1->return

