Scanning method <java.util.Vector: int indexOf(java.lang.Object,int)>

All seen event types: BinaryOperationRecord, SimpleAssignmentRecord, MethodReturnRecord, MethodCallRecord, LoadInstanceRecord, LoadArrayRecord, IfRecord, 
Ignored event types: IfRecord, 

JSON Encoded Analysis Data (for visualization):{"heapEdges":[{"step":0,"from":"1093570752","to":"1093570752.<java.util.Vector: int elementCount>","type":"load","field":"<java.util.Vector: int elementCount>"},{"step":1,"from":"1093570752","to":"1093570784","type":"load","field":"<java.util.Vector: java.lang.Object[] elementData>"},{"step":2,"from":"1093570784","to":"1093571584","type":"load","field":"arrayIdx_int:0"},{"step":3,"from":"1093570752","to":"1093570752.<java.util.Vector: int elementCount>","type":"load","field":"<java.util.Vector: int elementCount>"},{"step":4,"from":"1093570752","to":"1093570784","type":"load","field":"<java.util.Vector: java.lang.Object[] elementData>"},{"step":5,"from":"1093570784","to":"1093571760","type":"load","field":"arrayIdx_int:1"},{"step":6,"from":"1093570752","to":"1093570752.<java.util.Vector: int elementCount>","type":"load","field":"<java.util.Vector: int elementCount>"},{"step":7,"from":"1093570752","to":"1093570784","type":"load","field":"<java.util.Vector: java.lang.Object[] elementData>"},{"step":8,"from":"1093570784","to":"1093571936","type":"load","field":"arrayIdx_int:2"},{"step":9,"from":"1093570752","to":"1093570752.<java.util.Vector: int elementCount>","type":"load","field":"<java.util.Vector: int elementCount>"},{"step":10,"from":"1093570752","to":"1093570784","type":"load","field":"<java.util.Vector: java.lang.Object[] elementData>"},{"step":11,"from":"1093570784","to":"1093572152","type":"load","field":"arrayIdx_int:3"},{"step":12,"from":"1093570752","to":"1093570752.<java.util.Vector: int elementCount>","type":"load","field":"<java.util.Vector: int elementCount>"},{"step":13,"from":"1093570752","to":"1093570784","type":"load","field":"<java.util.Vector: java.lang.Object[] elementData>"},{"step":14,"from":"1093570784","to":"1093572320","type":"load","field":"arrayIdx_int:4"},{"step":15,"from":"1093570752","to":"1093570752.<java.util.Vector: int elementCount>","type":"load","field":"<java.util.Vector: int elementCount>"},{"step":16,"from":"1093570752","to":"1093570784","type":"load","field":"<java.util.Vector: java.lang.Object[] elementData>"},{"step":17,"from":"1093570784","to":"1093572528","type":"load","field":"arrayIdx_int:5"},{"step":18,"from":"1093570752","to":"1093570752.<java.util.Vector: int elementCount>","type":"load","field":"<java.util.Vector: int elementCount>"},{"step":19,"from":"1093570752","to":"1093570784","type":"load","field":"<java.util.Vector: java.lang.Object[] elementData>"},{"step":20,"from":"1093570784","to":"1093572736","type":"load","field":"arrayIdx_int:6"},{"step":21,"from":"1093570752","to":"1093570752.<java.util.Vector: int elementCount>","type":"load","field":"<java.util.Vector: int elementCount>"},{"step":22,"from":"1093570752","to":"1093570784","type":"load","field":"<java.util.Vector: java.lang.Object[] elementData>"},{"step":23,"from":"1093570784","to":"1093572928","type":"load","field":"arrayIdx_int:7"},{"step":24,"from":"1093570752","to":"1093570752.<java.util.Vector: int elementCount>","type":"load","field":"<java.util.Vector: int elementCount>"}],"parameters":[{"id":"1093570752","name":"this","klass":"java.util.Vector"},{"id":"1093573120","name":"arg#1","klass":"java.lang.Object"},{"id":"sdaReg0","name":"arg#2","klass":"int"}],"returns":[{"id":null,"name":"return","klass":"int"}],"colors":{"heapLocToColor":{"sdaReg8":[9],"sdaReg9":[10],"1093573120":[1],"1093572736":[0],"sdaReg6":[7],"sdaReg7":[8],"1093571936":[0],"sdaReg4":[5],"sdaReg5":[6],"1093572928":[0],"1093570752":[0],"1093570752.<java.util.Vector: int elementCount>":[0],"1093570752.<java.util.Vector: java.lang.Object[] elementData>":[0],"1093572528":[0],"1093572320":[0],"1093572152":[0],"1093571584":[0],"sdaReg3":[4],"sdaReg2":[3],"sdaReg1":[2],"1093570784":[0],"sdaReg0":[2],"1093571760":[0]},"colorToColor":{},"colorToLabel":{"0":"this","1":"arg#1","2":"arg#2","11":"return"}}}

Generated Model

