Scanning method <java.util.HashMap$HashMapEntry: java.lang.Object getKey()>

All seen event types: LoadInstanceRecord, 
Ignored event types: 

JSON Encoded Analysis Data (for visualization):{"heapEdges":[{"step":0,"from":"1093411256","to":"1093570608","type":"load","field":"<java.util.HashMap$HashMapEntry: java.lang.Object key>"}],"parameters":[{"id":"1093411256","name":"this","klass":"java.util.HashMap$HashMapEntry"}],"returns":[{"id":"1093570608","name":"return","klass":"java.lang.Object"}],"colors":{"heapLocToColor":{"1093570608":[0],"1093411256":[0]},"colorToColor":{"0":[1]},"colorToLabel":{"0":"this","1":"return"}}}

Generated Model
	this->return

