Scanning method <java.util.HashMap$HashMapEntry: java.lang.Object getKey()>

All seen event types: LoadInstanceRecord, 
Ignored event types: 

JSON Encoded Analysis Data (for visualization):{"heapEdges":[{"step":0,"from":"1093559984","to":"1093573992","type":"load","field":"<java.util.HashMap$HashMapEntry: java.lang.Object key>"}],"parameters":[{"id":"1093559984","name":"this","klass":"java.util.HashMap$HashMapEntry"}],"returns":[{"id":"1093573992","name":"return","klass":"java.lang.Object"}],"colors":{"heapLocToColor":{"1093559984":[0],"1093573992":[0]},"colorToColor":{"0":[1]},"colorToLabel":{"0":"this","1":"return"}}}

Generated Model
	this->return

