Scanning method <java.io.ObjectInputStream: java.lang.Object readNewString(boolean)>

All seen event types: StoreArrayRecord, SimpleAssignmentRecord, LoadInstanceRecord, MethodStartRecord, IfRecord, StoreInstanceRecord, NewObjectRecord, LoadStaticRecord, NewArrayRecord, BinaryOperationRecord, MethodCallRecord, MethodReturnRecord, ArrayLengthRecord, CastRecord, LoadArrayRecord, MethodEndRecord, 
Ignored event types: IfRecord, 

JSON Encoded Analysis Data (for visualization):{"heapEdges":[{"step":0,"from":"1093381560","to":"1093340944","type":"load","field":"<java.io.ObjectInputStream: java.io.DataInputStream input>"},{"step":1,"from":"1093340944","to":"1093381648","type":"load","field":"<java.io.FilterInputStream: java.io.InputStream in>"},{"step":2,"from":"1093340944","to":"1093340968","type":"load","field":"<java.io.DataInputStream: byte[] scratch>"},{"step":3,"from":"1093381648","to":"1093340968","type":"model"},{"step":4,"from":"1093340944","to":"1093340968","type":"load","field":"<java.io.DataInputStream: byte[] scratch>"},{"step":5,"from":"static.<java.nio.ByteOrder: java.nio.ByteOrder BIG_ENDIAN>","to":"1084339448","type":"load","field":"<java.nio.ByteOrder: java.nio.ByteOrder BIG_ENDIAN>"},{"step":6,"from":"1093340968","to":"sdaReg4","type":"model"},{"step":7,"from":"1093340944","to":"1093381648","type":"load","field":"<java.io.FilterInputStream: java.io.InputStream in>"},{"step":8,"from":"1093381648","to":"1093454080","type":"model"},{"step":9,"from":"1093454080","to":"1093454080.arrayIdx_int:0","type":"load","field":"arrayIdx_int:0"},{"step":10,"from":"sdaReg18","to":"1094855728","type":"store","field":"arrayIdx_int:0"},{"step":11,"from":"1093454080","to":"1093454080.arrayIdx_int:1","type":"load","field":"arrayIdx_int:1"},{"step":12,"from":"sdaReg18","to":"1094855728","type":"store","field":"arrayIdx_int:1"},{"step":13,"from":"1093454080","to":"1093454080.arrayIdx_int:2","type":"load","field":"arrayIdx_int:2"},{"step":14,"from":"sdaReg18","to":"1094855728","type":"store","field":"arrayIdx_int:2"},{"step":15,"from":"1093454080","to":"1093454080.arrayIdx_int:3","type":"load","field":"arrayIdx_int:3"},{"step":16,"from":"sdaReg18","to":"1094855728","type":"store","field":"arrayIdx_int:3"},{"step":17,"from":"1094855728","to":"sdaReg19","type":"model"},{"step":18,"from":"1093381560","to":"1093381560.<java.io.ObjectInputStream: boolean enableResolve>","type":"load","field":"<java.io.ObjectInputStream: boolean enableResolve>"},{"step":19,"from":"1093381560","to":"1093381560.<java.io.ObjectInputStream: int nextHandle>","type":"load","field":"<java.io.ObjectInputStream: int nextHandle>"},{"step":20,"from":"sdaReg22","to":"1093381560","type":"store","field":"<java.io.ObjectInputStream: int nextHandle>"},{"step":21,"from":"1093381560","to":"1093341056","type":"load","field":"<java.io.ObjectInputStream: java.util.ArrayList objectsRead>"},{"step":22,"from":"1093341056","to":"1093341056.<java.util.ArrayList: int size>","type":"load","field":"<java.util.ArrayList: int size>"},{"step":23,"from":"1093381560","to":"1093341056","type":"load","field":"<java.io.ObjectInputStream: java.util.ArrayList objectsRead>"},{"step":24,"from":"1093341056","to":"1093346672","type":"load","field":"<java.util.ArrayList: java.lang.Object[] array>"},{"step":25,"from":"1093341056","to":"1093341056.<java.util.ArrayList: int size>","type":"load","field":"<java.util.ArrayList: int size>"},{"step":26,"from":"1094877728","to":"1093346672","type":"store","field":"arrayIdx_int:4"},{"step":27,"from":"sdaReg30","to":"1093341056","type":"store","field":"<java.util.ArrayList: int size>"},{"step":28,"from":"1093341056","to":"1093341056.<java.util.AbstractList: int modCount>","type":"load","field":"<java.util.AbstractList: int modCount>"},{"step":29,"from":"sdaReg31","to":"1093341056","type":"store","field":"<java.util.AbstractList: int modCount>"}],"parameters":[{"id":"1093381560","name":"this","klass":"java.io.ObjectInputStream"},{"id":"sdaReg0","name":"arg#1","klass":"boolean"}],"returns":[{"id":"1094877728","name":"return","klass":"java.lang.Object"}],"colors":{"heapLocToColor":{"1093381648":[0],"1093340944":[0],"1093381560.<java.io.ObjectInputStream: int nextHandle>":[0],"1093341056":[0],"1093341056.<java.util.AbstractList: int modCount>":[0],"1093454080.arrayIdx_int:0":[4],"1093454080.arrayIdx_int:1":[4],"sdaReg11":[4],"sdaReg12":[5],"1093340944.<java.io.FilterInputStream: java.io.InputStream in>":[0],"1094855728":[5],"1093454080.arrayIdx_int:2":[4],"1093454080.arrayIdx_int:3":[4],"1093381560.<java.io.ObjectInputStream: java.util.ArrayList objectsRead>":[0],"sdaReg31":[0],"sdaReg30":[0],"sdaReg19":[6],"1093341056.<java.util.ArrayList: int size>":[0],"static.<java.nio.ByteOrder: java.nio.ByteOrder BIG_ENDIAN>":[2],"1093340968":[0],"sdaReg18":[4],"1093454080":[4],"sdaReg8":[0],"sdaReg9":[4],"sdaReg6":[0],"sdaReg7":[0],"sdaReg4":[3],"sdaReg5":[3],"1093346672":[0],"sdaReg27":[0],"sdaReg26":[0],"1093381560.<java.io.ObjectInputStream: boolean enableResolve>":[0],"1084339448":[2],"1093381560":[0],"sdaReg3":[0],"sdaReg2":[0],"sdaReg21":[0],"sdaReg1":[0],"1093340944.<java.io.DataInputStream: byte[] scratch>":[0],"sdaReg0":[1],"sdaReg23":[0],"sdaReg22":[0],"sdaReg25":[0]},"colorToColor":{"0":[0, 3, 4],"4":[5],"5":[6]},"colorToLabel":{"0":"this","1":"arg#1","2":"<java.nio.ByteOrder: java.nio.ByteOrder BIG_ENDIAN>","7":"return"}}}

Generated Model

