Scanning method <java.io.BufferedWriter: void write(int)>

All seen event types: StoreArrayRecord, SimpleAssignmentRecord, ExitMonitorRecord, LoadInstanceRecord, MethodStartRecord, IfRecord, StoreInstanceRecord, BinaryOperationRecord, MethodCallRecord, MethodReturnRecord, EnterMonitorRecord, ArrayLengthRecord, CastRecord, MethodEndRecord, 
Ignored event types: ExitMonitorRecord, EnterMonitorRecord, IfRecord, 

JSON Encoded Analysis Data (for visualization):{"heapEdges":[{"step":0,"from":"1093600304","to":"1093593000","type":"load","field":"<java.io.Writer: java.lang.Object lock>"},{"step":1,"from":"1093600304","to":"1093593000","type":"load","field":"<java.io.BufferedWriter: java.io.Writer out>"},{"step":2,"from":"1093600304","to":"1093600304.<java.io.BufferedWriter: int pos>","type":"load","field":"<java.io.BufferedWriter: int pos>"},{"step":3,"from":"1093600304","to":"1093600336","type":"load","field":"<java.io.BufferedWriter: char[] buf>"},{"step":4,"from":"1093600304","to":"1093600336","type":"load","field":"<java.io.BufferedWriter: char[] buf>"},{"step":5,"from":"1093600304","to":"1093600304.<java.io.BufferedWriter: int pos>","type":"load","field":"<java.io.BufferedWriter: int pos>"},{"step":6,"from":"sdaReg6","to":"1093600304","type":"store","field":"<java.io.BufferedWriter: int pos>"},{"step":7,"from":"sdaReg7","to":"1093600336","type":"store","field":"arrayIdx_int:0"}],"parameters":[{"id":"1093600304","name":"this","klass":"java.io.BufferedWriter"},{"id":"sdaReg0","name":"arg#1","klass":"int"}],"returns":[{"id":null,"name":"return","klass":null}],"colors":{"heapLocToColor":{"1093600304.<java.io.BufferedWriter: char[] buf>":[0],"1093600304":[0],"sdaReg6":[0],"1093600336":[0],"sdaReg7":[1],"1093593000":[0],"sdaReg3":[0],"1093600304.<java.io.BufferedWriter: int pos>":[0],"sdaReg2":[0],"sdaReg0":[1],"1093600304.<java.io.BufferedWriter: java.io.Writer out>":[0]},"colorToColor":{"0":[0],"1":[0]},"colorToLabel":{"0":"this","1":"arg#1","2":"return"}}}

Generated Model
	arg#1->this

