Scanning method <android.location.Address: boolean hasLatitude()>

All seen event types: LoadInstanceRecord, 
Ignored event types: 

JSON Encoded Analysis Data (for visualization):{"heapEdges":[{"step":0,"from":"1093890656","to":"1093890656.<android.location.Address: boolean mHasLatitude>","type":"load","field":"<android.location.Address: boolean mHasLatitude>"}],"parameters":[{"id":"1093890656","name":"this","klass":"android.location.Address"}],"returns":[{"id":"1093890656.<android.location.Address: boolean mHasLatitude>","name":"return","klass":"boolean"}],"colors":{"heapLocToColor":{"1093890656.<android.location.Address: boolean mHasLatitude>":[0],"1093890656":[0]},"colorToColor":{"0":[1]},"colorToLabel":{"0":"this","1":"return"}}}

Generated Model
	this->return

