Scanning method <java.io.ObjectInputStream: void defaultReadObject()>

All seen event types: SimpleAssignmentRecord, LoadInstanceRecord, MethodStartRecord, IfRecord, InstanceOfRecord, LoadStaticRecord, BinaryOperationRecord, MethodCallRecord, MethodReturnRecord, ArrayLengthRecord, CastRecord, LoadArrayRecord, MethodEndRecord, 
Ignored event types: IfRecord, 

JSON Encoded Analysis Data (for visualization):{"heapEdges":[{"step":0,"from":"1093293768","to":"1093281456","type":"load","field":"<java.io.ObjectInputStream: java.lang.Object currentObject>"},{"step":1,"from":"1093293768","to":"1093281456","type":"load","field":"<java.io.ObjectInputStream: java.lang.Object currentObject>"},{"step":2,"from":"1093293768","to":"1093497664","type":"load","field":"<java.io.ObjectInputStream: java.io.ObjectStreamClass currentClass>"},{"step":3,"from":"1093497664","to":"1093702528","type":"model"},{"step":4,"from":"1093497664","to":"1083934568","type":"model"},{"step":5,"from":"1093702528","to":"1093280088","type":"load","field":"arrayIdx_int:0"},{"step":6,"from":"1093497664","to":"1093280088","type":"model"},{"step":7,"from":"1093497664","to":"1093388936","type":"model"},{"step":8,"from":"1093280088","to":"1093497664","type":"model"},{"step":9,"from":"1093280088","to":"1093388936","type":"model"},{"step":10,"from":"1093280088","to":"1083909616","type":"load","field":"<java.io.ObjectStreamField: java.lang.Object type>"},{"step":11,"from":"1093280088","to":"1083909616","type":"load","field":"<java.io.ObjectStreamField: java.lang.Object type>"},{"step":12,"from":"static.<java.lang.Byte: java.lang.Class TYPE>","to":"1083909112","type":"load","field":"<java.lang.Byte: java.lang.Class TYPE>"},{"step":13,"from":"static.<java.lang.Character: java.lang.Class TYPE>","to":"1083909448","type":"load","field":"<java.lang.Character: java.lang.Class TYPE>"},{"step":14,"from":"static.<java.lang.Double: java.lang.Class TYPE>","to":"1083910120","type":"load","field":"<java.lang.Double: java.lang.Class TYPE>"},{"step":15,"from":"static.<java.lang.Float: java.lang.Class TYPE>","to":"1083909952","type":"load","field":"<java.lang.Float: java.lang.Class TYPE>"},{"step":16,"from":"static.<java.lang.Integer: java.lang.Class TYPE>","to":"1083909616","type":"load","field":"<java.lang.Integer: java.lang.Class TYPE>"},{"step":17,"from":"1093293768","to":"1093386376","type":"load","field":"<java.io.ObjectInputStream: java.io.DataInputStream input>"},{"step":18,"from":"1093386376","to":"1093544616","type":"load","field":"<java.io.FilterInputStream: java.io.InputStream in>"},{"step":19,"from":"1093386376","to":"1093388312","type":"load","field":"<java.io.DataInputStream: byte[] scratch>"},{"step":20,"from":"1093544616","to":"1093388312","type":"model"},{"step":21,"from":"1093386376","to":"1093388312","type":"load","field":"<java.io.DataInputStream: byte[] scratch>"},{"step":22,"from":"static.<java.nio.ByteOrder: java.nio.ByteOrder BIG_ENDIAN>","to":"1084339448","type":"load","field":"<java.nio.ByteOrder: java.nio.ByteOrder BIG_ENDIAN>"},{"step":23,"from":"1093388312","to":"sdaReg16","type":"model"},{"step":24,"from":"1093388936","to":"1093281456","type":"model"},{"step":25,"from":"1093388936","to":"sdaReg16","type":"model"},{"step":26,"from":"1093281456","to":"1093388936","type":"model"},{"step":27,"from":"1093281456","to":"sdaReg16","type":"model"},{"step":28,"from":"sdaReg16","to":"1093388936","type":"model"},{"step":29,"from":"sdaReg16","to":"1093281456","type":"model"}],"parameters":[{"id":"1093293768","name":"this","klass":"java.io.ObjectInputStream"}],"returns":[{"id":null,"name":"return","klass":null}],"colors":{"heapLocToColor":{"static.<java.lang.Character: java.lang.Class TYPE>":[5],"1083934568":[0, 2],"static.<java.lang.Float: java.lang.Class TYPE>":[7],"1093293768.<java.io.ObjectInputStream: java.lang.Object currentObject>":[0],"1093281456":[0, 3],"1093280088.<java.io.ObjectStreamField: java.lang.Object type>":[0, 1],"static.<java.lang.Byte: java.lang.Class TYPE>":[4],"sdaReg13":[0, 1],"sdaReg14":[0, 1],"1083909112":[4],"sdaReg11":[0, 1],"1083909952":[7],"1083909616":[0, 1, 8],"sdaReg10":[0, 3],"1093388312":[0],"1093497664":[0],"1093293768":[0],"static.<java.nio.ByteOrder: java.nio.ByteOrder BIG_ENDIAN>":[9],"sdaReg15":[0],"sdaReg16":[0, 3, 10],"static.<java.lang.Double: java.lang.Class TYPE>":[6],"1093702528":[0, 1],"sdaReg6":[0, 2],"sdaReg7":[0, 1],"sdaReg4":[0, 1],"sdaReg5":[0, 1],"1093386376.<java.io.DataInputStream: byte[] scratch>":[0],"1093388936":[0, 3],"1084339448":[9],"1093386376":[0],"static.<java.lang.Integer: java.lang.Class TYPE>":[0, 1, 8],"sdaReg3":[0, 1],"sdaReg2":[0],"1093280088":[0, 1],"1083910120":[6],"sdaReg1":[0],"sdaReg0":[0],"1093544616":[0],"1083909448":[5]},"colorToColor":{"0":[0, 3, 10],"1":[0, 3],"3":[0, 3, 10],"10":[0, 3]},"colorToLabel":{"0":"this","4":"<java.lang.Byte: java.lang.Class TYPE>","5":"<java.lang.Character: java.lang.Class TYPE>","6":"<java.lang.Double: java.lang.Class TYPE>","7":"<java.lang.Float: java.lang.Class TYPE>","8":"<java.lang.Integer: java.lang.Class TYPE>","9":"<java.nio.ByteOrder: java.nio.ByteOrder BIG_ENDIAN>","11":"return"}}}

Generated Model

