Scanning method <java.io.RandomAccessFile: void <init>(java.lang.String,java.lang.String)>

All seen event types: LoadStaticRecord, NewArrayRecord, BinaryOperationRecord, MethodReturnRecord, MethodCallRecord, LoadInstanceRecord, MethodStartRecord, MethodEndRecord, IfRecord, StoreInstanceRecord, NewObjectRecord, 
Ignored event types: IfRecord, 

JSON Encoded Analysis Data (for visualization):{"heapEdges":[{"step":0,"from":"1093279472","to":"sdaReg0","type":"model"},{"step":1,"from":"sdaReg0","to":"1093279472","type":"model"},{"step":2,"from":"sdaReg0","to":"1093279472","type":"model"},{"step":3,"from":"1093697712","to":"sdaReg6","type":"create","field":"<java.io.RandomAccessFile: boolean syncMetadata>"},{"step":4,"from":"1093697712","to":"1083966016","type":"create","field":"<java.io.RandomAccessFile: dalvik.system.CloseGuard guard>"},{"step":5,"from":"1093697712","to":"1093654384","type":"create","field":"<java.io.RandomAccessFile: byte[] scratch>"},{"step":6,"from":"static.<libcore.io.OsConstants: int O_RDWR>","to":"static.<libcore.io.OsConstants: int O_RDWR>","type":"load","field":"<libcore.io.OsConstants: int O_RDWR>"},{"step":7,"from":"static.<libcore.io.OsConstants: int O_CREAT>","to":"static.<libcore.io.OsConstants: int O_CREAT>","type":"load","field":"<libcore.io.OsConstants: int O_CREAT>"},{"step":8,"from":"sdaReg10","to":"1093697712","type":"store","field":"<java.io.RandomAccessFile: int mode>"},{"step":9,"from":"1093279472","to":"sdaReg13","type":"model"},{"step":10,"from":"sdaReg13","to":"1093644376","type":"model"},{"step":11,"from":"1093697712","to":"1093644376","type":"create","field":"<java.io.RandomAccessFile: java.io.FileDescriptor fd>"}],"parameters":[{"id":"1093697712","name":"this","klass":"java.io.RandomAccessFile"},{"id":"sdaReg0","name":"arg#1","klass":"string"},{"id":"sdaReg1","name":"arg#2","klass":"string"}],"returns":[{"id":"1093697712","name":"return","klass":"java.io.RandomAccessFile"}],"colors":{"heapLocToColor":{"sdaReg8":[6],"sdaReg9":[7],"static.<libcore.io.OsConstants: int O_RDWR>":[8],"sdaReg7":[4],"sdaReg4":[3],"sdaReg5":[0],"1093644376":[13],"sdaReg13":[3, 12],"sdaReg14":[13],"sdaReg11":[10],"sdaReg12":[11],"sdaReg10":[8, 9],"sdaReg3":[0],"sdaReg2":[3],"1093697712":[0],"sdaReg1":[2],"1093654384":[5],"sdaReg0":[1, 3],"1083966016":[4],"sdaReg15":[0],"static.<libcore.io.OsConstants: int O_CREAT>":[9],"1093279472":[3]},"colorToColor":{"0":[14],"1":[3],"3":[3, 13],"4":[0],"5":[0],"8":[0],"9":[0],"12":[13],"13":[0]},"colorToLabel":{"0":"this","1":"arg#1","2":"arg#2","8":"<libcore.io.OsConstants: int O_RDWR>","9":"<libcore.io.OsConstants: int O_CREAT>","14":"return"}}}

Generated Model
	this->return
	arg#1->this
	arg#1->return

