Scanning method <java.io.BufferedReader: int read()>

All seen event types: SimpleAssignmentRecord, ExitMonitorRecord, LoadInstanceRecord, MethodStartRecord, IfRecord, StoreInstanceRecord, BinaryOperationRecord, MethodCallRecord, MethodReturnRecord, EnterMonitorRecord, ArrayLengthRecord, LoadArrayRecord, MethodEndRecord, 
Ignored event types: ExitMonitorRecord, EnterMonitorRecord, IfRecord, 

JSON Encoded Analysis Data (for visualization):{"heapEdges":[{"step":0,"from":"1093645456","to":"1093646400","type":"load","field":"<java.io.Reader: java.lang.Object lock>"},{"step":1,"from":"1093645456","to":"1093359472","type":"load","field":"<java.io.BufferedReader: char[] buf>"},{"step":2,"from":"1093645456","to":"1093645456.<java.io.BufferedReader: int pos>","type":"load","field":"<java.io.BufferedReader: int pos>"},{"step":3,"from":"1093645456","to":"1093645456.<java.io.BufferedReader: int end>","type":"load","field":"<java.io.BufferedReader: int end>"},{"step":4,"from":"1093645456","to":"1093645456.<java.io.BufferedReader: int mark>","type":"load","field":"<java.io.BufferedReader: int mark>"},{"step":5,"from":"1093645456","to":"1093646400","type":"load","field":"<java.io.BufferedReader: java.io.Reader in>"},{"step":6,"from":"1093645456","to":"1093359472","type":"load","field":"<java.io.BufferedReader: char[] buf>"},{"step":7,"from":"1093645456","to":"1093359472","type":"load","field":"<java.io.BufferedReader: char[] buf>"},{"step":8,"from":"1093646400","to":"1093359472","type":"model"},{"step":9,"from":"1093646400","to":"sdaReg5","type":"model"},{"step":10,"from":"1093646400","to":"sdaReg6","type":"model"},{"step":11,"from":"1093359472","to":"1093646400","type":"model"},{"step":12,"from":"1093359472","to":"sdaReg5","type":"model"},{"step":13,"from":"1093359472","to":"sdaReg6","type":"model"},{"step":14,"from":"sdaReg5","to":"1093646400","type":"model"},{"step":15,"from":"sdaReg5","to":"1093359472","type":"model"},{"step":16,"from":"sdaReg5","to":"sdaReg6","type":"model"},{"step":17,"from":"1093645456","to":"sdaReg7","type":"create","field":"<java.io.BufferedReader: int mark>"},{"step":18,"from":"1093645456","to":"sdaReg8","type":"create","field":"<java.io.BufferedReader: int pos>"},{"step":19,"from":"sdaReg6","to":"1093645456","type":"store","field":"<java.io.BufferedReader: int end>"},{"step":20,"from":"1093645456","to":"1093359472","type":"load","field":"<java.io.BufferedReader: char[] buf>"},{"step":21,"from":"sdaReg9","to":"1093645456","type":"store","field":"<java.io.BufferedReader: int pos>"},{"step":22,"from":"1093359472","to":"1093359472.arrayIdx_int:0","type":"load","field":"arrayIdx_int:0"}],"parameters":[{"id":"1093645456","name":"this","klass":"java.io.BufferedReader"}],"returns":[{"id":"1093359472.arrayIdx_int:0","name":"return","klass":"int"}],"colors":{"heapLocToColor":{"1093645456":[0],"sdaReg6":[0, 1],"sdaReg4":[0],"sdaReg5":[0],"1093646400":[0],"1093359472":[0],"1093645456.<java.io.BufferedReader: java.io.Reader in>":[0],"1093359472.arrayIdx_int:0":[0],"1093645456.<java.io.BufferedReader: int pos>":[0],"1093645456.<java.io.BufferedReader: char[] buf>":[0],"1093645456.<java.io.BufferedReader: int end>":[0],"sdaReg2":[0],"sdaReg1":[0],"1093645456.<java.io.BufferedReader: int mark>":[0]},"colorToColor":{"0":[0, 1, 2],"1":[0]},"colorToLabel":{"0":"this","2":"return"}}}

Generated Model
	this->return

