Scanning method <java.util.HashMap: void <init>(int)>

All seen event types: NewArrayRecord, BinaryOperationRecord, SimpleAssignmentRecord, MethodReturnRecord, MethodCallRecord, CastRecord, MethodStartRecord, IfRecord, MethodEndRecord, StoreInstanceRecord, 
Ignored event types: IfRecord, 

JSON Encoded Analysis Data (for visualization):{"heapEdges":[{"step":0,"from":"1093641744","to":"1093641800","type":"create","field":"<java.util.HashMap: java.util.HashMap$HashMapEntry[] table>"},{"step":1,"from":"sdaReg9","to":"1093641744","type":"store","field":"<java.util.HashMap: int threshold>"}],"parameters":[{"id":"1093641744","name":"this","klass":"java.util.HashMap"},{"id":"sdaReg0","name":"arg#1","klass":"int"}],"returns":[{"id":"1093641744","name":"return","klass":"java.util.HashMap"}],"colors":{"heapLocToColor":{"1093641744":[0],"sdaReg5":[0],"sdaReg3":[0],"1093641800":[2],"sdaReg2":[0],"sdaReg1":[0],"sdaReg0":[1]},"colorToColor":{"0":[3],"2":[0]},"colorToLabel":{"0":"this","1":"arg#1","3":"return"}}}

Generated Model
	this->return

