Scanning method <java.io.DataInputStream: int read(byte[])>

All seen event types: BinaryOperationRecord, SimpleAssignmentRecord, MethodReturnRecord, MethodCallRecord, LoadInstanceRecord, ArrayLengthRecord, MethodStartRecord, MethodEndRecord, IfRecord, StoreInstanceRecord, 
Ignored event types: IfRecord, 

JSON Encoded Analysis Data (for visualization):{"heapEdges":[{"step":0,"from":"1093635320","to":"1093635456","type":"load","field":"<java.io.FilterInputStream: java.io.InputStream in>"},{"step":1,"from":"1093635456","to":"1093635456.<java.io.ByteArrayInputStream: int pos>","type":"load","field":"<java.io.ByteArrayInputStream: int pos>"},{"step":2,"from":"1093635456","to":"1093635456.<java.io.ByteArrayInputStream: int count>","type":"load","field":"<java.io.ByteArrayInputStream: int count>"},{"step":3,"from":"1093635456","to":"1093635456.<java.io.ByteArrayInputStream: int count>","type":"load","field":"<java.io.ByteArrayInputStream: int count>"},{"step":4,"from":"1093635456","to":"1093635456.<java.io.ByteArrayInputStream: int pos>","type":"load","field":"<java.io.ByteArrayInputStream: int pos>"},{"step":5,"from":"1093635456","to":"1093635488","type":"load","field":"<java.io.ByteArrayInputStream: byte[] buf>"},{"step":6,"from":"1093635456","to":"1093635456.<java.io.ByteArrayInputStream: int pos>","type":"load","field":"<java.io.ByteArrayInputStream: int pos>"},{"step":7,"from":"1093635488","to":"1093636112","type":"model"},{"step":8,"from":"1093635456","to":"1093635456.<java.io.ByteArrayInputStream: int pos>","type":"load","field":"<java.io.ByteArrayInputStream: int pos>"},{"step":9,"from":"sdaReg14","to":"1093635456","type":"store","field":"<java.io.ByteArrayInputStream: int pos>"}],"parameters":[{"id":"1093635320","name":"this","klass":"java.io.DataInputStream"},{"id":"1093636112","name":"arg#1","klass":"byte[]"}],"returns":[{"id":"sdaReg13","name":"return","klass":"int"}],"colors":{"heapLocToColor":{"1093635488":[0],"1093635320":[0],"sdaReg6":[0],"sdaReg7":[1],"sdaReg4":[1],"1093635456":[0],"1093636112":[1],"sdaReg14":[0],"1093635456.<java.io.ByteArrayInputStream: int pos>":[0],"sdaReg11":[0],"sdaReg3":[0],"sdaReg1":[1],"sdaReg0":[0],"1093635456.<java.io.ByteArrayInputStream: int count>":[0]},"colorToColor":{"0":[0, 1]},"colorToLabel":{"0":"this","1":"arg#1","2":"return"}}}

Generated Model
	this->arg#1

