Scanning method <java.io.PrintWriter: void <init>(java.io.Writer,boolean)>

All seen event types: MethodReturnRecord, MethodCallRecord, MethodStartRecord, MethodEndRecord, IfRecord, StoreInstanceRecord, 
Ignored event types: IfRecord, 

JSON Encoded Analysis Data (for visualization):{"heapEdges":[{"step":0,"from":"1093287832","to":"1093301816","type":"store","field":"<java.io.Writer: java.lang.Object lock>"},{"step":1,"from":"sdaReg0","to":"1093301816","type":"store","field":"<java.io.PrintWriter: boolean autoFlush>"},{"step":2,"from":"1093287832","to":"1093301816","type":"store","field":"<java.io.PrintWriter: java.io.Writer out>"}],"parameters":[{"id":"1093301816","name":"this","klass":"java.io.PrintWriter"},{"id":"1093287832","name":"arg#1","klass":"java.io.Writer"},{"id":"sdaReg0","name":"arg#2","klass":"boolean"}],"returns":[{"id":"1093301816","name":"return","klass":"java.io.PrintWriter"}],"colors":{"heapLocToColor":{"1093301816":[0],"sdaReg4":[0],"sdaReg3":[0],"sdaReg2":[1],"sdaReg1":[0],"1093287832":[1],"sdaReg0":[2]},"colorToColor":{"0":[3],"1":[0],"2":[0]},"colorToLabel":{"0":"this","1":"arg#1","2":"arg#2","3":"return"}}}

Generated Model
	this->return
	arg#2->this
	arg#2->return
	arg#1->this
	arg#1->return

