Scanning method <android.os.Message: android.os.Bundle peekData()>

All seen event types: LoadInstanceRecord, 
Ignored event types: 

JSON Encoded Analysis Data (for visualization):{"heapEdges":[{"step":0,"from":"1093516472","to":"1093922776","type":"load","field":"<android.os.Message: android.os.Bundle data>"}],"parameters":[{"id":"1093516472","name":"this","klass":"android.os.Message"}],"returns":[{"id":"1093922776","name":"return","klass":"android.os.Bundle"}],"colors":{"heapLocToColor":{"1093516472":[0],"1093922776":[0]},"colorToColor":{"0":[1]},"colorToLabel":{"0":"this","1":"return"}}}

Generated Model
	this->return

