Scanning method <java.io.PrintWriter: void write(char[])>

All seen event types: SimpleAssignmentRecord, ExitMonitorRecord, MethodStartRecord, LoadInstanceRecord, IfRecord, NewObjectRecord, StoreInstanceRecord, BinaryOperationRecord, MethodCallRecord, MethodReturnRecord, EnterMonitorRecord, ArrayLengthRecord, MethodEndRecord, 
Ignored event types: ExitMonitorRecord, EnterMonitorRecord, IfRecord, 

JSON Encoded Analysis Data (for visualization):{"heapEdges":[{"step":0,"from":"1093569408","to":"1093579584","type":"load","field":"<java.io.Writer: java.lang.Object lock>"},{"step":1,"from":"1093569408","to":"1093579584","type":"load","field":"<java.io.PrintWriter: java.io.Writer out>"},{"step":2,"from":"1093569408","to":"1093579584","type":"load","field":"<java.io.PrintWriter: java.io.Writer out>"},{"step":3,"from":"1093579584","to":"1093569232","type":"load","field":"<java.io.Writer: java.lang.Object lock>"},{"step":4,"from":"1093579584","to":"1093588136","type":"load","field":"<java.io.OutputStreamWriter: java.nio.charset.CharsetEncoder encoder>"},{"step":5,"from":"1093624696","to":"sdaReg30","type":"create","field":"<java.nio.Buffer: int mark>"},{"step":6,"from":"1093624696","to":"sdaReg31","type":"create","field":"<java.nio.Buffer: int position>"},{"step":7,"from":"1093624696","to":"sdaReg28","type":"create","field":"<java.nio.Buffer: int _elementSizeShift>"},{"step":8,"from":"sdaReg22","to":"1093624696","type":"store","field":"<java.nio.Buffer: int limit>"},{"step":9,"from":"sdaReg22","to":"1093624696","type":"store","field":"<java.nio.Buffer: int capacity>"},{"step":10,"from":"1093624648","to":"1093624696","type":"store","field":"<java.nio.CharArrayBuffer: char[] backingArray>"},{"step":11,"from":"1093624696","to":"sdaReg25","type":"create","field":"<java.nio.CharArrayBuffer: int offset>"},{"step":12,"from":"1093624696","to":"sdaReg3","type":"create","field":"<java.nio.Buffer: int position>"},{"step":13,"from":"sdaReg38","to":"1093624696","type":"store","field":"<java.nio.Buffer: int limit>"},{"step":14,"from":"1093579584","to":"1093588136","type":"load","field":"<java.io.OutputStreamWriter: java.nio.charset.CharsetEncoder encoder>"},{"step":15,"from":"1093579584","to":"1093579616","type":"load","field":"<java.io.OutputStreamWriter: java.nio.ByteBuffer bytes>"},{"step":16,"from":"1093588136","to":"1093624696","type":"model"},{"step":17,"from":"1093588136","to":"1093579616","type":"model"},{"step":18,"from":"1093588136","to":"1084215096","type":"model"},{"step":19,"from":"1093624696","to":"1093588136","type":"model"},{"step":20,"from":"1093624696","to":"1093579616","type":"model"},{"step":21,"from":"1093624696","to":"1084215096","type":"model"},{"step":22,"from":"1093579616","to":"1093588136","type":"model"},{"step":23,"from":"1093579616","to":"1093624696","type":"model"},{"step":24,"from":"1093579616","to":"1084215096","type":"model"},{"step":25,"from":"1084215096","to":"1084215096.<java.nio.charset.CoderResult: int type>","type":"load","field":"<java.nio.charset.CoderResult: int type>"},{"step":26,"from":"1084215096","to":"1084215096.<java.nio.charset.CoderResult: int type>","type":"load","field":"<java.nio.charset.CoderResult: int type>"},{"step":27,"from":"1084215096","to":"1084215096.<java.nio.charset.CoderResult: int type>","type":"load","field":"<java.nio.charset.CoderResult: int type>"}],"parameters":[{"id":"1093569408","name":"this","klass":"java.io.PrintWriter"},{"id":"1093624648","name":"arg#1","klass":"char[]"}],"returns":[{"id":null,"name":"return","klass":null}],"colors":{"heapLocToColor":{"sdaReg39":[2],"sdaReg14":[1],"sdaReg37":[2],"sdaReg10":[0],"1093569232":[0],"1093624696":[0, 2],"sdaReg32":[2],"sdaReg19":[1],"1084215096.<java.nio.charset.CoderResult: int type>":[0, 3],"sdaReg36":[2],"sdaReg35":[2],"1093569408.<java.io.PrintWriter: java.io.Writer out>":[0],"sdaReg18":[2],"sdaReg34":[2],"sdaReg33":[2],"sdaReg8":[1],"sdaReg7":[0],"sdaReg4":[0],"sdaReg5":[1],"1093624648":[1],"sdaReg27":[2],"sdaReg26":[2],"1093569408":[0],"sdaReg29":[2],"1084215096":[0, 3],"sdaReg45":[0, 3],"1093579616":[0],"1093579584.<java.io.OutputStreamWriter: java.nio.charset.CharsetEncoder encoder>":[0],"sdaReg2":[1],"sdaReg1":[0],"sdaReg21":[1],"sdaReg20":[2],"sdaReg41":[2],"1093588136":[0],"sdaReg23":[2],"sdaReg40":[0],"1093579584":[0],"sdaReg43":[0, 3],"sdaReg42":[0, 3],"sdaReg24":[1]},"colorToColor":{"0":[0, 2, 3],"1":[2],"2":[0, 3]},"colorToLabel":{"0":"this","1":"arg#1","4":"return"}}}

Generated Model
	arg#1->this

