Scanning method <java.io.PrintWriter: void write(char[])>

All seen event types: SimpleAssignmentRecord, MethodReturnRecord, ExitMonitorRecord, MethodCallRecord, EnterMonitorRecord, LoadInstanceRecord, MethodStartRecord, ArrayLengthRecord, MethodEndRecord, IfRecord, StoreInstanceRecord, 
Ignored event types: ExitMonitorRecord, EnterMonitorRecord, IfRecord, 

JSON Encoded Analysis Data (for visualization):{"heapEdges":[{"step":0,"from":"1093692904","to":"1093701048","type":"load","field":"<java.io.Writer: java.lang.Object lock>"},{"step":1,"from":"1093692904","to":"1093701048","type":"load","field":"<java.io.Writer: java.lang.Object lock>"},{"step":2,"from":"1093692904","to":"sdaReg9","type":"create","field":"<java.io.PrintWriter: boolean ioError>"}],"parameters":[{"id":"1093692904","name":"this","klass":"java.io.PrintWriter"},{"id":"1093313120","name":"arg#1","klass":"char[]"}],"returns":[{"id":null,"name":"return","klass":null}],"colors":{"heapLocToColor":{"sdaReg8":[0],"sdaReg7":[0],"sdaReg4":[0],"sdaReg5":[1],"1093701048":[0],"sdaReg2":[1],"sdaReg1":[0],"1093313120":[1],"1093692904":[0],"1093692904.<java.io.Writer: java.lang.Object lock>":[0]},"colorToColor":{},"colorToLabel":{"0":"this","1":"arg#1","2":"return"}}}

Generated Model

