Scanning method <java.util.HashMap: void constructorPutAll(java.util.Map)>

All seen event types: StoreArrayRecord, SimpleAssignmentRecord, MethodStartRecord, LoadInstanceRecord, IfRecord, NewObjectRecord, StoreInstanceRecord, BinaryOperationRecord, MethodCallRecord, MethodReturnRecord, ArrayLengthRecord, CastRecord, LoadArrayRecord, MethodEndRecord, 
Ignored event types: IfRecord, 

JSON Encoded Analysis Data (for visualization):{"heapEdges":[{"step":0,"from":"1093297344","to":"1093271512","type":"store","field":"<java.util.HashMap$EntrySet: java.util.HashMap this$0>"},{"step":1,"from":"1093297344","to":"1093271512","type":"create","field":"<java.util.HashMap: java.util.Set entrySet>"},{"step":2,"from":"1093297344","to":"1093544512","type":"store","field":"<java.util.HashMap$EntryIterator: java.util.HashMap this$0>"},{"step":3,"from":"1093297344","to":"1093544512","type":"store","field":"<java.util.HashMap$HashIterator: java.util.HashMap this$0>"},{"step":4,"from":"1093297344","to":"1093297344.<java.util.HashMap: int modCount>","type":"load","field":"<java.util.HashMap: int modCount>"},{"step":5,"from":"1093297344.<java.util.HashMap: int modCount>","to":"1093544512","type":"store","field":"<java.util.HashMap$HashIterator: int expectedModCount>"},{"step":6,"from":"1093297344","to":"1093296472","type":"load","field":"<java.util.HashMap: java.util.HashMap$HashMapEntry[] table>"},{"step":7,"from":"1093544512","to":"1093544512.<java.util.HashMap$HashIterator: int nextIndex>","type":"load","field":"<java.util.HashMap$HashIterator: int nextIndex>"},{"step":8,"from":"1093544512","to":"1093544512.<java.util.HashMap$HashIterator: int nextIndex>","type":"load","field":"<java.util.HashMap$HashIterator: int nextIndex>"},{"step":9,"from":"sdaReg25","to":"1093544512","type":"store","field":"<java.util.HashMap$HashIterator: int nextIndex>"},{"step":10,"from":"1093296472","to":"1093296144","type":"load","field":"arrayIdx_int:0"},{"step":11,"from":"1093296144","to":"1093544512","type":"store","field":"<java.util.HashMap$HashIterator: java.util.HashMap$HashMapEntry nextEntry>"},{"step":12,"from":"1093297344","to":"1093297344.<java.util.HashMap: int modCount>","type":"load","field":"<java.util.HashMap: int modCount>"},{"step":13,"from":"1093297344","to":"1093296472","type":"load","field":"<java.util.HashMap: java.util.HashMap$HashMapEntry[] table>"},{"step":14,"from":"sdaReg37","to":"1093544512","type":"store","field":"<java.util.HashMap$HashIterator: int nextIndex>"},{"step":15,"from":"sdaReg37","to":"1093544512","type":"store","field":"<java.util.HashMap$HashIterator: int nextIndex>"},{"step":16,"from":"sdaReg37","to":"1093544512","type":"store","field":"<java.util.HashMap$HashIterator: int nextIndex>"},{"step":17,"from":"1093296472","to":"1093296176","type":"load","field":"arrayIdx_int:3"},{"step":18,"from":"1093296176","to":"1093544512","type":"store","field":"<java.util.HashMap$HashIterator: java.util.HashMap$HashMapEntry nextEntry>"},{"step":19,"from":"1093296144","to":"1093544512","type":"store","field":"<java.util.HashMap$HashIterator: java.util.HashMap$HashMapEntry lastEntryReturned>"},{"step":20,"from":"1093296144","to":"1084320408","type":"load","field":"<java.util.HashMap$HashMapEntry: java.lang.Object key>"},{"step":21,"from":"1093296144","to":"1093550440","type":"load","field":"<java.util.HashMap$HashMapEntry: java.lang.Object value>"},{"step":22,"from":"1093250184","to":"1093544472","type":"load","field":"<java.util.HashMap: java.util.HashMap$HashMapEntry[] table>"},{"step":23,"from":"1084320408","to":"1093250240","type":"store","field":"<java.util.HashMap$HashMapEntry: java.lang.Object key>"},{"step":24,"from":"1093550440","to":"1093250240","type":"store","field":"<java.util.HashMap$HashMapEntry: java.lang.Object value>"},{"step":25,"from":"sdaReg59","to":"1093250240","type":"store","field":"<java.util.HashMap$HashMapEntry: int hash>"},{"step":26,"from":"1093544472","to":"1093250240","type":"create","field":"arrayIdx_int:0"},{"step":27,"from":"1093250184","to":"1093250184.<java.util.HashMap: int size>","type":"load","field":"<java.util.HashMap: int size>"},{"step":28,"from":"sdaReg75","to":"1093250184","type":"store","field":"<java.util.HashMap: int size>"},{"step":29,"from":"1093297344","to":"1093297344.<java.util.HashMap: int modCount>","type":"load","field":"<java.util.HashMap: int modCount>"},{"step":30,"from":"1093297344","to":"1093296472","type":"load","field":"<java.util.HashMap: java.util.HashMap$HashMapEntry[] table>"},{"step":31,"from":"1093296176","to":"1093544512","type":"store","field":"<java.util.HashMap$HashIterator: java.util.HashMap$HashMapEntry lastEntryReturned>"},{"step":32,"from":"1093296176","to":"1093550976","type":"load","field":"<java.util.HashMap$HashMapEntry: java.lang.Object key>"},{"step":33,"from":"1093296176","to":"1083976944","type":"load","field":"<java.util.HashMap$HashMapEntry: java.lang.Object value>"},{"step":34,"from":"1093250184","to":"1093544472","type":"load","field":"<java.util.HashMap: java.util.HashMap$HashMapEntry[] table>"},{"step":35,"from":"1093550976","to":"1093556336","type":"store","field":"<java.util.HashMap$HashMapEntry: java.lang.Object key>"},{"step":36,"from":"1083976944","to":"1093556336","type":"store","field":"<java.util.HashMap$HashMapEntry: java.lang.Object value>"},{"step":37,"from":"sdaReg100","to":"1093556336","type":"store","field":"<java.util.HashMap$HashMapEntry: int hash>"},{"step":38,"from":"1093544472","to":"1093556336","type":"create","field":"arrayIdx_int:3"},{"step":39,"from":"sdaReg116","to":"1093250184","type":"store","field":"<java.util.HashMap: int size>"}],"parameters":[{"id":"1093250184","name":"this","klass":"java.util.HashMap"},{"id":"1093297344","name":"arg#1","klass":"java.util.Map"}],"returns":[{"id":null,"name":"return","klass":null}],"colors":{"heapLocToColor":{"1093296144":[1],"sdaReg68":[5],"sdaReg69":[1],"sdaReg66":[1],"sdaReg64":[0],"sdaReg65":[1],"sdaReg62":[4],"sdaReg13":[2],"sdaReg72":[5],"sdaReg14":[2],"1083976944":[1],"sdaReg11":[2],"sdaReg70":[1],"sdaReg12":[2],"sdaReg10":[2],"1093250240":[5],"sdaReg19":[1],"sdaReg17":[1],"sdaReg18":[3],"sdaReg15":[1],"sdaReg16":[3],"sdaReg117":[3],"sdaReg114":[7],"sdaReg115":[7],"1084320408":[1],"sdaReg78":[3],"sdaReg79":[3],"sdaReg73":[5],"sdaReg74":[5],"sdaReg75":[0],"sdaReg76":[3],"sdaReg80":[3],"sdaReg83":[1],"sdaReg82":[1],"sdaReg113":[7],"sdaReg111":[1],"sdaReg110":[1],"1093297344.<java.util.HashMap: java.util.HashMap$HashMapEntry[] table>":[1],"sdaReg107":[1],"sdaReg109":[7],"sdaReg103":[6],"1093296176":[1],"sdaReg105":[0],"sdaReg106":[1],"sdaReg86":[1],"sdaReg87":[1],"1093544512":[3],"sdaReg84":[1],"sdaReg85":[1],"1093271512":[2],"sdaReg88":[1],"1093296472":[1],"sdaReg89":[0],"sdaReg90":[1],"sdaReg94":[6],"sdaReg93":[6],"sdaReg92":[6],"sdaReg91":[1],"sdaReg100":[6],"1093297344":[1],"1093250184":[0],"sdaReg95":[6],"sdaReg96":[6],"sdaReg97":[6],"sdaReg98":[6],"sdaReg99":[6],"1093297344.<java.util.HashMap: int modCount>":[1],"1093250184.<java.util.HashMap: int size>":[0],"sdaReg59":[4],"1093550440":[1],"sdaReg58":[4],"sdaReg57":[4],"sdaReg56":[4],"sdaReg55":[4],"sdaReg54":[4],"sdaReg53":[4],"sdaReg52":[4],"sdaReg51":[4],"sdaReg50":[1],"1093544472":[0],"sdaReg49":[1],"sdaReg48":[0],"sdaReg45":[1],"sdaReg44":[1],"sdaReg47":[1],"sdaReg46":[1],"sdaReg41":[1],"sdaReg40":[1],"sdaReg43":[1],"sdaReg42":[1],"1093544512.<java.util.HashMap$HashIterator: int nextIndex>":[3],"1093556336":[7],"sdaReg31":[3],"sdaReg30":[3],"sdaReg35":[3],"sdaReg34":[3],"sdaReg33":[3],"sdaReg8":[2],"sdaReg9":[2],"sdaReg6":[2],"sdaReg7":[2],"sdaReg4":[1],"sdaReg5":[2],"1093250184.<java.util.HashMap: java.util.HashMap$HashMapEntry[] table>":[0],"sdaReg27":[3],"sdaReg26":[3],"sdaReg29":[3],"sdaReg28":[3],"1093550976":[1],"sdaReg3":[2],"sdaReg2":[1],"sdaReg21":[1],"sdaReg1":[2],"sdaReg0":[1],"sdaReg20":[3],"sdaReg22":[3],"sdaReg25":[3]},"colorToColor":{"0":[0],"1":[2, 3, 5, 7],"2":[1],"3":[3],"4":[5],"5":[0],"6":[7],"7":[0]},"colorToLabel":{"0":"this","1":"arg#1","8":"return"}}}

Generated Model
	arg#1->this

