Scanning method <java.io.DataOutputStream: void writeByte(int)>

All seen event types: BinaryOperationRecord, StoreArrayRecord, MethodReturnRecord, MethodCallRecord, ArrayLengthRecord, CastRecord, MethodStartRecord, LoadInstanceRecord, MethodEndRecord, IfRecord, StoreInstanceRecord, 
Ignored event types: IfRecord, 

JSON Encoded Analysis Data (for visualization):{"heapEdges":[{"step":0,"from":"1093509648","to":"1093638520","type":"load","field":"<java.io.FilterOutputStream: java.io.OutputStream out>"},{"step":1,"from":"1093638520","to":"1093266320","type":"load","field":"<java.io.PipedOutputStream: java.io.PipedInputStream target>"},{"step":2,"from":"1093266320","to":"1093271696","type":"load","field":"<java.io.PipedInputStream: byte[] buffer>"},{"step":3,"from":"1093266320","to":"1093266320.<java.io.PipedInputStream: boolean isClosed>","type":"load","field":"<java.io.PipedInputStream: boolean isClosed>"},{"step":4,"from":"1093266320","to":"1093451856","type":"create","field":"<java.io.PipedInputStream: java.lang.Thread lastWriter>"},{"step":5,"from":"1093266320","to":"1093271696","type":"load","field":"<java.io.PipedInputStream: byte[] buffer>"},{"step":6,"from":"1093266320","to":"1093266320.<java.io.PipedInputStream: int out>","type":"load","field":"<java.io.PipedInputStream: int out>"},{"step":7,"from":"1093266320","to":"1093266320.<java.io.PipedInputStream: int in>","type":"load","field":"<java.io.PipedInputStream: int in>"},{"step":8,"from":"1093266320","to":"1093271696","type":"load","field":"<java.io.PipedInputStream: byte[] buffer>"},{"step":9,"from":"1093266320","to":"1093266320.<java.io.PipedInputStream: int in>","type":"load","field":"<java.io.PipedInputStream: int in>"},{"step":10,"from":"1093266320","to":"1093271696","type":"load","field":"<java.io.PipedInputStream: byte[] buffer>"},{"step":11,"from":"1093266320","to":"1093266320.<java.io.PipedInputStream: int in>","type":"load","field":"<java.io.PipedInputStream: int in>"},{"step":12,"from":"sdaReg4","to":"1093266320","type":"store","field":"<java.io.PipedInputStream: int in>"},{"step":13,"from":"sdaReg5","to":"1093271696","type":"store","field":"arrayIdx_int:75"},{"step":14,"from":"1093266320","to":"1093271696","type":"load","field":"<java.io.PipedInputStream: byte[] buffer>"},{"step":15,"from":"1093509648","to":"1093509648.<java.io.DataOutputStream: int written>","type":"load","field":"<java.io.DataOutputStream: int written>"},{"step":16,"from":"sdaReg7","to":"1093509648","type":"store","field":"<java.io.DataOutputStream: int written>"}],"parameters":[{"id":"1093509648","name":"this","klass":"java.io.DataOutputStream"},{"id":"sdaReg0","name":"arg#1","klass":"int"}],"returns":[{"id":null,"name":"return","klass":null}],"colors":{"heapLocToColor":{"1093266320.<java.io.PipedInputStream: byte[] buffer>":[0],"sdaReg7":[0],"sdaReg4":[0],"sdaReg5":[1],"1093451856":[2],"1093266320":[0],"1093509648":[0],"1093638520":[0],"1093266320.<java.io.PipedInputStream: int in>":[0],"1093509648.<java.io.DataOutputStream: int written>":[0],"1093271696":[0],"1093266320.<java.io.PipedInputStream: boolean isClosed>":[0],"1093266320.<java.io.PipedInputStream: int out>":[0],"sdaReg3":[2],"sdaReg2":[0],"sdaReg1":[0],"sdaReg0":[1]},"colorToColor":{"0":[0],"1":[0],"2":[0]},"colorToLabel":{"0":"this","1":"arg#1","3":"return"}}}

Generated Model
	arg#1->this

