Scanning method <java.net.URL: void <init>(java.lang.String)>

All seen event types: StoreArrayRecord, SimpleAssignmentRecord, MethodStartRecord, LoadInstanceRecord, IfRecord, NewObjectRecord, StoreInstanceRecord, LoadStaticRecord, BinaryOperationRecord, SwitchRecord, MethodCallRecord, MethodReturnRecord, CastRecord, ArrayLengthRecord, LoadArrayRecord, MethodEndRecord, 
Ignored event types: SwitchRecord, IfRecord, 

JSON Encoded Analysis Data (for visualization):{"heapEdges":[{"step":0,"from":"1093631840","to":"sdaReg5","type":"create","field":"<java.net.URL: int port>"},{"step":1,"from":"sdaReg0","to":"sdaReg6","type":"model"},{"step":2,"from":"sdaReg6","to":"sdaReg7","type":"model"},{"step":3,"from":"sdaReg6","to":"sdaReg9","type":"model"},{"step":4,"from":"sdaReg6","to":"sdaReg11","type":"model"},{"step":5,"from":"sdaReg6","to":"sdaReg13","type":"model"},{"step":6,"from":"sdaReg6","to":"sdaReg15","type":"model"},{"step":7,"from":"sdaReg6","to":"sdaReg17","type":"model"},{"step":8,"from":"static.<java.util.Locale: java.util.Locale US>","to":"1084317688","type":"load","field":"<java.util.Locale: java.util.Locale US>"},{"step":9,"from":"sdaReg17","to":"1084317688","type":"model"},{"step":10,"from":"sdaReg17","to":"sdaReg18","type":"model"},{"step":11,"from":"1084317688","to":"sdaReg17","type":"model"},{"step":12,"from":"1084317688","to":"sdaReg18","type":"model"},{"step":13,"from":"sdaReg18","to":"1093631840","type":"store","field":"<java.net.URL: java.lang.String protocol>"},{"step":14,"from":"static.<java.net.URL: java.util.Hashtable streamHandlers>","to":"1084315112","type":"load","field":"<java.net.URL: java.util.Hashtable streamHandlers>"},{"step":15,"from":"1084315112","to":"1084321912","type":"load","field":"<java.util.Hashtable: java.util.Hashtable$HashtableEntry[] table>"},{"step":16,"from":"1093451448","to":"1093277632","type":"model"},{"step":17,"from":"1093631840","to":"1093633728","type":"create","field":"<java.net.URL: java.net.URLStreamHandler streamHandler>"},{"step":18,"from":"static.<java.net.URL: java.util.Hashtable streamHandlers>","to":"1084315112","type":"load","field":"<java.net.URL: java.util.Hashtable streamHandlers>"},{"step":19,"from":"1084315112","to":"1084321912","type":"load","field":"<java.util.Hashtable: java.util.Hashtable$HashtableEntry[] table>"},{"step":20,"from":"1084315112","to":"1084315112.<java.util.Hashtable: int modCount>","type":"load","field":"<java.util.Hashtable: int modCount>"},{"step":21,"from":"sdaReg66","to":"1084315112","type":"store","field":"<java.util.Hashtable: int modCount>"},{"step":22,"from":"1084315112","to":"1084315112.<java.util.Hashtable: int size>","type":"load","field":"<java.util.Hashtable: int size>"},{"step":23,"from":"sdaReg67","to":"1084315112","type":"store","field":"<java.util.Hashtable: int size>"},{"step":24,"from":"1084315112","to":"1084315112.<java.util.Hashtable: int threshold>","type":"load","field":"<java.util.Hashtable: int threshold>"},{"step":25,"from":"1093632536","to":"1093633808","type":"store","field":"<java.util.Hashtable$HashtableEntry: java.lang.Object key>"},{"step":26,"from":"1093633728","to":"1093633808","type":"store","field":"<java.util.Hashtable$HashtableEntry: java.lang.Object value>"},{"step":27,"from":"sdaReg61","to":"1093633808","type":"store","field":"<java.util.Hashtable$HashtableEntry: int hash>"},{"step":28,"from":"1084321912","to":"1093633808","type":"create","field":"arrayIdx_int:1"},{"step":29,"from":"sdaReg6","to":"sdaReg21","type":"model"},{"step":30,"from":"sdaReg6","to":"sdaReg78","type":"model"},{"step":31,"from":"sdaReg21","to":"sdaReg6","type":"model"},{"step":32,"from":"sdaReg21","to":"sdaReg78","type":"model"},{"step":33,"from":"sdaReg6","to":"sdaReg82","type":"model"},{"step":34,"from":"sdaReg80","to":"sdaReg82","type":"model"},{"step":35,"from":"sdaReg80","to":"sdaReg83","type":"model"},{"step":36,"from":"sdaReg82","to":"sdaReg80","type":"model"},{"step":37,"from":"sdaReg82","to":"sdaReg83","type":"model"},{"step":38,"from":"sdaReg6","to":"sdaReg84","type":"model"},{"step":39,"from":"sdaReg6","to":"sdaReg94","type":"model"},{"step":40,"from":"sdaReg6","to":"sdaReg100","type":"model"},{"step":41,"from":"sdaReg6","to":"sdaReg103","type":"model"},{"step":42,"from":"sdaReg101","to":"sdaReg103","type":"model"},{"step":43,"from":"sdaReg101","to":"sdaReg104","type":"model"},{"step":44,"from":"sdaReg103","to":"sdaReg101","type":"model"},{"step":45,"from":"sdaReg103","to":"sdaReg104","type":"model"},{"step":46,"from":"sdaReg6","to":"sdaReg105","type":"model"},{"step":47,"from":"sdaReg101","to":"sdaReg105","type":"model"},{"step":48,"from":"sdaReg101","to":"sdaReg106","type":"model"},{"step":49,"from":"sdaReg105","to":"sdaReg101","type":"model"},{"step":50,"from":"sdaReg105","to":"sdaReg106","type":"model"},{"step":51,"from":"sdaReg6","to":"sdaReg107","type":"model"},{"step":52,"from":"sdaReg101","to":"sdaReg107","type":"model"},{"step":53,"from":"sdaReg101","to":"sdaReg108","type":"model"},{"step":54,"from":"sdaReg107","to":"sdaReg101","type":"model"},{"step":55,"from":"sdaReg107","to":"sdaReg108","type":"model"},{"step":56,"from":"sdaReg6","to":"sdaReg109","type":"model"},{"step":57,"from":"sdaReg101","to":"sdaReg109","type":"model"},{"step":58,"from":"sdaReg101","to":"sdaReg110","type":"model"},{"step":59,"from":"sdaReg109","to":"sdaReg101","type":"model"},{"step":60,"from":"sdaReg109","to":"sdaReg110","type":"model"},{"step":61,"from":"sdaReg6","to":"sdaReg111","type":"model"},{"step":62,"from":"sdaReg101","to":"sdaReg111","type":"model"},{"step":63,"from":"sdaReg101","to":"sdaReg112","type":"model"},{"step":64,"from":"sdaReg111","to":"sdaReg101","type":"model"},{"step":65,"from":"sdaReg111","to":"sdaReg112","type":"model"},{"step":66,"from":"sdaReg6","to":"sdaReg113","type":"model"},{"step":67,"from":"sdaReg101","to":"sdaReg113","type":"model"},{"step":68,"from":"sdaReg101","to":"sdaReg114","type":"model"},{"step":69,"from":"sdaReg113","to":"sdaReg101","type":"model"},{"step":70,"from":"sdaReg113","to":"sdaReg114","type":"model"},{"step":71,"from":"sdaReg6","to":"sdaReg116","type":"model"},{"step":72,"from":"sdaReg84","to":"sdaReg117","type":"model"},{"step":73,"from":"sdaReg116","to":"sdaReg124","type":"model"},{"step":74,"from":"sdaReg123","to":"1093656912","type":"model"},{"step":75,"from":"sdaReg123","to":"1093656912","type":"model"},{"step":76,"from":"sdaReg116","to":"1093656912","type":"model"},{"step":77,"from":"sdaReg116","to":"1093656912","type":"model"},{"step":78,"from":"1093656912","to":"sdaReg129","type":"model"},{"step":79,"from":"sdaReg94","to":"1093631840","type":"store","field":"<java.net.URL: java.lang.String host>"},{"step":80,"from":"sdaReg129","to":"1093631840","type":"store","field":"<java.net.URL: java.lang.String file>"},{"step":81,"from":"sdaReg77","to":"1093631840","type":"store","field":"<java.net.URL: int port>"},{"step":82,"from":"sdaReg98","to":"1093631840","type":"store","field":"<java.net.URL: java.lang.String ref>"},{"step":83,"from":"1093631840","to":"sdaReg131","type":"create","field":"<java.net.URL: int hashCode>"},{"step":84,"from":"1093631840","to":"sdaReg137","type":"create","field":"<java.net.URL: java.lang.String userInfo>"},{"step":85,"from":"sdaReg140","to":"sdaReg141","type":"model"},{"step":86,"from":"sdaReg141","to":"1093631840","type":"store","field":"<java.net.URL: java.lang.String query>"},{"step":87,"from":"sdaReg142","to":"1093631840","type":"store","field":"<java.net.URL: java.lang.String path>"},{"step":88,"from":"sdaReg84","to":"1093631840","type":"store","field":"<java.net.URL: java.lang.String authority>"},{"step":89,"from":"sdaReg87","to":"1093631840","type":"store","field":"<java.net.URL: java.lang.String userInfo>"},{"step":90,"from":"sdaReg96","to":"1093631840","type":"store","field":"<java.net.URL: java.lang.String path>"},{"step":91,"from":"sdaReg116","to":"1093631840","type":"store","field":"<java.net.URL: java.lang.String query>"}],"parameters":[{"id":"1093631840","name":"this","klass":"java.net.URL"},{"id":"sdaReg0","name":"arg#1","klass":"string"}],"returns":[{"id":"1093631840","name":"return","klass":"java.net.URL"}],"colors":{"heapLocToColor":{"sdaReg125":[46],"sdaReg126":[46],"1084315112.<java.util.Hashtable: int modCount>":[12],"sdaReg127":[46],"sdaReg128":[46],"sdaReg129":[46, 47],"sdaReg68":[23],"sdaReg66":[12],"sdaReg67":[12],"sdaReg64":[22],"sdaReg13":[1, 2, 6],"sdaReg72":[23],"1093277632":[17, 16],"sdaReg11":[1, 2, 5],"sdaReg70":[21],"sdaReg120":[21],"sdaReg19":[11],"sdaReg122":[0],"sdaReg17":[1, 2, 8],"sdaReg121":[0],"sdaReg18":[1, 2, 8, 10],"sdaReg124":[1, 2, 43, 45],"sdaReg15":[1, 2, 7],"1093656912":[46],"sdaReg116":[1, 2, 43],"sdaReg117":[1, 2, 28, 44],"sdaReg114":[42],"1093451448":[16],"sdaReg115":[1, 2, 11],"sdaReg118":[0],"1084315112.<java.util.Hashtable: int size>":[12],"sdaReg78":[1, 2, 25],"sdaReg79":[1, 2, 11],"sdaReg73":[23],"sdaReg74":[24],"sdaReg75":[21],"sdaReg76":[0],"sdaReg81":[1, 2, 11],"1084321912":[12],"sdaReg83":[27],"sdaReg82":[1, 2, 26],"1093633808":[23],"sdaReg113":[1, 2, 41],"sdaReg112":[40],"sdaReg111":[1, 2, 39],"1084315112":[12],"sdaReg110":[38],"static.<java.net.URL: java.util.Hashtable streamHandlers>":[12],"sdaReg107":[1, 35, 2],"sdaReg108":[36],"sdaReg109":[1, 2, 37],"sdaReg103":[1, 2, 31],"sdaReg104":[32],"sdaReg105":[1, 2, 33],"sdaReg106":[34],"sdaReg86":[1, 2, 11],"sdaReg84":[1, 2, 28],"1093631840":[0],"sdaReg88":[1, 2, 11],"sdaReg89":[1, 2, 11],"1084315112.<java.util.Hashtable: java.util.Hashtable$HashtableEntry[] table>":[12],"sdaReg94":[1, 2, 29],"sdaReg93":[1, 2, 11],"sdaReg91":[1, 2, 11],"sdaReg100":[1, 2, 30],"sdaReg102":[1, 2, 11],"1093633728":[21],"sdaReg95":[1, 2, 11],"sdaReg99":[1, 2, 24, 11],"static.<java.net.URL: java.net.URLStreamHandlerFactory streamHandlerFactory>":[14],"sdaReg60":[22],"sdaReg61":[22],"1084315112.<java.util.Hashtable: int threshold>":[12],"sdaReg59":[22],"sdaReg58":[22],"sdaReg57":[22],"sdaReg56":[22],"sdaReg55":[22],"sdaReg54":[22],"sdaReg53":[22],"sdaReg52":[21],"sdaReg50":[12],"1084317688":[1, 2, 8, 9],"sdaReg49":[21],"sdaReg48":[21],"sdaReg45":[21],"sdaReg44":[20],"sdaReg47":[21],"sdaReg46":[21],"sdaReg41":[17, 16],"sdaReg40":[16],"sdaReg43":[19],"sdaReg42":[18],"sdaReg143":[0],"sdaReg39":[15],"sdaReg140":[50],"sdaReg141":[51],"sdaReg142":[52],"sdaReg32":[13],"sdaReg31":[13],"sdaReg30":[13],"sdaReg36":[13],"sdaReg33":[13],"sdaReg9":[1, 2, 4],"sdaReg6":[1, 2],"sdaReg7":[1, 2, 3],"sdaReg4":[0],"sdaReg139":[50],"sdaReg138":[50],"sdaReg136":[49],"sdaReg134":[48],"sdaReg27":[13],"sdaReg135":[49],"sdaReg26":[13],"sdaReg132":[0],"sdaReg29":[13],"static.<java.util.Locale: java.util.Locale US>":[9],"sdaReg28":[13],"sdaReg130":[0],"sdaReg2":[0],"sdaReg21":[1, 2, 11],"sdaReg0":[1],"sdaReg20":[11],"sdaReg23":[12],"sdaReg22":[0],"sdaReg25":[13]},"colorToColor":{"0":[53],"1":[0, 34, 1, 2, 32, 38, 36, 8, 42, 10, 40, 46, 25, 27],"2":[0, 34, 1, 2, 32, 38, 36, 8, 42, 10, 40, 46, 25, 27],"8":[0, 1, 2, 8, 10],"9":[1, 2, 8, 10],"10":[0],"11":[1, 2, 25],"12":[12],"21":[0, 23],"23":[12],"22":[23],"26":[27],"29":[0],"28":[0],"31":[32],"35":[36],"33":[34],"39":[40],"37":[38],"43":[0, 46],"41":[42],"46":[0],"47":[0],"51":[0],"50":[51],"52":[0]},"colorToLabel":{"0":"this","1":"arg#1","9":"<java.util.Locale: java.util.Locale US>","12":"<java.net.URL: java.util.Hashtable streamHandlers>","14":"<java.net.URL: java.net.URLStreamHandlerFactory streamHandlerFactory>","53":"return"}}}

Generated Model
	this->return
	arg#1->this
	arg#1->return

