Scanning method <java.net.URL: void <init>(java.lang.String)>

All seen event types: StoreArrayRecord, SimpleAssignmentRecord, MethodStartRecord, LoadInstanceRecord, IfRecord, NewObjectRecord, StoreInstanceRecord, LoadStaticRecord, BinaryOperationRecord, SwitchRecord, MethodCallRecord, MethodReturnRecord, CastRecord, ArrayLengthRecord, LoadArrayRecord, MethodEndRecord, 
Ignored event types: SwitchRecord, IfRecord, 

JSON Encoded Analysis Data (for visualization):{"heapEdges":[{"step":0,"from":"1093668456","to":"sdaReg5","type":"create","field":"<java.net.URL: int port>"},{"step":1,"from":"sdaReg0","to":"sdaReg6","type":"model"},{"step":2,"from":"sdaReg6","to":"sdaReg7","type":"model"},{"step":3,"from":"sdaReg6","to":"sdaReg9","type":"model"},{"step":4,"from":"sdaReg6","to":"sdaReg11","type":"model"},{"step":5,"from":"sdaReg6","to":"sdaReg13","type":"model"},{"step":6,"from":"sdaReg6","to":"sdaReg15","type":"model"},{"step":7,"from":"sdaReg6","to":"sdaReg17","type":"model"},{"step":8,"from":"static.<java.util.Locale: java.util.Locale US>","to":"1084317688","type":"load","field":"<java.util.Locale: java.util.Locale US>"},{"step":9,"from":"sdaReg17","to":"1084317688","type":"model"},{"step":10,"from":"sdaReg17","to":"sdaReg18","type":"model"},{"step":11,"from":"1084317688","to":"sdaReg17","type":"model"},{"step":12,"from":"1084317688","to":"sdaReg18","type":"model"},{"step":13,"from":"sdaReg18","to":"1093668456","type":"store","field":"<java.net.URL: java.lang.String protocol>"},{"step":14,"from":"static.<java.net.URL: java.util.Hashtable streamHandlers>","to":"1084315112","type":"load","field":"<java.net.URL: java.util.Hashtable streamHandlers>"},{"step":15,"from":"1084315112","to":"1084321912","type":"load","field":"<java.util.Hashtable: java.util.Hashtable$HashtableEntry[] table>"},{"step":16,"from":"1093458144","to":"1093274344","type":"model"},{"step":17,"from":"1093668456","to":"1093671112","type":"create","field":"<java.net.URL: java.net.URLStreamHandler streamHandler>"},{"step":18,"from":"static.<java.net.URL: java.util.Hashtable streamHandlers>","to":"1084315112","type":"load","field":"<java.net.URL: java.util.Hashtable streamHandlers>"},{"step":19,"from":"1084315112","to":"1084321912","type":"load","field":"<java.util.Hashtable: java.util.Hashtable$HashtableEntry[] table>"},{"step":20,"from":"1084315112","to":"1084315112.<java.util.Hashtable: int modCount>","type":"load","field":"<java.util.Hashtable: int modCount>"},{"step":21,"from":"sdaReg66","to":"1084315112","type":"store","field":"<java.util.Hashtable: int modCount>"},{"step":22,"from":"1084315112","to":"1084315112.<java.util.Hashtable: int size>","type":"load","field":"<java.util.Hashtable: int size>"},{"step":23,"from":"sdaReg67","to":"1084315112","type":"store","field":"<java.util.Hashtable: int size>"},{"step":24,"from":"1084315112","to":"1084315112.<java.util.Hashtable: int threshold>","type":"load","field":"<java.util.Hashtable: int threshold>"},{"step":25,"from":"1093669920","to":"1093691480","type":"store","field":"<java.util.Hashtable$HashtableEntry: java.lang.Object key>"},{"step":26,"from":"1093671112","to":"1093691480","type":"store","field":"<java.util.Hashtable$HashtableEntry: java.lang.Object value>"},{"step":27,"from":"sdaReg61","to":"1093691480","type":"store","field":"<java.util.Hashtable$HashtableEntry: int hash>"},{"step":28,"from":"1084321912","to":"1093691480","type":"create","field":"arrayIdx_int:1"},{"step":29,"from":"sdaReg6","to":"sdaReg21","type":"model"},{"step":30,"from":"sdaReg6","to":"sdaReg78","type":"model"},{"step":31,"from":"sdaReg21","to":"sdaReg6","type":"model"},{"step":32,"from":"sdaReg21","to":"sdaReg78","type":"model"},{"step":33,"from":"sdaReg6","to":"sdaReg82","type":"model"},{"step":34,"from":"sdaReg80","to":"sdaReg82","type":"model"},{"step":35,"from":"sdaReg80","to":"sdaReg83","type":"model"},{"step":36,"from":"sdaReg82","to":"sdaReg80","type":"model"},{"step":37,"from":"sdaReg82","to":"sdaReg83","type":"model"},{"step":38,"from":"sdaReg6","to":"sdaReg84","type":"model"},{"step":39,"from":"sdaReg80","to":"sdaReg84","type":"model"},{"step":40,"from":"sdaReg80","to":"sdaReg85","type":"model"},{"step":41,"from":"sdaReg84","to":"sdaReg80","type":"model"},{"step":42,"from":"sdaReg84","to":"sdaReg85","type":"model"},{"step":43,"from":"sdaReg6","to":"sdaReg86","type":"model"},{"step":44,"from":"sdaReg80","to":"sdaReg86","type":"model"},{"step":45,"from":"sdaReg80","to":"sdaReg87","type":"model"},{"step":46,"from":"sdaReg86","to":"sdaReg80","type":"model"},{"step":47,"from":"sdaReg86","to":"sdaReg87","type":"model"},{"step":48,"from":"sdaReg6","to":"sdaReg88","type":"model"},{"step":49,"from":"sdaReg80","to":"sdaReg88","type":"model"},{"step":50,"from":"sdaReg80","to":"sdaReg89","type":"model"},{"step":51,"from":"sdaReg88","to":"sdaReg80","type":"model"},{"step":52,"from":"sdaReg88","to":"sdaReg89","type":"model"},{"step":53,"from":"sdaReg6","to":"sdaReg90","type":"model"},{"step":54,"from":"sdaReg80","to":"sdaReg90","type":"model"},{"step":55,"from":"sdaReg80","to":"sdaReg91","type":"model"},{"step":56,"from":"sdaReg90","to":"sdaReg80","type":"model"},{"step":57,"from":"sdaReg90","to":"sdaReg91","type":"model"},{"step":58,"from":"sdaReg6","to":"sdaReg92","type":"model"},{"step":59,"from":"sdaReg80","to":"sdaReg92","type":"model"},{"step":60,"from":"sdaReg80","to":"sdaReg93","type":"model"},{"step":61,"from":"sdaReg92","to":"sdaReg80","type":"model"},{"step":62,"from":"sdaReg92","to":"sdaReg93","type":"model"},{"step":63,"from":"sdaReg6","to":"sdaReg94","type":"model"},{"step":64,"from":"sdaReg80","to":"sdaReg94","type":"model"},{"step":65,"from":"sdaReg80","to":"sdaReg95","type":"model"},{"step":66,"from":"sdaReg94","to":"sdaReg80","type":"model"},{"step":67,"from":"sdaReg94","to":"sdaReg95","type":"model"},{"step":68,"from":"sdaReg6","to":"sdaReg96","type":"model"},{"step":69,"from":"sdaReg80","to":"sdaReg96","type":"model"},{"step":70,"from":"sdaReg80","to":"sdaReg97","type":"model"},{"step":71,"from":"sdaReg96","to":"sdaReg80","type":"model"},{"step":72,"from":"sdaReg96","to":"sdaReg97","type":"model"},{"step":73,"from":"sdaReg6","to":"sdaReg98","type":"model"},{"step":74,"from":"sdaReg80","to":"sdaReg98","type":"model"},{"step":75,"from":"sdaReg80","to":"sdaReg99","type":"model"},{"step":76,"from":"sdaReg98","to":"sdaReg80","type":"model"},{"step":77,"from":"sdaReg98","to":"sdaReg99","type":"model"},{"step":78,"from":"sdaReg6","to":"sdaReg100","type":"model"},{"step":79,"from":"sdaReg80","to":"sdaReg100","type":"model"},{"step":80,"from":"sdaReg80","to":"sdaReg101","type":"model"},{"step":81,"from":"sdaReg100","to":"sdaReg80","type":"model"},{"step":82,"from":"sdaReg100","to":"sdaReg101","type":"model"},{"step":83,"from":"sdaReg6","to":"sdaReg102","type":"model"},{"step":84,"from":"sdaReg80","to":"sdaReg102","type":"model"},{"step":85,"from":"sdaReg80","to":"sdaReg103","type":"model"},{"step":86,"from":"sdaReg102","to":"sdaReg80","type":"model"},{"step":87,"from":"sdaReg102","to":"sdaReg103","type":"model"},{"step":88,"from":"sdaReg6","to":"sdaReg104","type":"model"},{"step":89,"from":"sdaReg80","to":"sdaReg104","type":"model"},{"step":90,"from":"sdaReg80","to":"sdaReg105","type":"model"},{"step":91,"from":"sdaReg104","to":"sdaReg80","type":"model"},{"step":92,"from":"sdaReg104","to":"sdaReg105","type":"model"},{"step":93,"from":"sdaReg6","to":"sdaReg106","type":"model"},{"step":94,"from":"sdaReg80","to":"sdaReg106","type":"model"},{"step":95,"from":"sdaReg80","to":"sdaReg107","type":"model"},{"step":96,"from":"sdaReg106","to":"sdaReg80","type":"model"},{"step":97,"from":"sdaReg106","to":"sdaReg107","type":"model"},{"step":98,"from":"sdaReg6","to":"sdaReg108","type":"model"},{"step":99,"from":"sdaReg80","to":"sdaReg108","type":"model"},{"step":100,"from":"sdaReg80","to":"sdaReg109","type":"model"},{"step":101,"from":"sdaReg108","to":"sdaReg80","type":"model"},{"step":102,"from":"sdaReg108","to":"sdaReg109","type":"model"},{"step":103,"from":"sdaReg6","to":"sdaReg110","type":"model"},{"step":104,"from":"sdaReg80","to":"sdaReg110","type":"model"},{"step":105,"from":"sdaReg80","to":"sdaReg111","type":"model"},{"step":106,"from":"sdaReg110","to":"sdaReg80","type":"model"},{"step":107,"from":"sdaReg110","to":"sdaReg111","type":"model"},{"step":108,"from":"sdaReg6","to":"sdaReg112","type":"model"},{"step":109,"from":"sdaReg80","to":"sdaReg112","type":"model"},{"step":110,"from":"sdaReg80","to":"sdaReg113","type":"model"},{"step":111,"from":"sdaReg112","to":"sdaReg80","type":"model"},{"step":112,"from":"sdaReg112","to":"sdaReg113","type":"model"},{"step":113,"from":"sdaReg6","to":"sdaReg114","type":"model"},{"step":114,"from":"sdaReg80","to":"sdaReg114","type":"model"},{"step":115,"from":"sdaReg80","to":"sdaReg115","type":"model"},{"step":116,"from":"sdaReg114","to":"sdaReg80","type":"model"},{"step":117,"from":"sdaReg114","to":"sdaReg115","type":"model"},{"step":118,"from":"sdaReg6","to":"sdaReg116","type":"model"},{"step":119,"from":"sdaReg80","to":"sdaReg116","type":"model"},{"step":120,"from":"sdaReg80","to":"sdaReg117","type":"model"},{"step":121,"from":"sdaReg116","to":"sdaReg80","type":"model"},{"step":122,"from":"sdaReg116","to":"sdaReg117","type":"model"},{"step":123,"from":"sdaReg6","to":"sdaReg118","type":"model"},{"step":124,"from":"sdaReg80","to":"sdaReg118","type":"model"},{"step":125,"from":"sdaReg80","to":"sdaReg119","type":"model"},{"step":126,"from":"sdaReg118","to":"sdaReg80","type":"model"},{"step":127,"from":"sdaReg118","to":"sdaReg119","type":"model"},{"step":128,"from":"sdaReg6","to":"sdaReg120","type":"model"},{"step":129,"from":"sdaReg80","to":"sdaReg120","type":"model"},{"step":130,"from":"sdaReg80","to":"sdaReg121","type":"model"},{"step":131,"from":"sdaReg120","to":"sdaReg80","type":"model"},{"step":132,"from":"sdaReg120","to":"sdaReg121","type":"model"},{"step":133,"from":"sdaReg6","to":"sdaReg122","type":"model"},{"step":134,"from":"sdaReg80","to":"sdaReg122","type":"model"},{"step":135,"from":"sdaReg80","to":"sdaReg123","type":"model"},{"step":136,"from":"sdaReg122","to":"sdaReg80","type":"model"},{"step":137,"from":"sdaReg122","to":"sdaReg123","type":"model"},{"step":138,"from":"sdaReg6","to":"sdaReg124","type":"model"},{"step":139,"from":"sdaReg80","to":"sdaReg124","type":"model"},{"step":140,"from":"sdaReg80","to":"sdaReg125","type":"model"},{"step":141,"from":"sdaReg124","to":"sdaReg80","type":"model"},{"step":142,"from":"sdaReg124","to":"sdaReg125","type":"model"},{"step":143,"from":"sdaReg6","to":"sdaReg126","type":"model"},{"step":144,"from":"sdaReg80","to":"sdaReg126","type":"model"},{"step":145,"from":"sdaReg80","to":"sdaReg127","type":"model"},{"step":146,"from":"sdaReg126","to":"sdaReg80","type":"model"},{"step":147,"from":"sdaReg126","to":"sdaReg127","type":"model"},{"step":148,"from":"sdaReg6","to":"sdaReg128","type":"model"},{"step":149,"from":"sdaReg80","to":"sdaReg128","type":"model"},{"step":150,"from":"sdaReg80","to":"sdaReg129","type":"model"},{"step":151,"from":"sdaReg128","to":"sdaReg80","type":"model"},{"step":152,"from":"sdaReg128","to":"sdaReg129","type":"model"},{"step":153,"from":"sdaReg6","to":"sdaReg130","type":"model"},{"step":154,"from":"sdaReg80","to":"sdaReg130","type":"model"},{"step":155,"from":"sdaReg80","to":"sdaReg131","type":"model"},{"step":156,"from":"sdaReg130","to":"sdaReg80","type":"model"},{"step":157,"from":"sdaReg130","to":"sdaReg131","type":"model"},{"step":158,"from":"sdaReg6","to":"sdaReg132","type":"model"},{"step":159,"from":"sdaReg80","to":"sdaReg132","type":"model"},{"step":160,"from":"sdaReg80","to":"sdaReg133","type":"model"},{"step":161,"from":"sdaReg132","to":"sdaReg80","type":"model"},{"step":162,"from":"sdaReg132","to":"sdaReg133","type":"model"},{"step":163,"from":"sdaReg6","to":"sdaReg134","type":"model"},{"step":164,"from":"sdaReg80","to":"sdaReg134","type":"model"},{"step":165,"from":"sdaReg80","to":"sdaReg135","type":"model"},{"step":166,"from":"sdaReg134","to":"sdaReg80","type":"model"},{"step":167,"from":"sdaReg134","to":"sdaReg135","type":"model"},{"step":168,"from":"sdaReg6","to":"sdaReg136","type":"model"},{"step":169,"from":"sdaReg80","to":"sdaReg136","type":"model"},{"step":170,"from":"sdaReg80","to":"sdaReg137","type":"model"},{"step":171,"from":"sdaReg136","to":"sdaReg80","type":"model"},{"step":172,"from":"sdaReg136","to":"sdaReg137","type":"model"},{"step":173,"from":"sdaReg6","to":"sdaReg138","type":"model"},{"step":174,"from":"sdaReg6","to":"sdaReg141","type":"model"},{"step":175,"from":"sdaReg139","to":"sdaReg141","type":"model"},{"step":176,"from":"sdaReg139","to":"sdaReg142","type":"model"},{"step":177,"from":"sdaReg141","to":"sdaReg139","type":"model"},{"step":178,"from":"sdaReg141","to":"sdaReg142","type":"model"},{"step":179,"from":"sdaReg6","to":"sdaReg143","type":"model"},{"step":180,"from":"sdaReg139","to":"sdaReg143","type":"model"},{"step":181,"from":"sdaReg139","to":"sdaReg144","type":"model"},{"step":182,"from":"sdaReg143","to":"sdaReg139","type":"model"},{"step":183,"from":"sdaReg143","to":"sdaReg144","type":"model"},{"step":184,"from":"sdaReg6","to":"sdaReg145","type":"model"},{"step":185,"from":"sdaReg139","to":"sdaReg145","type":"model"},{"step":186,"from":"sdaReg139","to":"sdaReg146","type":"model"},{"step":187,"from":"sdaReg145","to":"sdaReg139","type":"model"},{"step":188,"from":"sdaReg145","to":"sdaReg146","type":"model"},{"step":189,"from":"sdaReg6","to":"sdaReg147","type":"model"},{"step":190,"from":"sdaReg139","to":"sdaReg147","type":"model"},{"step":191,"from":"sdaReg139","to":"sdaReg148","type":"model"},{"step":192,"from":"sdaReg147","to":"sdaReg139","type":"model"},{"step":193,"from":"sdaReg147","to":"sdaReg148","type":"model"},{"step":194,"from":"sdaReg6","to":"sdaReg149","type":"model"},{"step":195,"from":"sdaReg139","to":"sdaReg149","type":"model"},{"step":196,"from":"sdaReg139","to":"sdaReg150","type":"model"},{"step":197,"from":"sdaReg149","to":"sdaReg139","type":"model"},{"step":198,"from":"sdaReg149","to":"sdaReg150","type":"model"},{"step":199,"from":"sdaReg6","to":"sdaReg151","type":"model"},{"step":200,"from":"sdaReg139","to":"sdaReg151","type":"model"},{"step":201,"from":"sdaReg139","to":"sdaReg152","type":"model"},{"step":202,"from":"sdaReg151","to":"sdaReg139","type":"model"},{"step":203,"from":"sdaReg151","to":"sdaReg152","type":"model"},{"step":204,"from":"sdaReg6","to":"sdaReg153","type":"model"},{"step":205,"from":"sdaReg139","to":"sdaReg153","type":"model"},{"step":206,"from":"sdaReg139","to":"sdaReg154","type":"model"},{"step":207,"from":"sdaReg153","to":"sdaReg139","type":"model"},{"step":208,"from":"sdaReg153","to":"sdaReg154","type":"model"},{"step":209,"from":"sdaReg6","to":"sdaReg155","type":"model"},{"step":210,"from":"sdaReg139","to":"sdaReg155","type":"model"},{"step":211,"from":"sdaReg139","to":"sdaReg156","type":"model"},{"step":212,"from":"sdaReg155","to":"sdaReg139","type":"model"},{"step":213,"from":"sdaReg155","to":"sdaReg156","type":"model"},{"step":214,"from":"sdaReg6","to":"sdaReg157","type":"model"},{"step":215,"from":"sdaReg139","to":"sdaReg157","type":"model"},{"step":216,"from":"sdaReg139","to":"sdaReg158","type":"model"},{"step":217,"from":"sdaReg157","to":"sdaReg139","type":"model"},{"step":218,"from":"sdaReg157","to":"sdaReg158","type":"model"},{"step":219,"from":"sdaReg6","to":"sdaReg159","type":"model"},{"step":220,"from":"sdaReg139","to":"sdaReg159","type":"model"},{"step":221,"from":"sdaReg139","to":"sdaReg160","type":"model"},{"step":222,"from":"sdaReg159","to":"sdaReg139","type":"model"},{"step":223,"from":"sdaReg159","to":"sdaReg160","type":"model"},{"step":224,"from":"sdaReg6","to":"sdaReg161","type":"model"},{"step":225,"from":"sdaReg139","to":"sdaReg161","type":"model"},{"step":226,"from":"sdaReg139","to":"sdaReg162","type":"model"},{"step":227,"from":"sdaReg161","to":"sdaReg139","type":"model"},{"step":228,"from":"sdaReg161","to":"sdaReg162","type":"model"},{"step":229,"from":"sdaReg6","to":"sdaReg163","type":"model"},{"step":230,"from":"sdaReg139","to":"sdaReg163","type":"model"},{"step":231,"from":"sdaReg139","to":"sdaReg164","type":"model"},{"step":232,"from":"sdaReg163","to":"sdaReg139","type":"model"},{"step":233,"from":"sdaReg163","to":"sdaReg164","type":"model"},{"step":234,"from":"sdaReg6","to":"sdaReg165","type":"model"},{"step":235,"from":"sdaReg139","to":"sdaReg165","type":"model"},{"step":236,"from":"sdaReg139","to":"sdaReg166","type":"model"},{"step":237,"from":"sdaReg165","to":"sdaReg139","type":"model"},{"step":238,"from":"sdaReg165","to":"sdaReg166","type":"model"},{"step":239,"from":"sdaReg6","to":"sdaReg167","type":"model"},{"step":240,"from":"sdaReg139","to":"sdaReg167","type":"model"},{"step":241,"from":"sdaReg139","to":"sdaReg168","type":"model"},{"step":242,"from":"sdaReg167","to":"sdaReg139","type":"model"},{"step":243,"from":"sdaReg167","to":"sdaReg168","type":"model"},{"step":244,"from":"sdaReg6","to":"sdaReg169","type":"model"},{"step":245,"from":"sdaReg139","to":"sdaReg169","type":"model"},{"step":246,"from":"sdaReg139","to":"sdaReg170","type":"model"},{"step":247,"from":"sdaReg169","to":"sdaReg139","type":"model"},{"step":248,"from":"sdaReg169","to":"sdaReg170","type":"model"},{"step":249,"from":"sdaReg6","to":"sdaReg171","type":"model"},{"step":250,"from":"sdaReg139","to":"sdaReg171","type":"model"},{"step":251,"from":"sdaReg139","to":"sdaReg172","type":"model"},{"step":252,"from":"sdaReg171","to":"sdaReg139","type":"model"},{"step":253,"from":"sdaReg171","to":"sdaReg172","type":"model"},{"step":254,"from":"sdaReg6","to":"sdaReg173","type":"model"},{"step":255,"from":"sdaReg139","to":"sdaReg173","type":"model"},{"step":256,"from":"sdaReg139","to":"sdaReg174","type":"model"},{"step":257,"from":"sdaReg173","to":"sdaReg139","type":"model"},{"step":258,"from":"sdaReg173","to":"sdaReg174","type":"model"},{"step":259,"from":"sdaReg6","to":"sdaReg175","type":"model"},{"step":260,"from":"sdaReg139","to":"sdaReg175","type":"model"},{"step":261,"from":"sdaReg139","to":"sdaReg176","type":"model"},{"step":262,"from":"sdaReg175","to":"sdaReg139","type":"model"},{"step":263,"from":"sdaReg175","to":"sdaReg176","type":"model"},{"step":264,"from":"sdaReg6","to":"sdaReg177","type":"model"},{"step":265,"from":"sdaReg6","to":"sdaReg182","type":"model"},{"step":266,"from":"sdaReg180","to":"sdaReg182","type":"model"},{"step":267,"from":"sdaReg180","to":"sdaReg183","type":"model"},{"step":268,"from":"sdaReg182","to":"sdaReg180","type":"model"},{"step":269,"from":"sdaReg182","to":"sdaReg183","type":"model"},{"step":270,"from":"sdaReg6","to":"sdaReg184","type":"model"},{"step":271,"from":"sdaReg180","to":"sdaReg184","type":"model"},{"step":272,"from":"sdaReg180","to":"sdaReg185","type":"model"},{"step":273,"from":"sdaReg184","to":"sdaReg180","type":"model"},{"step":274,"from":"sdaReg184","to":"sdaReg185","type":"model"},{"step":275,"from":"sdaReg6","to":"sdaReg186","type":"model"},{"step":276,"from":"sdaReg180","to":"sdaReg186","type":"model"},{"step":277,"from":"sdaReg180","to":"sdaReg187","type":"model"},{"step":278,"from":"sdaReg186","to":"sdaReg180","type":"model"},{"step":279,"from":"sdaReg186","to":"sdaReg187","type":"model"},{"step":280,"from":"sdaReg6","to":"sdaReg188","type":"model"},{"step":281,"from":"sdaReg180","to":"sdaReg188","type":"model"},{"step":282,"from":"sdaReg180","to":"sdaReg189","type":"model"},{"step":283,"from":"sdaReg188","to":"sdaReg180","type":"model"},{"step":284,"from":"sdaReg188","to":"sdaReg189","type":"model"},{"step":285,"from":"sdaReg6","to":"sdaReg190","type":"model"},{"step":286,"from":"sdaReg180","to":"sdaReg190","type":"model"},{"step":287,"from":"sdaReg180","to":"sdaReg191","type":"model"},{"step":288,"from":"sdaReg190","to":"sdaReg180","type":"model"},{"step":289,"from":"sdaReg190","to":"sdaReg191","type":"model"},{"step":290,"from":"sdaReg6","to":"sdaReg192","type":"model"},{"step":291,"from":"sdaReg180","to":"sdaReg192","type":"model"},{"step":292,"from":"sdaReg180","to":"sdaReg193","type":"model"},{"step":293,"from":"sdaReg192","to":"sdaReg180","type":"model"},{"step":294,"from":"sdaReg192","to":"sdaReg193","type":"model"},{"step":295,"from":"sdaReg6","to":"sdaReg194","type":"model"},{"step":296,"from":"sdaReg180","to":"sdaReg194","type":"model"},{"step":297,"from":"sdaReg180","to":"sdaReg195","type":"model"},{"step":298,"from":"sdaReg194","to":"sdaReg180","type":"model"},{"step":299,"from":"sdaReg194","to":"sdaReg195","type":"model"},{"step":300,"from":"sdaReg6","to":"sdaReg196","type":"model"},{"step":301,"from":"sdaReg180","to":"sdaReg196","type":"model"},{"step":302,"from":"sdaReg180","to":"sdaReg197","type":"model"},{"step":303,"from":"sdaReg196","to":"sdaReg180","type":"model"},{"step":304,"from":"sdaReg196","to":"sdaReg197","type":"model"},{"step":305,"from":"sdaReg6","to":"sdaReg198","type":"model"},{"step":306,"from":"sdaReg180","to":"sdaReg198","type":"model"},{"step":307,"from":"sdaReg180","to":"sdaReg199","type":"model"},{"step":308,"from":"sdaReg198","to":"sdaReg180","type":"model"},{"step":309,"from":"sdaReg198","to":"sdaReg199","type":"model"},{"step":310,"from":"sdaReg6","to":"sdaReg202","type":"model"},{"step":311,"from":"sdaReg200","to":"sdaReg202","type":"model"},{"step":312,"from":"sdaReg200","to":"sdaReg203","type":"model"},{"step":313,"from":"sdaReg202","to":"sdaReg200","type":"model"},{"step":314,"from":"sdaReg202","to":"sdaReg203","type":"model"},{"step":315,"from":"sdaReg6","to":"sdaReg204","type":"model"},{"step":316,"from":"sdaReg200","to":"sdaReg204","type":"model"},{"step":317,"from":"sdaReg200","to":"sdaReg205","type":"model"},{"step":318,"from":"sdaReg204","to":"sdaReg200","type":"model"},{"step":319,"from":"sdaReg204","to":"sdaReg205","type":"model"},{"step":320,"from":"sdaReg6","to":"sdaReg206","type":"model"},{"step":321,"from":"sdaReg200","to":"sdaReg206","type":"model"},{"step":322,"from":"sdaReg200","to":"sdaReg207","type":"model"},{"step":323,"from":"sdaReg206","to":"sdaReg200","type":"model"},{"step":324,"from":"sdaReg206","to":"sdaReg207","type":"model"},{"step":325,"from":"sdaReg6","to":"sdaReg208","type":"model"},{"step":326,"from":"sdaReg200","to":"sdaReg208","type":"model"},{"step":327,"from":"sdaReg200","to":"sdaReg209","type":"model"},{"step":328,"from":"sdaReg208","to":"sdaReg200","type":"model"},{"step":329,"from":"sdaReg208","to":"sdaReg209","type":"model"},{"step":330,"from":"sdaReg6","to":"sdaReg210","type":"model"},{"step":331,"from":"sdaReg200","to":"sdaReg210","type":"model"},{"step":332,"from":"sdaReg200","to":"sdaReg211","type":"model"},{"step":333,"from":"sdaReg210","to":"sdaReg200","type":"model"},{"step":334,"from":"sdaReg210","to":"sdaReg211","type":"model"},{"step":335,"from":"sdaReg6","to":"sdaReg212","type":"model"},{"step":336,"from":"sdaReg6","to":"sdaReg214","type":"model"},{"step":337,"from":"sdaReg214","to":"sdaReg215","type":"model"},{"step":338,"from":"sdaReg6","to":"sdaReg220","type":"model"},{"step":339,"from":"sdaReg6","to":"sdaReg223","type":"model"},{"step":340,"from":"sdaReg221","to":"sdaReg223","type":"model"},{"step":341,"from":"sdaReg221","to":"sdaReg224","type":"model"},{"step":342,"from":"sdaReg223","to":"sdaReg221","type":"model"},{"step":343,"from":"sdaReg223","to":"sdaReg224","type":"model"},{"step":344,"from":"sdaReg6","to":"sdaReg225","type":"model"},{"step":345,"from":"sdaReg221","to":"sdaReg225","type":"model"},{"step":346,"from":"sdaReg221","to":"sdaReg226","type":"model"},{"step":347,"from":"sdaReg225","to":"sdaReg221","type":"model"},{"step":348,"from":"sdaReg225","to":"sdaReg226","type":"model"},{"step":349,"from":"sdaReg6","to":"sdaReg227","type":"model"},{"step":350,"from":"sdaReg221","to":"sdaReg227","type":"model"},{"step":351,"from":"sdaReg221","to":"sdaReg228","type":"model"},{"step":352,"from":"sdaReg227","to":"sdaReg221","type":"model"},{"step":353,"from":"sdaReg227","to":"sdaReg228","type":"model"},{"step":354,"from":"sdaReg6","to":"sdaReg229","type":"model"},{"step":355,"from":"sdaReg221","to":"sdaReg229","type":"model"},{"step":356,"from":"sdaReg221","to":"sdaReg230","type":"model"},{"step":357,"from":"sdaReg229","to":"sdaReg221","type":"model"},{"step":358,"from":"sdaReg229","to":"sdaReg230","type":"model"},{"step":359,"from":"sdaReg6","to":"sdaReg231","type":"model"},{"step":360,"from":"sdaReg221","to":"sdaReg231","type":"model"},{"step":361,"from":"sdaReg221","to":"sdaReg232","type":"model"},{"step":362,"from":"sdaReg231","to":"sdaReg221","type":"model"},{"step":363,"from":"sdaReg231","to":"sdaReg232","type":"model"},{"step":364,"from":"sdaReg6","to":"sdaReg233","type":"model"},{"step":365,"from":"sdaReg221","to":"sdaReg233","type":"model"},{"step":366,"from":"sdaReg221","to":"sdaReg234","type":"model"},{"step":367,"from":"sdaReg233","to":"sdaReg221","type":"model"},{"step":368,"from":"sdaReg233","to":"sdaReg234","type":"model"},{"step":369,"from":"sdaReg6","to":"sdaReg235","type":"model"},{"step":370,"from":"sdaReg221","to":"sdaReg235","type":"model"},{"step":371,"from":"sdaReg221","to":"sdaReg236","type":"model"},{"step":372,"from":"sdaReg235","to":"sdaReg221","type":"model"},{"step":373,"from":"sdaReg235","to":"sdaReg236","type":"model"},{"step":374,"from":"sdaReg6","to":"sdaReg237","type":"model"},{"step":375,"from":"sdaReg221","to":"sdaReg237","type":"model"},{"step":376,"from":"sdaReg221","to":"sdaReg238","type":"model"},{"step":377,"from":"sdaReg237","to":"sdaReg221","type":"model"},{"step":378,"from":"sdaReg237","to":"sdaReg238","type":"model"},{"step":379,"from":"sdaReg6","to":"sdaReg239","type":"model"},{"step":380,"from":"sdaReg221","to":"sdaReg239","type":"model"},{"step":381,"from":"sdaReg221","to":"sdaReg240","type":"model"},{"step":382,"from":"sdaReg239","to":"sdaReg221","type":"model"},{"step":383,"from":"sdaReg239","to":"sdaReg240","type":"model"},{"step":384,"from":"sdaReg6","to":"sdaReg241","type":"model"},{"step":385,"from":"sdaReg221","to":"sdaReg241","type":"model"},{"step":386,"from":"sdaReg221","to":"sdaReg242","type":"model"},{"step":387,"from":"sdaReg241","to":"sdaReg221","type":"model"},{"step":388,"from":"sdaReg241","to":"sdaReg242","type":"model"},{"step":389,"from":"sdaReg6","to":"sdaReg243","type":"model"},{"step":390,"from":"sdaReg221","to":"sdaReg243","type":"model"},{"step":391,"from":"sdaReg221","to":"sdaReg244","type":"model"},{"step":392,"from":"sdaReg243","to":"sdaReg221","type":"model"},{"step":393,"from":"sdaReg243","to":"sdaReg244","type":"model"},{"step":394,"from":"sdaReg6","to":"sdaReg245","type":"model"},{"step":395,"from":"sdaReg221","to":"sdaReg245","type":"model"},{"step":396,"from":"sdaReg221","to":"sdaReg246","type":"model"},{"step":397,"from":"sdaReg245","to":"sdaReg221","type":"model"},{"step":398,"from":"sdaReg245","to":"sdaReg246","type":"model"},{"step":399,"from":"sdaReg6","to":"sdaReg247","type":"model"},{"step":400,"from":"sdaReg221","to":"sdaReg247","type":"model"},{"step":401,"from":"sdaReg221","to":"sdaReg248","type":"model"},{"step":402,"from":"sdaReg247","to":"sdaReg221","type":"model"},{"step":403,"from":"sdaReg247","to":"sdaReg248","type":"model"},{"step":404,"from":"sdaReg6","to":"sdaReg249","type":"model"},{"step":405,"from":"sdaReg221","to":"sdaReg249","type":"model"},{"step":406,"from":"sdaReg221","to":"sdaReg250","type":"model"},{"step":407,"from":"sdaReg249","to":"sdaReg221","type":"model"},{"step":408,"from":"sdaReg249","to":"sdaReg250","type":"model"},{"step":409,"from":"sdaReg6","to":"sdaReg251","type":"model"},{"step":410,"from":"sdaReg221","to":"sdaReg251","type":"model"},{"step":411,"from":"sdaReg221","to":"sdaReg252","type":"model"},{"step":412,"from":"sdaReg251","to":"sdaReg221","type":"model"},{"step":413,"from":"sdaReg251","to":"sdaReg252","type":"model"},{"step":414,"from":"sdaReg6","to":"sdaReg253","type":"model"},{"step":415,"from":"sdaReg221","to":"sdaReg253","type":"model"},{"step":416,"from":"sdaReg221","to":"sdaReg254","type":"model"},{"step":417,"from":"sdaReg253","to":"sdaReg221","type":"model"},{"step":418,"from":"sdaReg253","to":"sdaReg254","type":"model"},{"step":419,"from":"sdaReg6","to":"sdaReg255","type":"model"},{"step":420,"from":"sdaReg255","to":"sdaReg256","type":"model"},{"step":421,"from":"sdaReg255","to":"sdaReg263","type":"model"},{"step":422,"from":"sdaReg255","to":"sdaReg269","type":"model"},{"step":423,"from":"sdaReg255","to":"sdaReg272","type":"model"},{"step":424,"from":"sdaReg255","to":"sdaReg275","type":"model"},{"step":425,"from":"sdaReg255","to":"sdaReg278","type":"model"},{"step":426,"from":"sdaReg255","to":"sdaReg281","type":"model"},{"step":427,"from":"sdaReg255","to":"sdaReg284","type":"model"},{"step":428,"from":"sdaReg255","to":"sdaReg287","type":"model"},{"step":429,"from":"sdaReg255","to":"sdaReg290","type":"model"},{"step":430,"from":"sdaReg255","to":"sdaReg293","type":"model"},{"step":431,"from":"sdaReg255","to":"sdaReg296","type":"model"},{"step":432,"from":"sdaReg255","to":"sdaReg299","type":"model"},{"step":433,"from":"sdaReg255","to":"sdaReg302","type":"model"},{"step":434,"from":"sdaReg255","to":"sdaReg305","type":"model"},{"step":435,"from":"sdaReg255","to":"sdaReg308","type":"model"},{"step":436,"from":"sdaReg6","to":"sdaReg312","type":"model"},{"step":437,"from":"sdaReg6","to":"sdaReg315","type":"model"},{"step":438,"from":"sdaReg313","to":"sdaReg315","type":"model"},{"step":439,"from":"sdaReg313","to":"sdaReg316","type":"model"},{"step":440,"from":"sdaReg315","to":"sdaReg313","type":"model"},{"step":441,"from":"sdaReg315","to":"sdaReg316","type":"model"},{"step":442,"from":"sdaReg6","to":"sdaReg317","type":"model"},{"step":443,"from":"sdaReg313","to":"sdaReg317","type":"model"},{"step":444,"from":"sdaReg313","to":"sdaReg318","type":"model"},{"step":445,"from":"sdaReg317","to":"sdaReg313","type":"model"},{"step":446,"from":"sdaReg317","to":"sdaReg318","type":"model"},{"step":447,"from":"sdaReg6","to":"sdaReg319","type":"model"},{"step":448,"from":"sdaReg313","to":"sdaReg319","type":"model"},{"step":449,"from":"sdaReg313","to":"sdaReg320","type":"model"},{"step":450,"from":"sdaReg319","to":"sdaReg313","type":"model"},{"step":451,"from":"sdaReg319","to":"sdaReg320","type":"model"},{"step":452,"from":"sdaReg6","to":"sdaReg321","type":"model"},{"step":453,"from":"sdaReg313","to":"sdaReg321","type":"model"},{"step":454,"from":"sdaReg313","to":"sdaReg322","type":"model"},{"step":455,"from":"sdaReg321","to":"sdaReg313","type":"model"},{"step":456,"from":"sdaReg321","to":"sdaReg322","type":"model"},{"step":457,"from":"sdaReg6","to":"sdaReg323","type":"model"},{"step":458,"from":"sdaReg313","to":"sdaReg323","type":"model"},{"step":459,"from":"sdaReg313","to":"sdaReg324","type":"model"},{"step":460,"from":"sdaReg323","to":"sdaReg313","type":"model"},{"step":461,"from":"sdaReg323","to":"sdaReg324","type":"model"},{"step":462,"from":"sdaReg6","to":"sdaReg325","type":"model"},{"step":463,"from":"sdaReg313","to":"sdaReg325","type":"model"},{"step":464,"from":"sdaReg313","to":"sdaReg326","type":"model"},{"step":465,"from":"sdaReg325","to":"sdaReg313","type":"model"},{"step":466,"from":"sdaReg325","to":"sdaReg326","type":"model"},{"step":467,"from":"sdaReg6","to":"sdaReg327","type":"model"},{"step":468,"from":"sdaReg313","to":"sdaReg327","type":"model"},{"step":469,"from":"sdaReg313","to":"sdaReg328","type":"model"},{"step":470,"from":"sdaReg327","to":"sdaReg313","type":"model"},{"step":471,"from":"sdaReg327","to":"sdaReg328","type":"model"},{"step":472,"from":"sdaReg6","to":"sdaReg330","type":"model"},{"step":473,"from":"sdaReg6","to":"sdaReg331","type":"model"},{"step":474,"from":"sdaReg6","to":"sdaReg333","type":"model"},{"step":475,"from":"sdaReg138","to":"sdaReg334","type":"model"},{"step":476,"from":"sdaReg255","to":"sdaReg335","type":"model"},{"step":477,"from":"sdaReg255","to":"sdaReg336","type":"model"},{"step":478,"from":"sdaReg330","to":"sdaReg343","type":"model"},{"step":479,"from":"sdaReg342","to":"1093298256","type":"model"},{"step":480,"from":"sdaReg342","to":"1093298256","type":"model"},{"step":481,"from":"sdaReg330","to":"1093298256","type":"model"},{"step":482,"from":"sdaReg330","to":"1093298256","type":"model"},{"step":483,"from":"1093298256","to":"sdaReg348","type":"model"},{"step":484,"from":"sdaReg212","to":"1093668456","type":"store","field":"<java.net.URL: java.lang.String host>"},{"step":485,"from":"sdaReg348","to":"1093668456","type":"store","field":"<java.net.URL: java.lang.String file>"},{"step":486,"from":"sdaReg215","to":"1093668456","type":"store","field":"<java.net.URL: int port>"},{"step":487,"from":"sdaReg333","to":"1093668456","type":"store","field":"<java.net.URL: java.lang.String ref>"},{"step":488,"from":"1093668456","to":"sdaReg350","type":"create","field":"<java.net.URL: int hashCode>"},{"step":489,"from":"sdaReg354","to":"1093668456","type":"store","field":"<java.net.URL: java.lang.String authority>"},{"step":490,"from":"1093240000","to":"sdaReg359","type":"model"},{"step":491,"from":"sdaReg359","to":"1093668456","type":"store","field":"<java.net.URL: java.lang.String authority>"},{"step":492,"from":"1093668456","to":"sdaReg362","type":"create","field":"<java.net.URL: java.lang.String userInfo>"},{"step":493,"from":"sdaReg365","to":"sdaReg366","type":"model"},{"step":494,"from":"sdaReg366","to":"1093668456","type":"store","field":"<java.net.URL: java.lang.String query>"},{"step":495,"from":"sdaReg367","to":"1093668456","type":"store","field":"<java.net.URL: java.lang.String path>"},{"step":496,"from":"sdaReg138","to":"1093668456","type":"store","field":"<java.net.URL: java.lang.String authority>"},{"step":497,"from":"sdaReg177","to":"1093668456","type":"store","field":"<java.net.URL: java.lang.String userInfo>"},{"step":498,"from":"sdaReg255","to":"1093668456","type":"store","field":"<java.net.URL: java.lang.String path>"},{"step":499,"from":"sdaReg330","to":"1093668456","type":"store","field":"<java.net.URL: java.lang.String query>"}],"parameters":[{"id":"1093668456","name":"this","klass":"java.net.URL"},{"id":"sdaReg0","name":"arg#1","klass":"string"}],"returns":[{"id":"1093668456","name":"return","klass":"java.net.URL"}],"colors":{"heapLocToColor":{"sdaReg294":[216],"sdaReg191":[129],"sdaReg293":[1, 184, 2, 215],"1084315112.<java.util.Hashtable: int modCount>":[12],"sdaReg190":[1, 2, 128],"sdaReg296":[1, 184, 2, 218],"sdaReg193":[131],"sdaReg295":[217],"sdaReg192":[1, 2, 130],"sdaReg298":[220],"sdaReg297":[219],"1093298256":[256],"sdaReg299":[1, 221, 184, 2],"sdaReg326":[246],"sdaReg199":[137],"sdaReg325":[1, 2, 245],"sdaReg198":[1, 136, 2],"sdaReg324":[244],"sdaReg323":[1, 2, 243],"sdaReg290":[1, 184, 2, 212],"sdaReg195":[133],"sdaReg329":[1, 2, 11],"sdaReg194":[1, 2, 132],"sdaReg328":[248],"sdaReg292":[214],"sdaReg197":[135],"sdaReg327":[1, 2, 247],"sdaReg291":[213],"sdaReg196":[1, 2, 134],"sdaReg13":[1, 2, 6],"sdaReg11":[1, 2, 5],"sdaReg321":[1, 2, 241],"sdaReg322":[242],"sdaReg320":[240],"sdaReg19":[11],"sdaReg17":[1, 2, 8],"sdaReg18":[1, 2, 8, 10],"sdaReg15":[1, 2, 7],"sdaReg312":[1, 2, 234],"sdaReg315":[1, 2, 235],"sdaReg314":[1, 2, 24, 11],"sdaReg317":[1, 2, 237],"sdaReg316":[236],"sdaReg319":[239, 1, 2],"sdaReg318":[238],"1093668456":[0],"sdaReg310":[232],"sdaReg311":[233],"1084315112":[12],"static.<java.net.URL: java.util.Hashtable streamHandlers>":[12],"sdaReg171":[1, 2, 113],"sdaReg309":[231],"sdaReg170":[112],"sdaReg308":[1, 184, 2, 230],"sdaReg173":[1, 2, 115],"sdaReg307":[229],"sdaReg172":[114],"sdaReg306":[228],"sdaReg175":[1, 2, 117],"sdaReg305":[1, 184, 2, 227],"sdaReg174":[116],"sdaReg304":[226],"sdaReg177":[119, 1, 2],"sdaReg303":[225],"sdaReg176":[118],"sdaReg302":[1, 184, 2, 224],"sdaReg179":[1, 2, 11],"sdaReg301":[223],"sdaReg178":[1, 2, 11],"sdaReg300":[222],"sdaReg182":[1, 2, 120],"sdaReg181":[1, 2, 11],"sdaReg186":[1, 2, 124],"sdaReg185":[123],"sdaReg184":[1, 2, 122],"sdaReg183":[121],"sdaReg189":[127],"sdaReg188":[1, 2, 126],"sdaReg187":[125],"static.<java.net.URL: java.net.URLStreamHandlerFactory streamHandlerFactory>":[14],"sdaReg60":[22],"sdaReg61":[22],"1084315112.<java.util.Hashtable: int threshold>":[12],"sdaReg59":[22],"sdaReg58":[22],"sdaReg57":[22],"sdaReg56":[22],"sdaReg55":[22],"sdaReg54":[22],"sdaReg53":[22],"sdaReg52":[21],"sdaReg50":[12],"1084317688":[1, 2, 8, 9],"sdaReg49":[21],"sdaReg48":[21],"sdaReg45":[21],"sdaReg44":[20],"sdaReg47":[21],"sdaReg46":[21],"sdaReg41":[17, 16],"sdaReg40":[16],"sdaReg43":[19],"sdaReg42":[18],"sdaReg201":[1, 2, 11],"sdaReg205":[141],"sdaReg204":[1, 2, 140],"sdaReg39":[15],"sdaReg203":[139],"sdaReg202":[1, 2, 138],"sdaReg209":[145],"sdaReg208":[1, 2, 144],"sdaReg207":[143],"sdaReg206":[1, 2, 142],"sdaReg32":[13],"sdaReg31":[13],"sdaReg30":[13],"sdaReg36":[13],"sdaReg33":[13],"sdaReg9":[1, 2, 4],"sdaReg6":[1, 2],"sdaReg7":[1, 2, 3],"sdaReg4":[0],"sdaReg27":[13],"sdaReg26":[13],"sdaReg29":[13],"1093458144":[16],"sdaReg28":[13],"static.<java.util.Locale: java.util.Locale US>":[9],"1093671112":[21],"sdaReg2":[0],"sdaReg21":[1, 2, 11],"sdaReg20":[11],"sdaReg0":[1],"sdaReg23":[12],"sdaReg22":[0],"sdaReg25":[13],"sdaReg125":[69],"sdaReg126":[1, 2, 70],"sdaReg127":[71],"sdaReg128":[1, 2, 72],"sdaReg129":[73],"sdaReg228":[157],"sdaReg68":[23],"sdaReg229":[1, 2, 158],"sdaReg66":[12],"sdaReg67":[12],"sdaReg224":[153],"sdaReg64":[22],"sdaReg225":[1, 2, 154],"sdaReg226":[155],"sdaReg227":[1, 2, 156],"sdaReg72":[23],"1093274344":[17, 16],"sdaReg220":[1, 2, 151],"sdaReg223":[152, 1, 2],"sdaReg70":[21],"sdaReg222":[1, 2, 11],"sdaReg120":[1, 2, 64],"sdaReg122":[1, 2, 66],"sdaReg121":[65],"sdaReg124":[68, 1, 2],"sdaReg123":[67],"sdaReg116":[1, 2, 60],"sdaReg117":[61],"sdaReg114":[1, 2, 58],"sdaReg115":[59],"sdaReg118":[1, 2, 62],"sdaReg119":[63],"sdaReg219":[1, 2, 24, 11],"sdaReg78":[1, 2, 25],"1084315112.<java.util.Hashtable: int size>":[12],"sdaReg79":[1, 2, 11],"sdaReg215":[150],"sdaReg73":[23],"sdaReg74":[24],"sdaReg213":[1, 2, 11],"sdaReg75":[21],"sdaReg214":[1, 2, 149],"sdaReg76":[0],"sdaReg212":[1, 2, 148],"sdaReg81":[1, 2, 11],"sdaReg211":[147],"1084321912":[12],"sdaReg210":[1, 2, 146],"sdaReg83":[27],"sdaReg82":[1, 2, 26],"sdaReg113":[57],"sdaReg112":[1, 2, 56],"sdaReg111":[55],"sdaReg110":[1, 2, 54],"sdaReg107":[51],"sdaReg108":[1, 2, 52],"sdaReg109":[53],"sdaReg103":[47],"sdaReg104":[1, 2, 48],"sdaReg105":[49],"sdaReg106":[1, 50, 2],"sdaReg246":[175],"sdaReg86":[1, 2, 30],"sdaReg247":[1, 2, 176],"sdaReg87":[31],"sdaReg248":[177],"sdaReg84":[1, 2, 28],"sdaReg249":[1, 2, 178],"sdaReg85":[29],"sdaReg88":[1, 2, 32],"sdaReg89":[33],"sdaReg90":[34, 1, 2],"sdaReg241":[1, 170, 2],"1084315112.<java.util.Hashtable: java.util.Hashtable$HashtableEntry[] table>":[12],"1093240000":[259],"sdaReg240":[169],"sdaReg243":[1, 2, 172],"sdaReg94":[1, 2, 38],"sdaReg242":[171],"sdaReg93":[37],"sdaReg245":[1, 2, 174],"sdaReg92":[1, 2, 36],"sdaReg244":[173],"sdaReg91":[35],"sdaReg100":[1, 2, 44],"sdaReg102":[1, 2, 46],"sdaReg101":[45],"sdaReg237":[1, 2, 166],"sdaReg95":[39],"sdaReg238":[167],"sdaReg96":[1, 2, 40],"sdaReg235":[1, 2, 164],"sdaReg97":[41],"sdaReg236":[165],"sdaReg98":[1, 2, 42],"sdaReg99":[43],"sdaReg239":[1, 2, 168],"sdaReg230":[159],"sdaReg234":[163],"sdaReg233":[1, 2, 162],"sdaReg232":[161],"sdaReg231":[1, 2, 160],"sdaReg269":[1, 184, 2, 191],"sdaReg268":[190],"sdaReg360":[261],"sdaReg169":[1, 2, 111],"sdaReg361":[261],"sdaReg364":[262],"sdaReg363":[262],"sdaReg366":[263],"sdaReg365":[262],"sdaReg367":[264],"sdaReg161":[1, 103, 2],"sdaReg368":[0],"sdaReg162":[104],"sdaReg163":[1, 2, 105],"sdaReg164":[106],"sdaReg165":[1, 2, 107],"sdaReg166":[108],"sdaReg167":[1, 2, 109],"sdaReg168":[110],"sdaReg267":[189],"sdaReg261":[186],"sdaReg262":[187],"sdaReg263":[1, 184, 2, 188],"sdaReg160":[102],"sdaReg351":[0],"sdaReg159":[1, 2, 101],"sdaReg158":[100],"sdaReg355":[259],"sdaReg353":[258],"sdaReg358":[259],"sdaReg152":[94],"sdaReg359":[259, 260],"sdaReg153":[1, 2, 95],"sdaReg356":[259],"sdaReg150":[92],"sdaReg357":[259],"sdaReg151":[1, 2, 93],"sdaReg156":[98],"sdaReg157":[1, 2, 99],"sdaReg154":[96],"sdaReg155":[1, 2, 97],"sdaReg255":[1, 2, 184],"sdaReg256":[1, 184, 2, 185],"sdaReg253":[1, 2, 182],"sdaReg254":[183],"sdaReg251":[1, 2, 180],"sdaReg252":[181],"sdaReg250":[179],"sdaReg342":[1, 184, 2],"sdaReg341":[0],"sdaReg344":[256],"sdaReg343":[1, 255, 2, 249],"sdaReg148":[90],"sdaReg147":[1, 2, 89],"sdaReg340":[0],"sdaReg149":[1, 2, 91],"sdaReg349":[0],"sdaReg143":[85, 1, 2],"sdaReg144":[86],"sdaReg145":[1, 2, 87],"sdaReg146":[88],"sdaReg345":[256],"sdaReg346":[256],"sdaReg140":[1, 2, 11],"sdaReg347":[256],"sdaReg280":[202],"sdaReg141":[1, 2, 83],"sdaReg348":[256, 257],"sdaReg281":[1, 184, 2, 203],"sdaReg142":[84],"sdaReg282":[204],"sdaReg283":[205],"sdaReg284":[1, 184, 2, 206],"sdaReg285":[207],"sdaReg286":[208],"sdaReg287":[1, 184, 2, 209],"sdaReg288":[210],"sdaReg289":[211],"sdaReg279":[201],"1093691480":[23],"sdaReg333":[1, 2, 251],"sdaReg332":[1, 2, 11],"sdaReg331":[1, 2, 250],"sdaReg330":[1, 2, 249],"sdaReg138":[1, 2, 82],"sdaReg137":[81],"sdaReg136":[1, 2, 80],"sdaReg134":[1, 2, 78],"sdaReg135":[79],"sdaReg132":[1, 2, 76],"sdaReg339":[21],"sdaReg133":[77],"sdaReg336":[254, 1, 184, 2],"sdaReg130":[1, 2, 74],"sdaReg337":[0],"sdaReg270":[192],"sdaReg131":[75],"sdaReg334":[1, 2, 252, 82],"sdaReg335":[1, 184, 2, 253],"sdaReg273":[195],"sdaReg274":[196],"sdaReg271":[193],"sdaReg272":[1, 184, 2, 194],"sdaReg277":[199],"sdaReg278":[1, 184, 2, 200],"sdaReg275":[1, 184, 2, 197],"sdaReg276":[198]},"colorToColor":{"0":[265],"1":[137, 0, 1, 139, 2, 141, 143, 129, 8, 131, 10, 133, 135, 153, 256, 155, 157, 159, 25, 145, 27, 147, 29, 150, 31, 171, 35, 169, 33, 175, 39, 173, 37, 163, 43, 161, 41, 167, 47, 165, 45, 51, 49, 55, 53, 59, 179, 57, 177, 63, 183, 61, 181, 69, 71, 65, 67, 77, 79, 73, 75, 84, 86, 81, 92, 94, 88, 90, 102, 238, 100, 236, 98, 96, 110, 108, 106, 104, 118, 116, 114, 248, 112, 246, 127, 244, 125, 242, 123, 240, 121],"2":[137, 0, 1, 139, 2, 141, 143, 129, 8, 131, 10, 133, 135, 153, 256, 155, 157, 159, 25, 145, 27, 147, 29, 150, 31, 171, 35, 169, 33, 175, 39, 173, 37, 163, 43, 161, 41, 167, 47, 165, 45, 51, 49, 55, 53, 59, 179, 57, 177, 63, 183, 61, 181, 69, 71, 65, 67, 77, 79, 73, 75, 84, 86, 81, 92, 94, 88, 90, 102, 238, 100, 236, 98, 96, 110, 108, 106, 104, 118, 116, 114, 248, 112, 246, 127, 244, 125, 242, 123, 240, 121],"8":[0, 1, 2, 8, 10],"9":[1, 2, 8, 10],"10":[0],"11":[1, 2, 25],"12":[12],"259":[0],"256":[0],"257":[0],"262":[263],"21":[0, 23],"263":[0],"260":[0],"23":[12],"22":[23],"264":[0],"26":[27],"28":[29],"30":[31],"34":[35],"32":[33],"38":[39],"36":[37],"42":[43],"40":[41],"46":[47],"44":[45],"50":[51],"48":[49],"54":[55],"52":[53],"58":[59],"56":[57],"62":[63],"60":[61],"68":[69],"70":[71],"64":[65],"66":[67],"76":[77],"78":[79],"72":[73],"74":[75],"85":[86],"87":[88],"80":[81],"83":[84],"82":[0],"93":[94],"95":[96],"89":[90],"91":[92],"103":[104],"101":[102],"99":[100],"97":[98],"111":[112],"109":[110],"107":[108],"105":[106],"119":[0],"117":[118],"115":[116],"113":[114],"126":[127],"124":[125],"122":[123],"120":[121],"136":[137],"138":[139],"140":[141],"142":[143],"128":[129],"130":[131],"132":[133],"134":[135],"152":[153],"154":[155],"156":[157],"158":[159],"144":[145],"146":[147],"148":[0],"149":[150],"150":[0],"170":[171],"168":[169],"174":[175],"172":[173],"162":[163],"160":[161],"166":[167],"164":[165],"184":[0, 256],"178":[179],"176":[177],"182":[183],"180":[181],"239":[240],"237":[238],"235":[236],"251":[0],"249":[0, 256],"247":[248],"245":[246],"243":[244],"241":[242]},"colorToLabel":{"0":"this","1":"arg#1","9":"<java.util.Locale: java.util.Locale US>","12":"<java.net.URL: java.util.Hashtable streamHandlers>","14":"<java.net.URL: java.net.URLStreamHandlerFactory streamHandlerFactory>","265":"return"}}}

Generated Model
	this->return
	arg#1->this
	arg#1->return

