Scanning method <java.net.URL: void <init>(java.lang.String)>

All seen event types: StoreArrayRecord, SimpleAssignmentRecord, MethodStartRecord, LoadInstanceRecord, IfRecord, NewObjectRecord, StoreInstanceRecord, LoadStaticRecord, BinaryOperationRecord, SwitchRecord, MethodCallRecord, MethodReturnRecord, CastRecord, ArrayLengthRecord, LoadArrayRecord, MethodEndRecord, 
Ignored event types: SwitchRecord, IfRecord, 

JSON Encoded Analysis Data (for visualization):{"heapEdges":[{"step":0,"from":"1093724344","to":"sdaReg5","type":"create","field":"<java.net.URL: int port>"},{"step":1,"from":"sdaReg0","to":"sdaReg6","type":"model"},{"step":2,"from":"sdaReg6","to":"sdaReg7","type":"model"},{"step":3,"from":"sdaReg6","to":"sdaReg9","type":"model"},{"step":4,"from":"sdaReg6","to":"sdaReg11","type":"model"},{"step":5,"from":"sdaReg6","to":"sdaReg13","type":"model"},{"step":6,"from":"sdaReg6","to":"sdaReg15","type":"model"},{"step":7,"from":"sdaReg6","to":"sdaReg17","type":"model"},{"step":8,"from":"static.<java.util.Locale: java.util.Locale US>","to":"1084317688","type":"load","field":"<java.util.Locale: java.util.Locale US>"},{"step":9,"from":"sdaReg17","to":"1084317688","type":"model"},{"step":10,"from":"sdaReg17","to":"sdaReg18","type":"model"},{"step":11,"from":"1084317688","to":"sdaReg17","type":"model"},{"step":12,"from":"1084317688","to":"sdaReg18","type":"model"},{"step":13,"from":"sdaReg18","to":"1093724344","type":"store","field":"<java.net.URL: java.lang.String protocol>"},{"step":14,"from":"static.<java.net.URL: java.util.Hashtable streamHandlers>","to":"1084315112","type":"load","field":"<java.net.URL: java.util.Hashtable streamHandlers>"},{"step":15,"from":"1084315112","to":"1084321912","type":"load","field":"<java.util.Hashtable: java.util.Hashtable$HashtableEntry[] table>"},{"step":16,"from":"1093481992","to":"1093287872","type":"model"},{"step":17,"from":"1093724344","to":"1093642584","type":"create","field":"<java.net.URL: java.net.URLStreamHandler streamHandler>"},{"step":18,"from":"static.<java.net.URL: java.util.Hashtable streamHandlers>","to":"1084315112","type":"load","field":"<java.net.URL: java.util.Hashtable streamHandlers>"},{"step":19,"from":"1084315112","to":"1084321912","type":"load","field":"<java.util.Hashtable: java.util.Hashtable$HashtableEntry[] table>"},{"step":20,"from":"1084315112","to":"1084315112.<java.util.Hashtable: int modCount>","type":"load","field":"<java.util.Hashtable: int modCount>"},{"step":21,"from":"sdaReg66","to":"1084315112","type":"store","field":"<java.util.Hashtable: int modCount>"},{"step":22,"from":"1084315112","to":"1084315112.<java.util.Hashtable: int size>","type":"load","field":"<java.util.Hashtable: int size>"},{"step":23,"from":"sdaReg67","to":"1084315112","type":"store","field":"<java.util.Hashtable: int size>"},{"step":24,"from":"1084315112","to":"1084315112.<java.util.Hashtable: int threshold>","type":"load","field":"<java.util.Hashtable: int threshold>"},{"step":25,"from":"1093295192","to":"1093589240","type":"store","field":"<java.util.Hashtable$HashtableEntry: java.lang.Object key>"},{"step":26,"from":"1093642584","to":"1093589240","type":"store","field":"<java.util.Hashtable$HashtableEntry: java.lang.Object value>"},{"step":27,"from":"sdaReg61","to":"1093589240","type":"store","field":"<java.util.Hashtable$HashtableEntry: int hash>"},{"step":28,"from":"1084321912","to":"1093589240","type":"create","field":"arrayIdx_int:1"},{"step":29,"from":"sdaReg6","to":"sdaReg21","type":"model"},{"step":30,"from":"sdaReg6","to":"sdaReg78","type":"model"},{"step":31,"from":"sdaReg21","to":"sdaReg6","type":"model"},{"step":32,"from":"sdaReg21","to":"sdaReg78","type":"model"},{"step":33,"from":"sdaReg6","to":"sdaReg82","type":"model"},{"step":34,"from":"sdaReg80","to":"sdaReg82","type":"model"},{"step":35,"from":"sdaReg80","to":"sdaReg83","type":"model"},{"step":36,"from":"sdaReg82","to":"sdaReg80","type":"model"},{"step":37,"from":"sdaReg82","to":"sdaReg83","type":"model"},{"step":38,"from":"sdaReg6","to":"sdaReg84","type":"model"},{"step":39,"from":"sdaReg80","to":"sdaReg84","type":"model"},{"step":40,"from":"sdaReg80","to":"sdaReg85","type":"model"},{"step":41,"from":"sdaReg84","to":"sdaReg80","type":"model"},{"step":42,"from":"sdaReg84","to":"sdaReg85","type":"model"},{"step":43,"from":"sdaReg6","to":"sdaReg86","type":"model"},{"step":44,"from":"sdaReg80","to":"sdaReg86","type":"model"},{"step":45,"from":"sdaReg80","to":"sdaReg87","type":"model"},{"step":46,"from":"sdaReg86","to":"sdaReg80","type":"model"},{"step":47,"from":"sdaReg86","to":"sdaReg87","type":"model"},{"step":48,"from":"sdaReg6","to":"sdaReg88","type":"model"},{"step":49,"from":"sdaReg80","to":"sdaReg88","type":"model"},{"step":50,"from":"sdaReg80","to":"sdaReg89","type":"model"},{"step":51,"from":"sdaReg88","to":"sdaReg80","type":"model"},{"step":52,"from":"sdaReg88","to":"sdaReg89","type":"model"},{"step":53,"from":"sdaReg6","to":"sdaReg90","type":"model"},{"step":54,"from":"sdaReg80","to":"sdaReg90","type":"model"},{"step":55,"from":"sdaReg80","to":"sdaReg91","type":"model"},{"step":56,"from":"sdaReg90","to":"sdaReg80","type":"model"},{"step":57,"from":"sdaReg90","to":"sdaReg91","type":"model"},{"step":58,"from":"sdaReg6","to":"sdaReg92","type":"model"},{"step":59,"from":"sdaReg80","to":"sdaReg92","type":"model"},{"step":60,"from":"sdaReg80","to":"sdaReg93","type":"model"},{"step":61,"from":"sdaReg92","to":"sdaReg80","type":"model"},{"step":62,"from":"sdaReg92","to":"sdaReg93","type":"model"},{"step":63,"from":"sdaReg6","to":"sdaReg94","type":"model"},{"step":64,"from":"sdaReg80","to":"sdaReg94","type":"model"},{"step":65,"from":"sdaReg80","to":"sdaReg95","type":"model"},{"step":66,"from":"sdaReg94","to":"sdaReg80","type":"model"},{"step":67,"from":"sdaReg94","to":"sdaReg95","type":"model"},{"step":68,"from":"sdaReg6","to":"sdaReg96","type":"model"},{"step":69,"from":"sdaReg80","to":"sdaReg96","type":"model"},{"step":70,"from":"sdaReg80","to":"sdaReg97","type":"model"},{"step":71,"from":"sdaReg96","to":"sdaReg80","type":"model"},{"step":72,"from":"sdaReg96","to":"sdaReg97","type":"model"},{"step":73,"from":"sdaReg6","to":"sdaReg98","type":"model"},{"step":74,"from":"sdaReg80","to":"sdaReg98","type":"model"},{"step":75,"from":"sdaReg80","to":"sdaReg99","type":"model"},{"step":76,"from":"sdaReg98","to":"sdaReg80","type":"model"},{"step":77,"from":"sdaReg98","to":"sdaReg99","type":"model"},{"step":78,"from":"sdaReg6","to":"sdaReg100","type":"model"},{"step":79,"from":"sdaReg80","to":"sdaReg100","type":"model"},{"step":80,"from":"sdaReg80","to":"sdaReg101","type":"model"},{"step":81,"from":"sdaReg100","to":"sdaReg80","type":"model"},{"step":82,"from":"sdaReg100","to":"sdaReg101","type":"model"},{"step":83,"from":"sdaReg6","to":"sdaReg102","type":"model"},{"step":84,"from":"sdaReg80","to":"sdaReg102","type":"model"},{"step":85,"from":"sdaReg80","to":"sdaReg103","type":"model"},{"step":86,"from":"sdaReg102","to":"sdaReg80","type":"model"},{"step":87,"from":"sdaReg102","to":"sdaReg103","type":"model"},{"step":88,"from":"sdaReg6","to":"sdaReg104","type":"model"},{"step":89,"from":"sdaReg80","to":"sdaReg104","type":"model"},{"step":90,"from":"sdaReg80","to":"sdaReg105","type":"model"},{"step":91,"from":"sdaReg104","to":"sdaReg80","type":"model"},{"step":92,"from":"sdaReg104","to":"sdaReg105","type":"model"},{"step":93,"from":"sdaReg6","to":"sdaReg106","type":"model"},{"step":94,"from":"sdaReg80","to":"sdaReg106","type":"model"},{"step":95,"from":"sdaReg80","to":"sdaReg107","type":"model"},{"step":96,"from":"sdaReg106","to":"sdaReg80","type":"model"},{"step":97,"from":"sdaReg106","to":"sdaReg107","type":"model"},{"step":98,"from":"sdaReg6","to":"sdaReg108","type":"model"},{"step":99,"from":"sdaReg80","to":"sdaReg108","type":"model"},{"step":100,"from":"sdaReg80","to":"sdaReg109","type":"model"},{"step":101,"from":"sdaReg108","to":"sdaReg80","type":"model"},{"step":102,"from":"sdaReg108","to":"sdaReg109","type":"model"},{"step":103,"from":"sdaReg6","to":"sdaReg110","type":"model"},{"step":104,"from":"sdaReg80","to":"sdaReg110","type":"model"},{"step":105,"from":"sdaReg80","to":"sdaReg111","type":"model"},{"step":106,"from":"sdaReg110","to":"sdaReg80","type":"model"},{"step":107,"from":"sdaReg110","to":"sdaReg111","type":"model"},{"step":108,"from":"sdaReg6","to":"sdaReg112","type":"model"},{"step":109,"from":"sdaReg6","to":"sdaReg115","type":"model"},{"step":110,"from":"sdaReg113","to":"sdaReg115","type":"model"},{"step":111,"from":"sdaReg113","to":"sdaReg116","type":"model"},{"step":112,"from":"sdaReg115","to":"sdaReg113","type":"model"},{"step":113,"from":"sdaReg115","to":"sdaReg116","type":"model"},{"step":114,"from":"sdaReg6","to":"sdaReg117","type":"model"},{"step":115,"from":"sdaReg113","to":"sdaReg117","type":"model"},{"step":116,"from":"sdaReg113","to":"sdaReg118","type":"model"},{"step":117,"from":"sdaReg117","to":"sdaReg113","type":"model"},{"step":118,"from":"sdaReg117","to":"sdaReg118","type":"model"},{"step":119,"from":"sdaReg6","to":"sdaReg119","type":"model"},{"step":120,"from":"sdaReg113","to":"sdaReg119","type":"model"},{"step":121,"from":"sdaReg113","to":"sdaReg120","type":"model"},{"step":122,"from":"sdaReg119","to":"sdaReg113","type":"model"},{"step":123,"from":"sdaReg119","to":"sdaReg120","type":"model"},{"step":124,"from":"sdaReg6","to":"sdaReg121","type":"model"},{"step":125,"from":"sdaReg113","to":"sdaReg121","type":"model"},{"step":126,"from":"sdaReg113","to":"sdaReg122","type":"model"},{"step":127,"from":"sdaReg121","to":"sdaReg113","type":"model"},{"step":128,"from":"sdaReg121","to":"sdaReg122","type":"model"},{"step":129,"from":"sdaReg6","to":"sdaReg123","type":"model"},{"step":130,"from":"sdaReg113","to":"sdaReg123","type":"model"},{"step":131,"from":"sdaReg113","to":"sdaReg124","type":"model"},{"step":132,"from":"sdaReg123","to":"sdaReg113","type":"model"},{"step":133,"from":"sdaReg123","to":"sdaReg124","type":"model"},{"step":134,"from":"sdaReg6","to":"sdaReg125","type":"model"},{"step":135,"from":"sdaReg113","to":"sdaReg125","type":"model"},{"step":136,"from":"sdaReg113","to":"sdaReg126","type":"model"},{"step":137,"from":"sdaReg125","to":"sdaReg113","type":"model"},{"step":138,"from":"sdaReg125","to":"sdaReg126","type":"model"},{"step":139,"from":"sdaReg6","to":"sdaReg127","type":"model"},{"step":140,"from":"sdaReg113","to":"sdaReg127","type":"model"},{"step":141,"from":"sdaReg113","to":"sdaReg128","type":"model"},{"step":142,"from":"sdaReg127","to":"sdaReg113","type":"model"},{"step":143,"from":"sdaReg127","to":"sdaReg128","type":"model"},{"step":144,"from":"sdaReg6","to":"sdaReg129","type":"model"},{"step":145,"from":"sdaReg113","to":"sdaReg129","type":"model"},{"step":146,"from":"sdaReg113","to":"sdaReg130","type":"model"},{"step":147,"from":"sdaReg129","to":"sdaReg113","type":"model"},{"step":148,"from":"sdaReg129","to":"sdaReg130","type":"model"},{"step":149,"from":"sdaReg6","to":"sdaReg131","type":"model"},{"step":150,"from":"sdaReg113","to":"sdaReg131","type":"model"},{"step":151,"from":"sdaReg113","to":"sdaReg132","type":"model"},{"step":152,"from":"sdaReg131","to":"sdaReg113","type":"model"},{"step":153,"from":"sdaReg131","to":"sdaReg132","type":"model"},{"step":154,"from":"sdaReg6","to":"sdaReg133","type":"model"},{"step":155,"from":"sdaReg113","to":"sdaReg133","type":"model"},{"step":156,"from":"sdaReg113","to":"sdaReg134","type":"model"},{"step":157,"from":"sdaReg133","to":"sdaReg113","type":"model"},{"step":158,"from":"sdaReg133","to":"sdaReg134","type":"model"},{"step":159,"from":"sdaReg6","to":"sdaReg135","type":"model"},{"step":160,"from":"sdaReg6","to":"sdaReg140","type":"model"},{"step":161,"from":"sdaReg138","to":"sdaReg140","type":"model"},{"step":162,"from":"sdaReg138","to":"sdaReg141","type":"model"},{"step":163,"from":"sdaReg140","to":"sdaReg138","type":"model"},{"step":164,"from":"sdaReg140","to":"sdaReg141","type":"model"},{"step":165,"from":"sdaReg6","to":"sdaReg142","type":"model"},{"step":166,"from":"sdaReg138","to":"sdaReg142","type":"model"},{"step":167,"from":"sdaReg138","to":"sdaReg143","type":"model"},{"step":168,"from":"sdaReg142","to":"sdaReg138","type":"model"},{"step":169,"from":"sdaReg142","to":"sdaReg143","type":"model"},{"step":170,"from":"sdaReg6","to":"sdaReg144","type":"model"},{"step":171,"from":"sdaReg138","to":"sdaReg144","type":"model"},{"step":172,"from":"sdaReg138","to":"sdaReg145","type":"model"},{"step":173,"from":"sdaReg144","to":"sdaReg138","type":"model"},{"step":174,"from":"sdaReg144","to":"sdaReg145","type":"model"},{"step":175,"from":"sdaReg6","to":"sdaReg146","type":"model"},{"step":176,"from":"sdaReg138","to":"sdaReg146","type":"model"},{"step":177,"from":"sdaReg138","to":"sdaReg147","type":"model"},{"step":178,"from":"sdaReg146","to":"sdaReg138","type":"model"},{"step":179,"from":"sdaReg146","to":"sdaReg147","type":"model"},{"step":180,"from":"sdaReg6","to":"sdaReg150","type":"model"},{"step":181,"from":"sdaReg148","to":"sdaReg150","type":"model"},{"step":182,"from":"sdaReg148","to":"sdaReg151","type":"model"},{"step":183,"from":"sdaReg150","to":"sdaReg148","type":"model"},{"step":184,"from":"sdaReg150","to":"sdaReg151","type":"model"},{"step":185,"from":"sdaReg6","to":"sdaReg152","type":"model"},{"step":186,"from":"sdaReg148","to":"sdaReg152","type":"model"},{"step":187,"from":"sdaReg148","to":"sdaReg153","type":"model"},{"step":188,"from":"sdaReg152","to":"sdaReg148","type":"model"},{"step":189,"from":"sdaReg152","to":"sdaReg153","type":"model"},{"step":190,"from":"sdaReg6","to":"sdaReg154","type":"model"},{"step":191,"from":"sdaReg148","to":"sdaReg154","type":"model"},{"step":192,"from":"sdaReg148","to":"sdaReg155","type":"model"},{"step":193,"from":"sdaReg154","to":"sdaReg148","type":"model"},{"step":194,"from":"sdaReg154","to":"sdaReg155","type":"model"},{"step":195,"from":"sdaReg6","to":"sdaReg156","type":"model"},{"step":196,"from":"sdaReg148","to":"sdaReg156","type":"model"},{"step":197,"from":"sdaReg148","to":"sdaReg157","type":"model"},{"step":198,"from":"sdaReg156","to":"sdaReg148","type":"model"},{"step":199,"from":"sdaReg156","to":"sdaReg157","type":"model"},{"step":200,"from":"sdaReg6","to":"sdaReg158","type":"model"},{"step":201,"from":"sdaReg6","to":"sdaReg164","type":"model"},{"step":202,"from":"sdaReg6","to":"sdaReg167","type":"model"},{"step":203,"from":"sdaReg165","to":"sdaReg167","type":"model"},{"step":204,"from":"sdaReg165","to":"sdaReg168","type":"model"},{"step":205,"from":"sdaReg167","to":"sdaReg165","type":"model"},{"step":206,"from":"sdaReg167","to":"sdaReg168","type":"model"},{"step":207,"from":"sdaReg6","to":"sdaReg169","type":"model"},{"step":208,"from":"sdaReg165","to":"sdaReg169","type":"model"},{"step":209,"from":"sdaReg165","to":"sdaReg170","type":"model"},{"step":210,"from":"sdaReg169","to":"sdaReg165","type":"model"},{"step":211,"from":"sdaReg169","to":"sdaReg170","type":"model"},{"step":212,"from":"sdaReg6","to":"sdaReg171","type":"model"},{"step":213,"from":"sdaReg165","to":"sdaReg171","type":"model"},{"step":214,"from":"sdaReg165","to":"sdaReg172","type":"model"},{"step":215,"from":"sdaReg171","to":"sdaReg165","type":"model"},{"step":216,"from":"sdaReg171","to":"sdaReg172","type":"model"},{"step":217,"from":"sdaReg6","to":"sdaReg173","type":"model"},{"step":218,"from":"sdaReg165","to":"sdaReg173","type":"model"},{"step":219,"from":"sdaReg165","to":"sdaReg174","type":"model"},{"step":220,"from":"sdaReg173","to":"sdaReg165","type":"model"},{"step":221,"from":"sdaReg173","to":"sdaReg174","type":"model"},{"step":222,"from":"sdaReg6","to":"sdaReg175","type":"model"},{"step":223,"from":"sdaReg165","to":"sdaReg175","type":"model"},{"step":224,"from":"sdaReg165","to":"sdaReg176","type":"model"},{"step":225,"from":"sdaReg175","to":"sdaReg165","type":"model"},{"step":226,"from":"sdaReg175","to":"sdaReg176","type":"model"},{"step":227,"from":"sdaReg6","to":"sdaReg177","type":"model"},{"step":228,"from":"sdaReg165","to":"sdaReg177","type":"model"},{"step":229,"from":"sdaReg165","to":"sdaReg178","type":"model"},{"step":230,"from":"sdaReg177","to":"sdaReg165","type":"model"},{"step":231,"from":"sdaReg177","to":"sdaReg178","type":"model"},{"step":232,"from":"sdaReg6","to":"sdaReg179","type":"model"},{"step":233,"from":"sdaReg165","to":"sdaReg179","type":"model"},{"step":234,"from":"sdaReg165","to":"sdaReg180","type":"model"},{"step":235,"from":"sdaReg179","to":"sdaReg165","type":"model"},{"step":236,"from":"sdaReg179","to":"sdaReg180","type":"model"},{"step":237,"from":"sdaReg6","to":"sdaReg181","type":"model"},{"step":238,"from":"sdaReg165","to":"sdaReg181","type":"model"},{"step":239,"from":"sdaReg165","to":"sdaReg182","type":"model"},{"step":240,"from":"sdaReg181","to":"sdaReg165","type":"model"},{"step":241,"from":"sdaReg181","to":"sdaReg182","type":"model"},{"step":242,"from":"sdaReg6","to":"sdaReg183","type":"model"},{"step":243,"from":"sdaReg165","to":"sdaReg183","type":"model"},{"step":244,"from":"sdaReg165","to":"sdaReg184","type":"model"},{"step":245,"from":"sdaReg183","to":"sdaReg165","type":"model"},{"step":246,"from":"sdaReg183","to":"sdaReg184","type":"model"},{"step":247,"from":"sdaReg6","to":"sdaReg185","type":"model"},{"step":248,"from":"sdaReg165","to":"sdaReg185","type":"model"},{"step":249,"from":"sdaReg165","to":"sdaReg186","type":"model"},{"step":250,"from":"sdaReg185","to":"sdaReg165","type":"model"},{"step":251,"from":"sdaReg185","to":"sdaReg186","type":"model"},{"step":252,"from":"sdaReg6","to":"sdaReg187","type":"model"},{"step":253,"from":"sdaReg165","to":"sdaReg187","type":"model"},{"step":254,"from":"sdaReg165","to":"sdaReg188","type":"model"},{"step":255,"from":"sdaReg187","to":"sdaReg165","type":"model"},{"step":256,"from":"sdaReg187","to":"sdaReg188","type":"model"},{"step":257,"from":"sdaReg6","to":"sdaReg189","type":"model"},{"step":258,"from":"sdaReg189","to":"sdaReg190","type":"model"},{"step":259,"from":"sdaReg189","to":"sdaReg197","type":"model"},{"step":260,"from":"sdaReg189","to":"sdaReg203","type":"model"},{"step":261,"from":"sdaReg189","to":"sdaReg206","type":"model"},{"step":262,"from":"sdaReg189","to":"sdaReg209","type":"model"},{"step":263,"from":"sdaReg189","to":"sdaReg212","type":"model"},{"step":264,"from":"sdaReg189","to":"sdaReg215","type":"model"},{"step":265,"from":"sdaReg189","to":"sdaReg218","type":"model"},{"step":266,"from":"sdaReg189","to":"sdaReg221","type":"model"},{"step":267,"from":"sdaReg189","to":"sdaReg224","type":"model"},{"step":268,"from":"sdaReg189","to":"sdaReg227","type":"model"},{"step":269,"from":"sdaReg6","to":"sdaReg231","type":"model"},{"step":270,"from":"sdaReg6","to":"sdaReg234","type":"model"},{"step":271,"from":"sdaReg232","to":"sdaReg234","type":"model"},{"step":272,"from":"sdaReg232","to":"sdaReg235","type":"model"},{"step":273,"from":"sdaReg234","to":"sdaReg232","type":"model"},{"step":274,"from":"sdaReg234","to":"sdaReg235","type":"model"},{"step":275,"from":"sdaReg6","to":"sdaReg236","type":"model"},{"step":276,"from":"sdaReg232","to":"sdaReg236","type":"model"},{"step":277,"from":"sdaReg232","to":"sdaReg237","type":"model"},{"step":278,"from":"sdaReg236","to":"sdaReg232","type":"model"},{"step":279,"from":"sdaReg236","to":"sdaReg237","type":"model"},{"step":280,"from":"sdaReg6","to":"sdaReg238","type":"model"},{"step":281,"from":"sdaReg232","to":"sdaReg238","type":"model"},{"step":282,"from":"sdaReg232","to":"sdaReg239","type":"model"},{"step":283,"from":"sdaReg238","to":"sdaReg232","type":"model"},{"step":284,"from":"sdaReg238","to":"sdaReg239","type":"model"},{"step":285,"from":"sdaReg6","to":"sdaReg240","type":"model"},{"step":286,"from":"sdaReg232","to":"sdaReg240","type":"model"},{"step":287,"from":"sdaReg232","to":"sdaReg241","type":"model"},{"step":288,"from":"sdaReg240","to":"sdaReg232","type":"model"},{"step":289,"from":"sdaReg240","to":"sdaReg241","type":"model"},{"step":290,"from":"sdaReg6","to":"sdaReg242","type":"model"},{"step":291,"from":"sdaReg232","to":"sdaReg242","type":"model"},{"step":292,"from":"sdaReg232","to":"sdaReg243","type":"model"},{"step":293,"from":"sdaReg242","to":"sdaReg232","type":"model"},{"step":294,"from":"sdaReg242","to":"sdaReg243","type":"model"},{"step":295,"from":"sdaReg6","to":"sdaReg244","type":"model"},{"step":296,"from":"sdaReg232","to":"sdaReg244","type":"model"},{"step":297,"from":"sdaReg232","to":"sdaReg245","type":"model"},{"step":298,"from":"sdaReg244","to":"sdaReg232","type":"model"},{"step":299,"from":"sdaReg244","to":"sdaReg245","type":"model"},{"step":300,"from":"sdaReg6","to":"sdaReg246","type":"model"},{"step":301,"from":"sdaReg232","to":"sdaReg246","type":"model"},{"step":302,"from":"sdaReg232","to":"sdaReg247","type":"model"},{"step":303,"from":"sdaReg246","to":"sdaReg232","type":"model"},{"step":304,"from":"sdaReg246","to":"sdaReg247","type":"model"},{"step":305,"from":"sdaReg6","to":"sdaReg249","type":"model"},{"step":306,"from":"sdaReg6","to":"sdaReg250","type":"model"},{"step":307,"from":"sdaReg6","to":"sdaReg252","type":"model"},{"step":308,"from":"sdaReg112","to":"sdaReg253","type":"model"},{"step":309,"from":"sdaReg189","to":"sdaReg254","type":"model"},{"step":310,"from":"sdaReg189","to":"sdaReg255","type":"model"},{"step":311,"from":"sdaReg249","to":"sdaReg262","type":"model"},{"step":312,"from":"sdaReg261","to":"1093264944","type":"model"},{"step":313,"from":"sdaReg261","to":"1093264944","type":"model"},{"step":314,"from":"sdaReg249","to":"1093264944","type":"model"},{"step":315,"from":"sdaReg249","to":"1093264944","type":"model"},{"step":316,"from":"1093264944","to":"sdaReg267","type":"model"},{"step":317,"from":"sdaReg158","to":"1093724344","type":"store","field":"<java.net.URL: java.lang.String host>"},{"step":318,"from":"sdaReg267","to":"1093724344","type":"store","field":"<java.net.URL: java.lang.String file>"},{"step":319,"from":"sdaReg77","to":"1093724344","type":"store","field":"<java.net.URL: int port>"},{"step":320,"from":"sdaReg252","to":"1093724344","type":"store","field":"<java.net.URL: java.lang.String ref>"},{"step":321,"from":"1093724344","to":"sdaReg269","type":"create","field":"<java.net.URL: int hashCode>"},{"step":322,"from":"sdaReg273","to":"1093724344","type":"store","field":"<java.net.URL: java.lang.String authority>"},{"step":323,"from":"1093724344","to":"sdaReg276","type":"create","field":"<java.net.URL: java.lang.String userInfo>"},{"step":324,"from":"sdaReg279","to":"sdaReg280","type":"model"},{"step":325,"from":"sdaReg280","to":"1093724344","type":"store","field":"<java.net.URL: java.lang.String query>"},{"step":326,"from":"sdaReg281","to":"1093724344","type":"store","field":"<java.net.URL: java.lang.String path>"},{"step":327,"from":"sdaReg112","to":"1093724344","type":"store","field":"<java.net.URL: java.lang.String authority>"},{"step":328,"from":"sdaReg135","to":"1093724344","type":"store","field":"<java.net.URL: java.lang.String userInfo>"},{"step":329,"from":"sdaReg189","to":"1093724344","type":"store","field":"<java.net.URL: java.lang.String path>"},{"step":330,"from":"sdaReg249","to":"1093724344","type":"store","field":"<java.net.URL: java.lang.String query>"}],"parameters":[{"id":"1093724344","name":"this","klass":"java.net.URL"},{"id":"sdaReg0","name":"arg#1","klass":"string"}],"returns":[{"id":"1093724344","name":"return","klass":"java.net.URL"}],"colors":{"heapLocToColor":{"1084315112.<java.util.Hashtable: int modCount>":[12],"sdaReg190":[119, 118, 1, 2],"sdaReg195":[120],"sdaReg197":[118, 1, 2, 122],"sdaReg196":[121],"sdaReg13":[1, 2, 6],"sdaReg11":[1, 2, 5],"sdaReg19":[11],"sdaReg17":[1, 2, 8],"sdaReg18":[1, 2, 8, 10],"sdaReg15":[1, 2, 7],"1084315112":[12],"static.<java.net.URL: java.util.Hashtable streamHandlers>":[12],"sdaReg171":[1, 2, 100],"sdaReg170":[99],"sdaReg173":[102, 1, 2],"sdaReg172":[101],"sdaReg175":[1, 2, 104],"sdaReg174":[103],"sdaReg177":[1, 2, 106],"sdaReg176":[105],"sdaReg179":[1, 2, 108],"sdaReg178":[107],"sdaReg182":[111],"sdaReg181":[1, 2, 110],"sdaReg180":[109],"sdaReg186":[115],"sdaReg185":[1, 2, 114],"sdaReg184":[113],"sdaReg183":[1, 2, 112],"sdaReg189":[1, 118, 2],"sdaReg188":[117],"sdaReg187":[1, 2, 116],"static.<java.net.URL: java.net.URLStreamHandlerFactory streamHandlerFactory>":[14],"sdaReg60":[22],"sdaReg61":[22],"1084315112.<java.util.Hashtable: int threshold>":[12],"1093589240":[23],"sdaReg59":[22],"sdaReg58":[22],"sdaReg57":[22],"sdaReg56":[22],"sdaReg55":[22],"sdaReg54":[22],"sdaReg53":[22],"sdaReg52":[21],"sdaReg50":[12],"1084317688":[1, 2, 8, 9],"sdaReg49":[21],"sdaReg48":[21],"sdaReg45":[21],"sdaReg44":[20],"sdaReg47":[21],"sdaReg46":[21],"sdaReg41":[17, 16],"sdaReg40":[16],"sdaReg43":[19],"sdaReg42":[18],"sdaReg201":[123],"sdaReg205":[127],"sdaReg39":[15],"sdaReg204":[126],"sdaReg203":[118, 1, 2, 125],"sdaReg202":[124],"sdaReg209":[118, 1, 2, 131],"sdaReg208":[130],"sdaReg207":[129],"sdaReg206":[118, 1, 2, 128],"sdaReg32":[13],"sdaReg31":[13],"sdaReg30":[13],"sdaReg36":[13],"sdaReg33":[13],"sdaReg9":[1, 2, 4],"sdaReg6":[1, 2],"sdaReg7":[1, 2, 3],"sdaReg4":[0],"sdaReg27":[13],"sdaReg26":[13],"sdaReg29":[13],"sdaReg28":[13],"static.<java.util.Locale: java.util.Locale US>":[9],"sdaReg2":[0],"sdaReg21":[1, 2, 11],"sdaReg20":[11],"sdaReg0":[1],"sdaReg23":[12],"sdaReg22":[0],"sdaReg25":[13],"sdaReg125":[1, 2, 67],"sdaReg126":[68],"sdaReg127":[1, 69, 2],"sdaReg128":[70],"sdaReg129":[1, 2, 71],"sdaReg228":[150],"sdaReg68":[23],"sdaReg229":[151],"sdaReg66":[12],"sdaReg67":[12],"sdaReg224":[118, 1, 2, 146],"sdaReg64":[22],"sdaReg225":[147],"sdaReg226":[148],"sdaReg227":[118, 1, 2, 149],"sdaReg221":[118, 1, 2, 143],"sdaReg72":[23],"sdaReg220":[142],"sdaReg223":[145],"sdaReg70":[21],"sdaReg222":[144],"sdaReg120":[62],"sdaReg122":[64],"sdaReg121":[1, 2, 63],"sdaReg124":[66],"sdaReg123":[1, 2, 65],"sdaReg116":[58],"sdaReg117":[1, 2, 59],"sdaReg114":[1, 2, 11],"sdaReg115":[1, 2, 57],"sdaReg118":[60],"sdaReg119":[1, 2, 61],"sdaReg219":[141],"sdaReg78":[1, 2, 25],"1084315112.<java.util.Hashtable: int size>":[12],"sdaReg217":[139],"sdaReg79":[1, 2, 11],"sdaReg218":[118, 1, 2, 140],"sdaReg215":[137, 118, 1, 2],"sdaReg73":[23],"sdaReg216":[138],"sdaReg74":[24],"sdaReg213":[135],"sdaReg75":[21],"sdaReg214":[136],"sdaReg76":[0],"sdaReg81":[1, 2, 11],"sdaReg212":[118, 1, 2, 134],"1084321912":[12],"sdaReg211":[133],"sdaReg83":[27],"sdaReg210":[132],"sdaReg82":[1, 2, 26],"sdaReg112":[1, 2, 56],"sdaReg111":[55],"sdaReg110":[1, 2, 54],"sdaReg107":[51],"sdaReg108":[1, 2, 52],"sdaReg109":[53],"sdaReg103":[47],"1093287872":[17, 16],"sdaReg104":[1, 2, 48],"sdaReg105":[49],"sdaReg106":[1, 50, 2],"sdaReg246":[1, 2, 166],"sdaReg86":[1, 2, 30],"sdaReg247":[167],"sdaReg87":[31],"sdaReg248":[1, 2, 11],"sdaReg84":[1, 2, 28],"sdaReg249":[1, 2, 168],"sdaReg85":[29],"sdaReg88":[1, 2, 32],"sdaReg89":[33],"sdaReg90":[34, 1, 2],"sdaReg241":[161],"1084315112.<java.util.Hashtable: java.util.Hashtable$HashtableEntry[] table>":[12],"sdaReg240":[1, 2, 160],"sdaReg243":[163],"sdaReg94":[1, 2, 38],"sdaReg242":[1, 2, 162],"sdaReg93":[37],"sdaReg245":[165],"sdaReg92":[1, 2, 36],"sdaReg244":[1, 2, 164],"sdaReg91":[35],"sdaReg100":[1, 2, 44],"sdaReg102":[1, 2, 46],"sdaReg101":[45],"1093642584":[21],"sdaReg237":[157],"sdaReg95":[39],"sdaReg238":[1, 2, 158],"sdaReg96":[1, 2, 40],"sdaReg235":[155],"sdaReg97":[41],"sdaReg236":[1, 2, 156],"sdaReg98":[1, 2, 42],"sdaReg99":[43],"sdaReg239":[159],"sdaReg230":[152],"sdaReg234":[1, 2, 154],"sdaReg233":[1, 2, 24, 11],"sdaReg231":[1, 153, 2],"sdaReg268":[0],"1093724344":[0],"1093264944":[175],"sdaReg169":[1, 2, 98],"sdaReg163":[1, 2, 24, 11],"sdaReg164":[1, 2, 95],"sdaReg166":[1, 2, 11],"sdaReg167":[1, 2, 96],"sdaReg168":[97],"sdaReg264":[175],"sdaReg265":[175],"sdaReg266":[175],"sdaReg267":[175, 176],"sdaReg260":[0],"sdaReg261":[118, 1, 2],"sdaReg262":[1, 2, 168, 174],"sdaReg263":[175],"sdaReg259":[0],"sdaReg258":[21],"sdaReg159":[1, 2, 11],"1093481992":[16],"sdaReg158":[1, 2, 94],"sdaReg152":[1, 2, 88],"sdaReg153":[89],"sdaReg150":[1, 2, 86],"sdaReg151":[87],"sdaReg156":[1, 2, 92],"sdaReg157":[93],"sdaReg154":[1, 2, 90],"sdaReg155":[91],"sdaReg255":[118, 1, 2, 173],"sdaReg256":[0],"sdaReg253":[171, 1, 2, 56],"sdaReg254":[118, 1, 2, 172],"sdaReg251":[1, 2, 11],"sdaReg252":[1, 170, 2],"sdaReg250":[1, 2, 169],"sdaReg147":[85],"sdaReg149":[1, 2, 11],"sdaReg143":[81],"sdaReg144":[1, 2, 82],"sdaReg145":[83],"sdaReg146":[1, 84, 2],"sdaReg140":[1, 2, 78],"sdaReg280":[180],"sdaReg141":[79],"sdaReg281":[181],"sdaReg142":[1, 2, 80],"sdaReg282":[0],"sdaReg279":[179],"sdaReg139":[1, 2, 11],"sdaReg137":[1, 2, 11],"sdaReg136":[1, 2, 11],"sdaReg134":[76],"sdaReg135":[1, 2, 77],"sdaReg132":[74],"sdaReg133":[1, 2, 75],"sdaReg130":[72],"sdaReg270":[0],"sdaReg131":[1, 2, 73],"sdaReg274":[178],"sdaReg272":[177],"sdaReg277":[179],"sdaReg278":[179],"sdaReg275":[178]},"colorToColor":{"0":[182],"1":[0, 1, 2, 8, 10, 155, 157, 159, 25, 27, 29, 31, 35, 33, 175, 39, 37, 163, 43, 161, 41, 167, 47, 165, 45, 51, 49, 55, 53, 58, 62, 60, 68, 70, 64, 66, 76, 79, 72, 74, 85, 87, 81, 83, 93, 89, 91, 103, 101, 99, 97, 111, 109, 107, 105, 117, 115, 113],"2":[0, 1, 2, 8, 10, 155, 157, 159, 25, 27, 29, 31, 35, 33, 175, 39, 37, 163, 43, 161, 41, 167, 47, 165, 45, 51, 49, 55, 53, 58, 62, 60, 68, 70, 64, 66, 76, 79, 72, 74, 85, 87, 81, 83, 93, 89, 91, 103, 101, 99, 97, 111, 109, 107, 105, 117, 115, 113],"8":[0, 1, 2, 8, 10],"9":[1, 2, 8, 10],"10":[0],"11":[1, 2, 25],"12":[12],"154":[155],"156":[157],"21":[0, 23],"158":[159],"23":[12],"22":[23],"26":[27],"28":[29],"30":[31],"34":[35],"170":[0],"32":[33],"168":[0, 175],"175":[0],"38":[39],"36":[37],"42":[43],"162":[163],"40":[41],"160":[161],"46":[47],"166":[167],"44":[45],"164":[165],"50":[51],"48":[49],"54":[55],"52":[53],"59":[60],"179":[180],"176":[0],"57":[58],"56":[0],"63":[64],"180":[0],"61":[62],"181":[0],"69":[70],"71":[72],"65":[66],"67":[68],"77":[0],"78":[79],"73":[74],"75":[76],"84":[85],"86":[87],"80":[81],"82":[83],"92":[93],"94":[0],"88":[89],"90":[91],"102":[103],"100":[101],"98":[99],"96":[97],"110":[111],"108":[109],"106":[107],"104":[105],"118":[0, 175],"116":[117],"114":[115],"112":[113]},"colorToLabel":{"0":"this","1":"arg#1","9":"<java.util.Locale: java.util.Locale US>","12":"<java.net.URL: java.util.Hashtable streamHandlers>","14":"<java.net.URL: java.net.URLStreamHandlerFactory streamHandlerFactory>","182":"return"}}}

Generated Model
	this->return
	arg#1->this
	arg#1->return

