Scanning method <android.location.Location: void set(android.location.Location)>

All seen event types: StoreArrayRecord, SimpleAssignmentRecord, LoadInstanceRecord, MethodStartRecord, IfRecord, StoreInstanceRecord, NewObjectRecord, NewArrayRecord, BinaryOperationRecord, MethodCallRecord, MethodReturnRecord, CastRecord, ArrayLengthRecord, LoadArrayRecord, MethodEndRecord, 
Ignored event types: IfRecord, 

JSON Encoded Analysis Data (for visualization):{"heapEdges":[{"step":0,"from":"1093791656","to":"1093791656.<android.location.Location: java.lang.String mProvider>","type":"load","field":"<android.location.Location: java.lang.String mProvider>"},{"step":1,"from":"1093791656.<android.location.Location: java.lang.String mProvider>","to":"1093687432","type":"store","field":"<android.location.Location: java.lang.String mProvider>"},{"step":2,"from":"1093791656","to":"1093791656.<android.location.Location: long mTime>","type":"load","field":"<android.location.Location: long mTime>"},{"step":3,"from":"1093791656.<android.location.Location: long mTime>","to":"1093687432","type":"store","field":"<android.location.Location: long mTime>"},{"step":4,"from":"1093791656","to":"1093791656.<android.location.Location: double mLatitude>","type":"load","field":"<android.location.Location: double mLatitude>"},{"step":5,"from":"1093791656.<android.location.Location: double mLatitude>","to":"1093687432","type":"store","field":"<android.location.Location: double mLatitude>"},{"step":6,"from":"1093791656","to":"1093791656.<android.location.Location: double mLongitude>","type":"load","field":"<android.location.Location: double mLongitude>"},{"step":7,"from":"1093791656.<android.location.Location: double mLongitude>","to":"1093687432","type":"store","field":"<android.location.Location: double mLongitude>"},{"step":8,"from":"1093791656","to":"1093791656.<android.location.Location: boolean mHasAltitude>","type":"load","field":"<android.location.Location: boolean mHasAltitude>"},{"step":9,"from":"1093791656.<android.location.Location: boolean mHasAltitude>","to":"1093687432","type":"store","field":"<android.location.Location: boolean mHasAltitude>"},{"step":10,"from":"1093791656","to":"1093791656.<android.location.Location: double mAltitude>","type":"load","field":"<android.location.Location: double mAltitude>"},{"step":11,"from":"1093791656.<android.location.Location: double mAltitude>","to":"1093687432","type":"store","field":"<android.location.Location: double mAltitude>"},{"step":12,"from":"1093791656","to":"1093791656.<android.location.Location: boolean mHasSpeed>","type":"load","field":"<android.location.Location: boolean mHasSpeed>"},{"step":13,"from":"1093791656.<android.location.Location: boolean mHasSpeed>","to":"1093687432","type":"store","field":"<android.location.Location: boolean mHasSpeed>"},{"step":14,"from":"1093791656","to":"1093791656.<android.location.Location: float mSpeed>","type":"load","field":"<android.location.Location: float mSpeed>"},{"step":15,"from":"1093791656.<android.location.Location: float mSpeed>","to":"1093687432","type":"store","field":"<android.location.Location: float mSpeed>"},{"step":16,"from":"1093791656","to":"1093791656.<android.location.Location: boolean mHasBearing>","type":"load","field":"<android.location.Location: boolean mHasBearing>"},{"step":17,"from":"1093791656.<android.location.Location: boolean mHasBearing>","to":"1093687432","type":"store","field":"<android.location.Location: boolean mHasBearing>"},{"step":18,"from":"1093791656","to":"1093791656.<android.location.Location: float mBearing>","type":"load","field":"<android.location.Location: float mBearing>"},{"step":19,"from":"1093791656.<android.location.Location: float mBearing>","to":"1093687432","type":"store","field":"<android.location.Location: float mBearing>"},{"step":20,"from":"1093791656","to":"1093791656.<android.location.Location: boolean mHasAccuracy>","type":"load","field":"<android.location.Location: boolean mHasAccuracy>"},{"step":21,"from":"1093791656.<android.location.Location: boolean mHasAccuracy>","to":"1093687432","type":"store","field":"<android.location.Location: boolean mHasAccuracy>"},{"step":22,"from":"1093791656","to":"1093791656.<android.location.Location: float mAccuracy>","type":"load","field":"<android.location.Location: float mAccuracy>"},{"step":23,"from":"1093791656.<android.location.Location: float mAccuracy>","to":"1093687432","type":"store","field":"<android.location.Location: float mAccuracy>"},{"step":24,"from":"1093791656","to":"1093676600","type":"load","field":"<android.location.Location: android.os.Bundle mExtras>"},{"step":25,"from":"1093791656","to":"1093676600","type":"load","field":"<android.location.Location: android.os.Bundle mExtras>"},{"step":26,"from":"1093838128","to":"sdaReg3","type":"create","field":"<android.os.Bundle: java.util.Map mMap>"},{"step":27,"from":"1093838128","to":"sdaReg4","type":"create","field":"<android.os.Bundle: android.os.Parcel mParcelledData>"},{"step":28,"from":"1093838128","to":"sdaReg5","type":"create","field":"<android.os.Bundle: boolean mHasFds>"},{"step":29,"from":"1093838128","to":"sdaReg6","type":"create","field":"<android.os.Bundle: boolean mFdsKnown>"},{"step":30,"from":"1093838128","to":"sdaReg7","type":"create","field":"<android.os.Bundle: boolean mAllowFds>"},{"step":31,"from":"1093838128","to":"sdaReg8","type":"create","field":"<android.os.Bundle: android.os.Parcel mParcelledData>"},{"step":32,"from":"1093676600","to":"1093686160","type":"load","field":"<android.os.Bundle: java.util.Map mMap>"},{"step":33,"from":"1093676600","to":"1093686160","type":"load","field":"<android.os.Bundle: java.util.Map mMap>"},{"step":34,"from":"1093686160","to":"1093686160.<java.util.HashMap: int size>","type":"load","field":"<java.util.HashMap: int size>"},{"step":35,"from":"1093850856","to":"1093850912","type":"create","field":"<java.util.HashMap: java.util.HashMap$HashMapEntry[] table>"},{"step":36,"from":"sdaReg25","to":"1093850856","type":"store","field":"<java.util.HashMap: int threshold>"},{"step":37,"from":"1093686160","to":"1093465768","type":"store","field":"<java.util.HashMap$EntrySet: java.util.HashMap this$0>"},{"step":38,"from":"1093686160","to":"1093465768","type":"create","field":"<java.util.HashMap: java.util.Set entrySet>"},{"step":39,"from":"1093686160","to":"1093850952","type":"store","field":"<java.util.HashMap$EntryIterator: java.util.HashMap this$0>"},{"step":40,"from":"1093686160","to":"1093850952","type":"store","field":"<java.util.HashMap$HashIterator: java.util.HashMap this$0>"},{"step":41,"from":"1093686160","to":"1093686160.<java.util.HashMap: int modCount>","type":"load","field":"<java.util.HashMap: int modCount>"},{"step":42,"from":"1093686160.<java.util.HashMap: int modCount>","to":"1093850952","type":"store","field":"<java.util.HashMap$HashIterator: int expectedModCount>"},{"step":43,"from":"1093686160","to":"1093686216","type":"load","field":"<java.util.HashMap: java.util.HashMap$HashMapEntry[] table>"},{"step":44,"from":"1093850952","to":"1093850952.<java.util.HashMap$HashIterator: int nextIndex>","type":"load","field":"<java.util.HashMap$HashIterator: int nextIndex>"},{"step":45,"from":"1093850952","to":"1093850952.<java.util.HashMap$HashIterator: int nextIndex>","type":"load","field":"<java.util.HashMap$HashIterator: int nextIndex>"},{"step":46,"from":"sdaReg54","to":"1093850952","type":"store","field":"<java.util.HashMap$HashIterator: int nextIndex>"},{"step":47,"from":"sdaReg54","to":"1093850952","type":"store","field":"<java.util.HashMap$HashIterator: int nextIndex>"},{"step":48,"from":"sdaReg54","to":"1093850952","type":"store","field":"<java.util.HashMap$HashIterator: int nextIndex>"},{"step":49,"from":"1093686216","to":"1093607896","type":"load","field":"arrayIdx_int:2"},{"step":50,"from":"1093607896","to":"1093850952","type":"store","field":"<java.util.HashMap$HashIterator: java.util.HashMap$HashMapEntry nextEntry>"},{"step":51,"from":"1093686160","to":"1093686160.<java.util.HashMap: int modCount>","type":"load","field":"<java.util.HashMap: int modCount>"},{"step":52,"from":"1093686160","to":"1093686216","type":"load","field":"<java.util.HashMap: java.util.HashMap$HashMapEntry[] table>"},{"step":53,"from":"sdaReg68","to":"1093850952","type":"store","field":"<java.util.HashMap$HashIterator: int nextIndex>"},{"step":54,"from":"1093686216","to":"1093607928","type":"load","field":"arrayIdx_int:3"},{"step":55,"from":"1093607928","to":"1093850952","type":"store","field":"<java.util.HashMap$HashIterator: java.util.HashMap$HashMapEntry nextEntry>"},{"step":56,"from":"1093607896","to":"1093850952","type":"store","field":"<java.util.HashMap$HashIterator: java.util.HashMap$HashMapEntry lastEntryReturned>"},{"step":57,"from":"1093607896","to":"1093559504","type":"load","field":"<java.util.HashMap$HashMapEntry: java.lang.Object key>"},{"step":58,"from":"1093607896","to":"1085840800","type":"load","field":"<java.util.HashMap$HashMapEntry: java.lang.Object value>"},{"step":59,"from":"1093559504","to":"1093852688","type":"store","field":"<java.util.HashMap$HashMapEntry: java.lang.Object key>"},{"step":60,"from":"1085840800","to":"1093852688","type":"store","field":"<java.util.HashMap$HashMapEntry: java.lang.Object value>"},{"step":61,"from":"sdaReg88","to":"1093852688","type":"store","field":"<java.util.HashMap$HashMapEntry: int hash>"},{"step":62,"from":"1093850912","to":"1093852688","type":"create","field":"arrayIdx_int:2"},{"step":63,"from":"1093850856","to":"1093850856.<java.util.HashMap: int size>","type":"load","field":"<java.util.HashMap: int size>"},{"step":64,"from":"sdaReg104","to":"1093850856","type":"store","field":"<java.util.HashMap: int size>"},{"step":65,"from":"1093686160","to":"1093686160.<java.util.HashMap: int modCount>","type":"load","field":"<java.util.HashMap: int modCount>"},{"step":66,"from":"1093686160","to":"1093686216","type":"load","field":"<java.util.HashMap: java.util.HashMap$HashMapEntry[] table>"},{"step":67,"from":"1093607928","to":"1093850952","type":"store","field":"<java.util.HashMap$HashIterator: java.util.HashMap$HashMapEntry lastEntryReturned>"},{"step":68,"from":"1093607928","to":"1093559408","type":"load","field":"<java.util.HashMap$HashMapEntry: java.lang.Object key>"},{"step":69,"from":"1093607928","to":"1085837760","type":"load","field":"<java.util.HashMap$HashMapEntry: java.lang.Object value>"},{"step":70,"from":"1093559408","to":"1093852720","type":"store","field":"<java.util.HashMap$HashMapEntry: java.lang.Object key>"},{"step":71,"from":"1085837760","to":"1093852720","type":"store","field":"<java.util.HashMap$HashMapEntry: java.lang.Object value>"},{"step":72,"from":"sdaReg129","to":"1093852720","type":"store","field":"<java.util.HashMap$HashMapEntry: int hash>"},{"step":73,"from":"1093850912","to":"1093852720","type":"create","field":"arrayIdx_int:3"},{"step":74,"from":"sdaReg145","to":"1093850856","type":"store","field":"<java.util.HashMap: int size>"},{"step":75,"from":"1093838128","to":"1093850856","type":"create","field":"<android.os.Bundle: java.util.Map mMap>"},{"step":76,"from":"1093676600","to":"1093676600.<android.os.Bundle: boolean mHasFds>","type":"load","field":"<android.os.Bundle: boolean mHasFds>"},{"step":77,"from":"1093676600.<android.os.Bundle: boolean mHasFds>","to":"1093838128","type":"store","field":"<android.os.Bundle: boolean mHasFds>"},{"step":78,"from":"1093676600","to":"1093676600.<android.os.Bundle: boolean mFdsKnown>","type":"load","field":"<android.os.Bundle: boolean mFdsKnown>"},{"step":79,"from":"1093676600.<android.os.Bundle: boolean mFdsKnown>","to":"1093838128","type":"store","field":"<android.os.Bundle: boolean mFdsKnown>"},{"step":80,"from":"1093676600","to":"1083999984","type":"load","field":"<android.os.Bundle: java.lang.ClassLoader mClassLoader>"},{"step":81,"from":"1083999984","to":"1093838128","type":"store","field":"<android.os.Bundle: java.lang.ClassLoader mClassLoader>"},{"step":82,"from":"1093687432","to":"1093838128","type":"create","field":"<android.location.Location: android.os.Bundle mExtras>"}],"parameters":[{"id":"1093687432","name":"this","klass":"android.location.Location"},{"id":"1093791656","name":"arg#1","klass":"android.location.Location"}],"returns":[{"id":null,"name":"return","klass":null}],"colors":{"heapLocToColor":{"sdaReg125":[9],"sdaReg126":[9],"sdaReg127":[9],"sdaReg128":[9],"sdaReg129":[9],"1093850952":[6],"1093686160.<java.util.HashMap: int size>":[1],"sdaReg69":[1],"sdaReg66":[6],"sdaReg64":[6],"sdaReg65":[6],"sdaReg62":[6],"sdaReg13":[1],"sdaReg72":[1],"sdaReg14":[1],"sdaReg71":[1],"sdaReg11":[1],"sdaReg70":[1],"sdaReg12":[1],"sdaReg10":[1],"sdaReg120":[1],"sdaReg19":[3],"1093838128":[2],"sdaReg122":[9],"sdaReg17":[3],"1093687432":[0],"sdaReg121":[9],"sdaReg18":[3],"sdaReg124":[9],"sdaReg15":[1],"sdaReg123":[9],"sdaReg16":[3],"sdaReg116":[1],"sdaReg117":[1],"sdaReg114":[1],"sdaReg115":[1],"1093791656.<android.location.Location: float mBearing>":[1],"sdaReg118":[3],"1093686160.<java.util.HashMap: java.util.HashMap$HashMapEntry[] table>":[1],"sdaReg119":[1],"1093791656.<android.location.Location: boolean mHasBearing>":[1],"sdaReg77":[3],"sdaReg78":[1],"sdaReg79":[1],"sdaReg73":[1],"sdaReg74":[1],"sdaReg75":[1],"sdaReg76":[1],"sdaReg81":[7],"1085837760":[1],"1093791656.<android.location.Location: float mSpeed>":[1],"sdaReg80":[7],"sdaReg83":[7],"1093791656.<android.location.Location: long mTime>":[1],"sdaReg82":[7],"1093850856.<java.util.HashMap: int size>":[3],"1093559504":[1],"sdaReg113":[1],"sdaReg112":[1],"sdaReg111":[1],"sdaReg107":[6],"sdaReg108":[6],"sdaReg109":[6],"1093852688":[8],"sdaReg103":[8],"sdaReg104":[3],"1093686160":[1],"sdaReg105":[6],"1093791656.<android.location.Location: double mLatitude>":[1],"sdaReg86":[7],"sdaReg87":[7],"sdaReg84":[7],"sdaReg85":[7],"sdaReg88":[7],"sdaReg94":[1],"sdaReg93":[3],"sdaReg91":[7],"sdaReg102":[8],"sdaReg101":[8],"1093791656.<android.location.Location: double mAltitude>":[1],"1093676600.<android.os.Bundle: boolean mFdsKnown>":[1],"1093791656.<android.location.Location: boolean mHasAccuracy>":[1],"sdaReg95":[1],"1093676600":[1],"1093686160.<java.util.HashMap: int modCount>":[1],"sdaReg97":[8],"sdaReg98":[1],"1093607896":[1],"sdaReg99":[1],"1093791656.<android.location.Location: boolean mHasSpeed>":[1],"1093791656":[1],"1093686216":[1],"1093850952.<java.util.HashMap$HashIterator: int nextIndex>":[6],"1093791656.<android.location.Location: double mLongitude>":[1],"sdaReg60":[6],"sdaReg61":[6],"1093791656.<android.location.Location: java.lang.String mProvider>":[1],"sdaReg59":[6],"sdaReg58":[6],"sdaReg57":[6],"sdaReg54":[6],"sdaReg51":[6],"sdaReg50":[1],"1093676600.<android.os.Bundle: boolean mHasFds>":[1],"1093676600.<android.os.Bundle: java.util.Map mMap>":[1],"1093852720":[10],"1093607928":[1],"1093791656.<android.location.Location: boolean mHasAltitude>":[1],"1093850912":[4],"sdaReg49":[6],"sdaReg48":[1],"1093850856":[3],"sdaReg45":[6],"sdaReg44":[1],"sdaReg47":[6],"1093559408":[1],"sdaReg46":[1],"sdaReg41":[5],"sdaReg40":[5],"sdaReg43":[5],"sdaReg42":[5],"sdaReg148":[3],"1093791656.<android.location.Location: android.os.Bundle mExtras>":[1],"sdaReg149":[2],"sdaReg143":[10],"sdaReg144":[10],"sdaReg39":[5],"sdaReg38":[5],"sdaReg146":[6],"sdaReg37":[5],"sdaReg140":[1],"1093791656.<android.location.Location: float mAccuracy>":[1],"sdaReg142":[10],"sdaReg32":[5],"1083999984":[1],"sdaReg31":[1],"sdaReg30":[5],"sdaReg36":[5],"sdaReg35":[5],"sdaReg34":[5],"sdaReg33":[1],"sdaReg9":[3],"sdaReg139":[1],"sdaReg138":[10],"sdaReg136":[1],"sdaReg134":[3],"sdaReg27":[3],"sdaReg135":[1],"sdaReg26":[3],"sdaReg132":[9],"sdaReg29":[1],"sdaReg28":[1],"sdaReg2":[2],"sdaReg21":[3],"sdaReg1":[1],"sdaReg0":[2],"1085840800":[1],"1093465768":[5]},"colorToColor":{"1":[0, 2, 5, 6, 8, 10],"2":[0],"3":[2, 3],"4":[3],"5":[1],"6":[6],"7":[8],"8":[4],"9":[10],"10":[4]},"colorToLabel":{"0":"this","1":"arg#1","11":"return"}}}

Generated Model
	arg#1->this

