Scanning method <android.os.Bundle: void putString(java.lang.String,java.lang.String)>

All seen event types: BinaryOperationRecord, StoreArrayRecord, MethodReturnRecord, MethodCallRecord, ArrayLengthRecord, LoadInstanceRecord, MethodStartRecord, LoadArrayRecord, MethodEndRecord, IfRecord, NewObjectRecord, StoreInstanceRecord, 
Ignored event types: IfRecord, 

JSON Encoded Analysis Data (for visualization):{"heapEdges":[{"step":0,"from":"1093782608","to":"1093848984","type":"load","field":"<android.os.Bundle: java.util.Map mMap>"},{"step":1,"from":"1093848984","to":"1093672312","type":"load","field":"<java.util.HashMap: java.util.HashMap$HashMapEntry[] table>"},{"step":2,"from":"1093848984","to":"1093848984.<java.util.HashMap: int modCount>","type":"load","field":"<java.util.HashMap: int modCount>"},{"step":3,"from":"sdaReg16","to":"1093848984","type":"store","field":"<java.util.HashMap: int modCount>"},{"step":4,"from":"1093848984","to":"1093848984.<java.util.HashMap: int size>","type":"load","field":"<java.util.HashMap: int size>"},{"step":5,"from":"sdaReg17","to":"1093848984","type":"store","field":"<java.util.HashMap: int size>"},{"step":6,"from":"1093848984","to":"1093848984.<java.util.HashMap: int threshold>","type":"load","field":"<java.util.HashMap: int threshold>"},{"step":7,"from":"1093848984","to":"1093672312","type":"load","field":"<java.util.HashMap: java.util.HashMap$HashMapEntry[] table>"},{"step":8,"from":"1093848984","to":"1093672312","type":"load","field":"<java.util.HashMap: java.util.HashMap$HashMapEntry[] table>"},{"step":9,"from":"1084612152","to":"1093628200","type":"store","field":"<java.util.HashMap$HashMapEntry: java.lang.Object key>"},{"step":10,"from":"1093528744","to":"1093628200","type":"store","field":"<java.util.HashMap$HashMapEntry: java.lang.Object value>"},{"step":11,"from":"sdaReg12","to":"1093628200","type":"store","field":"<java.util.HashMap$HashMapEntry: int hash>"},{"step":12,"from":"1093672312","to":"1093628200","type":"create","field":"arrayIdx_int:2"}],"parameters":[{"id":"1093782608","name":"this","klass":"android.os.Bundle"},{"id":"sdaReg0","name":"arg#1","klass":"string"},{"id":"sdaReg1","name":"arg#2","klass":"string"}],"returns":[{"id":null,"name":"return","klass":null}],"colors":{"heapLocToColor":{"1093848984.<java.util.HashMap: int size>":[0],"1093628200":[4],"1093848984.<java.util.HashMap: int modCount>":[0],"sdaReg11":[3],"1093672312":[0],"sdaReg12":[3],"sdaReg10":[3],"1093848984.<java.util.HashMap: java.util.HashMap$HashMapEntry[] table>":[0],"1093848984.<java.util.HashMap: int threshold>":[0],"1093848984":[0],"sdaReg17":[0],"sdaReg18":[0],"sdaReg15":[3],"sdaReg16":[0],"sdaReg8":[3],"sdaReg9":[3],"sdaReg6":[3],"sdaReg7":[3],"sdaReg4":[3],"sdaReg5":[3],"sdaReg26":[4],"sdaReg3":[0],"sdaReg2":[0],"sdaReg21":[4],"sdaReg1":[2],"sdaReg0":[1],"sdaReg25":[4],"1093782608":[0]},"colorToColor":{"0":[0],"3":[4],"4":[0]},"colorToLabel":{"0":"this","1":"arg#1","2":"arg#2","5":"return"}}}

Generated Model

