Scanning method <java.util.TreeMap: void rotateLeft(java.util.TreeMap$Node)>

All seen event types: LoadStaticRecord, BinaryOperationRecord, SimpleAssignmentRecord, MethodReturnRecord, MethodCallRecord, MethodStartRecord, LoadInstanceRecord, MethodEndRecord, IfRecord, StoreInstanceRecord, 
Ignored event types: IfRecord, 

JSON Encoded Analysis Data (for visualization):{"heapEdges":[{"step":0,"from":"1094410792","to":"1094410832","type":"load","field":"<java.util.TreeMap$Node: java.util.TreeMap$Node right>"},{"step":1,"from":"1094410832","to":"1094410872","type":"load","field":"<java.util.TreeMap$Node: java.util.TreeMap$Node right>"},{"step":2,"from":"1094410792","to":"1094410752","type":"load","field":"<java.util.TreeMap$Node: java.util.TreeMap$Node parent>"},{"step":3,"from":"1094410792","to":"sdaReg3","type":"create","field":"<java.util.TreeMap$Node: java.util.TreeMap$Node parent>"},{"step":4,"from":"1094410752","to":"1094410832","type":"store","field":"<java.util.TreeMap$Node: java.util.TreeMap$Node parent>"},{"step":5,"from":"1094410752","to":"1094259496","type":"load","field":"<java.util.TreeMap$Node: java.util.TreeMap$Node left>"},{"step":6,"from":"static.<java.util.TreeMap: boolean $assertionsDisabled>","to":"static.<java.util.TreeMap: boolean $assertionsDisabled>","type":"load","field":"<java.util.TreeMap: boolean $assertionsDisabled>"},{"step":7,"from":"1094410832","to":"1094410752","type":"store","field":"<java.util.TreeMap$Node: java.util.TreeMap$Node right>"},{"step":8,"from":"1094410792","to":"1094410832","type":"store","field":"<java.util.TreeMap$Node: java.util.TreeMap$Node left>"},{"step":9,"from":"1094410832","to":"1094410792","type":"store","field":"<java.util.TreeMap$Node: java.util.TreeMap$Node parent>"},{"step":10,"from":"sdaReg4","to":"sdaReg5","type":"model"},{"step":11,"from":"sdaReg4","to":"sdaReg6","type":"model"},{"step":12,"from":"sdaReg5","to":"sdaReg4","type":"model"},{"step":13,"from":"sdaReg5","to":"sdaReg6","type":"model"},{"step":14,"from":"sdaReg7","to":"1094410792","type":"store","field":"<java.util.TreeMap$Node: int height>"},{"step":15,"from":"1094410872","to":"1094410872.<java.util.TreeMap$Node: int height>","type":"load","field":"<java.util.TreeMap$Node: int height>"},{"step":16,"from":"1094410872.<java.util.TreeMap$Node: int height>","to":"sdaReg8","type":"model"},{"step":17,"from":"sdaReg9","to":"1094410832","type":"store","field":"<java.util.TreeMap$Node: int height>"}],"parameters":[{"id":"1093233072","name":"this","klass":"java.util.TreeMap"},{"id":"1094410792","name":"arg#1","klass":"java.util.TreeMap$Node"}],"returns":[{"id":null,"name":"return","klass":null}],"colors":{"heapLocToColor":{"1094410832":[1],"sdaReg8":[4],"1094410872.<java.util.TreeMap$Node: int height>":[1],"sdaReg9":[4],"1094410792":[1],"1094259496":[1],"sdaReg6":[3],"sdaReg7":[3],"1093233072":[0],"1094410872":[1],"1094410752":[1],"static.<java.util.TreeMap: boolean $assertionsDisabled>":[2],"sdaReg2":[1],"sdaReg1":[1],"sdaReg0":[0]},"colorToColor":{"1":[1, 4],"3":[1],"4":[1]},"colorToLabel":{"0":"this","1":"arg#1","2":"<java.util.TreeMap: boolean $assertionsDisabled>","5":"return"}}}

Generated Model

