Scanning method <java.util.TreeMap: void rotateLeft(java.util.TreeMap$Node)>

All seen event types: BinaryOperationRecord, MethodReturnRecord, MethodCallRecord, MethodStartRecord, LoadInstanceRecord, MethodEndRecord, IfRecord, StoreInstanceRecord, 
Ignored event types: IfRecord, 

JSON Encoded Analysis Data (for visualization):{"heapEdges":[{"step":0,"from":"1094753864","to":"1095430504","type":"load","field":"<java.util.TreeMap$Node: java.util.TreeMap$Node left>"},{"step":1,"from":"1094753864","to":"1093447784","type":"load","field":"<java.util.TreeMap$Node: java.util.TreeMap$Node right>"},{"step":2,"from":"1093447784","to":"1093686520","type":"load","field":"<java.util.TreeMap$Node: java.util.TreeMap$Node left>"},{"step":3,"from":"1093447784","to":"1095218224","type":"load","field":"<java.util.TreeMap$Node: java.util.TreeMap$Node right>"},{"step":4,"from":"1093686520","to":"1094753864","type":"store","field":"<java.util.TreeMap$Node: java.util.TreeMap$Node right>"},{"step":5,"from":"1094753864","to":"1093686520","type":"store","field":"<java.util.TreeMap$Node: java.util.TreeMap$Node parent>"},{"step":6,"from":"1094753864","to":"sdaReg3","type":"create","field":"<java.util.TreeMap$Node: java.util.TreeMap$Node parent>"},{"step":7,"from":"1093447784","to":"1093233072","type":"store","field":"<java.util.TreeMap: java.util.TreeMap$Node root>"},{"step":8,"from":"1094753864","to":"1093447784","type":"store","field":"<java.util.TreeMap$Node: java.util.TreeMap$Node left>"},{"step":9,"from":"1093447784","to":"1094753864","type":"store","field":"<java.util.TreeMap$Node: java.util.TreeMap$Node parent>"},{"step":10,"from":"1095430504","to":"1095430504.<java.util.TreeMap$Node: int height>","type":"load","field":"<java.util.TreeMap$Node: int height>"},{"step":11,"from":"1093686520","to":"1093686520.<java.util.TreeMap$Node: int height>","type":"load","field":"<java.util.TreeMap$Node: int height>"},{"step":12,"from":"1095430504.<java.util.TreeMap$Node: int height>","to":"1093686520.<java.util.TreeMap$Node: int height>","type":"model"},{"step":13,"from":"1095430504.<java.util.TreeMap$Node: int height>","to":"sdaReg4","type":"model"},{"step":14,"from":"1093686520.<java.util.TreeMap$Node: int height>","to":"1095430504.<java.util.TreeMap$Node: int height>","type":"model"},{"step":15,"from":"1093686520.<java.util.TreeMap$Node: int height>","to":"sdaReg4","type":"model"},{"step":16,"from":"sdaReg5","to":"1094753864","type":"store","field":"<java.util.TreeMap$Node: int height>"},{"step":17,"from":"1095218224","to":"1095218224.<java.util.TreeMap$Node: int height>","type":"load","field":"<java.util.TreeMap$Node: int height>"},{"step":18,"from":"1095218224.<java.util.TreeMap$Node: int height>","to":"sdaReg6","type":"model"},{"step":19,"from":"sdaReg7","to":"1093447784","type":"store","field":"<java.util.TreeMap$Node: int height>"}],"parameters":[{"id":"1093233072","name":"this","klass":"java.util.TreeMap"},{"id":"1094753864","name":"arg#1","klass":"java.util.TreeMap$Node"}],"returns":[{"id":null,"name":"return","klass":null}],"colors":{"heapLocToColor":{"1093686520":[1],"sdaReg6":[3],"sdaReg7":[3],"sdaReg4":[2],"sdaReg5":[2],"1093233072":[0],"1093447784":[1],"1095430504":[1],"1095218224.<java.util.TreeMap$Node: int height>":[1],"1095218224":[1],"sdaReg2":[1],"1094753864":[1],"sdaReg1":[1],"sdaReg0":[0],"1093686520.<java.util.TreeMap$Node: int height>":[1],"1095430504.<java.util.TreeMap$Node: int height>":[1]},"colorToColor":{"1":[0, 1, 2, 3],"2":[1],"3":[1]},"colorToLabel":{"0":"this","1":"arg#1","4":"return"}}}

Generated Model
	arg#1->this

