Scanning method <android.text.Html: void withinDiv(java.lang.StringBuilder,android.text.Spanned,int,int)>

All seen event types: StoreArrayRecord, SimpleAssignmentRecord, MethodStartRecord, LoadInstanceRecord, IfRecord, InstanceOfRecord, LoadStaticRecord, BinaryOperationRecord, MethodCallRecord, MethodReturnRecord, CastRecord, ArrayLengthRecord, LoadArrayRecord, MethodEndRecord, 
Ignored event types: IfRecord, 

JSON Encoded Analysis Data (for visualization):{"heapEdges":[{"step":0,"from":"1093571088","to":"1093571088.<android.text.SpannableStringBuilder: int mSpanCount>","type":"load","field":"<android.text.SpannableStringBuilder: int mSpanCount>"},{"step":1,"from":"1093571088","to":"1093858136","type":"load","field":"<android.text.SpannableStringBuilder: java.lang.Object[] mSpans>"},{"step":2,"from":"1093571088","to":"1093885584","type":"load","field":"<android.text.SpannableStringBuilder: int[] mSpanStarts>"},{"step":3,"from":"1093571088","to":"1093912696","type":"load","field":"<android.text.SpannableStringBuilder: int[] mSpanEnds>"},{"step":4,"from":"1093571088","to":"1093571088.<android.text.SpannableStringBuilder: int mGapStart>","type":"load","field":"<android.text.SpannableStringBuilder: int mGapStart>"},{"step":5,"from":"1093571088","to":"1093571088.<android.text.SpannableStringBuilder: int mGapLength>","type":"load","field":"<android.text.SpannableStringBuilder: int mGapLength>"},{"step":6,"from":"1093885584","to":"1093885584.arrayIdx_int:0","type":"load","field":"arrayIdx_int:0"},{"step":7,"from":"1093912696","to":"1093912696.arrayIdx_int:0","type":"load","field":"arrayIdx_int:0"},{"step":8,"from":"1093858136","to":"1094949976","type":"load","field":"arrayIdx_int:0"},{"step":9,"from":"1093858136","to":"1094949976","type":"load","field":"arrayIdx_int:0"},{"step":10,"from":"1093571088","to":"1093571088.<android.text.SpannableStringBuilder: int mSpanCount>","type":"load","field":"<android.text.SpannableStringBuilder: int mSpanCount>"},{"step":11,"from":"1093571088","to":"1093858136","type":"load","field":"<android.text.SpannableStringBuilder: java.lang.Object[] mSpans>"},{"step":12,"from":"1093571088","to":"1093885584","type":"load","field":"<android.text.SpannableStringBuilder: int[] mSpanStarts>"},{"step":13,"from":"1093571088","to":"1093912696","type":"load","field":"<android.text.SpannableStringBuilder: int[] mSpanEnds>"},{"step":14,"from":"1093571088","to":"1093465088","type":"load","field":"<android.text.SpannableStringBuilder: int[] mSpanFlags>"},{"step":15,"from":"1093571088","to":"1093571088.<android.text.SpannableStringBuilder: int mGapStart>","type":"load","field":"<android.text.SpannableStringBuilder: int mGapStart>"},{"step":16,"from":"1093571088","to":"1093571088.<android.text.SpannableStringBuilder: int mGapLength>","type":"load","field":"<android.text.SpannableStringBuilder: int mGapLength>"},{"step":17,"from":"1093885584","to":"1093885584.arrayIdx_int:0","type":"load","field":"arrayIdx_int:0"},{"step":18,"from":"1093912696","to":"1093912696.arrayIdx_int:0","type":"load","field":"arrayIdx_int:0"},{"step":19,"from":"1093858136","to":"1094949976","type":"load","field":"arrayIdx_int:0"},{"step":20,"from":"1084853880","to":"sdaReg16","type":"model"},{"step":21,"from":"static.<com.android.internal.util.ArrayUtils: java.lang.Object[] sCache>","to":"1084375760","type":"load","field":"<com.android.internal.util.ArrayUtils: java.lang.Object[] sCache>"},{"step":22,"from":"static.<com.android.internal.util.ArrayUtils: java.lang.Object[] sCache>","to":"1084375760","type":"load","field":"<com.android.internal.util.ArrayUtils: java.lang.Object[] sCache>"},{"step":23,"from":"1084375760","to":"1094342800","type":"create","field":"arrayIdx_int:37"},{"step":24,"from":"1093571088","to":"1093571088.<android.text.SpannableStringBuilder: int mSpanCount>","type":"load","field":"<android.text.SpannableStringBuilder: int mSpanCount>"},{"step":25,"from":"1093571088","to":"1093858136","type":"load","field":"<android.text.SpannableStringBuilder: java.lang.Object[] mSpans>"},{"step":26,"from":"1093571088","to":"1093885584","type":"load","field":"<android.text.SpannableStringBuilder: int[] mSpanStarts>"},{"step":27,"from":"1093571088","to":"1093912696","type":"load","field":"<android.text.SpannableStringBuilder: int[] mSpanEnds>"},{"step":28,"from":"1093571088","to":"1093571088.<android.text.SpannableStringBuilder: int mGapStart>","type":"load","field":"<android.text.SpannableStringBuilder: int mGapStart>"},{"step":29,"from":"1093571088","to":"1093571088.<android.text.SpannableStringBuilder: int mGapLength>","type":"load","field":"<android.text.SpannableStringBuilder: int mGapLength>"},{"step":30,"from":"1093885584","to":"1093885584.arrayIdx_int:0","type":"load","field":"arrayIdx_int:0"},{"step":31,"from":"1093912696","to":"1093912696.arrayIdx_int:0","type":"load","field":"arrayIdx_int:0"},{"step":32,"from":"1093858136","to":"1094949976","type":"load","field":"arrayIdx_int:0"},{"step":33,"from":"1093571088","to":"1093571088.<android.text.SpannableStringBuilder: int mSpanCount>","type":"load","field":"<android.text.SpannableStringBuilder: int mSpanCount>"},{"step":34,"from":"1093571088","to":"1093858136","type":"load","field":"<android.text.SpannableStringBuilder: java.lang.Object[] mSpans>"},{"step":35,"from":"1093571088","to":"1093885584","type":"load","field":"<android.text.SpannableStringBuilder: int[] mSpanStarts>"},{"step":36,"from":"1093571088","to":"1093912696","type":"load","field":"<android.text.SpannableStringBuilder: int[] mSpanEnds>"},{"step":37,"from":"1093571088","to":"1093465088","type":"load","field":"<android.text.SpannableStringBuilder: int[] mSpanFlags>"},{"step":38,"from":"1093571088","to":"1093571088.<android.text.SpannableStringBuilder: int mGapStart>","type":"load","field":"<android.text.SpannableStringBuilder: int mGapStart>"},{"step":39,"from":"1093571088","to":"1093571088.<android.text.SpannableStringBuilder: int mGapLength>","type":"load","field":"<android.text.SpannableStringBuilder: int mGapLength>"},{"step":40,"from":"1093885584","to":"1093885584.arrayIdx_int:0","type":"load","field":"arrayIdx_int:0"},{"step":41,"from":"1093912696","to":"1093912696.arrayIdx_int:0","type":"load","field":"arrayIdx_int:0"},{"step":42,"from":"1084661656","to":"sdaReg52","type":"model"},{"step":43,"from":"static.<com.android.internal.util.ArrayUtils: java.lang.Object[] sCache>","to":"1084375760","type":"load","field":"<com.android.internal.util.ArrayUtils: java.lang.Object[] sCache>"},{"step":44,"from":"static.<com.android.internal.util.ArrayUtils: java.lang.Object[] sCache>","to":"1084375760","type":"load","field":"<com.android.internal.util.ArrayUtils: java.lang.Object[] sCache>"},{"step":45,"from":"1084375760","to":"1094331664","type":"create","field":"arrayIdx_int:26"},{"step":46,"from":"1093571088","to":"1093724728","type":"load","field":"<android.text.SpannableStringBuilder: char[] mText>"},{"step":47,"from":"1093571088","to":"1093571088.<android.text.SpannableStringBuilder: int mGapLength>","type":"load","field":"<android.text.SpannableStringBuilder: int mGapLength>"},{"step":48,"from":"1093571088","to":"1093571088.<android.text.SpannableStringBuilder: int mGapStart>","type":"load","field":"<android.text.SpannableStringBuilder: int mGapStart>"},{"step":49,"from":"1093571088","to":"1093724728","type":"load","field":"<android.text.SpannableStringBuilder: char[] mText>"},{"step":50,"from":"1093724728","to":"1093724728.arrayIdx_int:0","type":"load","field":"arrayIdx_int:0"},{"step":51,"from":"1093724728.arrayIdx_int:0","to":"1093429232","type":"model"},{"step":52,"from":"1093571088","to":"1093724728","type":"load","field":"<android.text.SpannableStringBuilder: char[] mText>"},{"step":53,"from":"1093571088","to":"1093571088.<android.text.SpannableStringBuilder: int mGapLength>","type":"load","field":"<android.text.SpannableStringBuilder: int mGapLength>"},{"step":54,"from":"1093571088","to":"1093571088.<android.text.SpannableStringBuilder: int mGapStart>","type":"load","field":"<android.text.SpannableStringBuilder: int mGapStart>"},{"step":55,"from":"1093571088","to":"1093724728","type":"load","field":"<android.text.SpannableStringBuilder: char[] mText>"},{"step":56,"from":"1093724728","to":"1093724728.arrayIdx_int:1","type":"load","field":"arrayIdx_int:1"},{"step":57,"from":"1093724728.arrayIdx_int:1","to":"1093429232","type":"model"},{"step":58,"from":"1093571088","to":"1093724728","type":"load","field":"<android.text.SpannableStringBuilder: char[] mText>"},{"step":59,"from":"1093571088","to":"1093571088.<android.text.SpannableStringBuilder: int mGapLength>","type":"load","field":"<android.text.SpannableStringBuilder: int mGapLength>"},{"step":60,"from":"1093571088","to":"1093571088.<android.text.SpannableStringBuilder: int mGapStart>","type":"load","field":"<android.text.SpannableStringBuilder: int mGapStart>"},{"step":61,"from":"1093571088","to":"1093724728","type":"load","field":"<android.text.SpannableStringBuilder: char[] mText>"},{"step":62,"from":"1093724728","to":"1093724728.arrayIdx_int:2","type":"load","field":"arrayIdx_int:2"},{"step":63,"from":"1093724728.arrayIdx_int:2","to":"1093429232","type":"model"},{"step":64,"from":"1093571088","to":"1093571088.<android.text.SpannableStringBuilder: int mSpanCount>","type":"load","field":"<android.text.SpannableStringBuilder: int mSpanCount>"},{"step":65,"from":"1093571088","to":"1093858136","type":"load","field":"<android.text.SpannableStringBuilder: java.lang.Object[] mSpans>"},{"step":66,"from":"1093571088","to":"1093885584","type":"load","field":"<android.text.SpannableStringBuilder: int[] mSpanStarts>"},{"step":67,"from":"1093571088","to":"1093912696","type":"load","field":"<android.text.SpannableStringBuilder: int[] mSpanEnds>"},{"step":68,"from":"1093571088","to":"1093571088.<android.text.SpannableStringBuilder: int mGapStart>","type":"load","field":"<android.text.SpannableStringBuilder: int mGapStart>"},{"step":69,"from":"1093571088","to":"1093571088.<android.text.SpannableStringBuilder: int mGapLength>","type":"load","field":"<android.text.SpannableStringBuilder: int mGapLength>"},{"step":70,"from":"1093885584","to":"1093885584.arrayIdx_int:0","type":"load","field":"arrayIdx_int:0"},{"step":71,"from":"1093912696","to":"1093912696.arrayIdx_int:0","type":"load","field":"arrayIdx_int:0"},{"step":72,"from":"1093858136","to":"1094949976","type":"load","field":"arrayIdx_int:0"},{"step":73,"from":"1093571088","to":"1093571088.<android.text.SpannableStringBuilder: int mSpanCount>","type":"load","field":"<android.text.SpannableStringBuilder: int mSpanCount>"},{"step":74,"from":"1093571088","to":"1093858136","type":"load","field":"<android.text.SpannableStringBuilder: java.lang.Object[] mSpans>"},{"step":75,"from":"1093571088","to":"1093885584","type":"load","field":"<android.text.SpannableStringBuilder: int[] mSpanStarts>"},{"step":76,"from":"1093571088","to":"1093912696","type":"load","field":"<android.text.SpannableStringBuilder: int[] mSpanEnds>"},{"step":77,"from":"1093571088","to":"1093465088","type":"load","field":"<android.text.SpannableStringBuilder: int[] mSpanFlags>"},{"step":78,"from":"1093571088","to":"1093571088.<android.text.SpannableStringBuilder: int mGapStart>","type":"load","field":"<android.text.SpannableStringBuilder: int mGapStart>"},{"step":79,"from":"1093571088","to":"1093571088.<android.text.SpannableStringBuilder: int mGapLength>","type":"load","field":"<android.text.SpannableStringBuilder: int mGapLength>"},{"step":80,"from":"1093885584","to":"1093885584.arrayIdx_int:0","type":"load","field":"arrayIdx_int:0"},{"step":81,"from":"1093912696","to":"1093912696.arrayIdx_int:0","type":"load","field":"arrayIdx_int:0"},{"step":82,"from":"1093858136","to":"1094949976","type":"load","field":"arrayIdx_int:0"},{"step":83,"from":"1093858136","to":"1094949976","type":"load","field":"arrayIdx_int:0"},{"step":84,"from":"1094949976","to":"1094978376","type":"store","field":"arrayIdx_int:0"},{"step":85,"from":"1094949976","to":"1094949976.<android.text.style.ImageSpan: java.lang.String mSource>","type":"load","field":"<android.text.style.ImageSpan: java.lang.String mSource>"},{"step":86,"from":"1094949976.<android.text.style.ImageSpan: java.lang.String mSource>","to":"1093429232","type":"model"},{"step":87,"from":"1093571088","to":"1093571088.<android.text.SpannableStringBuilder: int mSpanCount>","type":"load","field":"<android.text.SpannableStringBuilder: int mSpanCount>"},{"step":88,"from":"1093571088","to":"1093858136","type":"load","field":"<android.text.SpannableStringBuilder: java.lang.Object[] mSpans>"},{"step":89,"from":"1093571088","to":"1093885584","type":"load","field":"<android.text.SpannableStringBuilder: int[] mSpanStarts>"},{"step":90,"from":"1093571088","to":"1093912696","type":"load","field":"<android.text.SpannableStringBuilder: int[] mSpanEnds>"},{"step":91,"from":"1093571088","to":"1093571088.<android.text.SpannableStringBuilder: int mGapStart>","type":"load","field":"<android.text.SpannableStringBuilder: int mGapStart>"},{"step":92,"from":"1093571088","to":"1093571088.<android.text.SpannableStringBuilder: int mGapLength>","type":"load","field":"<android.text.SpannableStringBuilder: int mGapLength>"},{"step":93,"from":"1093885584","to":"1093885584.arrayIdx_int:0","type":"load","field":"arrayIdx_int:0"},{"step":94,"from":"1093912696","to":"1093912696.arrayIdx_int:0","type":"load","field":"arrayIdx_int:0"},{"step":95,"from":"1093571088","to":"1093571088.<android.text.SpannableStringBuilder: int mSpanCount>","type":"load","field":"<android.text.SpannableStringBuilder: int mSpanCount>"},{"step":96,"from":"1093571088","to":"1093858136","type":"load","field":"<android.text.SpannableStringBuilder: java.lang.Object[] mSpans>"},{"step":97,"from":"1093571088","to":"1093885584","type":"load","field":"<android.text.SpannableStringBuilder: int[] mSpanStarts>"},{"step":98,"from":"1093571088","to":"1093912696","type":"load","field":"<android.text.SpannableStringBuilder: int[] mSpanEnds>"},{"step":99,"from":"1093571088","to":"1093465088","type":"load","field":"<android.text.SpannableStringBuilder: int[] mSpanFlags>"},{"step":100,"from":"1093571088","to":"1093571088.<android.text.SpannableStringBuilder: int mGapStart>","type":"load","field":"<android.text.SpannableStringBuilder: int mGapStart>"},{"step":101,"from":"1093571088","to":"1093571088.<android.text.SpannableStringBuilder: int mGapLength>","type":"load","field":"<android.text.SpannableStringBuilder: int mGapLength>"},{"step":102,"from":"1093885584","to":"1093885584.arrayIdx_int:0","type":"load","field":"arrayIdx_int:0"},{"step":103,"from":"1093912696","to":"1093912696.arrayIdx_int:0","type":"load","field":"arrayIdx_int:0"},{"step":104,"from":"1084661656","to":"sdaReg133","type":"model"},{"step":105,"from":"static.<com.android.internal.util.ArrayUtils: java.lang.Object[] sCache>","to":"1084375760","type":"load","field":"<com.android.internal.util.ArrayUtils: java.lang.Object[] sCache>"},{"step":106,"from":"1094331664","to":"1085374624","type":"model"},{"step":107,"from":"1085374624","to":"1084661656","type":"model"},{"step":108,"from":"1093571088","to":"1093724728","type":"load","field":"<android.text.SpannableStringBuilder: char[] mText>"},{"step":109,"from":"1093571088","to":"1093571088.<android.text.SpannableStringBuilder: int mGapLength>","type":"load","field":"<android.text.SpannableStringBuilder: int mGapLength>"},{"step":110,"from":"1093571088","to":"1093571088.<android.text.SpannableStringBuilder: int mGapStart>","type":"load","field":"<android.text.SpannableStringBuilder: int mGapStart>"},{"step":111,"from":"1093571088","to":"1093724728","type":"load","field":"<android.text.SpannableStringBuilder: char[] mText>"},{"step":112,"from":"1093724728","to":"1093724728.arrayIdx_int:4","type":"load","field":"arrayIdx_int:4"},{"step":113,"from":"1093724728.arrayIdx_int:4","to":"1093429232","type":"model"},{"step":114,"from":"1093571088","to":"1093724728","type":"load","field":"<android.text.SpannableStringBuilder: char[] mText>"},{"step":115,"from":"1093571088","to":"1093571088.<android.text.SpannableStringBuilder: int mGapLength>","type":"load","field":"<android.text.SpannableStringBuilder: int mGapLength>"},{"step":116,"from":"1093571088","to":"1093571088.<android.text.SpannableStringBuilder: int mGapStart>","type":"load","field":"<android.text.SpannableStringBuilder: int mGapStart>"},{"step":117,"from":"1093571088","to":"1093724728","type":"load","field":"<android.text.SpannableStringBuilder: char[] mText>"},{"step":118,"from":"1093724728","to":"1093724728.arrayIdx_int:5","type":"load","field":"arrayIdx_int:5"},{"step":119,"from":"1093724728.arrayIdx_int:5","to":"1093429232","type":"model"},{"step":120,"from":"sdaReg157","to":"1093429232","type":"model"}],"parameters":[{"id":"1093429232","name":"arg#0","klass":"java.lang.StringBuilder"},{"id":"1093571088","name":"arg#1","klass":"android.text.Spanned"},{"id":"sdaReg0","name":"arg#2","klass":"int"},{"id":"sdaReg1","name":"arg#3","klass":"int"}],"returns":[{"id":null,"name":"return","klass":null}],"colors":{"heapLocToColor":{"sdaReg126":[1],"sdaReg68":[1],"sdaReg66":[2],"sdaReg67":[1],"sdaReg64":[0],"sdaReg65":[1],"sdaReg72":[1],"sdaReg14":[6],"sdaReg71":[1],"sdaReg70":[1],"1094331664":[13],"sdaReg19":[7],"sdaReg17":[7],"sdaReg18":[7],"sdaReg16":[7],"sdaReg123":[1],"1093724728.arrayIdx_int:5":[1],"sdaReg78":[1],"sdaReg74":[1],"sdaReg75":[1],"1093571088":[1],"sdaReg76":[1],"sdaReg81":[1],"sdaReg112":[1, 2, 3, 10],"1093571088.<android.text.SpannableStringBuilder: int mGapLength>":[1],"sdaReg111":[1],"sdaReg110":[0],"1093571088.<android.text.SpannableStringBuilder: java.lang.Object[] mSpans>":[1],"1094949976.<android.text.style.ImageSpan: java.lang.String mSource>":[1],"sdaReg106":[1],"static.<com.android.internal.util.ArrayUtils: java.lang.Object[] sCache>":[8],"1093465088":[1],"sdaReg84":[14],"sdaReg85":[1],"sdaReg94":[16],"sdaReg93":[16],"sdaReg92":[16],"sdaReg91":[15],"1093571088.<android.text.SpannableStringBuilder: char[] mText>":[1],"sdaReg95":[16],"1094342800":[9],"1093858136":[1],"1093571088.<android.text.SpannableStringBuilder: int[] mSpanEnds>":[1],"sdaReg60":[13],"sdaReg61":[16, 13],"1093571088.<android.text.SpannableStringBuilder: int mSpanCount>":[1],"1093429232":[0],"1094978376":[16],"1093885584":[1],"sdaReg59":[13],"sdaReg58":[13],"sdaReg57":[13],"sdaReg56":[13],"sdaReg55":[12],"sdaReg54":[12],"sdaReg53":[12],"sdaReg52":[12],"sdaReg159":[9],"1084661656":[19, 18, 13],"sdaReg152":[1],"1093912696":[1],"1093571088.<android.text.SpannableStringBuilder: int[] mSpanStarts>":[1],"sdaReg150":[1],"sdaReg151":[1],"sdaReg154":[1],"1093571088.<android.text.SpannableStringBuilder: int mGapStart>":[1],"sdaReg45":[1],"1093571088.<android.text.SpannableStringBuilder: int[] mSpanFlags>":[1],"sdaReg44":[11],"sdaReg41":[1],"sdaReg40":[1, 2, 3, 10],"1094949976":[1],"1093724728.arrayIdx_int:2":[1],"1093724728.arrayIdx_int:1":[1],"1093724728.arrayIdx_int:4":[1],"sdaReg148":[1],"sdaReg147":[1],"1085374624":[18, 13],"1093724728.arrayIdx_int:0":[1],"sdaReg144":[0],"sdaReg39":[1],"sdaReg145":[1],"sdaReg38":[0],"sdaReg146":[1, 2, 3, 10],"1084375760":[8],"sdaReg141":[13],"sdaReg142":[13],"sdaReg32":[3, 10],"sdaReg31":[2, 3, 10],"sdaReg30":[1],"sdaReg35":[1, 3, 10],"sdaReg34":[2],"sdaReg8":[1],"sdaReg6":[4],"sdaReg7":[5],"1093858136.arrayIdx_int:0":[1],"sdaReg138":[19, 18, 13],"sdaReg137":[18, 13],"sdaReg136":[17],"1093885584.arrayIdx_int:0":[1],"1093912696.arrayIdx_int:0":[1],"sdaReg134":[17],"sdaReg135":[17],"sdaReg26":[9],"sdaReg29":[0],"sdaReg133":[17],"sdaReg3":[1],"sdaReg2":[2, 3],"sdaReg21":[9],"sdaReg1":[3],"sdaReg20":[9],"sdaReg0":[2],"sdaReg23":[9],"1093724728":[1],"sdaReg22":[9],"sdaReg25":[9],"sdaReg24":[9]},"colorToColor":{"1":[0, 16],"9":[8],"13":[8]},"colorToLabel":{"0":"arg#0","1":"arg#1","2":"arg#2","3":"arg#3","8":"<com.android.internal.util.ArrayUtils: java.lang.Object[] sCache>","20":"return"}}}

Generated Model
	arg#1->arg#0

