Scanning method <android.text.Html: void withinDiv(java.lang.StringBuilder,android.text.Spanned,int,int)>

All seen event types: StoreArrayRecord, SimpleAssignmentRecord, MethodStartRecord, LoadInstanceRecord, IfRecord, LoadStaticRecord, BinaryOperationRecord, MethodCallRecord, MethodReturnRecord, CastRecord, ArrayLengthRecord, LoadArrayRecord, MethodEndRecord, 
Ignored event types: IfRecord, 

JSON Encoded Analysis Data (for visualization):{"heapEdges":[{"step":0,"from":"1093498320","to":"1093498320.<android.text.SpannableStringInternal: int mSpanCount>","type":"load","field":"<android.text.SpannableStringInternal: int mSpanCount>"},{"step":1,"from":"1093498320","to":"1093835088","type":"load","field":"<android.text.SpannableStringInternal: java.lang.Object[] mSpans>"},{"step":2,"from":"1093498320","to":"1093668608","type":"load","field":"<android.text.SpannableStringInternal: int[] mSpanData>"},{"step":3,"from":"1093498320","to":"1093498320.<android.text.SpannableStringInternal: int mSpanCount>","type":"load","field":"<android.text.SpannableStringInternal: int mSpanCount>"},{"step":4,"from":"1093498320","to":"1093835088","type":"load","field":"<android.text.SpannableStringInternal: java.lang.Object[] mSpans>"},{"step":5,"from":"1093498320","to":"1093668608","type":"load","field":"<android.text.SpannableStringInternal: int[] mSpanData>"},{"step":6,"from":"1084853880","to":"sdaReg17","type":"model"},{"step":7,"from":"static.<com.android.internal.util.ArrayUtils: java.lang.Object[] sCache>","to":"1084375760","type":"load","field":"<com.android.internal.util.ArrayUtils: java.lang.Object[] sCache>"},{"step":8,"from":"static.<com.android.internal.util.ArrayUtils: java.lang.Object[] sCache>","to":"1084375760","type":"load","field":"<com.android.internal.util.ArrayUtils: java.lang.Object[] sCache>"},{"step":9,"from":"1084375760","to":"1093993560","type":"create","field":"arrayIdx_int:37"},{"step":10,"from":"1093498320","to":"1093498320.<android.text.SpannableStringInternal: int mSpanCount>","type":"load","field":"<android.text.SpannableStringInternal: int mSpanCount>"},{"step":11,"from":"1093498320","to":"1093835088","type":"load","field":"<android.text.SpannableStringInternal: java.lang.Object[] mSpans>"},{"step":12,"from":"1093498320","to":"1093668608","type":"load","field":"<android.text.SpannableStringInternal: int[] mSpanData>"},{"step":13,"from":"1093498320","to":"1093498320.<android.text.SpannableStringInternal: int mSpanCount>","type":"load","field":"<android.text.SpannableStringInternal: int mSpanCount>"},{"step":14,"from":"1093498320","to":"1093835088","type":"load","field":"<android.text.SpannableStringInternal: java.lang.Object[] mSpans>"},{"step":15,"from":"1093498320","to":"1093668608","type":"load","field":"<android.text.SpannableStringInternal: int[] mSpanData>"},{"step":16,"from":"1084661656","to":"sdaReg58","type":"model"},{"step":17,"from":"static.<com.android.internal.util.ArrayUtils: java.lang.Object[] sCache>","to":"1084375760","type":"load","field":"<com.android.internal.util.ArrayUtils: java.lang.Object[] sCache>"},{"step":18,"from":"static.<com.android.internal.util.ArrayUtils: java.lang.Object[] sCache>","to":"1084375760","type":"load","field":"<com.android.internal.util.ArrayUtils: java.lang.Object[] sCache>"},{"step":19,"from":"1084375760","to":"1093528904","type":"create","field":"arrayIdx_int:26"},{"step":20,"from":"1093498320","to":"1093498320.<android.text.SpannableStringInternal: java.lang.String mText>","type":"load","field":"<android.text.SpannableStringInternal: java.lang.String mText>"},{"step":21,"from":"1093498320.<android.text.SpannableStringInternal: java.lang.String mText>","to":"sdaReg76","type":"model"},{"step":22,"from":"sdaReg76","to":"1093514304","type":"model"},{"step":23,"from":"1093498320","to":"1093498320.<android.text.SpannableStringInternal: java.lang.String mText>","type":"load","field":"<android.text.SpannableStringInternal: java.lang.String mText>"},{"step":24,"from":"1093498320.<android.text.SpannableStringInternal: java.lang.String mText>","to":"sdaReg78","type":"model"},{"step":25,"from":"sdaReg78","to":"1093514304","type":"model"},{"step":26,"from":"1093498320","to":"1093498320.<android.text.SpannableStringInternal: java.lang.String mText>","type":"load","field":"<android.text.SpannableStringInternal: java.lang.String mText>"},{"step":27,"from":"1093498320.<android.text.SpannableStringInternal: java.lang.String mText>","to":"sdaReg80","type":"model"},{"step":28,"from":"sdaReg80","to":"1093514304","type":"model"},{"step":29,"from":"1093498320","to":"1093498320.<android.text.SpannableStringInternal: java.lang.String mText>","type":"load","field":"<android.text.SpannableStringInternal: java.lang.String mText>"},{"step":30,"from":"1093498320.<android.text.SpannableStringInternal: java.lang.String mText>","to":"sdaReg82","type":"model"},{"step":31,"from":"sdaReg82","to":"1093514304","type":"model"},{"step":32,"from":"1093498320","to":"1093498320.<android.text.SpannableStringInternal: java.lang.String mText>","type":"load","field":"<android.text.SpannableStringInternal: java.lang.String mText>"},{"step":33,"from":"1093498320.<android.text.SpannableStringInternal: java.lang.String mText>","to":"sdaReg84","type":"model"},{"step":34,"from":"sdaReg84","to":"1093514304","type":"model"},{"step":35,"from":"1093498320","to":"1093498320.<android.text.SpannableStringInternal: java.lang.String mText>","type":"load","field":"<android.text.SpannableStringInternal: java.lang.String mText>"},{"step":36,"from":"1093498320.<android.text.SpannableStringInternal: java.lang.String mText>","to":"sdaReg86","type":"model"},{"step":37,"from":"1093498320","to":"1093498320.<android.text.SpannableStringInternal: java.lang.String mText>","type":"load","field":"<android.text.SpannableStringInternal: java.lang.String mText>"},{"step":38,"from":"1093498320.<android.text.SpannableStringInternal: java.lang.String mText>","to":"sdaReg90","type":"model"},{"step":39,"from":"1093498320","to":"1093498320.<android.text.SpannableStringInternal: java.lang.String mText>","type":"load","field":"<android.text.SpannableStringInternal: java.lang.String mText>"},{"step":40,"from":"1093498320.<android.text.SpannableStringInternal: java.lang.String mText>","to":"sdaReg92","type":"model"},{"step":41,"from":"sdaReg92","to":"1093514304","type":"model"},{"step":42,"from":"1093498320","to":"1093498320.<android.text.SpannableStringInternal: java.lang.String mText>","type":"load","field":"<android.text.SpannableStringInternal: java.lang.String mText>"},{"step":43,"from":"1093498320.<android.text.SpannableStringInternal: java.lang.String mText>","to":"sdaReg94","type":"model"},{"step":44,"from":"sdaReg94","to":"1093514304","type":"model"},{"step":45,"from":"1093498320","to":"1093498320.<android.text.SpannableStringInternal: java.lang.String mText>","type":"load","field":"<android.text.SpannableStringInternal: java.lang.String mText>"},{"step":46,"from":"1093498320.<android.text.SpannableStringInternal: java.lang.String mText>","to":"sdaReg96","type":"model"},{"step":47,"from":"sdaReg96","to":"1093514304","type":"model"},{"step":48,"from":"1093498320","to":"1093498320.<android.text.SpannableStringInternal: java.lang.String mText>","type":"load","field":"<android.text.SpannableStringInternal: java.lang.String mText>"},{"step":49,"from":"1093498320.<android.text.SpannableStringInternal: java.lang.String mText>","to":"sdaReg98","type":"model"},{"step":50,"from":"sdaReg98","to":"1093514304","type":"model"},{"step":51,"from":"1093498320","to":"1093498320.<android.text.SpannableStringInternal: java.lang.String mText>","type":"load","field":"<android.text.SpannableStringInternal: java.lang.String mText>"},{"step":52,"from":"1093498320.<android.text.SpannableStringInternal: java.lang.String mText>","to":"sdaReg100","type":"model"},{"step":53,"from":"sdaReg100","to":"1093514304","type":"model"},{"step":54,"from":"sdaReg104","to":"1093514304","type":"model"}],"parameters":[{"id":"1093514304","name":"arg#0","klass":"java.lang.StringBuilder"},{"id":"1093498320","name":"arg#1","klass":"android.text.Spanned"},{"id":"sdaReg0","name":"arg#2","klass":"int"},{"id":"sdaReg1","name":"arg#3","klass":"int"}],"returns":[{"id":null,"name":"return","klass":null}],"colors":{"heapLocToColor":{"sdaReg60":[8],"1093993560":[6],"sdaReg61":[8],"1093528904":[9],"sdaReg68":[9],"sdaReg69":[9],"sdaReg66":[9],"sdaReg67":[9],"sdaReg64":[9],"sdaReg65":[9],"sdaReg62":[9],"sdaReg63":[9],"sdaReg72":[0],"sdaReg10":[1],"sdaReg59":[8],"sdaReg58":[8],"1093835088":[1],"sdaReg19":[4],"1093498320.<android.text.SpannableStringInternal: int[] mSpanData>":[1],"sdaReg17":[4],"sdaReg18":[4],"sdaReg51":[1],"1093498320.<android.text.SpannableStringInternal: java.lang.Object[] mSpans>":[1],"sdaReg77":[1],"sdaReg78":[1, 11],"sdaReg79":[1],"sdaReg73":[1],"sdaReg74":[2],"sdaReg75":[1],"sdaReg76":[1, 10],"sdaReg81":[1],"sdaReg80":[1, 12],"1093498320":[1],"sdaReg83":[1],"sdaReg82":[1, 13],"sdaReg49":[1],"sdaReg44":[1],"1093668608":[1],"sdaReg46":[1],"sdaReg41":[0],"sdaReg43":[2, 3, 7],"sdaReg42":[1],"sdaReg106":[6],"sdaReg86":[1, 15],"static.<com.android.internal.util.ArrayUtils: java.lang.Object[] sCache>":[5],"sdaReg87":[2],"sdaReg84":[1, 14],"sdaReg85":[1],"sdaReg88":[2],"sdaReg89":[1],"sdaReg90":[1, 16],"1093498320.<android.text.SpannableStringInternal: java.lang.String mText>":[1],"sdaReg38":[3, 7],"1084375760":[5],"sdaReg37":[2],"sdaReg94":[1, 18],"sdaReg93":[1],"sdaReg92":[17, 1],"sdaReg91":[1],"sdaReg100":[1, 21],"sdaReg32":[0],"sdaReg35":[3, 7],"sdaReg34":[2, 3, 7],"sdaReg33":[1],"1093514304":[0],"sdaReg8":[1],"sdaReg5":[1],"sdaReg95":[1],"1093498320.<android.text.SpannableStringInternal: int mSpanCount>":[1],"sdaReg96":[1, 19],"sdaReg97":[1],"sdaReg98":[1, 20],"sdaReg99":[1],"sdaReg27":[6],"sdaReg26":[6],"sdaReg29":[6],"sdaReg28":[6],"sdaReg3":[1],"sdaReg2":[2, 3],"sdaReg21":[6],"sdaReg1":[3],"sdaReg20":[4],"sdaReg0":[2],"sdaReg23":[6],"sdaReg22":[6],"sdaReg25":[6],"sdaReg24":[6]},"colorToColor":{"1":[0],"6":[5],"9":[5],"10":[0],"11":[0],"12":[0],"13":[0],"14":[0],"17":[0],"19":[0],"18":[0],"21":[0],"20":[0]},"colorToLabel":{"0":"arg#0","1":"arg#1","2":"arg#2","3":"arg#3","5":"<com.android.internal.util.ArrayUtils: java.lang.Object[] sCache>","22":"return"}}}

Generated Model
	arg#1->arg#0

