Scanning method <android.text.Html: void withinDiv(java.lang.StringBuilder,android.text.Spanned,int,int)>

All seen event types: StoreArrayRecord, SimpleAssignmentRecord, MethodStartRecord, LoadInstanceRecord, IfRecord, InstanceOfRecord, LoadStaticRecord, BinaryOperationRecord, MethodCallRecord, MethodReturnRecord, CastRecord, ArrayLengthRecord, LoadArrayRecord, MethodEndRecord, 
Ignored event types: IfRecord, 

JSON Encoded Analysis Data (for visualization):{"heapEdges":[{"step":0,"from":"1094115800","to":"1094115800.<android.text.SpannableStringInternal: int mSpanCount>","type":"load","field":"<android.text.SpannableStringInternal: int mSpanCount>"},{"step":1,"from":"1094115800","to":"1094656408","type":"load","field":"<android.text.SpannableStringInternal: java.lang.Object[] mSpans>"},{"step":2,"from":"1094115800","to":"1094302416","type":"load","field":"<android.text.SpannableStringInternal: int[] mSpanData>"},{"step":3,"from":"1094302416","to":"1094302416.arrayIdx_int:0","type":"load","field":"arrayIdx_int:0"},{"step":4,"from":"1094302416","to":"1094302416.arrayIdx_int:1","type":"load","field":"arrayIdx_int:1"},{"step":5,"from":"1094656408","to":"1093920728","type":"load","field":"arrayIdx_int:0"},{"step":6,"from":"1094656408","to":"1093920728","type":"load","field":"arrayIdx_int:0"},{"step":7,"from":"1094115800","to":"1094115800.<android.text.SpannableStringInternal: int mSpanCount>","type":"load","field":"<android.text.SpannableStringInternal: int mSpanCount>"},{"step":8,"from":"1094115800","to":"1094656408","type":"load","field":"<android.text.SpannableStringInternal: java.lang.Object[] mSpans>"},{"step":9,"from":"1094115800","to":"1094302416","type":"load","field":"<android.text.SpannableStringInternal: int[] mSpanData>"},{"step":10,"from":"1094656408","to":"1093920728","type":"load","field":"arrayIdx_int:0"},{"step":11,"from":"1084853880","to":"sdaReg24","type":"model"},{"step":12,"from":"static.<com.android.internal.util.ArrayUtils: java.lang.Object[] sCache>","to":"1084375760","type":"load","field":"<com.android.internal.util.ArrayUtils: java.lang.Object[] sCache>"},{"step":13,"from":"1084375760","to":"1093997824","type":"load","field":"arrayIdx_int:37"},{"step":14,"from":"1093997824","to":"1093576184","type":"model"},{"step":15,"from":"1093576184","to":"1084853880","type":"model"},{"step":16,"from":"1094115800","to":"1094115800.<android.text.SpannableStringInternal: int mSpanCount>","type":"load","field":"<android.text.SpannableStringInternal: int mSpanCount>"},{"step":17,"from":"1094115800","to":"1094656408","type":"load","field":"<android.text.SpannableStringInternal: java.lang.Object[] mSpans>"},{"step":18,"from":"1094115800","to":"1094302416","type":"load","field":"<android.text.SpannableStringInternal: int[] mSpanData>"},{"step":19,"from":"1094302416","to":"1094302416.arrayIdx_int:0","type":"load","field":"arrayIdx_int:0"},{"step":20,"from":"1094302416","to":"1094302416.arrayIdx_int:1","type":"load","field":"arrayIdx_int:1"},{"step":21,"from":"1094656408","to":"1093920728","type":"load","field":"arrayIdx_int:0"},{"step":22,"from":"1094115800","to":"1094115800.<android.text.SpannableStringInternal: int mSpanCount>","type":"load","field":"<android.text.SpannableStringInternal: int mSpanCount>"},{"step":23,"from":"1094115800","to":"1094656408","type":"load","field":"<android.text.SpannableStringInternal: java.lang.Object[] mSpans>"},{"step":24,"from":"1094115800","to":"1094302416","type":"load","field":"<android.text.SpannableStringInternal: int[] mSpanData>"},{"step":25,"from":"1094656408","to":"1093920728","type":"load","field":"arrayIdx_int:0"},{"step":26,"from":"1094302416","to":"1094302416.arrayIdx_int:0","type":"load","field":"arrayIdx_int:0"},{"step":27,"from":"1094302416","to":"1094302416.arrayIdx_int:1","type":"load","field":"arrayIdx_int:1"},{"step":28,"from":"1084661656","to":"sdaReg76","type":"model"},{"step":29,"from":"static.<com.android.internal.util.ArrayUtils: java.lang.Object[] sCache>","to":"1084375760","type":"load","field":"<com.android.internal.util.ArrayUtils: java.lang.Object[] sCache>"},{"step":30,"from":"1084375760","to":"1093550768","type":"load","field":"arrayIdx_int:26"},{"step":31,"from":"1093550768","to":"1085374624","type":"model"},{"step":32,"from":"1085374624","to":"1084661656","type":"model"},{"step":33,"from":"1094115800","to":"1094115800.<android.text.SpannableStringInternal: java.lang.String mText>","type":"load","field":"<android.text.SpannableStringInternal: java.lang.String mText>"},{"step":34,"from":"1094115800.<android.text.SpannableStringInternal: java.lang.String mText>","to":"sdaReg95","type":"model"},{"step":35,"from":"sdaReg95","to":"1096026320","type":"model"},{"step":36,"from":"1094115800","to":"1094115800.<android.text.SpannableStringInternal: java.lang.String mText>","type":"load","field":"<android.text.SpannableStringInternal: java.lang.String mText>"},{"step":37,"from":"1094115800.<android.text.SpannableStringInternal: java.lang.String mText>","to":"sdaReg97","type":"model"},{"step":38,"from":"sdaReg97","to":"1096026320","type":"model"},{"step":39,"from":"1094115800","to":"1094115800.<android.text.SpannableStringInternal: java.lang.String mText>","type":"load","field":"<android.text.SpannableStringInternal: java.lang.String mText>"},{"step":40,"from":"1094115800.<android.text.SpannableStringInternal: java.lang.String mText>","to":"sdaReg99","type":"model"},{"step":41,"from":"sdaReg99","to":"1096026320","type":"model"},{"step":42,"from":"1094115800","to":"1094115800.<android.text.SpannableStringInternal: java.lang.String mText>","type":"load","field":"<android.text.SpannableStringInternal: java.lang.String mText>"},{"step":43,"from":"1094115800.<android.text.SpannableStringInternal: java.lang.String mText>","to":"sdaReg101","type":"model"},{"step":44,"from":"sdaReg101","to":"1096026320","type":"model"},{"step":45,"from":"1094115800","to":"1094115800.<android.text.SpannableStringInternal: java.lang.String mText>","type":"load","field":"<android.text.SpannableStringInternal: java.lang.String mText>"},{"step":46,"from":"1094115800.<android.text.SpannableStringInternal: java.lang.String mText>","to":"sdaReg103","type":"model"},{"step":47,"from":"sdaReg103","to":"1096026320","type":"model"},{"step":48,"from":"1094115800","to":"1094115800.<android.text.SpannableStringInternal: java.lang.String mText>","type":"load","field":"<android.text.SpannableStringInternal: java.lang.String mText>"},{"step":49,"from":"1094115800.<android.text.SpannableStringInternal: java.lang.String mText>","to":"sdaReg105","type":"model"},{"step":50,"from":"1094115800","to":"1094115800.<android.text.SpannableStringInternal: int mSpanCount>","type":"load","field":"<android.text.SpannableStringInternal: int mSpanCount>"},{"step":51,"from":"1094115800","to":"1094656408","type":"load","field":"<android.text.SpannableStringInternal: java.lang.Object[] mSpans>"},{"step":52,"from":"1094115800","to":"1094302416","type":"load","field":"<android.text.SpannableStringInternal: int[] mSpanData>"},{"step":53,"from":"1094302416","to":"1094302416.arrayIdx_int:0","type":"load","field":"arrayIdx_int:0"},{"step":54,"from":"1094302416","to":"1094302416.arrayIdx_int:1","type":"load","field":"arrayIdx_int:1"},{"step":55,"from":"1094656408","to":"1093920728","type":"load","field":"arrayIdx_int:0"},{"step":56,"from":"1094115800","to":"1094115800.<android.text.SpannableStringInternal: int mSpanCount>","type":"load","field":"<android.text.SpannableStringInternal: int mSpanCount>"},{"step":57,"from":"1094115800","to":"1094656408","type":"load","field":"<android.text.SpannableStringInternal: java.lang.Object[] mSpans>"},{"step":58,"from":"1094115800","to":"1094302416","type":"load","field":"<android.text.SpannableStringInternal: int[] mSpanData>"},{"step":59,"from":"1094656408","to":"1093920728","type":"load","field":"arrayIdx_int:0"},{"step":60,"from":"1094302416","to":"1094302416.arrayIdx_int:0","type":"load","field":"arrayIdx_int:0"},{"step":61,"from":"1094302416","to":"1094302416.arrayIdx_int:1","type":"load","field":"arrayIdx_int:1"},{"step":62,"from":"1094656408","to":"1093920728","type":"load","field":"arrayIdx_int:0"},{"step":63,"from":"1093920728","to":"1093485264","type":"store","field":"arrayIdx_int:0"},{"step":64,"from":"1094115800","to":"1094115800.<android.text.SpannableStringInternal: java.lang.String mText>","type":"load","field":"<android.text.SpannableStringInternal: java.lang.String mText>"},{"step":65,"from":"1094115800.<android.text.SpannableStringInternal: java.lang.String mText>","to":"sdaReg154","type":"model"},{"step":66,"from":"sdaReg154","to":"1096026320","type":"model"},{"step":67,"from":"1094115800","to":"1094115800.<android.text.SpannableStringInternal: java.lang.String mText>","type":"load","field":"<android.text.SpannableStringInternal: java.lang.String mText>"},{"step":68,"from":"1094115800.<android.text.SpannableStringInternal: java.lang.String mText>","to":"sdaReg156","type":"model"},{"step":69,"from":"sdaReg156","to":"1096026320","type":"model"},{"step":70,"from":"1094115800","to":"1094115800.<android.text.SpannableStringInternal: java.lang.String mText>","type":"load","field":"<android.text.SpannableStringInternal: java.lang.String mText>"},{"step":71,"from":"1094115800.<android.text.SpannableStringInternal: java.lang.String mText>","to":"sdaReg158","type":"model"},{"step":72,"from":"sdaReg158","to":"1096026320","type":"model"},{"step":73,"from":"1094115800","to":"1094115800.<android.text.SpannableStringInternal: java.lang.String mText>","type":"load","field":"<android.text.SpannableStringInternal: java.lang.String mText>"},{"step":74,"from":"1094115800.<android.text.SpannableStringInternal: java.lang.String mText>","to":"sdaReg160","type":"model"},{"step":75,"from":"sdaReg160","to":"1096026320","type":"model"},{"step":76,"from":"1094115800","to":"1094115800.<android.text.SpannableStringInternal: java.lang.String mText>","type":"load","field":"<android.text.SpannableStringInternal: java.lang.String mText>"},{"step":77,"from":"1094115800.<android.text.SpannableStringInternal: java.lang.String mText>","to":"sdaReg162","type":"model"},{"step":78,"from":"sdaReg162","to":"1096026320","type":"model"},{"step":79,"from":"1094115800","to":"1094115800.<android.text.SpannableStringInternal: java.lang.String mText>","type":"load","field":"<android.text.SpannableStringInternal: java.lang.String mText>"},{"step":80,"from":"1094115800.<android.text.SpannableStringInternal: java.lang.String mText>","to":"sdaReg164","type":"model"},{"step":81,"from":"sdaReg164","to":"1096026320","type":"model"},{"step":82,"from":"1094115800","to":"1094115800.<android.text.SpannableStringInternal: java.lang.String mText>","type":"load","field":"<android.text.SpannableStringInternal: java.lang.String mText>"},{"step":83,"from":"1094115800.<android.text.SpannableStringInternal: java.lang.String mText>","to":"sdaReg166","type":"model"},{"step":84,"from":"sdaReg166","to":"1096026320","type":"model"},{"step":85,"from":"1094115800","to":"1094115800.<android.text.SpannableStringInternal: java.lang.String mText>","type":"load","field":"<android.text.SpannableStringInternal: java.lang.String mText>"},{"step":86,"from":"1094115800.<android.text.SpannableStringInternal: java.lang.String mText>","to":"sdaReg168","type":"model"},{"step":87,"from":"sdaReg168","to":"1096026320","type":"model"},{"step":88,"from":"1094115800","to":"1094115800.<android.text.SpannableStringInternal: java.lang.String mText>","type":"load","field":"<android.text.SpannableStringInternal: java.lang.String mText>"},{"step":89,"from":"1094115800.<android.text.SpannableStringInternal: java.lang.String mText>","to":"sdaReg170","type":"model"},{"step":90,"from":"sdaReg170","to":"1096026320","type":"model"},{"step":91,"from":"1094115800","to":"1094115800.<android.text.SpannableStringInternal: int mSpanCount>","type":"load","field":"<android.text.SpannableStringInternal: int mSpanCount>"},{"step":92,"from":"1094115800","to":"1094656408","type":"load","field":"<android.text.SpannableStringInternal: java.lang.Object[] mSpans>"},{"step":93,"from":"1094115800","to":"1094302416","type":"load","field":"<android.text.SpannableStringInternal: int[] mSpanData>"},{"step":94,"from":"1094302416","to":"1094302416.arrayIdx_int:0","type":"load","field":"arrayIdx_int:0"},{"step":95,"from":"1094302416","to":"1094302416.arrayIdx_int:1","type":"load","field":"arrayIdx_int:1"},{"step":96,"from":"1094115800","to":"1094115800.<android.text.SpannableStringInternal: int mSpanCount>","type":"load","field":"<android.text.SpannableStringInternal: int mSpanCount>"},{"step":97,"from":"1094115800","to":"1094656408","type":"load","field":"<android.text.SpannableStringInternal: java.lang.Object[] mSpans>"},{"step":98,"from":"1094115800","to":"1094302416","type":"load","field":"<android.text.SpannableStringInternal: int[] mSpanData>"},{"step":99,"from":"1094656408","to":"1093920728","type":"load","field":"arrayIdx_int:0"},{"step":100,"from":"1094302416","to":"1094302416.arrayIdx_int:0","type":"load","field":"arrayIdx_int:0"},{"step":101,"from":"1094302416","to":"1094302416.arrayIdx_int:1","type":"load","field":"arrayIdx_int:1"},{"step":102,"from":"1084661656","to":"sdaReg204","type":"model"},{"step":103,"from":"static.<com.android.internal.util.ArrayUtils: java.lang.Object[] sCache>","to":"1084375760","type":"load","field":"<com.android.internal.util.ArrayUtils: java.lang.Object[] sCache>"},{"step":104,"from":"1084375760","to":"1093550768","type":"load","field":"arrayIdx_int:26"},{"step":105,"from":"1093550768","to":"1085374624","type":"model"},{"step":106,"from":"1085374624","to":"1084661656","type":"model"},{"step":107,"from":"1094115800","to":"1094115800.<android.text.SpannableStringInternal: java.lang.String mText>","type":"load","field":"<android.text.SpannableStringInternal: java.lang.String mText>"},{"step":108,"from":"1094115800.<android.text.SpannableStringInternal: java.lang.String mText>","to":"sdaReg221","type":"model"},{"step":109,"from":"1094115800","to":"1094115800.<android.text.SpannableStringInternal: java.lang.String mText>","type":"load","field":"<android.text.SpannableStringInternal: java.lang.String mText>"},{"step":110,"from":"1094115800.<android.text.SpannableStringInternal: java.lang.String mText>","to":"sdaReg225","type":"model"},{"step":111,"from":"1094115800","to":"1094115800.<android.text.SpannableStringInternal: java.lang.String mText>","type":"load","field":"<android.text.SpannableStringInternal: java.lang.String mText>"},{"step":112,"from":"1094115800.<android.text.SpannableStringInternal: java.lang.String mText>","to":"sdaReg227","type":"model"},{"step":113,"from":"sdaReg227","to":"1096026320","type":"model"},{"step":114,"from":"1094115800","to":"1094115800.<android.text.SpannableStringInternal: java.lang.String mText>","type":"load","field":"<android.text.SpannableStringInternal: java.lang.String mText>"},{"step":115,"from":"1094115800.<android.text.SpannableStringInternal: java.lang.String mText>","to":"sdaReg229","type":"model"},{"step":116,"from":"sdaReg229","to":"1096026320","type":"model"},{"step":117,"from":"1094115800","to":"1094115800.<android.text.SpannableStringInternal: java.lang.String mText>","type":"load","field":"<android.text.SpannableStringInternal: java.lang.String mText>"},{"step":118,"from":"1094115800.<android.text.SpannableStringInternal: java.lang.String mText>","to":"sdaReg231","type":"model"},{"step":119,"from":"sdaReg231","to":"1096026320","type":"model"},{"step":120,"from":"1094115800","to":"1094115800.<android.text.SpannableStringInternal: java.lang.String mText>","type":"load","field":"<android.text.SpannableStringInternal: java.lang.String mText>"},{"step":121,"from":"1094115800.<android.text.SpannableStringInternal: java.lang.String mText>","to":"sdaReg233","type":"model"},{"step":122,"from":"sdaReg233","to":"1096026320","type":"model"},{"step":123,"from":"1094115800","to":"1094115800.<android.text.SpannableStringInternal: java.lang.String mText>","type":"load","field":"<android.text.SpannableStringInternal: java.lang.String mText>"},{"step":124,"from":"1094115800.<android.text.SpannableStringInternal: java.lang.String mText>","to":"sdaReg235","type":"model"},{"step":125,"from":"sdaReg235","to":"1096026320","type":"model"},{"step":126,"from":"sdaReg238","to":"1096026320","type":"model"}],"parameters":[{"id":"1096026320","name":"arg#0","klass":"java.lang.StringBuilder"},{"id":"1094115800","name":"arg#1","klass":"android.text.Spanned"},{"id":"sdaReg0","name":"arg#2","klass":"int"},{"id":"sdaReg1","name":"arg#3","klass":"int"}],"returns":[{"id":null,"name":"return","klass":null}],"colors":{"heapLocToColor":{"sdaReg191":[16, 8, 15],"sdaReg190":[1],"sdaReg193":[16, 8, 15],"1093550768":[8],"sdaReg127":[24],"sdaReg192":[1],"1084853880":[8, 9, 10],"sdaReg228":[1],"sdaReg229":[1, 40],"sdaReg198":[35],"sdaReg224":[1],"sdaReg64":[1],"sdaReg225":[1, 38],"sdaReg226":[1],"sdaReg62":[1],"sdaReg227":[1, 39],"sdaReg221":[1, 37],"sdaReg13":[5],"sdaReg220":[1],"sdaReg14":[1],"sdaReg223":[1, 2, 3, 11],"sdaReg70":[13],"sdaReg222":[1, 2, 3, 11],"sdaReg12":[4],"sdaReg120":[16, 8, 15],"sdaReg122":[16, 8, 15],"sdaReg121":[1],"sdaReg16":[1],"1094115800.<android.text.SpannableStringInternal: int[] mSpanData>":[1],"sdaReg118":[23],"sdaReg119":[1],"sdaReg219":[1, 2, 3, 11],"1094115800":[1],"sdaReg77":[14],"1093997824":[8],"sdaReg78":[14],"sdaReg217":[0],"sdaReg79":[14],"sdaReg218":[1],"sdaReg215":[8],"1094656408.arrayIdx_int:0":[1],"sdaReg213":[8],"sdaReg214":[8],"sdaReg76":[14],"sdaReg212":[8],"sdaReg81":[16, 8, 15],"sdaReg211":[8],"sdaReg80":[8, 15],"sdaReg210":[8],"1094115800.<android.text.SpannableStringInternal: java.lang.String mText>":[1],"sdaReg112":[16, 8, 15],"sdaReg111":[1],"sdaReg110":[16, 8, 15],"sdaReg109":[1],"sdaReg103":[1, 21],"sdaReg104":[1],"sdaReg105":[1, 22],"sdaReg170":[34, 1],"sdaReg106":[2],"static.<com.android.internal.util.ArrayUtils: java.lang.Object[] sCache>":[8],"sdaReg86":[8],"sdaReg87":[8],"sdaReg84":[8],"sdaReg85":[8],"sdaReg88":[25, 8],"sdaReg240":[8],"sdaReg94":[1],"sdaReg93":[2],"sdaReg92":[1],"sdaReg91":[0],"sdaReg100":[1],"sdaReg102":[1],"sdaReg101":[1, 20],"sdaReg182":[16, 8, 15],"sdaReg181":[1],"sdaReg95":[17, 1],"sdaReg96":[1],"sdaReg235":[1, 43],"sdaReg184":[16, 8, 15],"sdaReg97":[1, 18],"sdaReg183":[1],"sdaReg98":[1],"sdaReg99":[1, 19],"sdaReg230":[1],"sdaReg234":[1],"sdaReg233":[1, 42],"sdaReg232":[1],"sdaReg231":[1, 41],"sdaReg61":[12],"1084375760.arrayIdx_int:26":[8],"1093485264":[25],"sdaReg169":[1],"1094115800.<android.text.SpannableStringInternal: java.lang.Object[] mSpans>":[1],"sdaReg161":[1],"sdaReg162":[1, 30],"sdaReg163":[1],"sdaReg164":[1, 31],"sdaReg165":[1],"sdaReg166":[1, 32],"sdaReg167":[1],"sdaReg168":[1, 33],"1094302416":[1],"1094656408":[1],"sdaReg54":[1],"sdaReg52":[1],"sdaReg160":[1, 29],"sdaReg51":[1, 2, 3, 11],"sdaReg50":[1],"sdaReg159":[1],"sdaReg158":[1, 28],"1084661656":[16, 8, 15],"sdaReg152":[1, 2, 3, 11],"sdaReg153":[1],"sdaReg150":[0],"sdaReg151":[1],"sdaReg156":[1, 27],"sdaReg49":[0],"sdaReg157":[1],"sdaReg154":[1, 26],"sdaReg155":[1],"sdaReg45":[2],"sdaReg46":[1, 3, 11],"sdaReg41":[1],"sdaReg40":[0],"sdaReg43":[3, 11],"sdaReg42":[2, 3, 11],"1093576184":[8, 9],"1085374624":[8, 15],"sdaReg205":[36],"sdaReg204":[36],"sdaReg203":[16, 8, 15],"sdaReg37":[8],"1084375760":[8],"1094115800.<android.text.SpannableStringInternal: int mSpanCount>":[1],"sdaReg209":[16, 8, 15],"sdaReg208":[8, 15],"sdaReg207":[36],"sdaReg206":[36],"sdaReg32":[8],"sdaReg36":[8],"sdaReg35":[8],"sdaReg34":[8],"sdaReg33":[8],"1096026320":[0],"sdaReg5":[1],"sdaReg137":[25],"sdaReg136":[25],"sdaReg134":[25],"sdaReg27":[7],"sdaReg135":[25],"sdaReg26":[7],"sdaReg29":[8, 9, 10],"sdaReg132":[25],"sdaReg28":[8, 9],"sdaReg133":[25],"sdaReg3":[1],"sdaReg2":[2, 3],"sdaReg1":[3],"sdaReg0":[2],"1094302416.arrayIdx_int:0":[1],"1094302416.arrayIdx_int:1":[1],"sdaReg22":[6],"sdaReg25":[7],"1093920728":[1],"sdaReg24":[7]},"colorToColor":{"34":[0],"1":[0, 25],"32":[0],"33":[0],"39":[0],"42":[0],"8":[36],"43":[0],"40":[0],"41":[0],"15":[36],"17":[0],"16":[36],"19":[0],"18":[0],"21":[0],"20":[0],"27":[0],"26":[0],"29":[0],"28":[0],"31":[0],"30":[0]},"colorToLabel":{"0":"arg#0","1":"arg#1","2":"arg#2","3":"arg#3","8":"<com.android.internal.util.ArrayUtils: java.lang.Object[] sCache>","44":"return"}}}

Generated Model
	arg#1->arg#0

