Scanning method <android.text.Html: void withinDiv(java.lang.StringBuilder,android.text.Spanned,int,int)>

All seen event types: StoreArrayRecord, SimpleAssignmentRecord, MethodStartRecord, LoadInstanceRecord, IfRecord, LoadStaticRecord, BinaryOperationRecord, MethodCallRecord, MethodReturnRecord, CastRecord, ArrayLengthRecord, LoadArrayRecord, MethodEndRecord, 
Ignored event types: IfRecord, 

JSON Encoded Analysis Data (for visualization):{"heapEdges":[{"step":0,"from":"1094086736","to":"1094086736.<android.text.SpannableStringInternal: int mSpanCount>","type":"load","field":"<android.text.SpannableStringInternal: int mSpanCount>"},{"step":1,"from":"1094086736","to":"1094211840","type":"load","field":"<android.text.SpannableStringInternal: java.lang.Object[] mSpans>"},{"step":2,"from":"1094086736","to":"1094211864","type":"load","field":"<android.text.SpannableStringInternal: int[] mSpanData>"},{"step":3,"from":"1094211864","to":"1094211864.arrayIdx_int:0","type":"load","field":"arrayIdx_int:0"},{"step":4,"from":"1094211864","to":"1094211864.arrayIdx_int:1","type":"load","field":"arrayIdx_int:1"},{"step":5,"from":"1094086736","to":"1094086736.<android.text.SpannableStringInternal: int mSpanCount>","type":"load","field":"<android.text.SpannableStringInternal: int mSpanCount>"},{"step":6,"from":"1094086736","to":"1094211840","type":"load","field":"<android.text.SpannableStringInternal: java.lang.Object[] mSpans>"},{"step":7,"from":"1094086736","to":"1094211864","type":"load","field":"<android.text.SpannableStringInternal: int[] mSpanData>"},{"step":8,"from":"1094211840","to":"1093730616","type":"load","field":"arrayIdx_int:0"},{"step":9,"from":"1094211864","to":"1094211864.arrayIdx_int:0","type":"load","field":"arrayIdx_int:0"},{"step":10,"from":"1094211864","to":"1094211864.arrayIdx_int:1","type":"load","field":"arrayIdx_int:1"},{"step":11,"from":"1094211840","to":"1093730616","type":"load","field":"arrayIdx_int:0"},{"step":12,"from":"1093730616","to":"1093494800","type":"store","field":"arrayIdx_int:0"},{"step":13,"from":"1094086736","to":"1094086736.<android.text.SpannableStringInternal: java.lang.String mText>","type":"load","field":"<android.text.SpannableStringInternal: java.lang.String mText>"},{"step":14,"from":"1094086736.<android.text.SpannableStringInternal: java.lang.String mText>","to":"sdaReg41","type":"model"},{"step":15,"from":"1094086736","to":"1094086736.<android.text.SpannableStringInternal: java.lang.String mText>","type":"load","field":"<android.text.SpannableStringInternal: java.lang.String mText>"},{"step":16,"from":"1094086736.<android.text.SpannableStringInternal: java.lang.String mText>","to":"sdaReg43","type":"model"},{"step":17,"from":"1094086736","to":"1094086736.<android.text.SpannableStringInternal: int mSpanCount>","type":"load","field":"<android.text.SpannableStringInternal: int mSpanCount>"},{"step":18,"from":"1094086736","to":"1094211840","type":"load","field":"<android.text.SpannableStringInternal: java.lang.Object[] mSpans>"},{"step":19,"from":"1094086736","to":"1094211864","type":"load","field":"<android.text.SpannableStringInternal: int[] mSpanData>"},{"step":20,"from":"1094211864","to":"1094211864.arrayIdx_int:0","type":"load","field":"arrayIdx_int:0"},{"step":21,"from":"1094211864","to":"1094211864.arrayIdx_int:1","type":"load","field":"arrayIdx_int:1"},{"step":22,"from":"1094086736","to":"1094086736.<android.text.SpannableStringInternal: int mSpanCount>","type":"load","field":"<android.text.SpannableStringInternal: int mSpanCount>"},{"step":23,"from":"1094086736","to":"1094211840","type":"load","field":"<android.text.SpannableStringInternal: java.lang.Object[] mSpans>"},{"step":24,"from":"1094086736","to":"1094211864","type":"load","field":"<android.text.SpannableStringInternal: int[] mSpanData>"},{"step":25,"from":"1094211840","to":"1093730616","type":"load","field":"arrayIdx_int:0"},{"step":26,"from":"1084661656","to":"sdaReg70","type":"model"},{"step":27,"from":"static.<com.android.internal.util.ArrayUtils: java.lang.Object[] sCache>","to":"1084375760","type":"load","field":"<com.android.internal.util.ArrayUtils: java.lang.Object[] sCache>"},{"step":28,"from":"1084375760","to":"1093765448","type":"load","field":"arrayIdx_int:26"},{"step":29,"from":"1093765448","to":"1085374624","type":"model"},{"step":30,"from":"1085374624","to":"1084661656","type":"model"},{"step":31,"from":"1094086736","to":"1094086736.<android.text.SpannableStringInternal: java.lang.String mText>","type":"load","field":"<android.text.SpannableStringInternal: java.lang.String mText>"},{"step":32,"from":"1094086736.<android.text.SpannableStringInternal: java.lang.String mText>","to":"sdaReg89","type":"model"},{"step":33,"from":"sdaReg89","to":"1093946728","type":"model"},{"step":34,"from":"1094086736","to":"1094086736.<android.text.SpannableStringInternal: java.lang.String mText>","type":"load","field":"<android.text.SpannableStringInternal: java.lang.String mText>"},{"step":35,"from":"1094086736.<android.text.SpannableStringInternal: java.lang.String mText>","to":"sdaReg91","type":"model"},{"step":36,"from":"sdaReg91","to":"1093946728","type":"model"},{"step":37,"from":"1094086736","to":"1094086736.<android.text.SpannableStringInternal: java.lang.String mText>","type":"load","field":"<android.text.SpannableStringInternal: java.lang.String mText>"},{"step":38,"from":"1094086736.<android.text.SpannableStringInternal: java.lang.String mText>","to":"sdaReg93","type":"model"},{"step":39,"from":"sdaReg93","to":"1093946728","type":"model"},{"step":40,"from":"1094086736","to":"1094086736.<android.text.SpannableStringInternal: java.lang.String mText>","type":"load","field":"<android.text.SpannableStringInternal: java.lang.String mText>"},{"step":41,"from":"1094086736.<android.text.SpannableStringInternal: java.lang.String mText>","to":"sdaReg95","type":"model"},{"step":42,"from":"sdaReg95","to":"1093946728","type":"model"},{"step":43,"from":"1094086736","to":"1094086736.<android.text.SpannableStringInternal: java.lang.String mText>","type":"load","field":"<android.text.SpannableStringInternal: java.lang.String mText>"},{"step":44,"from":"1094086736.<android.text.SpannableStringInternal: java.lang.String mText>","to":"sdaReg97","type":"model"},{"step":45,"from":"sdaReg97","to":"1093946728","type":"model"},{"step":46,"from":"sdaReg101","to":"1093946728","type":"model"}],"parameters":[{"id":"1093946728","name":"arg#0","klass":"java.lang.StringBuilder"},{"id":"1094086736","name":"arg#1","klass":"android.text.Spanned"},{"id":"sdaReg0","name":"arg#2","klass":"int"},{"id":"sdaReg1","name":"arg#3","klass":"int"}],"returns":[{"id":null,"name":"return","klass":null}],"colors":{"heapLocToColor":{"sdaReg60":[1],"sdaReg68":[9],"1093730616":[1],"sdaReg62":[1],"sdaReg72":[10],"1094211864.arrayIdx_int:0":[1],"sdaReg14":[1],"1094211864.arrayIdx_int:1":[1],"sdaReg71":[10],"sdaReg70":[10],"sdaReg12":[1],"1093494800":[5],"sdaReg53":[1],"1094211840":[1],"sdaReg51":[1],"sdaReg50":[2, 6],"sdaReg78":[11],"sdaReg79":[11],"sdaReg73":[10],"sdaReg74":[11, 12],"sdaReg75":[11, 12, 13],"1084661656":[11, 12, 13],"1093765448":[11],"sdaReg81":[11],"sdaReg80":[11],"sdaReg82":[11],"sdaReg49":[1],"sdaReg48":[0],"sdaReg45":[6],"sdaReg44":[2],"sdaReg41":[1, 7],"sdaReg40":[1],"sdaReg43":[1, 8],"sdaReg42":[1],"sdaReg86":[1],"static.<com.android.internal.util.ArrayUtils: java.lang.Object[] sCache>":[11],"sdaReg87":[2],"sdaReg85":[0],"1094086736":[1],"1085374624":[11, 12],"sdaReg88":[1],"sdaReg89":[1, 14],"sdaReg90":[1],"sdaReg38":[6],"1084375760":[11],"sdaReg37":[2, 6],"sdaReg94":[1],"sdaReg93":[1, 16],"sdaReg92":[1],"sdaReg91":[1, 15],"1094211864":[1],"sdaReg32":[5],"sdaReg31":[5],"sdaReg102":[5],"sdaReg30":[5],"1093946728":[0],"sdaReg36":[1],"sdaReg35":[0],"1094211840.arrayIdx_int:0":[1],"sdaReg5":[1],"sdaReg95":[17, 1],"sdaReg96":[1],"sdaReg97":[1, 18],"1094086736.<android.text.SpannableStringInternal: int[] mSpanData>":[1],"sdaReg27":[5],"sdaReg26":[5],"sdaReg29":[5],"1094086736.<android.text.SpannableStringInternal: java.lang.Object[] mSpans>":[1],"sdaReg28":[5],"sdaReg3":[1],"sdaReg2":[2, 3],"1094086736.<android.text.SpannableStringInternal: java.lang.String mText>":[1],"sdaReg1":[3],"sdaReg20":[4],"sdaReg0":[2],"1094086736.<android.text.SpannableStringInternal: int mSpanCount>":[1],"sdaReg25":[5]},"colorToColor":{"17":[0],"16":[0],"1":[0, 5],"18":[0],"14":[0],"15":[0]},"colorToLabel":{"0":"arg#0","1":"arg#1","2":"arg#2","3":"arg#3","11":"<com.android.internal.util.ArrayUtils: java.lang.Object[] sCache>","19":"return"}}}

Generated Model
	arg#1->arg#0

