Scanning method <android.os.Bundle: void putAll(android.os.Bundle)>

All seen event types: BinaryOperationRecord, SimpleAssignmentRecord, MethodReturnRecord, MethodCallRecord, ArrayLengthRecord, LoadInstanceRecord, MethodStartRecord, LoadArrayRecord, MethodEndRecord, IfRecord, StoreInstanceRecord, NewObjectRecord, 
Ignored event types: IfRecord, 

JSON Encoded Analysis Data (for visualization):{"heapEdges":[{"step":0,"from":"1093502312","to":"1093502352","type":"load","field":"<android.os.Bundle: java.util.Map mMap>"},{"step":1,"from":"1093502216","to":"1093502256","type":"load","field":"<android.os.Bundle: java.util.Map mMap>"},{"step":2,"from":"1093502256","to":"1093502256.<java.util.HashMap: int size>","type":"load","field":"<java.util.HashMap: int size>"},{"step":3,"from":"1093502352","to":"1093960312","type":"load","field":"<java.util.HashMap: java.util.HashMap$HashMapEntry[] table>"},{"step":4,"from":"1093502256","to":"1093512552","type":"store","field":"<java.util.HashMap$EntrySet: java.util.HashMap this$0>"},{"step":5,"from":"1093502256","to":"1093512552","type":"create","field":"<java.util.HashMap: java.util.Set entrySet>"},{"step":6,"from":"1093502256","to":"1093515976","type":"store","field":"<java.util.HashMap$EntryIterator: java.util.HashMap this$0>"},{"step":7,"from":"1093502256","to":"1093515976","type":"store","field":"<java.util.HashMap$HashIterator: java.util.HashMap this$0>"},{"step":8,"from":"1093502256","to":"1093502256.<java.util.HashMap: int modCount>","type":"load","field":"<java.util.HashMap: int modCount>"},{"step":9,"from":"1093502256.<java.util.HashMap: int modCount>","to":"1093515976","type":"store","field":"<java.util.HashMap$HashIterator: int expectedModCount>"},{"step":10,"from":"1093502256","to":"1083997920","type":"load","field":"<java.util.HashMap: java.util.HashMap$HashMapEntry[] table>"},{"step":11,"from":"1093515976","to":"1093515976.<java.util.HashMap$HashIterator: int nextIndex>","type":"load","field":"<java.util.HashMap$HashIterator: int nextIndex>"},{"step":12,"from":"1093515976","to":"1093515976.<java.util.HashMap$HashIterator: int nextIndex>","type":"load","field":"<java.util.HashMap$HashIterator: int nextIndex>"},{"step":13,"from":"sdaReg50","to":"1093515976","type":"store","field":"<java.util.HashMap$HashIterator: int nextIndex>"},{"step":14,"from":"sdaReg50","to":"1093515976","type":"store","field":"<java.util.HashMap$HashIterator: int nextIndex>"},{"step":15,"from":"1093502312","to":"1093502312.<android.os.Bundle: boolean mHasFds>","type":"load","field":"<android.os.Bundle: boolean mHasFds>"},{"step":16,"from":"1093502216","to":"1093502216.<android.os.Bundle: boolean mHasFds>","type":"load","field":"<android.os.Bundle: boolean mHasFds>"},{"step":17,"from":"sdaReg60","to":"1093502312","type":"store","field":"<android.os.Bundle: boolean mHasFds>"},{"step":18,"from":"1093502312","to":"1093502312.<android.os.Bundle: boolean mFdsKnown>","type":"load","field":"<android.os.Bundle: boolean mFdsKnown>"},{"step":19,"from":"1093502216","to":"1093502216.<android.os.Bundle: boolean mFdsKnown>","type":"load","field":"<android.os.Bundle: boolean mFdsKnown>"},{"step":20,"from":"sdaReg61","to":"1093502312","type":"store","field":"<android.os.Bundle: boolean mFdsKnown>"}],"parameters":[{"id":"1093502312","name":"this","klass":"android.os.Bundle"},{"id":"1093502216","name":"arg#1","klass":"android.os.Bundle"}],"returns":[{"id":null,"name":"return","klass":null}],"colors":{"heapLocToColor":{"sdaReg60":[0, 1],"1093515976":[3],"1093502312.<android.os.Bundle: boolean mFdsKnown>":[0],"sdaReg13":[1],"sdaReg14":[1],"1093502216.<android.os.Bundle: boolean mHasFds>":[1],"sdaReg11":[1],"sdaReg12":[1],"sdaReg10":[1],"1093960312":[0],"sdaReg58":[3],"sdaReg57":[3],"sdaReg56":[3],"1083997920":[1],"sdaReg19":[1],"sdaReg55":[3],"sdaReg54":[3],"sdaReg17":[1],"sdaReg53":[3],"sdaReg18":[1],"sdaReg15":[1],"sdaReg16":[1],"sdaReg50":[3],"1093502256":[1],"1093502352":[0],"1093502216":[1],"sdaReg45":[3],"sdaReg44":[1],"sdaReg47":[3],"sdaReg46":[1],"sdaReg41":[3],"sdaReg40":[1],"1093515976.<java.util.HashMap$HashIterator: int nextIndex>":[3],"sdaReg43":[3],"sdaReg42":[1],"1093502256.<java.util.HashMap: int size>":[1],"sdaReg39":[2],"sdaReg38":[2],"sdaReg37":[2],"1093502312.<android.os.Bundle: boolean mHasFds>":[0],"sdaReg32":[2],"1093502312":[0],"sdaReg31":[2],"sdaReg30":[2],"sdaReg36":[2],"sdaReg35":[2],"sdaReg34":[2],"sdaReg33":[2],"sdaReg8":[1],"sdaReg9":[1],"sdaReg6":[1],"sdaReg7":[1],"sdaReg4":[1],"sdaReg5":[0],"1093502256.<java.util.HashMap: int modCount>":[1],"sdaReg27":[1],"sdaReg26":[2],"sdaReg29":[1],"sdaReg28":[2],"sdaReg3":[1],"sdaReg2":[0],"sdaReg1":[1],"sdaReg21":[1],"1093502216.<android.os.Bundle: boolean mFdsKnown>":[1],"sdaReg0":[0],"sdaReg20":[1],"sdaReg23":[0],"sdaReg25":[1],"1093512552":[2],"sdaReg24":[1]},"colorToColor":{"0":[0],"1":[0, 2, 3],"2":[1],"3":[3]},"colorToLabel":{"0":"this","1":"arg#1","4":"return"}}}

Generated Model
	arg#1->this

