Scanning method <java.util.Vector: java.lang.Object get(int)>

All seen event types: MethodReturnRecord, MethodCallRecord, LoadInstanceRecord, MethodStartRecord, LoadArrayRecord, MethodEndRecord, IfRecord, 
Ignored event types: IfRecord, 

JSON Encoded Analysis Data (for visualization):{"heapEdges":[{"step":0,"from":"1093368616","to":"1093368616.<java.util.Vector: int elementCount>","type":"load","field":"<java.util.Vector: int elementCount>"},{"step":1,"from":"1093368616","to":"1096262136","type":"load","field":"<java.util.Vector: java.lang.Object[] elementData>"},{"step":2,"from":"1096262136","to":"1093425016","type":"load","field":"arrayIdx_int:61"}],"parameters":[{"id":"1093368616","name":"this","klass":"java.util.Vector"},{"id":"sdaReg0","name":"arg#1","klass":"int"}],"returns":[{"id":"1093425016","name":"return","klass":"java.lang.Object"}],"colors":{"heapLocToColor":{"1093425016":[0],"1093368616":[0],"sdaReg2":[0],"sdaReg1":[0],"sdaReg0":[1],"1096262136":[0],"1093368616.<java.util.Vector: int elementCount>":[0]},"colorToColor":{"0":[2]},"colorToLabel":{"0":"this","1":"arg#1","2":"return"}}}

Generated Model
	this->return

