Scanning method <java.net.URI: java.net.URI create(java.lang.String)>

All seen event types: LoadStaticRecord, BinaryOperationRecord, SimpleAssignmentRecord, MethodReturnRecord, MethodCallRecord, LoadInstanceRecord, MethodStartRecord, MethodEndRecord, IfRecord, StoreInstanceRecord, NewObjectRecord, 
Ignored event types: IfRecord, 

JSON Encoded Analysis Data (for visualization):{"heapEdges":[{"step":0,"from":"1093523936","to":"sdaReg3","type":"create","field":"<java.net.URI: int port>"},{"step":1,"from":"1093523936","to":"sdaReg4","type":"create","field":"<java.net.URI: boolean serverAuthority>"},{"step":2,"from":"1093523936","to":"sdaReg5","type":"create","field":"<java.net.URI: int hash>"},{"step":3,"from":"sdaReg0","to":"1093523936","type":"store","field":"<java.net.URI: java.lang.String string>"},{"step":4,"from":"sdaReg0","to":"sdaReg12","type":"model"},{"step":5,"from":"sdaReg0","to":"sdaReg14","type":"model"},{"step":6,"from":"sdaReg0","to":"sdaReg16","type":"model"},{"step":7,"from":"sdaReg0","to":"sdaReg18","type":"model"},{"step":8,"from":"sdaReg0","to":"sdaReg20","type":"model"},{"step":9,"from":"sdaReg0","to":"sdaReg22","type":"model"},{"step":10,"from":"static.<java.net.URI: libcore.net.UriCodec ALL_LEGAL_ENCODER>","to":"1085538000","type":"load","field":"<java.net.URI: libcore.net.UriCodec ALL_LEGAL_ENCODER>"},{"step":11,"from":"sdaReg0","to":"sdaReg30","type":"model"},{"step":12,"from":"sdaReg0","to":"sdaReg31","type":"model"},{"step":13,"from":"sdaReg31","to":"1093523936","type":"store","field":"<java.net.URI: java.lang.String fragment>"},{"step":14,"from":"sdaReg0","to":"sdaReg35","type":"model"},{"step":15,"from":"sdaReg0","to":"sdaReg37","type":"model"},{"step":16,"from":"sdaReg0","to":"sdaReg39","type":"model"},{"step":17,"from":"sdaReg0","to":"sdaReg41","type":"model"},{"step":18,"from":"sdaReg0","to":"sdaReg43","type":"model"},{"step":19,"from":"sdaReg0","to":"sdaReg48","type":"model"},{"step":20,"from":"sdaReg0","to":"sdaReg50","type":"model"},{"step":21,"from":"sdaReg0","to":"sdaReg52","type":"model"},{"step":22,"from":"sdaReg0","to":"sdaReg54","type":"model"},{"step":23,"from":"1093523936","to":"sdaReg56","type":"create","field":"<java.net.URI: boolean absolute>"},{"step":24,"from":"1093523936","to":"sdaReg58","type":"create","field":"<java.net.URI: boolean opaque>"},{"step":25,"from":"sdaReg0","to":"sdaReg59","type":"model"},{"step":26,"from":"sdaReg59","to":"1093523936","type":"store","field":"<java.net.URI: java.lang.String schemeSpecificPart>"},{"step":27,"from":"sdaReg0","to":"sdaReg64","type":"model"},{"step":28,"from":"sdaReg0","to":"sdaReg66","type":"model"},{"step":29,"from":"sdaReg0","to":"sdaReg68","type":"model"},{"step":30,"from":"sdaReg0","to":"sdaReg70","type":"model"},{"step":31,"from":"static.<java.net.URI: libcore.net.UriCodec PATH_ENCODER>","to":"1085474672","type":"load","field":"<java.net.URI: libcore.net.UriCodec PATH_ENCODER>"},{"step":32,"from":"sdaReg0","to":"sdaReg75","type":"model"},{"step":33,"from":"sdaReg0","to":"sdaReg76","type":"model"},{"step":34,"from":"sdaReg0","to":"sdaReg83","type":"model"},{"step":35,"from":"sdaReg0","to":"sdaReg84","type":"model"},{"step":36,"from":"sdaReg84","to":"1093523936","type":"store","field":"<java.net.URI: java.lang.String path>"},{"step":37,"from":"static.<java.net.URI: libcore.net.UriCodec ALL_LEGAL_ENCODER>","to":"1085538000","type":"load","field":"<java.net.URI: libcore.net.UriCodec ALL_LEGAL_ENCODER>"},{"step":38,"from":"sdaReg0","to":"sdaReg89","type":"model"},{"step":39,"from":"sdaReg0","to":"sdaReg90","type":"model"},{"step":40,"from":"sdaReg90","to":"1093523936","type":"store","field":"<java.net.URI: java.lang.String query>"},{"step":41,"from":"1093523936","to":"1093523936.<java.net.URI: java.lang.String authority>","type":"load","field":"<java.net.URI: java.lang.String authority>"}],"parameters":[{"id":"sdaReg0","name":"arg#0","klass":"string"}],"returns":[{"id":"1093523936","name":"return","klass":"java.net.URI"}],"colors":{"heapLocToColor":{"sdaReg60":[39],"sdaReg68":[0, 44],"sdaReg69":[45],"sdaReg66":[0, 42],"sdaReg67":[43],"sdaReg64":[0, 40],"sdaReg65":[41],"sdaReg72":[48],"sdaReg13":[4],"sdaReg71":[47],"sdaReg14":[0, 5],"sdaReg70":[0, 46],"sdaReg12":[0, 3],"sdaReg59":[0, 38],"sdaReg19":[10],"sdaReg55":[37],"sdaReg17":[8],"sdaReg54":[0, 36],"sdaReg18":[0, 9],"sdaReg53":[35],"sdaReg15":[6],"sdaReg52":[0, 34],"sdaReg16":[0, 7],"sdaReg51":[33],"sdaReg50":[0, 32],"sdaReg77":[48],"sdaReg79":[51],"static.<java.net.URI: libcore.net.UriCodec ALL_LEGAL_ENCODER>":[16],"sdaReg75":[0, 49],"sdaReg76":[0, 50],"sdaReg81":[52],"sdaReg83":[0, 53],"1093523936.<java.net.URI: java.lang.String authority>":[1],"sdaReg49":[31],"sdaReg48":[0, 30],"sdaReg44":[29],"sdaReg41":[0, 26],"sdaReg40":[25],"sdaReg43":[0, 28],"sdaReg42":[27],"sdaReg86":[16],"sdaReg84":[0, 54],"sdaReg89":[0, 55],"sdaReg90":[0, 56],"sdaReg39":[0, 24],"1085474672":[48],"sdaReg38":[23],"sdaReg37":[0, 22],"sdaReg92":[1],"sdaReg91":[1],"1085538000":[16],"sdaReg31":[0, 19],"sdaReg30":[0, 18],"sdaReg36":[21],"sdaReg35":[0, 20],"sdaReg8":[2],"sdaReg6":[1],"1093523936":[1],"sdaReg27":[16],"sdaReg26":[17],"static.<java.net.URI: libcore.net.UriCodec PATH_ENCODER>":[48],"sdaReg2":[1],"sdaReg21":[12],"sdaReg1":[1],"sdaReg20":[0, 11],"sdaReg0":[0],"sdaReg23":[14],"sdaReg22":[0, 13],"sdaReg24":[15]},"colorToColor":{"0":[1],"1":[57],"19":[1],"38":[1],"54":[1],"56":[1]},"colorToLabel":{"0":"arg#0","16":"<java.net.URI: libcore.net.UriCodec ALL_LEGAL_ENCODER>","48":"<java.net.URI: libcore.net.UriCodec PATH_ENCODER>","57":"return"}}}

Generated Model
	arg#0->return

