Scanning method <java.net.URI: java.net.URI create(java.lang.String)>

All seen event types: LoadStaticRecord, BinaryOperationRecord, SimpleAssignmentRecord, MethodReturnRecord, MethodCallRecord, LoadInstanceRecord, MethodStartRecord, MethodEndRecord, IfRecord, StoreInstanceRecord, NewObjectRecord, 
Ignored event types: IfRecord, 

JSON Encoded Analysis Data (for visualization):{"heapEdges":[{"step":0,"from":"1094050968","to":"sdaReg3","type":"create","field":"<java.net.URI: int port>"},{"step":1,"from":"1094050968","to":"sdaReg4","type":"create","field":"<java.net.URI: boolean serverAuthority>"},{"step":2,"from":"1094050968","to":"sdaReg5","type":"create","field":"<java.net.URI: int hash>"},{"step":3,"from":"sdaReg0","to":"1094050968","type":"store","field":"<java.net.URI: java.lang.String string>"},{"step":4,"from":"sdaReg0","to":"sdaReg12","type":"model"},{"step":5,"from":"sdaReg0","to":"sdaReg14","type":"model"},{"step":6,"from":"sdaReg0","to":"sdaReg20","type":"model"},{"step":7,"from":"sdaReg0","to":"sdaReg22","type":"model"},{"step":8,"from":"sdaReg0","to":"sdaReg27","type":"model"},{"step":9,"from":"sdaReg0","to":"sdaReg29","type":"model"},{"step":10,"from":"1094050968","to":"sdaReg31","type":"create","field":"<java.net.URI: boolean absolute>"},{"step":11,"from":"1094050968","to":"sdaReg33","type":"create","field":"<java.net.URI: boolean opaque>"},{"step":12,"from":"sdaReg0","to":"sdaReg34","type":"model"},{"step":13,"from":"sdaReg34","to":"1094050968","type":"store","field":"<java.net.URI: java.lang.String schemeSpecificPart>"},{"step":14,"from":"sdaReg0","to":"sdaReg39","type":"model"},{"step":15,"from":"sdaReg0","to":"sdaReg41","type":"model"},{"step":16,"from":"static.<java.net.URI: libcore.net.UriCodec PATH_ENCODER>","to":"1085474672","type":"load","field":"<java.net.URI: libcore.net.UriCodec PATH_ENCODER>"},{"step":17,"from":"sdaReg0","to":"sdaReg46","type":"model"},{"step":18,"from":"sdaReg0","to":"sdaReg51","type":"model"},{"step":19,"from":"1085474672","to":"1085474672.<java.net.URI$PartEncoder: java.lang.String extraLegalCharacters>","type":"load","field":"<java.net.URI$PartEncoder: java.lang.String extraLegalCharacters>"},{"step":20,"from":"sdaReg0","to":"sdaReg59","type":"model"},{"step":21,"from":"sdaReg59","to":"1094050968","type":"store","field":"<java.net.URI: java.lang.String path>"},{"step":22,"from":"1094050968","to":"1094050968.<java.net.URI: java.lang.String authority>","type":"load","field":"<java.net.URI: java.lang.String authority>"}],"parameters":[{"id":"sdaReg0","name":"arg#0","klass":"string"}],"returns":[{"id":"1094050968","name":"return","klass":"java.net.URI"}],"colors":{"heapLocToColor":{"sdaReg60":[1],"sdaReg61":[1],"sdaReg13":[4],"sdaReg14":[0, 5],"sdaReg39":[0, 18],"1085474672":[22],"sdaReg12":[0, 3],"sdaReg59":[0, 29],"sdaReg57":[28],"sdaReg56":[27],"sdaReg30":[15],"sdaReg54":[26],"sdaReg35":[17],"sdaReg52":[22],"sdaReg15":[6],"sdaReg34":[0, 16],"1094050968.<java.net.URI: java.lang.String authority>":[1],"sdaReg51":[0, 25],"sdaReg16":[7],"sdaReg8":[2],"sdaReg6":[1],"1085474672.<java.net.URI$PartEncoder: java.lang.String extraLegalCharacters>":[22],"sdaReg27":[0, 12],"1094050968":[1],"sdaReg29":[0, 14],"static.<java.net.URI: libcore.net.UriCodec PATH_ENCODER>":[22],"sdaReg28":[13],"sdaReg49":[24],"sdaReg2":[1],"sdaReg47":[22],"sdaReg21":[9],"sdaReg1":[1],"sdaReg46":[0, 23],"sdaReg20":[0, 8],"sdaReg0":[0],"sdaReg23":[11],"sdaReg41":[0, 20],"sdaReg22":[0, 10],"sdaReg40":[19],"sdaReg43":[22],"sdaReg42":[21]},"colorToColor":{"0":[1],"1":[30],"16":[1],"29":[1]},"colorToLabel":{"0":"arg#0","22":"<java.net.URI: libcore.net.UriCodec PATH_ENCODER>","30":"return"}}}

Generated Model
	arg#0->return

