Scanning method <java.net.URI: java.net.URI create(java.lang.String)>

All seen event types: LoadStaticRecord, BinaryOperationRecord, SimpleAssignmentRecord, MethodReturnRecord, MethodCallRecord, LoadInstanceRecord, MethodStartRecord, MethodEndRecord, IfRecord, StoreInstanceRecord, NewObjectRecord, 
Ignored event types: IfRecord, 

JSON Encoded Analysis Data (for visualization):{"heapEdges":[{"step":0,"from":"1097030696","to":"sdaReg3","type":"create","field":"<java.net.URI: int port>"},{"step":1,"from":"1097030696","to":"sdaReg4","type":"create","field":"<java.net.URI: boolean serverAuthority>"},{"step":2,"from":"1097030696","to":"sdaReg5","type":"create","field":"<java.net.URI: int hash>"},{"step":3,"from":"sdaReg0","to":"1097030696","type":"store","field":"<java.net.URI: java.lang.String string>"},{"step":4,"from":"sdaReg0","to":"sdaReg12","type":"model"},{"step":5,"from":"sdaReg0","to":"sdaReg14","type":"model"},{"step":6,"from":"sdaReg0","to":"sdaReg16","type":"model"},{"step":7,"from":"sdaReg0","to":"sdaReg18","type":"model"},{"step":8,"from":"sdaReg0","to":"sdaReg24","type":"model"},{"step":9,"from":"sdaReg0","to":"sdaReg26","type":"model"},{"step":10,"from":"sdaReg0","to":"sdaReg28","type":"model"},{"step":11,"from":"sdaReg0","to":"sdaReg30","type":"model"},{"step":12,"from":"sdaReg0","to":"sdaReg35","type":"model"},{"step":13,"from":"sdaReg0","to":"sdaReg37","type":"model"},{"step":14,"from":"sdaReg0","to":"sdaReg39","type":"model"},{"step":15,"from":"1097030696","to":"sdaReg41","type":"create","field":"<java.net.URI: boolean absolute>"},{"step":16,"from":"1097030696","to":"sdaReg43","type":"create","field":"<java.net.URI: boolean opaque>"},{"step":17,"from":"sdaReg0","to":"sdaReg44","type":"model"},{"step":18,"from":"sdaReg44","to":"1097030696","type":"store","field":"<java.net.URI: java.lang.String schemeSpecificPart>"},{"step":19,"from":"sdaReg0","to":"sdaReg49","type":"model"},{"step":20,"from":"sdaReg0","to":"sdaReg51","type":"model"},{"step":21,"from":"sdaReg0","to":"sdaReg53","type":"model"},{"step":22,"from":"sdaReg0","to":"sdaReg55","type":"model"},{"step":23,"from":"static.<java.net.URI: libcore.net.UriCodec PATH_ENCODER>","to":"1085474672","type":"load","field":"<java.net.URI: libcore.net.UriCodec PATH_ENCODER>"},{"step":24,"from":"sdaReg0","to":"sdaReg60","type":"model"},{"step":25,"from":"sdaReg0","to":"sdaReg65","type":"model"},{"step":26,"from":"sdaReg0","to":"sdaReg70","type":"model"},{"step":27,"from":"1085474672","to":"1085474672.<java.net.URI$PartEncoder: java.lang.String extraLegalCharacters>","type":"load","field":"<java.net.URI$PartEncoder: java.lang.String extraLegalCharacters>"},{"step":28,"from":"sdaReg0","to":"sdaReg78","type":"model"},{"step":29,"from":"sdaReg0","to":"sdaReg79","type":"model"},{"step":30,"from":"sdaReg79","to":"1097030696","type":"store","field":"<java.net.URI: java.lang.String path>"},{"step":31,"from":"1097030696","to":"1097030696.<java.net.URI: java.lang.String authority>","type":"load","field":"<java.net.URI: java.lang.String authority>"}],"parameters":[{"id":"sdaReg0","name":"arg#0","klass":"string"}],"returns":[{"id":"1097030696","name":"return","klass":"java.net.URI"}],"colors":{"heapLocToColor":{"sdaReg60":[0, 37],"sdaReg61":[36],"sdaReg68":[40],"sdaReg66":[36],"sdaReg65":[0, 39],"sdaReg63":[38],"sdaReg13":[4],"sdaReg71":[36],"sdaReg14":[0, 5],"sdaReg70":[0, 41],"sdaReg12":[0, 3],"sdaReg57":[36],"sdaReg19":[10],"sdaReg56":[35],"sdaReg55":[0, 34],"sdaReg17":[8],"sdaReg54":[33],"sdaReg18":[0, 9],"sdaReg53":[0, 32],"sdaReg15":[6],"sdaReg52":[31],"sdaReg16":[0, 7],"sdaReg51":[0, 30],"sdaReg50":[29],"sdaReg78":[0, 45],"sdaReg79":[0, 46],"sdaReg73":[42],"sdaReg75":[43],"sdaReg76":[44],"sdaReg81":[1],"sdaReg80":[1],"sdaReg49":[0, 28],"sdaReg45":[27],"sdaReg44":[0, 26],"sdaReg40":[25],"1097030696.<java.net.URI: java.lang.String authority>":[1],"sdaReg39":[0, 24],"sdaReg38":[23],"1085474672":[36],"sdaReg37":[0, 22],"sdaReg31":[19],"sdaReg30":[0, 18],"1097030696":[1],"sdaReg36":[21],"sdaReg35":[0, 20],"sdaReg8":[2],"sdaReg6":[1],"1085474672.<java.net.URI$PartEncoder: java.lang.String extraLegalCharacters>":[36],"sdaReg27":[15],"sdaReg26":[0, 14],"sdaReg29":[17],"sdaReg28":[0, 16],"static.<java.net.URI: libcore.net.UriCodec PATH_ENCODER>":[36],"sdaReg2":[1],"sdaReg1":[1],"sdaReg20":[11],"sdaReg0":[0],"sdaReg25":[13],"sdaReg24":[0, 12]},"colorToColor":{"0":[1],"1":[47],"26":[1],"46":[1]},"colorToLabel":{"0":"arg#0","36":"<java.net.URI: libcore.net.UriCodec PATH_ENCODER>","47":"return"}}}

Generated Model
	arg#0->return

