Scanning method <java.net.URI: java.net.URI create(java.lang.String)>

All seen event types: LoadStaticRecord, BinaryOperationRecord, SimpleAssignmentRecord, MethodReturnRecord, MethodCallRecord, MethodStartRecord, MethodEndRecord, IfRecord, StoreInstanceRecord, NewObjectRecord, 
Ignored event types: IfRecord, 

JSON Encoded Analysis Data (for visualization):{"heapEdges":[{"step":0,"from":"1093517176","to":"sdaReg3","type":"create","field":"<java.net.URI: int port>"},{"step":1,"from":"1093517176","to":"sdaReg4","type":"create","field":"<java.net.URI: boolean serverAuthority>"},{"step":2,"from":"1093517176","to":"sdaReg5","type":"create","field":"<java.net.URI: int hash>"},{"step":3,"from":"sdaReg0","to":"1093517176","type":"store","field":"<java.net.URI: java.lang.String string>"},{"step":4,"from":"sdaReg0","to":"sdaReg12","type":"model"},{"step":5,"from":"sdaReg0","to":"sdaReg14","type":"model"},{"step":6,"from":"sdaReg0","to":"sdaReg16","type":"model"},{"step":7,"from":"sdaReg0","to":"sdaReg18","type":"model"},{"step":8,"from":"sdaReg0","to":"sdaReg20","type":"model"},{"step":9,"from":"sdaReg0","to":"sdaReg22","type":"model"},{"step":10,"from":"sdaReg0","to":"sdaReg28","type":"model"},{"step":11,"from":"sdaReg0","to":"sdaReg30","type":"model"},{"step":12,"from":"sdaReg0","to":"sdaReg32","type":"model"},{"step":13,"from":"sdaReg0","to":"sdaReg34","type":"model"},{"step":14,"from":"sdaReg0","to":"sdaReg36","type":"model"},{"step":15,"from":"sdaReg0","to":"sdaReg41","type":"model"},{"step":16,"from":"sdaReg0","to":"sdaReg43","type":"model"},{"step":17,"from":"sdaReg0","to":"sdaReg45","type":"model"},{"step":18,"from":"sdaReg0","to":"sdaReg47","type":"model"},{"step":19,"from":"sdaReg0","to":"sdaReg49","type":"model"},{"step":20,"from":"sdaReg0","to":"sdaReg51","type":"model"},{"step":21,"from":"1093517176","to":"sdaReg53","type":"create","field":"<java.net.URI: boolean absolute>"},{"step":22,"from":"sdaReg0","to":"sdaReg56","type":"model"},{"step":23,"from":"sdaReg0","to":"sdaReg58","type":"model"},{"step":24,"from":"sdaReg0","to":"sdaReg60","type":"model"},{"step":25,"from":"sdaReg0","to":"sdaReg62","type":"model"},{"step":26,"from":"sdaReg0","to":"sdaReg64","type":"model"},{"step":27,"from":"sdaReg64","to":"1093517176","type":"store","field":"<java.net.URI: java.lang.String scheme>"},{"step":28,"from":"1093517176","to":"sdaReg67","type":"create","field":"<java.net.URI: boolean opaque>"},{"step":29,"from":"static.<java.net.URI: libcore.net.UriCodec ALL_LEGAL_ENCODER>","to":"1085538000","type":"load","field":"<java.net.URI: libcore.net.UriCodec ALL_LEGAL_ENCODER>"},{"step":30,"from":"sdaReg0","to":"sdaReg71","type":"model"},{"step":31,"from":"sdaReg0","to":"sdaReg72","type":"model"},{"step":32,"from":"sdaReg72","to":"1093517176","type":"store","field":"<java.net.URI: java.lang.String schemeSpecificPart>"}],"parameters":[{"id":"sdaReg0","name":"arg#0","klass":"string"}],"returns":[{"id":"1093517176","name":"return","klass":"java.net.URI"}],"colors":{"heapLocToColor":{"sdaReg60":[0, 40],"sdaReg68":[44],"sdaReg66":[43],"sdaReg64":[0, 42],"sdaReg62":[0, 41],"sdaReg72":[0, 46],"sdaReg13":[4],"sdaReg71":[0, 45],"sdaReg14":[0, 5],"sdaReg12":[0, 3],"sdaReg58":[0, 39],"sdaReg19":[10],"sdaReg56":[0, 38],"sdaReg17":[8],"sdaReg54":[1],"sdaReg18":[0, 9],"sdaReg15":[6],"sdaReg52":[37],"sdaReg16":[0, 7],"sdaReg51":[0, 36],"sdaReg50":[35],"sdaReg73":[1],"static.<java.net.URI: libcore.net.UriCodec ALL_LEGAL_ENCODER>":[44],"1093517176":[1],"sdaReg49":[0, 34],"sdaReg48":[33],"sdaReg45":[0, 30],"sdaReg44":[29],"sdaReg47":[0, 32],"sdaReg46":[31],"sdaReg41":[0, 26],"sdaReg43":[0, 28],"sdaReg42":[27],"sdaReg37":[25],"1085538000":[44],"sdaReg32":[0, 20],"sdaReg31":[19],"sdaReg30":[0, 18],"sdaReg36":[0, 24],"sdaReg35":[23],"sdaReg34":[0, 22],"sdaReg33":[21],"sdaReg8":[2],"sdaReg6":[1],"sdaReg29":[17],"sdaReg28":[0, 16],"sdaReg2":[1],"sdaReg21":[12],"sdaReg1":[1],"sdaReg20":[0, 11],"sdaReg0":[0],"sdaReg23":[14],"sdaReg22":[0, 13],"sdaReg24":[15]},"colorToColor":{"0":[1],"1":[47],"42":[1],"46":[1]},"colorToLabel":{"0":"arg#0","44":"<java.net.URI: libcore.net.UriCodec ALL_LEGAL_ENCODER>","47":"return"}}}

Generated Model
	arg#0->return

