Scanning method <java.net.URI: java.net.URI create(java.lang.String)>

All seen event types: LoadStaticRecord, BinaryOperationRecord, SimpleAssignmentRecord, MethodReturnRecord, MethodCallRecord, LoadInstanceRecord, MethodStartRecord, MethodEndRecord, IfRecord, StoreInstanceRecord, NewObjectRecord, 
Ignored event types: IfRecord, 

JSON Encoded Analysis Data (for visualization):{"heapEdges":[{"step":0,"from":"1093833576","to":"sdaReg3","type":"create","field":"<java.net.URI: int port>"},{"step":1,"from":"1093833576","to":"sdaReg4","type":"create","field":"<java.net.URI: boolean serverAuthority>"},{"step":2,"from":"1093833576","to":"sdaReg5","type":"create","field":"<java.net.URI: int hash>"},{"step":3,"from":"sdaReg0","to":"1093833576","type":"store","field":"<java.net.URI: java.lang.String string>"},{"step":4,"from":"sdaReg0","to":"sdaReg12","type":"model"},{"step":5,"from":"sdaReg0","to":"sdaReg14","type":"model"},{"step":6,"from":"sdaReg0","to":"sdaReg16","type":"model"},{"step":7,"from":"sdaReg0","to":"sdaReg22","type":"model"},{"step":8,"from":"sdaReg0","to":"sdaReg24","type":"model"},{"step":9,"from":"sdaReg0","to":"sdaReg26","type":"model"},{"step":10,"from":"sdaReg0","to":"sdaReg31","type":"model"},{"step":11,"from":"sdaReg0","to":"sdaReg33","type":"model"},{"step":12,"from":"sdaReg0","to":"sdaReg35","type":"model"},{"step":13,"from":"1093833576","to":"sdaReg37","type":"create","field":"<java.net.URI: boolean absolute>"},{"step":14,"from":"1093833576","to":"sdaReg39","type":"create","field":"<java.net.URI: boolean opaque>"},{"step":15,"from":"sdaReg0","to":"sdaReg40","type":"model"},{"step":16,"from":"sdaReg40","to":"1093833576","type":"store","field":"<java.net.URI: java.lang.String schemeSpecificPart>"},{"step":17,"from":"sdaReg0","to":"sdaReg45","type":"model"},{"step":18,"from":"sdaReg0","to":"sdaReg47","type":"model"},{"step":19,"from":"sdaReg0","to":"sdaReg49","type":"model"},{"step":20,"from":"static.<java.net.URI: libcore.net.UriCodec PATH_ENCODER>","to":"1085474672","type":"load","field":"<java.net.URI: libcore.net.UriCodec PATH_ENCODER>"},{"step":21,"from":"sdaReg0","to":"sdaReg54","type":"model"},{"step":22,"from":"sdaReg0","to":"sdaReg59","type":"model"},{"step":23,"from":"sdaReg0","to":"sdaReg64","type":"model"},{"step":24,"from":"sdaReg0","to":"sdaReg65","type":"model"},{"step":25,"from":"sdaReg65","to":"1093833576","type":"store","field":"<java.net.URI: java.lang.String path>"},{"step":26,"from":"1093833576","to":"1093833576.<java.net.URI: java.lang.String authority>","type":"load","field":"<java.net.URI: java.lang.String authority>"}],"parameters":[{"id":"sdaReg0","name":"arg#0","klass":"string"}],"returns":[{"id":"1093833576","name":"return","klass":"java.net.URI"}],"colors":{"heapLocToColor":{"sdaReg60":[30],"sdaReg66":[1],"sdaReg67":[1],"sdaReg64":[0, 35],"sdaReg65":[0, 36],"sdaReg62":[34],"sdaReg13":[4],"sdaReg14":[0, 5],"1093833576.<java.net.URI: java.lang.String authority>":[1],"1085474672":[30],"sdaReg12":[0, 3],"sdaReg59":[0, 33],"sdaReg32":[17],"sdaReg57":[32],"sdaReg31":[0, 16],"sdaReg55":[30],"sdaReg54":[0, 31],"sdaReg17":[8],"sdaReg36":[21],"sdaReg18":[9],"sdaReg35":[0, 20],"sdaReg15":[6],"sdaReg34":[19],"sdaReg51":[30],"sdaReg16":[0, 7],"sdaReg33":[0, 18],"sdaReg8":[2],"sdaReg50":[29],"sdaReg6":[1],"1093833576":[1],"sdaReg27":[15],"sdaReg26":[0, 14],"static.<java.net.URI: libcore.net.UriCodec PATH_ENCODER>":[30],"sdaReg49":[0, 28],"sdaReg48":[27],"sdaReg45":[0, 24],"sdaReg2":[1],"sdaReg47":[0, 26],"sdaReg1":[1],"sdaReg46":[25],"sdaReg0":[0],"sdaReg41":[23],"sdaReg23":[11],"sdaReg40":[0, 22],"sdaReg22":[0, 10],"sdaReg25":[13],"sdaReg24":[0, 12]},"colorToColor":{"0":[1],"1":[37],"36":[1],"22":[1]},"colorToLabel":{"0":"arg#0","30":"<java.net.URI: libcore.net.UriCodec PATH_ENCODER>","37":"return"}}}

Generated Model
	arg#0->return

