Scanning method <android.util.Base64: byte[] encode(byte[],int)>

All seen event types: StoreArrayRecord, SimpleAssignmentRecord, MethodStartRecord, LoadInstanceRecord, IfRecord, NewObjectRecord, StoreInstanceRecord, LoadStaticRecord, NewArrayRecord, BinaryOperationRecord, MethodCallRecord, MethodReturnRecord, SwitchRecord, ArrayLengthRecord, LoadArrayRecord, MethodEndRecord, 
Ignored event types: SwitchRecord, IfRecord, 

JSON Encoded Analysis Data (for visualization):{"heapEdges":[{"step":0,"from":"1093757552","to":"sdaReg0","type":"model"},{"step":1,"from":"sdaReg0","to":"1093757552","type":"model"},{"step":2,"from":"sdaReg0","to":"1093757552","type":"model"},{"step":3,"from":"1093757552","to":"1093757552.<android.util.Base64$Encoder: boolean do_padding>","type":"load","field":"<android.util.Base64$Encoder: boolean do_padding>"},{"step":4,"from":"1093757552","to":"1093757552.<android.util.Base64$Encoder: boolean do_newline>","type":"load","field":"<android.util.Base64$Encoder: boolean do_newline>"},{"step":5,"from":"1093757552","to":"1094022688","type":"create","field":"<android.util.Base64$Coder: byte[] output>"},{"step":6,"from":"1093757552","to":"1093792872","type":"load","field":"<android.util.Base64$Encoder: byte[] alphabet>"},{"step":7,"from":"1093757552","to":"1093757552.<android.util.Base64$Encoder: int count>","type":"load","field":"<android.util.Base64$Encoder: int count>"},{"step":8,"from":"1093757552","to":"1093757552.<android.util.Base64$Encoder: int tailLen>","type":"load","field":"<android.util.Base64$Encoder: int tailLen>"},{"step":9,"from":"1093757552","to":"1093757552.<android.util.Base64$Encoder: int tailLen>","type":"load","field":"<android.util.Base64$Encoder: int tailLen>"},{"step":10,"from":"1093757552","to":"1093757552.<android.util.Base64$Encoder: int tailLen>","type":"load","field":"<android.util.Base64$Encoder: int tailLen>"},{"step":11,"from":"1093656728","to":"1093656728.arrayIdx_int:0","type":"load","field":"arrayIdx_int:0"},{"step":12,"from":"1093757552","to":"1093757552.<android.util.Base64$Encoder: int tailLen>","type":"load","field":"<android.util.Base64$Encoder: int tailLen>"},{"step":13,"from":"sdaReg23","to":"1093757552","type":"store","field":"<android.util.Base64$Encoder: int tailLen>"},{"step":14,"from":"1093792872","to":"1093792872.arrayIdx_int:24","type":"load","field":"arrayIdx_int:24"},{"step":15,"from":"1093792872.arrayIdx_int:24","to":"1094022688","type":"store","field":"arrayIdx_int:0"},{"step":16,"from":"1093792872","to":"1093792872.arrayIdx_int:16","type":"load","field":"arrayIdx_int:16"},{"step":17,"from":"1093792872.arrayIdx_int:16","to":"1094022688","type":"store","field":"arrayIdx_int:1"},{"step":18,"from":"1093757552","to":"1093757552.<android.util.Base64$Encoder: boolean do_padding>","type":"load","field":"<android.util.Base64$Encoder: boolean do_padding>"},{"step":19,"from":"1093757552","to":"1093757552.<android.util.Base64$Encoder: boolean do_newline>","type":"load","field":"<android.util.Base64$Encoder: boolean do_newline>"},{"step":20,"from":"static.<android.util.Base64$Encoder: boolean $assertionsDisabled>","to":"static.<android.util.Base64$Encoder: boolean $assertionsDisabled>","type":"load","field":"<android.util.Base64$Encoder: boolean $assertionsDisabled>"},{"step":21,"from":"static.<android.util.Base64$Encoder: boolean $assertionsDisabled>","to":"static.<android.util.Base64$Encoder: boolean $assertionsDisabled>","type":"load","field":"<android.util.Base64$Encoder: boolean $assertionsDisabled>"},{"step":22,"from":"sdaReg12","to":"1093757552","type":"store","field":"<android.util.Base64$Coder: int op>"},{"step":23,"from":"1093757552.<android.util.Base64$Encoder: int count>","to":"1093757552","type":"store","field":"<android.util.Base64$Encoder: int count>"},{"step":24,"from":"static.<android.util.Base64: boolean $assertionsDisabled>","to":"static.<android.util.Base64: boolean $assertionsDisabled>","type":"load","field":"<android.util.Base64: boolean $assertionsDisabled>"}],"parameters":[{"id":"1093656728","name":"arg#0","klass":"byte[]"},{"id":"sdaReg0","name":"arg#1","klass":"int"}],"returns":[{"id":"1094022688","name":"return","klass":"byte[]"}],"colors":{"heapLocToColor":{"1093792872.arrayIdx_int:24":[2],"1093757552.<android.util.Base64$Encoder: boolean do_newline>":[2],"1093757552.<android.util.Base64$Encoder: int tailLen>":[2],"1093757552.<android.util.Base64$Encoder: boolean do_padding>":[2],"1093757552.<android.util.Base64$Encoder: int count>":[2],"sdaReg10":[0],"static.<android.util.Base64: boolean $assertionsDisabled>":[5],"sdaReg17":[2],"1093792872":[2],"1094022688":[3],"static.<android.util.Base64$Encoder: boolean $assertionsDisabled>":[4],"sdaReg9":[2],"1093757552":[2],"1093656728.arrayIdx_int:0":[0],"sdaReg4":[2],"sdaReg5":[2],"1093656728":[0],"1093792872.arrayIdx_int:16":[2],"sdaReg27":[0],"sdaReg26":[0],"sdaReg29":[3],"sdaReg2":[0],"sdaReg21":[0],"sdaReg0":[1, 2],"sdaReg23":[2],"sdaReg22":[0],"sdaReg25":[0]},"colorToColor":{"1":[2],"2":[2, 3],"3":[2, 6]},"colorToLabel":{"0":"arg#0","1":"arg#1","4":"<android.util.Base64$Encoder: boolean $assertionsDisabled>","5":"<android.util.Base64: boolean $assertionsDisabled>","6":"return"}}}

Generated Model
	arg#1->return

