Scanning method <java.io.ObjectInputStream: int read()>

All seen event types: BinaryOperationRecord, SimpleAssignmentRecord, SwitchRecord, MethodReturnRecord, MethodCallRecord, CastRecord, LoadInstanceRecord, MethodStartRecord, MethodEndRecord, IfRecord, StoreInstanceRecord, 
Ignored event types: SwitchRecord, IfRecord, 

JSON Encoded Analysis Data (for visualization):{"heapEdges":[{"step":0,"from":"1093516800","to":"1093628424","type":"load","field":"<java.io.ObjectInputStream: java.io.InputStream primitiveData>"},{"step":1,"from":"1093516800","to":"1093516712","type":"load","field":"<java.io.ObjectInputStream: java.io.DataInputStream input>"},{"step":2,"from":"1093516800","to":"1093628424","type":"load","field":"<java.io.ObjectInputStream: java.io.InputStream primitiveData>"},{"step":3,"from":"1093628424","to":"1093628424.<java.io.ByteArrayInputStream: int count>","type":"load","field":"<java.io.ByteArrayInputStream: int count>"},{"step":4,"from":"1093628424","to":"1093628424.<java.io.ByteArrayInputStream: int pos>","type":"load","field":"<java.io.ByteArrayInputStream: int pos>"},{"step":5,"from":"1093516800","to":"1093516800.<java.io.ObjectInputStream: boolean hasPushbackTC>","type":"load","field":"<java.io.ObjectInputStream: boolean hasPushbackTC>"},{"step":6,"from":"1093516800","to":"1093516712","type":"load","field":"<java.io.ObjectInputStream: java.io.DataInputStream input>"},{"step":7,"from":"1093516712","to":"1093517000","type":"load","field":"<java.io.FilterInputStream: java.io.InputStream in>"},{"step":8,"from":"1093517000","to":"1093517000.<java.io.ByteArrayInputStream: int pos>","type":"load","field":"<java.io.ByteArrayInputStream: int pos>"},{"step":9,"from":"1093517000","to":"1093517000.<java.io.ByteArrayInputStream: int count>","type":"load","field":"<java.io.ByteArrayInputStream: int count>"},{"step":10,"from":"sdaReg7","to":"1093516800","type":"store","field":"<java.io.ObjectInputStream: byte pushbackTC>"},{"step":11,"from":"1093516800","to":"1093628424","type":"load","field":"<java.io.ObjectInputStream: java.io.InputStream primitiveData>"},{"step":12,"from":"1093628424","to":"1093628424.<java.io.ByteArrayInputStream: int pos>","type":"load","field":"<java.io.ByteArrayInputStream: int pos>"},{"step":13,"from":"1093628424","to":"1093628424.<java.io.ByteArrayInputStream: int count>","type":"load","field":"<java.io.ByteArrayInputStream: int count>"}],"parameters":[{"id":"1093516800","name":"this","klass":"java.io.ObjectInputStream"}],"returns":[{"id":"sdaReg9","name":"return","klass":"int"}],"colors":{"heapLocToColor":{"sdaReg8":[0],"1093516712":[0],"1093517000.<java.io.ByteArrayInputStream: int pos>":[0],"sdaReg4":[0],"sdaReg5":[0],"1093628424.<java.io.ByteArrayInputStream: int count>":[0],"1093628424":[0],"1093516800":[0],"1093516800.<java.io.ObjectInputStream: java.io.DataInputStream input>":[0],"1093628424.<java.io.ByteArrayInputStream: int pos>":[0],"sdaReg2":[0],"sdaReg1":[0],"sdaReg0":[0],"1093516800.<java.io.ObjectInputStream: boolean hasPushbackTC>":[0],"1093517000":[0],"1093516800.<java.io.ObjectInputStream: java.io.InputStream primitiveData>":[0],"1093517000.<java.io.ByteArrayInputStream: int count>":[0]},"colorToColor":{},"colorToLabel":{"0":"this","1":"return"}}}

Generated Model

