Scanning method <java.io.FileOutputStream: void write(int)>

All seen event types: NewArrayRecord, StoreArrayRecord, MethodReturnRecord, MethodCallRecord, LoadInstanceRecord, MethodStartRecord, CastRecord, MethodEndRecord, 
Ignored event types: 

JSON Encoded Analysis Data (for visualization):{"heapEdges":[{"step":0,"from":"sdaReg1","to":"1093323552","type":"store","field":"arrayIdx_int:0"},{"step":1,"from":"1093424536","to":"1093274304","type":"load","field":"<java.io.FileOutputStream: java.io.FileDescriptor fd>"},{"step":2,"from":"1093274304","to":"1093323552","type":"model"},{"step":3,"from":"1093274304","to":"sdaReg4","type":"model"},{"step":4,"from":"1093274304","to":"sdaReg5","type":"model"},{"step":5,"from":"1093323552","to":"1093274304","type":"model"},{"step":6,"from":"1093323552","to":"sdaReg4","type":"model"},{"step":7,"from":"1093323552","to":"sdaReg5","type":"model"},{"step":8,"from":"sdaReg4","to":"1093274304","type":"model"},{"step":9,"from":"sdaReg4","to":"1093323552","type":"model"},{"step":10,"from":"sdaReg4","to":"sdaReg5","type":"model"},{"step":11,"from":"sdaReg5","to":"1093274304","type":"model"},{"step":12,"from":"sdaReg5","to":"1093323552","type":"model"},{"step":13,"from":"sdaReg5","to":"sdaReg4","type":"model"}],"parameters":[{"id":"1093424536","name":"this","klass":"java.io.FileOutputStream"},{"id":"sdaReg0","name":"arg#1","klass":"int"}],"returns":[{"id":null,"name":"return","klass":null}],"colors":{"heapLocToColor":{"1093424536":[0],"1093274304":[0],"1093323552":[2],"sdaReg3":[2],"sdaReg2":[0],"sdaReg1":[1],"sdaReg0":[1]},"colorToColor":{"0":[2],"1":[2],"2":[0]},"colorToLabel":{"0":"this","1":"arg#1","3":"return"}}}

Generated Model
	arg#1->this

